timer_stats,696860315010638,PAPI_L3_TCM,168,  0.08636475,  0.00897217,end
timer_stats,696860316164185,PAPI_L3_TCM,25,  0.21923828,  0.02182007,end
timer_stats,696860317311382,PAPI_L3_TCM,4,  0.35705566,  0.03634644,end
timer_stats,696860318493058,PAPI_L3_TCM,3,  0.44537353,  0.04634094,end
timer_stats,696860319668524,PAPI_L3_TCM,3,  0.54248047,  0.05700683,end
timer_stats,696860321014126,PAPI_L3_TCM,32,  0.63763428,  0.06643677,end
timer_stats,696860322167993,PAPI_L3_TCM,12,  0.82965088,  0.08798218,end
timer_stats,696860323354695,PAPI_L3_TCM,1,  0.92645264,  0.09819031,end
timer_stats,696860324519010,PAPI_L3_TCM,2,  1.01599121,  0.10874939,end
timer_stats,696860325700205,PAPI_L3_TCM,0,  1.10833740,  0.11973572,end
timer_stats,696860326859093,PAPI_L3_TCM,0,  1.22039795,  0.13050842,end
timer_stats,696860328031392,PAPI_L3_TCM,5,  1.30084228,  0.14108276,end
timer_stats,696860329197230,PAPI_L3_TCM,5,  1.43170166,  0.15762329,end
timer_stats,696860330357122,PAPI_L3_TCM,6,  1.57348633,  0.17419434,end
timer_stats,696860331492472,PAPI_L3_TCM,0,  1.66943359,  0.18490601,end
timer_stats,696860332628215,PAPI_L3_TCM,15,  1.78674316,  0.19857788,end
timer_stats,696860333946239,PAPI_L3_TCM,11,  1.89617920,  0.21313476,end
timer_stats,696860335060401,PAPI_L3_TCM,7,  2.01470947,  0.22772217,end
timer_stats,696860336173106,PAPI_L3_TCM,10,  2.19134521,  0.24705505,end
timer_stats,696860337275943,PAPI_L3_TCM,15,  2.37139892,  0.26812744,end
timer_stats,696860339131736,PAPI_L3_TCM,24,  2.51330566,  0.27896118,end
timer_stats,696860340240875,PAPI_L3_TCM,2,  2.67065430,  0.29704285,end
timer_stats,696860341344713,PAPI_L3_TCM,1,  2.88116455,  0.31735229,end
timer_stats,696860342444622,PAPI_L3_TCM,0,  3.05578613,  0.32359314,end
timer_stats,696860343544672,PAPI_L3_TCM,0,  3.17767334,  0.34259033,end
timer_stats,696860344646016,PAPI_L3_TCM,3,  3.34747314,  0.35778808,end
timer_stats,696860345742285,PAPI_L3_TCM,1,  3.52154541,  0.36962891,end
timer_stats,696860346843456,PAPI_L3_TCM,6,  3.67376709,  0.38221741,end
timer_stats,696860347930413,PAPI_L3_TCM,0,  3.88525390,  0.39624023,end
timer_stats,696860349019925,PAPI_L3_TCM,5,  4.08941650,  0.41104126,end
timer_stats,696860350105727,PAPI_L3_TCM,3,  4.29058838,  0.42564392,end
timer_stats,696860351191237,PAPI_L3_TCM,0,  4.62188721,  0.44641113,end
timer_stats,696860352270887,PAPI_L3_TCM,4,  4.91418457,  0.46745300,end
timer_stats,696860353353543,PAPI_L3_TCM,6,  5.00445556,  0.47410583,end
timer_stats,696860354436637,PAPI_L3_TCM,5,  5.29083252,  0.49343872,end
timer_stats,696860358246057,PAPI_L3_TCM,42,  5.87597656,  0.54170227,end
timer_stats,696860359343618,PAPI_L3_TCM,5,  6.14062500,  0.56243896,end
timer_stats,696860360432922,PAPI_L3_TCM,10,  6.35943603,  0.57641601,end
timer_stats,696860361516027,PAPI_L3_TCM,2,  6.59326172,  0.59127807,end
timer_stats,696860362601175,PAPI_L3_TCM,4,  6.80615234,  0.60527038,end
timer_stats,696860363686973,PAPI_L3_TCM,2,  7.03717041,  0.61970520,end
timer_stats,696860364773324,PAPI_L3_TCM,6,  7.25628662,  0.63537597,end
timer_stats,696860365859745,PAPI_L3_TCM,0,  7.46130371,  0.64967346,end
timer_stats,696860366944720,PAPI_L3_TCM,4,  7.68347168,  0.66415405,end
timer_stats,696860368027353,PAPI_L3_TCM,4,  7.92724609,  0.67860413,end
timer_stats,696860369117183,PAPI_L3_TCM,6,  8.14306641,  0.69334412,end
timer_stats,696860370202263,PAPI_L3_TCM,3,  8.44799805,  0.71531677,end
timer_stats,696860371286154,PAPI_L3_TCM,8,  8.66906738,  0.72988891,end
timer_stats,696860372370499,PAPI_L3_TCM,6,  8.99407959,  0.75215149,end
timer_stats,696860373454537,PAPI_L3_TCM,2,  9.21850586,  0.76684570,end
timer_stats,696860374537910,PAPI_L3_TCM,0,  9.47259521,  0.78123474,end
timer_stats,696860375621464,PAPI_L3_TCM,9,  9.66625976,  0.79603577,end
timer_stats,696860376705672,PAPI_L3_TCM,7,  9.92419433,  0.81156921,end
timer_stats,696860377791761,PAPI_L3_TCM,9, 10.14160156,  0.82624817,end
timer_stats,696860378875439,PAPI_L3_TCM,3, 10.34014892,  0.84101868,end
timer_stats,696860379957781,PAPI_L3_TCM,4, 10.59112549,  0.85583496,end
timer_stats,696860381042368,PAPI_L3_TCM,4, 10.79547119,  0.87127685,end
timer_stats,696860382125988,PAPI_L3_TCM,3, 11.02319336,  0.88633728,end
timer_stats,696860383208660,PAPI_L3_TCM,2, 11.24761963,  0.90122986,end
timer_stats,696860384291914,PAPI_L3_TCM,6, 11.60394287,  0.92304993,end
timer_stats,696860385381777,PAPI_L3_TCM,7, 11.89550781,  0.94659424,end
timer_stats,696860386466250,PAPI_L3_TCM,5, 12.10882568,  0.95816040,end
timer_stats,696860387550562,PAPI_L3_TCM,0, 12.33325195,  0.97402954,end
timer_stats,696860388634365,PAPI_L3_TCM,5, 12.56121826,  0.98860168,end
timer_stats,696860389717442,PAPI_L3_TCM,2, 12.78118896,  1.00355530,end
timer_stats,696860390801360,PAPI_L3_TCM,4, 13.02087402,  1.01820373,end
timer_stats,696860391885201,PAPI_L3_TCM,9, 13.24096680,  1.03338623,end
timer_stats,696860392973332,PAPI_L3_TCM,6, 13.45654297,  1.04759216,end
timer_stats,696860394240842,PAPI_L3_TCM,5, 13.76287842,  1.06596374,end
timer_stats,696860395329525,PAPI_L3_TCM,6, 13.94488525,  1.07836914,end
timer_stats,696860396462063,PAPI_L3_TCM,4, 14.25854492,  1.09950256,end
timer_stats,696860397552289,PAPI_L3_TCM,2, 14.47546387,  1.11413574,end
timer_stats,696860398636971,PAPI_L3_TCM,5, 14.68920898,  1.12879944,end
timer_stats,696860399729566,PAPI_L3_TCM,5, 14.91589355,  1.14326477,end
timer_stats,696860400810344,PAPI_L3_TCM,3, 15.13287353,  1.16049194,end
timer_stats,696860403917706,PAPI_L3_TCM,36, 15.66931152,  1.19476318,end
timer_stats,696860405004335,PAPI_L3_TCM,4, 15.80761719,  1.21258545,end
timer_stats,696860406088889,PAPI_L3_TCM,3, 16.03723144,  1.22923279,end
timer_stats,696860407172619,PAPI_L3_TCM,3, 16.28765869,  1.24563599,end
timer_stats,696860408255879,PAPI_L3_TCM,3, 16.62585449,  1.26193237,end
timer_stats,696860409340231,PAPI_L3_TCM,4, 16.87036133,  1.28694153,end
timer_stats,696860410424572,PAPI_L3_TCM,6, 17.09771728,  1.30314636,end
timer_stats,696860411509155,PAPI_L3_TCM,8, 17.43835449,  1.32962036,end
timer_stats,696860412595734,PAPI_L3_TCM,7, 17.66943359,  1.34785461,end
timer_stats,696860413679544,PAPI_L3_TCM,7, 17.90686035,  1.36499023,end
timer_stats,696860414763851,PAPI_L3_TCM,6, 18.11407471,  1.38177490,end
timer_stats,696860415847605,PAPI_L3_TCM,4, 18.35913086,  1.39817810,end
timer_stats,696860416931324,PAPI_L3_TCM,11, 18.59106445,  1.41531372,end
timer_stats,696860418017019,PAPI_L3_TCM,3, 18.82714844,  1.43167114,end
timer_stats,696860419100806,PAPI_L3_TCM,3, 19.05438232,  1.44885254,end
timer_stats,696860420183550,PAPI_L3_TCM,6, 19.26177978,  1.46554565,end
timer_stats,696860421267695,PAPI_L3_TCM,4, 19.61718750,  1.48274231,end
timer_stats,696860422351787,PAPI_L3_TCM,6, 19.85803222,  1.50718689,end
timer_stats,696860423436788,PAPI_L3_TCM,3, 20.08966064,  1.52365112,end
timer_stats,696860424519570,PAPI_L3_TCM,4, 20.43402100,  1.54820251,end
timer_stats,696860425601839,PAPI_L3_TCM,3, 20.65893555,  1.56443786,end
timer_stats,696860426685920,PAPI_L3_TCM,5, 20.88488769,  1.58137512,end
timer_stats,696860427770479,PAPI_L3_TCM,11, 21.11895752,  1.59774780,end
timer_stats,696860428854327,PAPI_L3_TCM,4, 21.34790039,  1.61399841,end
timer_stats,696860429938347,PAPI_L3_TCM,10, 21.57897949,  1.63052368,end
timer_stats,696860431022199,PAPI_L3_TCM,5, 21.80578613,  1.64697265,end
timer_stats,696860432115250,PAPI_L3_TCM,9, 22.03723144,  1.66369629,end
timer_stats,696860433198921,PAPI_L3_TCM,3, 22.26837158,  1.68005371,end
timer_stats,696860434282539,PAPI_L3_TCM,4, 22.49987793,  1.69631958,end
timer_stats,696860437350948,PAPI_L3_TCM,283, 23.18450928,  1.74404907,end
timer_stats,696860438442098,PAPI_L3_TCM,123, 23.46630859,  1.76679993,end
timer_stats,696860439524039,PAPI_L3_TCM,1, 23.69598389,  1.78326416,end
timer_stats,696860440604913,PAPI_L3_TCM,8, 23.92547607,  1.79975891,end
timer_stats,696860441685382,PAPI_L3_TCM,0, 24.15917969,  1.81593323,end
timer_stats,696860442766190,PAPI_L3_TCM,2, 24.38604736,  1.83238220,end
timer_stats,696860443846161,PAPI_L3_TCM,2, 24.62152100,  1.84977722,end
timer_stats,696860444927119,PAPI_L3_TCM,4, 24.84027100,  1.86671448,end
timer_stats,696860446009251,PAPI_L3_TCM,9, 25.07971191,  1.88220215,end
timer_stats,696860447090931,PAPI_L3_TCM,13, 25.30249023,  1.89894104,end
timer_stats,696860448169024,PAPI_L3_TCM,29, 25.53094482,  1.91740417,end
timer_stats,696860449239071,PAPI_L3_TCM,20, 25.74945068,  1.93312073,end
timer_stats,696860450308672,PAPI_L3_TCM,2, 26.08502197,  1.95654297,end
timer_stats,696860451387473,PAPI_L3_TCM,7, 26.30804443,  1.97256470,end
timer_stats,696860452466302,PAPI_L3_TCM,10, 26.63110351,  1.99772644,end
timer_stats,696860453537031,PAPI_L3_TCM,9, 26.83789062,  2.01362610,end
timer_stats,696860454608939,PAPI_L3_TCM,3, 27.04949951,  2.02850342,end
timer_stats,696860455675931,PAPI_L3_TCM,1, 27.25158691,  2.04345703,end
timer_stats,696860456762571,PAPI_L3_TCM,1, 27.44134521,  2.05804443,end
timer_stats,696860457833033,PAPI_L3_TCM,4, 27.63800049,  2.07263184,end
timer_stats,696860458919170,PAPI_L3_TCM,1, 27.82067871,  2.08645630,end
timer_stats,696860460011773,PAPI_L3_TCM,2, 28.01745605,  2.10060119,end
timer_stats,696860461108498,PAPI_L3_TCM,25, 28.19763183,  2.11532593,end
timer_stats,696860462192192,PAPI_L3_TCM,32, 28.37591553,  2.12939453,end
timer_stats,696860463266217,PAPI_L3_TCM,4, 28.63189697,  2.14292908,end
timer_stats,696860464338117,PAPI_L3_TCM,4, 28.80017090,  2.16299438,end
timer_stats,696860465467883,PAPI_L3_TCM,0, 29.04327393,  2.18276977,end
timer_stats,696860466573067,PAPI_L3_TCM,2, 29.19305420,  2.19486999,end
timer_stats,696860467697864,PAPI_L3_TCM,2, 29.33673096,  2.20753479,end
timer_stats,696860468814481,PAPI_L3_TCM,4, 29.48773193,  2.22015381,end
timer_stats,696860469942556,PAPI_L3_TCM,2, 29.62487793,  2.23277283,end
timer_stats,696860471078787,PAPI_L3_TCM,8, 29.77581787,  2.24604797,end
timer_stats,696860472179717,PAPI_L3_TCM,1, 29.92504883,  2.25839233,end
timer_stats,696860473294131,PAPI_L3_TCM,2, 30.06799316,  2.27128601,end
timer_stats,696860474429819,PAPI_L3_TCM,0, 30.32556152,  2.29620361,end
timer_stats,696860475565821,PAPI_L3_TCM,3, 30.46246338,  2.30863952,end
timer_stats,696860476692768,PAPI_L3_TCM,0, 30.58984375,  2.32089233,end
timer_stats,696860477828904,PAPI_L3_TCM,2, 30.72381592,  2.33309936,end
timer_stats,696860478966441,PAPI_L3_TCM,0, 30.84436035,  2.34536743,end
timer_stats,696860480059624,PAPI_L3_TCM,0, 30.98022461,  2.35728455,end
timer_stats,696860481181752,PAPI_L3_TCM,0, 31.11022949,  2.36952209,end
timer_stats,696860482328295,PAPI_L3_TCM,1, 31.30419922,  2.38775635,end
timer_stats,696860483474290,PAPI_L3_TCM,0, 31.48370361,  2.40602112,end
timer_stats,696860484597002,PAPI_L3_TCM,2, 31.61596680,  2.41775513,end
timer_stats,696860485741414,PAPI_L3_TCM,1, 31.74035644,  2.43002319,end
timer_stats,696860486893862,PAPI_L3_TCM,2, 31.85858154,  2.44230652,end
timer_stats,696860488060118,PAPI_L3_TCM,1, 31.99310303,  2.45376587,end
timer_stats,696860489188187,PAPI_L3_TCM,3, 32.12200928,  2.46575928,end
timer_stats,696860490340953,PAPI_L3_TCM,1, 32.30279541,  2.48332214,end
timer_stats,696860491490096,PAPI_L3_TCM,1, 32.48889160,  2.50183105,end
timer_stats,696860492633751,PAPI_L3_TCM,2, 32.61785889,  2.51377869,end
timer_stats,696860493787458,PAPI_L3_TCM,2, 32.73443603,  2.52557373,end
timer_stats,696860494942196,PAPI_L3_TCM,1, 32.84930420,  2.53715515,end
timer_stats,696860496068872,PAPI_L3_TCM,5, 32.96313476,  2.54875183,end
timer_stats,696860497198622,PAPI_L3_TCM,0, 33.08605957,  2.56074524,end
timer_stats,696860498377221,PAPI_L3_TCM,1, 33.23840332,  2.57583618,end
timer_stats,696860499550339,PAPI_L3_TCM,1, 33.39569092,  2.59178161,end
timer_stats,696860502782730,PAPI_L3_TCM,13, 33.73077393,  2.61843872,end
timer_stats,696860503899815,PAPI_L3_TCM,3, 33.84600830,  2.62919617,end
timer_stats,696860505024162,PAPI_L3_TCM,6, 33.95971680,  2.64077759,end
timer_stats,696860506170197,PAPI_L3_TCM,0, 34.07220459,  2.65237427,end
timer_stats,696860507320665,PAPI_L3_TCM,2, 34.18218994,  2.66348267,end
timer_stats,696860508466219,PAPI_L3_TCM,2, 34.40917969,  2.68638611,end
timer_stats,696860509619363,PAPI_L3_TCM,0, 34.51373291,  2.69708252,end
timer_stats,696860510776093,PAPI_L3_TCM,0, 34.62835693,  2.70767212,end
timer_stats,696860511937400,PAPI_L3_TCM,0, 34.73406982,  2.71786499,end
timer_stats,696860513091969,PAPI_L3_TCM,1, 34.84875488,  2.72778320,end
timer_stats,696860514235838,PAPI_L3_TCM,2, 34.94781494,  2.73826599,end
timer_stats,696860515393885,PAPI_L3_TCM,0, 35.11621094,  2.75254822,end
timer_stats,696860516549680,PAPI_L3_TCM,3, 35.27496338,  2.76679993,end
timer_stats,696860517704352,PAPI_L3_TCM,0, 35.36614990,  2.77604675,end
timer_stats,696860518861059,PAPI_L3_TCM,1, 35.46978760,  2.78550720,end
timer_stats,696860520023163,PAPI_L3_TCM,0, 35.56982422,  2.79501343,end
timer_stats,696860521179758,PAPI_L3_TCM,1, 35.67340088,  2.80548096,end
timer_stats,696860522335588,PAPI_L3_TCM,0, 35.82000732,  2.82054138,end
timer_stats,696860523493063,PAPI_L3_TCM,2, 35.97021484,  2.83549499,end
timer_stats,696860524648886,PAPI_L3_TCM,1, 36.06719971,  2.84448242,end
timer_stats,696860525779023,PAPI_L3_TCM,2, 36.16180420,  2.85389709,end
timer_stats,696860526908311,PAPI_L3_TCM,0, 36.26293945,  2.86357117,end
timer_stats,696860528072418,PAPI_L3_TCM,3, 36.35400390,  2.87358093,end
timer_stats,696860529228044,PAPI_L3_TCM,0, 36.44610596,  2.88310242,end
timer_stats,696860530386529,PAPI_L3_TCM,0, 36.58123779,  2.89546203,end
timer_stats,696860531541546,PAPI_L3_TCM,0, 36.72290039,  2.90937805,end
timer_stats,696860532697046,PAPI_L3_TCM,3, 36.81439209,  2.91812134,end
timer_stats,696860533851325,PAPI_L3_TCM,0, 36.90875244,  2.92709350,end
timer_stats,696860535005212,PAPI_L3_TCM,2, 36.99932861,  2.93606567,end
timer_stats,696860536160406,PAPI_L3_TCM,0, 37.08868408,  2.94537353,end
timer_stats,696860537316577,PAPI_L3_TCM,1, 37.21417236,  2.95855713,end
timer_stats,696860538474537,PAPI_L3_TCM,0, 37.30462646,  2.96777344,end
timer_stats,696860539638087,PAPI_L3_TCM,0, 37.44409180,  2.98193359,end
timer_stats,696860540795421,PAPI_L3_TCM,0, 37.54016113,  2.99090576,end
timer_stats,696860541950320,PAPI_L3_TCM,2, 37.62414551,  2.99949646,end
timer_stats,696860543117200,PAPI_L3_TCM,0, 37.71765137,  3.00825500,end
timer_stats,696860544244725,PAPI_L3_TCM,2, 37.80938721,  3.01701355,end
timer_stats,696860545422191,PAPI_L3_TCM,5, 37.93536377,  3.03263855,end
timer_stats,696860546579642,PAPI_L3_TCM,3, 38.08416748,  3.04289246,end
timer_stats,696860547735671,PAPI_L3_TCM,0, 38.17260742,  3.05438232,end
timer_stats,696860548891073,PAPI_L3_TCM,6, 38.27313232,  3.06484985,end
timer_stats,696860550046090,PAPI_L3_TCM,4, 38.36120605,  3.07611084,end
