timer_stats,697491237055658,PAPI_L3_TCM,149,  0.07647705,  0.01010132,end
timer_stats,697491238160528,PAPI_L3_TCM,20,  0.19580078,  0.02523804,end
timer_stats,697491239269944,PAPI_L3_TCM,0,  0.30957031,  0.04199219,end
timer_stats,697491240394521,PAPI_L3_TCM,3,  0.37719726,  0.05184936,end
timer_stats,697491241497794,PAPI_L3_TCM,2,  0.45892334,  0.06181335,end
timer_stats,697491242623758,PAPI_L3_TCM,1,  0.53942871,  0.07078552,end
timer_stats,697491243950322,PAPI_L3_TCM,41,  0.61303711,  0.07978821,end
timer_stats,697491245079658,PAPI_L3_TCM,19,  0.69036865,  0.08876038,end
timer_stats,697491246211531,PAPI_L3_TCM,6,  0.80212402,  0.10511780,end
timer_stats,697491247335437,PAPI_L3_TCM,5,  0.91717529,  0.11921692,end
timer_stats,697491248473337,PAPI_L3_TCM,8,  0.98962402,  0.12905884,end
timer_stats,697491249636427,PAPI_L3_TCM,10,  1.07208252,  0.13973999,end
timer_stats,697491250818677,PAPI_L3_TCM,11,  1.14703369,  0.14901733,end
timer_stats,697491252014334,PAPI_L3_TCM,9,  1.21978760,  0.15774536,end
timer_stats,697491253161490,PAPI_L3_TCM,5,  1.33184814,  0.16705322,end
timer_stats,697491254343954,PAPI_L3_TCM,8,  1.44531250,  0.18710327,end
timer_stats,697491255528257,PAPI_L3_TCM,1,  1.52221680,  0.19607544,end
timer_stats,697491256709580,PAPI_L3_TCM,6,  1.59686279,  0.20504761,end
timer_stats,697491257874233,PAPI_L3_TCM,1,  1.67230225,  0.21603394,end
timer_stats,697491259060457,PAPI_L3_TCM,3,  1.75207519,  0.22497559,end
timer_stats,697491260211803,PAPI_L3_TCM,0,  1.82611084,  0.23376465,end
timer_stats,697491261378343,PAPI_L3_TCM,2,  1.98413086,  0.25531006,end
timer_stats,697491262554636,PAPI_L3_TCM,0,  2.06683350,  0.26451111,end
timer_stats,697491263727580,PAPI_L3_TCM,0,  2.14697265,  0.27348328,end
timer_stats,697491264900150,PAPI_L3_TCM,1,  2.23077392,  0.28245544,end
timer_stats,697491266075553,PAPI_L3_TCM,1,  2.31060791,  0.29148865,end
timer_stats,697491267224083,PAPI_L3_TCM,0,  2.43469238,  0.30717468,end
timer_stats,697491268373783,PAPI_L3_TCM,2,  2.56353760,  0.32307434,end
timer_stats,697491269544426,PAPI_L3_TCM,0,  2.65112305,  0.33334350,end
timer_stats,697491270726223,PAPI_L3_TCM,0,  2.73754883,  0.34211731,end
timer_stats,697491271910410,PAPI_L3_TCM,0,  2.81884765,  0.35093689,end
timer_stats,697491273096613,PAPI_L3_TCM,1,  2.89971924,  0.36024475,end
timer_stats,697491274253579,PAPI_L3_TCM,0,  3.02874756,  0.37590027,end
timer_stats,697491275429080,PAPI_L3_TCM,1,  3.15289307,  0.39002991,end
timer_stats,697491276600203,PAPI_L3_TCM,1,  3.23303223,  0.39881897,end
timer_stats,697491277771919,PAPI_L3_TCM,2,  3.32611084,  0.41116333,end
timer_stats,697491278941632,PAPI_L3_TCM,1,  3.41833496,  0.42193603,end
timer_stats,697491280088659,PAPI_L3_TCM,3,  3.50341797,  0.43109131,end
timer_stats,697491281226926,PAPI_L3_TCM,1,  3.63977051,  0.44650268,end
timer_stats,697491282399675,PAPI_L3_TCM,1,  3.77630615,  0.46168518,end
timer_stats,697491283577232,PAPI_L3_TCM,2,  3.86492920,  0.47016907,end
timer_stats,697491284753029,PAPI_L3_TCM,1,  3.94458008,  0.47897339,end
timer_stats,697491285926182,PAPI_L3_TCM,0,  4.02893066,  0.48947144,end
timer_stats,697491287101462,PAPI_L3_TCM,4,  4.10516357,  0.49830627,end
timer_stats,697491288280449,PAPI_L3_TCM,0,  4.25854492,  0.51721191,end
timer_stats,697491289453452,PAPI_L3_TCM,1,  4.34033203,  0.52728271,end
timer_stats,697491290637315,PAPI_L3_TCM,1,  4.41558838,  0.53607178,end
timer_stats,697491291820806,PAPI_L3_TCM,0,  4.49285889,  0.54461670,end
timer_stats,697491293005039,PAPI_L3_TCM,1,  4.56524658,  0.55323791,end
timer_stats,697491294195235,PAPI_L3_TCM,1,  4.64190674,  0.56205749,end
timer_stats,697491295354822,PAPI_L3_TCM,0,  4.79779053,  0.58270264,end
timer_stats,697491296542642,PAPI_L3_TCM,4,  4.87353515,  0.59173584,end
timer_stats,697491297727028,PAPI_L3_TCM,0,  4.95172119,  0.60029602,end
timer_stats,697491298903468,PAPI_L3_TCM,1,  5.03039551,  0.60908508,end
timer_stats,697491300080239,PAPI_L3_TCM,1,  5.10498047,  0.61791992,end
timer_stats,697491301267188,PAPI_L3_TCM,0,  5.21392822,  0.63766479,end
timer_stats,697491302450581,PAPI_L3_TCM,0,  5.33917236,  0.64642334,end
timer_stats,697491303639272,PAPI_L3_TCM,1,  5.41180420,  0.65551758,end
timer_stats,697491304826322,PAPI_L3_TCM,1,  5.49316406,  0.66427612,end
timer_stats,697491306012918,PAPI_L3_TCM,3,  5.57135010,  0.67308044,end
timer_stats,697491307199941,PAPI_L3_TCM,0,  5.68096924,  0.68699646,end
timer_stats,697491308387768,PAPI_L3_TCM,2,  5.80737305,  0.70094299,end
timer_stats,697491309551035,PAPI_L3_TCM,0,  5.88946533,  0.71141052,end
timer_stats,697491310737112,PAPI_L3_TCM,0,  5.96832275,  0.72018432,end
timer_stats,697491311900465,PAPI_L3_TCM,0,  6.04412842,  0.73074341,end
timer_stats,697491313087625,PAPI_L3_TCM,2,  6.12548828,  0.73947144,end
timer_stats,697491314273942,PAPI_L3_TCM,0,  6.23431396,  0.75436401,end
timer_stats,697491315458655,PAPI_L3_TCM,3,  6.36029053,  0.76828003,end
timer_stats,697491316647315,PAPI_L3_TCM,1,  6.43750000,  0.77706909,end
timer_stats,697491317835198,PAPI_L3_TCM,1,  6.51763916,  0.78558350,end
timer_stats,697491319021802,PAPI_L3_TCM,0,  6.59362793,  0.79492187,end
timer_stats,697491320206925,PAPI_L3_TCM,1,  6.67187500,  0.80371094,end
timer_stats,697491321396678,PAPI_L3_TCM,0,  6.83227539,  0.82345581,end
timer_stats,697491322580632,PAPI_L3_TCM,1,  6.90637207,  0.83204651,end
timer_stats,697491323770365,PAPI_L3_TCM,0,  6.98596191,  0.84062195,end
timer_stats,697491324956868,PAPI_L3_TCM,4,  7.06536865,  0.84939575,end
timer_stats,697491326149565,PAPI_L3_TCM,0,  7.14239502,  0.85818481,end
timer_stats,697491327342941,PAPI_L3_TCM,1,  7.29577637,  0.87600708,end
timer_stats,697491328532398,PAPI_L3_TCM,1,  7.37426758,  0.88452148,end
timer_stats,697491329719742,PAPI_L3_TCM,0,  7.44921875,  0.89389038,end
timer_stats,697491330909445,PAPI_L3_TCM,0,  7.52764892,  0.90267944,end
timer_stats,697491332103479,PAPI_L3_TCM,2,  7.60571289,  0.91125488,end
timer_stats,697491333288835,PAPI_L3_TCM,0,  7.76153564,  0.93043518,end
timer_stats,697491334478758,PAPI_L3_TCM,3,  7.84051514,  0.93919372,end
timer_stats,697491335667049,PAPI_L3_TCM,0,  7.91943359,  0.94775391,end
timer_stats,697491336852945,PAPI_L3_TCM,2,  7.99383545,  0.95660400,end
timer_stats,697491338043641,PAPI_L3_TCM,0,  8.07031250,  0.96514893,end
timer_stats,697491339231928,PAPI_L3_TCM,1,  8.14569092,  0.97398376,end
timer_stats,697491340418312,PAPI_L3_TCM,1,  8.30450439,  0.99232483,end
timer_stats,697491341606428,PAPI_L3_TCM,1,  8.37835693,  1.00115967,end
timer_stats,697491342767831,PAPI_L3_TCM,0,  8.45562744,  1.00976562,end
timer_stats,697491343953135,PAPI_L3_TCM,3,  8.53271484,  1.01855469,end
timer_stats,697491345161778,PAPI_L3_TCM,1,  8.61297607,  1.02752685,end
timer_stats,697491346354241,PAPI_L3_TCM,1,  8.76513672,  1.04664612,end
timer_stats,697491347543688,PAPI_L3_TCM,0,  8.84161377,  1.05570984,end
timer_stats,697491348733368,PAPI_L3_TCM,1,  8.91943359,  1.06430054,end
timer_stats,697491349918871,PAPI_L3_TCM,0,  8.99328613,  1.07284546,end
timer_stats,697491351105784,PAPI_L3_TCM,2,  9.07385254,  1.08137512,end
timer_stats,697491352295618,PAPI_L3_TCM,1,  9.17864990,  1.09019470,end
timer_stats,697491353480861,PAPI_L3_TCM,3,  9.30035400,  1.10911560,end
timer_stats,697491354668632,PAPI_L3_TCM,0,  9.37646484,  1.11790466,end
timer_stats,697491355859085,PAPI_L3_TCM,1,  9.45410156,  1.12693786,end
timer_stats,697491357046962,PAPI_L3_TCM,1,  9.52923584,  1.13597107,end
timer_stats,697491358208542,PAPI_L3_TCM,1,  9.60986328,  1.14494324,end
timer_stats,697491359369061,PAPI_L3_TCM,0,  9.76184082,  1.16560364,end
timer_stats,697491360558578,PAPI_L3_TCM,2,  9.84216308,  1.17076111,end
timer_stats,697491361747372,PAPI_L3_TCM,0,  9.91766357,  1.17958069,end
timer_stats,697491362935858,PAPI_L3_TCM,3,  9.99450683,  1.18838501,end
timer_stats,697491364122801,PAPI_L3_TCM,1, 10.07037353,  1.19696045,end
timer_stats,697491365311478,PAPI_L3_TCM,1, 10.17932129,  1.21113586,end
timer_stats,697491366495508,PAPI_L3_TCM,0, 10.29992676,  1.22511291,end
timer_stats,697491367681911,PAPI_L3_TCM,1, 10.37359619,  1.23371887,end
timer_stats,697491368874191,PAPI_L3_TCM,1, 10.45361328,  1.24226379,end
timer_stats,697491370061235,PAPI_L3_TCM,1, 10.52947998,  1.25129700,end
timer_stats,697491371247071,PAPI_L3_TCM,0, 10.63464355,  1.26484680,end
timer_stats,697491372432241,PAPI_L3_TCM,4, 10.75903320,  1.27876282,end
timer_stats,697491373620928,PAPI_L3_TCM,0, 10.83563232,  1.28732300,end
timer_stats,697491374776454,PAPI_L3_TCM,1, 10.91491699,  1.29585266,end
timer_stats,697491375938677,PAPI_L3_TCM,0, 10.98986816,  1.30442810,end
timer_stats,697491377141548,PAPI_L3_TCM,1, 11.06793213,  1.31317139,end
timer_stats,697491378328201,PAPI_L3_TCM,0, 11.17315674,  1.32742310,end
timer_stats,697491379514477,PAPI_L3_TCM,1, 11.29443359,  1.34091187,end
timer_stats,697491380699758,PAPI_L3_TCM,1, 11.37213135,  1.34945679,end
timer_stats,697491381884528,PAPI_L3_TCM,3, 11.44946289,  1.35826111,end
timer_stats,697491383072241,PAPI_L3_TCM,0, 11.52447510,  1.36735535,end
timer_stats,697491384258418,PAPI_L3_TCM,2, 11.63476562,  1.38150024,end
timer_stats,697491385442284,PAPI_L3_TCM,0, 11.75610351,  1.39526367,end
timer_stats,697491386643764,PAPI_L3_TCM,159, 11.83227539,  1.40385437,end
timer_stats,697491387829708,PAPI_L3_TCM,0, 11.90948486,  1.41264343,end
timer_stats,697491388996468,PAPI_L3_TCM,2, 11.98571777,  1.42274475,end
timer_stats,697491390182197,PAPI_L3_TCM,0, 12.06323242,  1.43150329,end
timer_stats,697491391369410,PAPI_L3_TCM,3, 12.17108154,  1.45040893,end
timer_stats,697491392554491,PAPI_L3_TCM,1, 12.29248047,  1.45919800,end
timer_stats,697491393743617,PAPI_L3_TCM,1, 12.36975098,  1.46777344,end
timer_stats,697491394933747,PAPI_L3_TCM,0, 12.44683838,  1.47839355,end
timer_stats,697491396122734,PAPI_L3_TCM,2, 12.53155517,  1.48843384,end
timer_stats,697491397314221,PAPI_L3_TCM,0, 12.65112305,  1.50387573,end
timer_stats,697491398506731,PAPI_L3_TCM,1, 12.77703857,  1.51937866,end
timer_stats,697491399698981,PAPI_L3_TCM,0, 12.86322021,  1.52990723,end
timer_stats,697491400909238,PAPI_L3_TCM,4, 12.94171142,  1.54000854,end
timer_stats,697491402098165,PAPI_L3_TCM,0, 13.02587891,  1.55007935,end
timer_stats,697491403289391,PAPI_L3_TCM,1, 13.14697266,  1.56533813,end
timer_stats,697491404482244,PAPI_L3_TCM,1, 13.27307129,  1.58081055,end
timer_stats,697491405672078,PAPI_L3_TCM,1, 13.35687256,  1.59085083,end
timer_stats,697491406863121,PAPI_L3_TCM,0, 13.43872070,  1.60095215,end
timer_stats,697491408051161,PAPI_L3_TCM,2, 13.52288818,  1.61102295,end
timer_stats,697491409243518,PAPI_L3_TCM,0, 13.60687256,  1.62066650,end
timer_stats,697491410451178,PAPI_L3_TCM,12, 13.77215576,  1.64176941,end
timer_stats,697491411649594,PAPI_L3_TCM,0, 13.86010742,  1.65257263,end
timer_stats,697491412839728,PAPI_L3_TCM,2, 13.95404053,  1.66307068,end
timer_stats,697491414049551,PAPI_L3_TCM,0, 14.03625488,  1.67317200,end
timer_stats,697491415232447,PAPI_L3_TCM,1, 14.11981201,  1.68305969,end
timer_stats,697491416419981,PAPI_L3_TCM,1, 14.29168701,  1.70344543,end
timer_stats,697491417610358,PAPI_L3_TCM,1, 14.37384033,  1.71398926,end
timer_stats,697491418791701,PAPI_L3_TCM,0, 14.46044922,  1.72427368,end
timer_stats,697491419978687,PAPI_L3_TCM,3, 14.54302978,  1.73461914,end
timer_stats,697491421174851,PAPI_L3_TCM,1, 14.63311767,  1.74465942,end
timer_stats,697491422358824,PAPI_L3_TCM,1, 14.75616455,  1.76037598,end
timer_stats,697491423541381,PAPI_L3_TCM,0, 14.88842773,  1.77584839,end
timer_stats,697491424729354,PAPI_L3_TCM,2, 14.97247314,  1.78598022,end
timer_stats,697491425912991,PAPI_L3_TCM,0, 15.05981445,  1.79605102,end
timer_stats,697491427086021,PAPI_L3_TCM,1, 15.14434814,  1.80612182,end
timer_stats,697491428273231,PAPI_L3_TCM,1, 15.23028564,  1.81619263,end
timer_stats,697491429439207,PAPI_L3_TCM,3, 15.39440918,  1.83641052,end
timer_stats,697491430609731,PAPI_L3_TCM,0, 15.48321533,  1.84645080,end
timer_stats,697491431786258,PAPI_L3_TCM,1, 15.56500244,  1.85725403,end
timer_stats,697491432978007,PAPI_L3_TCM,1, 15.65466308,  1.86750793,end
timer_stats,697491434173964,PAPI_L3_TCM,4, 15.73809814,  1.87782287,end
timer_stats,697491435363364,PAPI_L3_TCM,0, 15.86254883,  1.89839172,end
timer_stats,697491436548137,PAPI_L3_TCM,2, 16.00244141,  1.90815735,end
timer_stats,697491437735167,PAPI_L3_TCM,0, 16.08898926,  1.91804504,end
timer_stats,697491438882627,PAPI_L3_TCM,3, 16.17303467,  1.92814636,end
timer_stats,697491440057761,PAPI_L3_TCM,1, 16.25952148,  1.93823242,end
timer_stats,697491441220400,PAPI_L3_TCM,1, 16.35015869,  1.94851684,end
timer_stats,697491442405221,PAPI_L3_TCM,0, 16.47637939,  1.96380615,end
timer_stats,697491443593904,PAPI_L3_TCM,0, 16.61651611,  1.98178100,end
timer_stats,697491444777657,PAPI_L3_TCM,1, 16.70391846,  1.99166870,end
timer_stats,697491445962591,PAPI_L3_TCM,1, 16.79095459,  2.00178528,end
timer_stats,697491447133297,PAPI_L3_TCM,0, 16.88403320,  2.00694275,end
timer_stats,697491448319704,PAPI_L3_TCM,4, 16.97436523,  2.01679992,end
timer_stats,697491449480070,PAPI_L3_TCM,0, 17.15142822,  2.03657532,end
timer_stats,697491450652021,PAPI_L3_TCM,1, 17.24194336,  2.04667663,end
timer_stats,697491451822284,PAPI_L3_TCM,0, 17.33367920,  2.05677795,end
timer_stats,697491453008547,PAPI_L3_TCM,1, 17.42425537,  2.06663513,end
timer_stats,697491454185067,PAPI_L3_TCM,0, 17.52105713,  2.07673645,end
timer_stats,697491455359634,PAPI_L3_TCM,1, 17.65972900,  2.09286499,end
timer_stats,697491456548467,PAPI_L3_TCM,1, 17.80523682,  2.10830688,end
timer_stats,697491457737340,PAPI_L3_TCM,9, 17.90148926,  2.11883545,end
timer_stats,697491458910167,PAPI_L3_TCM,0, 17.99761963,  2.12960815,end
timer_stats,697491460083730,PAPI_L3_TCM,2, 18.08721924,  2.13970947,end
timer_stats,697491461244400,PAPI_L3_TCM,0, 18.18914795,  2.14996338,end
timer_stats,697491462429989,PAPI_L3_TCM,0, 18.33013916,  2.17037964,end
timer_stats,697491463592030,PAPI_L3_TCM,0, 18.47558594,  2.18234253,end
timer_stats,697491464755723,PAPI_L3_TCM,3, 18.57574463,  2.19244385,end
timer_stats,697491465917659,PAPI_L3_TCM,0, 18.67425537,  2.20233154,end
timer_stats,697491467083483,PAPI_L3_TCM,3, 18.77801514,  2.21215820,end
timer_stats,697491468258336,PAPI_L3_TCM,1, 18.87316894,  2.22204590,end
timer_stats,697491469416029,PAPI_L3_TCM,1, 19.01367187,  2.23687744,end
timer_stats,697491470582270,PAPI_L3_TCM,0, 19.17126465,  2.25253296,end
timer_stats,697491471754606,PAPI_L3_TCM,0, 19.26477051,  2.26266479,end
timer_stats,697491472928019,PAPI_L3_TCM,2, 19.36877441,  2.27294922,end
timer_stats,697491474100316,PAPI_L3_TCM,1, 19.47149658,  2.28303528,end
timer_stats,697491475268083,PAPI_L3_TCM,0, 19.56646728,  2.29341125,end
timer_stats,697491476438669,PAPI_L3_TCM,3, 19.71649170,  2.30865478,end
timer_stats,697491477598712,PAPI_L3_TCM,0, 19.87249756,  2.32409668,end
timer_stats,697491478744225,PAPI_L3_TCM,1, 19.97271728,  2.33416748,end
timer_stats,697491479914029,PAPI_L3_TCM,0, 20.07397461,  2.34423828,end
timer_stats,697491481091872,PAPI_L3_TCM,1, 20.17639160,  2.35430908,end
timer_stats,697491482259462,PAPI_L3_TCM,0, 20.26965332,  2.36442566,end
timer_stats,697491483431522,PAPI_L3_TCM,1, 20.47149658,  2.38481140,end
timer_stats,697491484599392,PAPI_L3_TCM,1, 20.57714844,  2.39604187,end
timer_stats,697491485770215,PAPI_L3_TCM,3, 20.67486572,  2.40562439,end
timer_stats,697491486939835,PAPI_L3_TCM,0, 20.77746582,  2.41563415,end
timer_stats,697491488113941,PAPI_L3_TCM,2, 20.87127685,  2.42601013,end
timer_stats,697491489272082,PAPI_L3_TCM,0, 20.97790527,  2.43608093,end
timer_stats,697491490442645,PAPI_L3_TCM,0, 21.12268066,  2.45133972,end
timer_stats,697491491607659,PAPI_L3_TCM,5, 21.28131103,  2.46617126,end
timer_stats,697491492790735,PAPI_L3_TCM,2, 21.38494873,  2.47645569,end
timer_stats,697491493968558,PAPI_L3_TCM,0, 21.48553467,  2.48680115,end
timer_stats,697491495156181,PAPI_L3_TCM,3, 21.59008789,  2.49687195,end
timer_stats,697491496311822,PAPI_L3_TCM,4, 21.69616699,  2.50714111,end
timer_stats,697491497445272,PAPI_L3_TCM,2, 21.84197998,  2.52305603,end
timer_stats,697491498580328,PAPI_L3_TCM,0, 21.99676514,  2.53868103,end
timer_stats,697491499717994,PAPI_L3_TCM,1, 22.09027100,  2.54924011,end
timer_stats,697491500891717,PAPI_L3_TCM,1, 22.19378662,  2.55949402,end
timer_stats,697491502089571,PAPI_L3_TCM,1, 22.29107666,  2.57048035,end
timer_stats,697491503271431,PAPI_L3_TCM,0, 22.39422607,  2.58193970,end
timer_stats,697491504443081,PAPI_L3_TCM,4, 22.53033447,  2.59738159,end
timer_stats,697491505615097,PAPI_L3_TCM,0, 22.67968750,  2.61236572,end
timer_stats,697491506806038,PAPI_L3_TCM,1, 22.77697754,  2.62265015,end
timer_stats,697491507999867,PAPI_L3_TCM,0, 22.86962890,  2.63299560,end
timer_stats,697491509211285,PAPI_L3_TCM,1, 22.95880127,  2.64202881,end
timer_stats,697491510402318,PAPI_L3_TCM,0, 23.08666992,  2.65621948,end
timer_stats,697491511590865,PAPI_L3_TCM,1, 23.23132324,  2.67016601,end
timer_stats,697491512783188,PAPI_L3_TCM,1, 23.32470703,  2.67871094,end
timer_stats,697491513976244,PAPI_L3_TCM,3, 23.41741943,  2.68748474,end
timer_stats,697491515167388,PAPI_L3_TCM,0, 23.50640869,  2.69584656,end
timer_stats,697491516376891,PAPI_L3_TCM,2, 23.59716797,  2.70445251,end
timer_stats,697491517540041,PAPI_L3_TCM,0, 23.77996826,  2.72462463,end
timer_stats,697491518742811,PAPI_L3_TCM,1, 23.86737061,  2.73390198,end
timer_stats,697491519933318,PAPI_L3_TCM,0, 23.95831299,  2.74264526,end
timer_stats,697491521135444,PAPI_L3_TCM,1, 24.04400635,  2.75146484,end
timer_stats,697491526676043,PAPI_L3_TCM,98, 24.54071045,  2.80737305,end
timer_stats,697491527855073,PAPI_L3_TCM,6, 24.62591553,  2.81591797,end
timer_stats,697491529046903,PAPI_L3_TCM,1, 24.71673584,  2.82107544,end
timer_stats,697491530242306,PAPI_L3_TCM,1, 24.80352783,  2.82965088,end
timer_stats,697491531437827,PAPI_L3_TCM,0, 24.91656494,  2.84339905,end
timer_stats,697491532630643,PAPI_L3_TCM,1, 25.04803467,  2.85713196,end
timer_stats,697491533819337,PAPI_L3_TCM,0, 25.12524414,  2.86596680,end
timer_stats,697491535002297,PAPI_L3_TCM,1, 25.20666504,  2.87451172,end
timer_stats,697491536182643,PAPI_L3_TCM,1, 25.28527832,  2.88357544,end
timer_stats,697491537374844,PAPI_L3_TCM,3, 25.36303711,  2.89187622,end
timer_stats,697491538540360,PAPI_L3_TCM,0, 25.47753906,  2.91226196,end
timer_stats,697491539705296,PAPI_L3_TCM,1, 25.60168457,  2.92083740,end
timer_stats,697491540897394,PAPI_L3_TCM,1, 25.68237305,  2.92962646,end
timer_stats,697491542445608,PAPI_L3_TCM,1725, 25.79089355,  2.94750976,end
timer_stats,697491543646764,PAPI_L3_TCM,30, 25.91802978,  2.95629883,end
timer_stats,697491544831158,PAPI_L3_TCM,2, 25.99835205,  2.96484375,end
timer_stats,697491546019751,PAPI_L3_TCM,0, 26.07421875,  2.97344971,end
timer_stats,697491547207944,PAPI_L3_TCM,3, 26.15435791,  2.98223877,end
timer_stats,697491548382494,PAPI_L3_TCM,3, 26.23498535,  2.99200439,end
timer_stats,697491549552264,PAPI_L3_TCM,1, 26.39495850,  3.01193237,end
timer_stats,697491550740931,PAPI_L3_TCM,0, 26.47503662,  3.02046204,end
timer_stats,697491551918090,PAPI_L3_TCM,0, 26.54913330,  3.02906799,end
timer_stats,697491553050490,PAPI_L3_TCM,0, 26.62988281,  3.03912353,end
timer_stats,697491554217441,PAPI_L3_TCM,1, 26.70977783,  3.04812622,end
timer_stats,697491555397984,PAPI_L3_TCM,0, 26.79229736,  3.05816650,end
timer_stats,697491556572154,PAPI_L3_TCM,5, 26.94714355,  3.07769775,end
timer_stats,697491557757791,PAPI_L3_TCM,0, 27.02343750,  3.08630371,end
timer_stats,697491558947974,PAPI_L3_TCM,1, 27.10009766,  3.09490967,end
timer_stats,697491560075270,PAPI_L3_TCM,1, 27.17333984,  3.10375976,end
timer_stats,697491561266961,PAPI_L3_TCM,0, 27.25329590,  3.11251831,end
timer_stats,697491562453920,PAPI_L3_TCM,0, 27.33068847,  3.12130737,end
timer_stats,697491563637123,PAPI_L3_TCM,1, 27.48522949,  3.14172363,end
timer_stats,697491564827481,PAPI_L3_TCM,1, 27.55944824,  3.15055847,end
timer_stats,697491566020914,PAPI_L3_TCM,3, 27.63378906,  3.15937805,end
timer_stats,697491567217660,PAPI_L3_TCM,0, 27.71197510,  3.16816711,end
timer_stats,697491568408997,PAPI_L3_TCM,2, 27.78863525,  3.17669678,end
timer_stats,697491569600404,PAPI_L3_TCM,0, 27.94189453,  3.19709778,end
timer_stats,697491570786000,PAPI_L3_TCM,3, 28.01715088,  3.20570373,end
timer_stats,697491571951910,PAPI_L3_TCM,2, 28.09497070,  3.21449280,end
timer_stats,697491573149864,PAPI_L3_TCM,3, 28.16845703,  3.22306824,end
timer_stats,697491574341607,PAPI_L3_TCM,0, 28.24774170,  3.23158264,end
timer_stats,697491575534416,PAPI_L3_TCM,3, 28.39282226,  3.25027466,end
timer_stats,697491576728117,PAPI_L3_TCM,1, 28.47180176,  3.25901794,end
timer_stats,697491577924820,PAPI_L3_TCM,1, 28.54486084,  3.26783752,end
timer_stats,697491579120621,PAPI_L3_TCM,0, 28.63043213,  3.27629089,end
timer_stats,697491580302930,PAPI_L3_TCM,1, 28.69519043,  3.28514099,end
timer_stats,697491581496750,PAPI_L3_TCM,0, 28.84185791,  3.30381775,end
timer_stats,697491582685617,PAPI_L3_TCM,1, 28.91656494,  3.31262207,end
timer_stats,697491583873600,PAPI_L3_TCM,0, 28.99090576,  3.32119751,end
timer_stats,697491585063923,PAPI_L3_TCM,4, 29.07324219,  3.32992554,end
timer_stats,697491586251401,PAPI_L3_TCM,0, 29.13964844,  3.33879089,end
timer_stats,697491587443780,PAPI_L3_TCM,1, 29.21398926,  3.34754944,end
timer_stats,697491588632540,PAPI_L3_TCM,1, 29.36016846,  3.36802673,end
timer_stats,697491589834977,PAPI_L3_TCM,2, 29.43463135,  3.37684631,end
timer_stats,697491591022980,PAPI_L3_TCM,0, 29.51025391,  3.38539123,end
timer_stats,697491592207017,PAPI_L3_TCM,2, 29.59204101,  3.39411926,end
timer_stats,697491593397157,PAPI_L3_TCM,0, 29.65435791,  3.40301514,end
timer_stats,697491594581230,PAPI_L3_TCM,3, 29.80316162,  3.42295837,end
timer_stats,697491595770533,PAPI_L3_TCM,1, 29.87615967,  3.43176269,end
timer_stats,697491596964146,PAPI_L3_TCM,1, 29.96362305,  3.44046020,end
timer_stats,697491598153057,PAPI_L3_TCM,1, 30.04071045,  3.44924927,end
timer_stats,697491599331100,PAPI_L3_TCM,0, 30.11291504,  3.45783996,end
timer_stats,697491600512936,PAPI_L3_TCM,1, 30.21386719,  3.47265625,end
timer_stats,697491601702927,PAPI_L3_TCM,1, 30.34478760,  3.48629761,end
timer_stats,697491602892983,PAPI_L3_TCM,0, 30.41943359,  3.49510193,end
timer_stats,697491607371976,PAPI_L3_TCM,51, 30.71258545,  3.53138733,end
timer_stats,697491608540533,PAPI_L3_TCM,9, 30.82336426,  3.54524231,end
timer_stats,697491609727376,PAPI_L3_TCM,2, 30.90100098,  3.55401611,end
timer_stats,697491610916426,PAPI_L3_TCM,0, 31.02337646,  3.56796265,end
timer_stats,697491612109566,PAPI_L3_TCM,1, 31.09796143,  3.57681274,end
timer_stats,697491613266499,PAPI_L3_TCM,1, 31.17333984,  3.58535767,end
timer_stats,697491614453183,PAPI_L3_TCM,1, 31.24084472,  3.59378052,end
timer_stats,697491615640836,PAPI_L3_TCM,0, 31.38873291,  3.60903931,end
timer_stats,697491616835266,PAPI_L3_TCM,4, 31.46112061,  3.61784363,end
timer_stats,697491618037836,PAPI_L3_TCM,0, 31.53430176,  3.62663269,end
timer_stats,697491619221999,PAPI_L3_TCM,1, 31.60681152,  3.63542175,end
timer_stats,697491620412769,PAPI_L3_TCM,1, 31.68493652,  3.64396667,end
timer_stats,697491621606036,PAPI_L3_TCM,0, 31.78686523,  3.65895080,end
timer_stats,697491622795819,PAPI_L3_TCM,0, 31.89819336,  3.67297363,end
timer_stats,697491623987000,PAPI_L3_TCM,1, 31.97143555,  3.68153381,end
timer_stats,697491625187370,PAPI_L3_TCM,1, 32.05285644,  3.69004822,end
timer_stats,697491626376716,PAPI_L3_TCM,3, 32.12481689,  3.69886780,end
timer_stats,697491627559953,PAPI_L3_TCM,0, 32.22027588,  3.71783447,end
timer_stats,697491628744023,PAPI_L3_TCM,2, 32.28558349,  3.72148132,end
timer_stats,697491629935203,PAPI_L3_TCM,0, 32.41735840,  3.73487854,end
timer_stats,697491631123422,PAPI_L3_TCM,0, 32.48657226,  3.74369812,end
timer_stats,697491632321106,PAPI_L3_TCM,1, 32.54534912,  3.75239563,end
timer_stats,697491633521569,PAPI_L3_TCM,1, 32.65563965,  3.76600647,end
timer_stats,697491634710989,PAPI_L3_TCM,0, 32.71600342,  3.77488708,end
timer_stats,697491635903983,PAPI_L3_TCM,3, 32.84411621,  3.78852844,end
timer_stats,697491637094256,PAPI_L3_TCM,1, 32.90600586,  3.79692077,end
timer_stats,697491638258222,PAPI_L3_TCM,1, 32.97753906,  3.80702209,end
timer_stats,697491639421242,PAPI_L3_TCM,0, 33.06457519,  3.81697082,end
timer_stats,697491640613919,PAPI_L3_TCM,1, 33.19342041,  3.83575439,end
timer_stats,697491641805476,PAPI_L3_TCM,0, 33.26519775,  3.84408569,end
timer_stats,697491643000809,PAPI_L3_TCM,1, 33.34259033,  3.85285950,end
timer_stats,697491644196056,PAPI_L3_TCM,1, 33.40710449,  3.86216736,end
timer_stats,697491645385852,PAPI_L3_TCM,3, 33.47888184,  3.87251282,end
timer_stats,697491646556766,PAPI_L3_TCM,0, 33.57720947,  3.88777161,end
timer_stats,697491647751239,PAPI_L3_TCM,1, 33.66003418,  3.89625549,end
timer_stats,697491648948746,PAPI_L3_TCM,1, 33.76477051,  3.91011047,end
timer_stats,697491650142766,PAPI_L3_TCM,1, 33.84246826,  3.91865540,end
timer_stats,697491651329409,PAPI_L3_TCM,0, 33.91796875,  3.92713928,end
timer_stats,697491652515712,PAPI_L3_TCM,2, 33.97546387,  3.93605041,end
timer_stats,697491653702056,PAPI_L3_TCM,0, 34.07409668,  3.95104980,end
timer_stats,697491654898096,PAPI_L3_TCM,3, 34.20135498,  3.96424866,end
timer_stats,697491656095869,PAPI_L3_TCM,1, 34.27087402,  3.97308350,end
timer_stats,697491657294333,PAPI_L3_TCM,1, 34.33013916,  3.98196411,end
timer_stats,697491658481709,PAPI_L3_TCM,0, 34.40863037,  3.99069214,end
timer_stats,697491659672112,PAPI_L3_TCM,0, 34.50286865,  4.00596619,end
timer_stats,697491660864903,PAPI_L3_TCM,1, 34.62658691,  4.01983643,end
timer_stats,697491662049279,PAPI_L3_TCM,1, 34.69329834,  4.02865601,end
timer_stats,697491663231652,PAPI_L3_TCM,0, 34.76348877,  4.03744507,end
timer_stats,697491664415542,PAPI_L3_TCM,3, 34.82635498,  4.04632568,end
timer_stats,697491665598216,PAPI_L3_TCM,0, 34.92620849,  4.06022644,end
timer_stats,697491666781772,PAPI_L3_TCM,1, 35.00073242,  4.06900024,end
timer_stats,697491667966263,PAPI_L3_TCM,0, 35.11810303,  4.08270264,end
timer_stats,697491669176886,PAPI_L3_TCM,2, 35.18835449,  4.09127807,end
timer_stats,697491670370639,PAPI_L3_TCM,0, 35.25488281,  4.10012817,end
timer_stats,697491671565656,PAPI_L3_TCM,1, 35.34906006,  4.11360168,end
timer_stats,697491672761886,PAPI_L3_TCM,1, 35.46588135,  4.12709045,end
timer_stats,697491673956959,PAPI_L3_TCM,3, 35.53900146,  4.13587952,end
timer_stats,697491675150416,PAPI_L3_TCM,0, 35.61126709,  4.14469910,end
timer_stats,697491676332299,PAPI_L3_TCM,1, 35.68566895,  4.15324402,end
timer_stats,697491677500666,PAPI_L3_TCM,2, 35.75823974,  4.16380310,end
timer_stats,697491678699393,PAPI_L3_TCM,0, 35.86376953,  4.17919922,end
timer_stats,697491679897449,PAPI_L3_TCM,0, 35.98669434,  4.19335937,end
timer_stats,697491681099792,PAPI_L3_TCM,2, 36.05944824,  4.20211792,end
timer_stats,697491682286263,PAPI_L3_TCM,0, 36.13171387,  4.21116638,end
timer_stats,697491683470859,PAPI_L3_TCM,4, 36.20703125,  4.21989441,end
timer_stats,697491684657116,PAPI_L3_TCM,0, 36.30328369,  4.23388672,end
timer_stats,697491685842286,PAPI_L3_TCM,1, 36.43157959,  4.24836731,end
timer_stats,697491687402580,PAPI_L3_TCM,42, 36.50445557,  4.25694275,end
timer_stats,697491688584267,PAPI_L3_TCM,6, 36.60284424,  4.27067566,end
timer_stats,697491689773197,PAPI_L3_TCM,0, 36.68017578,  4.28097534,end
timer_stats,697491690957364,PAPI_L3_TCM,1, 36.80084229,  4.29467773,end
timer_stats,697491692142967,PAPI_L3_TCM,1, 36.87615967,  4.30371094,end
timer_stats,697491693311134,PAPI_L3_TCM,3, 36.95208740,  4.31228638,end
timer_stats,697491694494750,PAPI_L3_TCM,0, 37.03216553,  4.32104492,end
timer_stats,697491695681817,PAPI_L3_TCM,1, 37.13549804,  4.33459472,end
timer_stats,697491696876757,PAPI_L3_TCM,0, 37.27557373,  4.34849548,end
timer_stats,697491698073170,PAPI_L3_TCM,0, 37.35980224,  4.35726929,end
timer_stats,697491699269083,PAPI_L3_TCM,0, 37.44067383,  4.36630249,end
timer_stats,697491700466231,PAPI_L3_TCM,1, 37.52429199,  4.37550354,end
timer_stats,697491701651177,PAPI_L3_TCM,0, 37.62860107,  4.38923645,end
timer_stats,697491702835323,PAPI_L3_TCM,3, 37.76617432,  4.40565491,end
timer_stats,697491704035574,PAPI_L3_TCM,1, 37.84698486,  4.41442871,end
timer_stats,697491705202470,PAPI_L3_TCM,1, 37.92938232,  4.42317200,end
timer_stats,697491706397470,PAPI_L3_TCM,0, 38.00152588,  4.43180847,end
timer_stats,697491707589816,PAPI_L3_TCM,0, 38.08868408,  4.44078064,end
timer_stats,697491708784207,PAPI_L3_TCM,1, 38.24468994,  4.46098328,end
timer_stats,697491709979170,PAPI_L3_TCM,1, 38.32830810,  4.46923828,end
timer_stats,697491711152106,PAPI_L3_TCM,0, 38.41156006,  4.47911072,end
timer_stats,697491712321997,PAPI_L3_TCM,6, 38.49426269,  4.48944092,end
timer_stats,697491713486553,PAPI_L3_TCM,1, 38.57458496,  4.49822998,end
timer_stats,697491714680487,PAPI_L3_TCM,1, 38.68206787,  4.51217651,end
timer_stats,697491715875834,PAPI_L3_TCM,0, 38.81567383,  4.52659607,end
timer_stats,697491717070613,PAPI_L3_TCM,0, 38.89819336,  4.53538513,end
timer_stats,697491718232200,PAPI_L3_TCM,0, 38.98132324,  4.54435730,end
timer_stats,697491719423884,PAPI_L3_TCM,1, 39.06469726,  4.55464172,end
timer_stats,697491720616483,PAPI_L3_TCM,0, 39.16778564,  4.56837463,end
timer_stats,697491721809040,PAPI_L3_TCM,4, 39.30126953,  4.58363342,end
timer_stats,697491723004824,PAPI_L3_TCM,1, 39.38409424,  4.59240722,end
timer_stats,697491724200223,PAPI_L3_TCM,2, 39.46020508,  4.60122680,end
timer_stats,697491725370123,PAPI_L3_TCM,0, 39.53857422,  4.61003113,end
timer_stats,697491726566150,PAPI_L3_TCM,0, 39.61999512,  4.62033081,end
timer_stats,697491727764650,PAPI_L3_TCM,0, 39.71777344,  4.63487244,end
timer_stats,697491728960646,PAPI_L3_TCM,2, 39.84063721,  4.64836120,end
timer_stats,697491730158784,PAPI_L3_TCM,0, 39.91381836,  4.65721130,end
timer_stats,697491731352973,PAPI_L3_TCM,3, 39.99359131,  4.66600037,end
timer_stats,697491732554886,PAPI_L3_TCM,1, 40.07409668,  4.67451477,end
timer_stats,697491733756004,PAPI_L3_TCM,1, 40.16650390,  4.69007874,end
timer_stats,697491734954133,PAPI_L3_TCM,0, 40.28442383,  4.70384216,end
timer_stats,697491736144861,PAPI_L3_TCM,2, 40.35717773,  4.71258545,end
timer_stats,697491737317447,PAPI_L3_TCM,0, 40.42541504,  4.72116089,end
timer_stats,697491738518043,PAPI_L3_TCM,1, 40.49487305,  4.72970581,end
timer_stats,697491739713767,PAPI_L3_TCM,0, 40.59741211,  4.74362183,end
timer_stats,697491740929030,PAPI_L3_TCM,6, 40.71905518,  4.75762939,end
timer_stats,697491742130887,PAPI_L3_TCM,3, 40.79565430,  4.76641846,end
timer_stats,697491743327921,PAPI_L3_TCM,2, 40.87432861,  4.77520752,end
timer_stats,697491744527080,PAPI_L3_TCM,1, 40.94750976,  4.78375244,end
timer_stats,697491745724903,PAPI_L3_TCM,1, 41.04833984,  4.79792786,end
timer_stats,697491746911031,PAPI_L3_TCM,0, 41.17358398,  4.81192017,end
timer_stats,697491748109817,PAPI_L3_TCM,2, 41.24877930,  4.82026672,end
timer_stats,697491749281963,PAPI_L3_TCM,0, 41.32568359,  4.82881164,end
timer_stats,697491750482451,PAPI_L3_TCM,3, 41.40533447,  4.83686829,end
timer_stats,697491751681434,PAPI_L3_TCM,1, 41.50213623,  4.85037231,end
timer_stats,697491752887940,PAPI_L3_TCM,2, 41.63592529,  4.86402893,end
timer_stats,697491754093327,PAPI_L3_TCM,0, 41.71038818,  4.87286377,end
timer_stats,697491755281167,PAPI_L3_TCM,1, 41.78686523,  4.88211059,end
timer_stats,697491756482083,PAPI_L3_TCM,1, 41.86340332,  4.89086914,end
timer_stats,697491757683431,PAPI_L3_TCM,1, 41.96478271,  4.90476990,end
timer_stats,697491758875100,PAPI_L3_TCM,0, 42.09130859,  4.91874695,end
timer_stats,697491760086218,PAPI_L3_TCM,4, 42.16851807,  4.92753601,end
timer_stats,697491761259254,PAPI_L3_TCM,0, 42.24829101,  4.93629455,end
timer_stats,697491762459124,PAPI_L3_TCM,1, 42.32965088,  4.94502258,end
timer_stats,697491763662051,PAPI_L3_TCM,0, 42.42999268,  4.95899963,end
timer_stats,697491764864521,PAPI_L3_TCM,1, 42.56445312,  4.97274780,end
timer_stats,697491766069747,PAPI_L3_TCM,0, 42.64141846,  4.98156738,end
timer_stats,697491767269404,PAPI_L3_TCM,1, 42.71124268,  4.99191284,end
timer_stats,697491768468334,PAPI_L3_TCM,1, 42.78784180,  5.00067139,end
timer_stats,697491769673511,PAPI_L3_TCM,3, 42.88079834,  5.00950622,end
timer_stats,697491770865514,PAPI_L3_TCM,0, 43.00665283,  5.02761841,end
timer_stats,697491772094204,PAPI_L3_TCM,5, 43.07434082,  5.03645325,end
timer_stats,697491773345431,PAPI_L3_TCM,36, 43.15045166,  5.04539490,end
timer_stats,697491774552328,PAPI_L3_TCM,17, 43.21368408,  5.05419922,end
timer_stats,697491775720687,PAPI_L3_TCM,0, 43.29974365,  5.06796265,end
timer_stats,697491776889561,PAPI_L3_TCM,3, 43.41284180,  5.07676697,end
timer_stats,697491778058584,PAPI_L3_TCM,3, 43.48120117,  5.08531189,end
timer_stats,697491779229264,PAPI_L3_TCM,3, 43.54620361,  5.09489441,end
timer_stats,697491780399468,PAPI_L3_TCM,9, 43.61590576,  5.10588074,end
timer_stats,697491781554131,PAPI_L3_TCM,6, 43.68725586,  5.11442566,end
timer_stats,697491782721914,PAPI_L3_TCM,1, 43.77404785,  5.12455749,end
timer_stats,697491783888308,PAPI_L3_TCM,0, 43.87744140,  5.13682556,end
timer_stats,697491785032961,PAPI_L3_TCM,3, 43.94976807,  5.14555359,end
timer_stats,697491786194017,PAPI_L3_TCM,2, 44.01910400,  5.15434265,end
timer_stats,697491787340917,PAPI_L3_TCM,2, 44.09027100,  5.16459656,end
timer_stats,697491788502680,PAPI_L3_TCM,5, 44.16162109,  5.17460632,end
timer_stats,697491789670637,PAPI_L3_TCM,0, 44.26062012,  5.19096374,end
timer_stats,697491790837670,PAPI_L3_TCM,1, 44.37670898,  5.20533752,end
timer_stats,697491792021360,PAPI_L3_TCM,13, 44.44689941,  5.21511841,end
timer_stats,697491793165673,PAPI_L3_TCM,25, 44.52056885,  5.22384643,end
timer_stats,697491796806003,PAPI_L3_TCM,66, 44.74371338,  5.25372314,end
timer_stats,697491797982260,PAPI_L3_TCM,10, 44.86578369,  5.26660156,end
timer_stats,697491799150153,PAPI_L3_TCM,3, 44.94018555,  5.27714538,end
timer_stats,697491800334690,PAPI_L3_TCM,4, 45.01348877,  5.28721619,end
timer_stats,697491801504350,PAPI_L3_TCM,0, 45.08996582,  5.29597473,end
timer_stats,697491802699210,PAPI_L3_TCM,1, 45.18231201,  5.30479431,end
timer_stats,697491803877914,PAPI_L3_TCM,0, 45.30438232,  5.32386780,end
timer_stats,697491805045440,PAPI_L3_TCM,1, 45.37799072,  5.33485412,end
timer_stats,697491806217397,PAPI_L3_TCM,0, 45.45410156,  5.34384155,end
timer_stats,697491807386190,PAPI_L3_TCM,4, 45.52911377,  5.35281372,end
timer_stats,697491808546170,PAPI_L3_TCM,1, 45.60473633,  5.36334228,end
timer_stats,697491809709550,PAPI_L3_TCM,3, 45.68096924,  5.37207031,end
timer_stats,697491810877453,PAPI_L3_TCM,3, 45.83813476,  5.39331055,end
timer_stats,697491812052169,PAPI_L3_TCM,3, 45.91729736,  5.40185547,end
timer_stats,697491813199349,PAPI_L3_TCM,0, 45.99743652,  5.41195679,end
timer_stats,697491814367860,PAPI_L3_TCM,1, 46.07794189,  5.42053222,end
timer_stats,697491815555773,PAPI_L3_TCM,0, 46.15570068,  5.42935181,end
timer_stats,697491816734719,PAPI_L3_TCM,2, 46.26092529,  5.44331360,end
timer_stats,697491817931783,PAPI_L3_TCM,0, 46.39581299,  5.45726013,end
timer_stats,697491819104993,PAPI_L3_TCM,3, 46.47985840,  5.46620178,end
timer_stats,697491820289442,PAPI_L3_TCM,1, 46.55694580,  5.47525024,end
timer_stats,697491821465449,PAPI_L3_TCM,4, 46.64007568,  5.48402405,end
timer_stats,697491822635409,PAPI_L3_TCM,0, 46.71789551,  5.49281311,end
timer_stats,697491823819522,PAPI_L3_TCM,1, 46.82550049,  5.50677490,end
timer_stats,697491824977669,PAPI_L3_TCM,0, 46.96069336,  5.52215576,end
timer_stats,697491826171466,PAPI_L3_TCM,1, 47.04449463,  5.53240967,end
timer_stats,697491827364622,PAPI_L3_TCM,1, 47.12500000,  5.54093933,end
timer_stats,697491828539613,PAPI_L3_TCM,3, 47.20910644,  5.54454041,end
timer_stats,697491829734433,PAPI_L3_TCM,1, 47.31384277,  5.55854797,end
timer_stats,697491830929026,PAPI_L3_TCM,1, 47.44958496,  5.57270813,end
timer_stats,697491832117693,PAPI_L3_TCM,1, 47.53503418,  5.58193970,end
timer_stats,697491833260333,PAPI_L3_TCM,1, 47.61724853,  5.59091186,end
timer_stats,697491834445759,PAPI_L3_TCM,0, 47.69512939,  5.59970093,end
timer_stats,697491835627982,PAPI_L3_TCM,1, 47.78216553,  5.60797119,end
timer_stats,697491836812096,PAPI_L3_TCM,0, 47.88891601,  5.62197876,end
timer_stats,697491837995752,PAPI_L3_TCM,3, 48.02606201,  5.63565063,end
timer_stats,697491839184539,PAPI_L3_TCM,0, 48.10980224,  5.64442444,end
timer_stats,697491840366876,PAPI_L3_TCM,2, 48.19354248,  5.65318298,end
timer_stats,697491841524376,PAPI_L3_TCM,1, 48.27520752,  5.66218567,end
timer_stats,697491842707375,PAPI_L3_TCM,1, 48.35998535,  5.67073059,end
timer_stats,697491843900345,PAPI_L3_TCM,0, 48.52508545,  5.69030762,end
timer_stats,697491845099229,PAPI_L3_TCM,1, 48.61175537,  5.69903564,end
timer_stats,697491846296395,PAPI_L3_TCM,0, 48.69842529,  5.70777893,end
timer_stats,697491847490809,PAPI_L3_TCM,3, 48.78582764,  5.71629333,end
timer_stats,697491848686262,PAPI_L3_TCM,0, 48.86901855,  5.72019958,end
timer_stats,697491849881179,PAPI_L3_TCM,1, 49.03881836,  5.73904419,end
timer_stats,697491851067036,PAPI_L3_TCM,0, 49.12298584,  5.74784851,end
timer_stats,697491852250426,PAPI_L3_TCM,2, 49.21221924,  5.75727844,end
timer_stats,697491853418075,PAPI_L3_TCM,0, 49.29406738,  5.76652527,end
timer_stats,697491854599043,PAPI_L3_TCM,1, 49.38238525,  5.77528381,end
timer_stats,697491855781976,PAPI_L3_TCM,0, 49.49688721,  5.78947449,end
timer_stats,697491856975905,PAPI_L3_TCM,3, 49.63873291,  5.80335998,end
timer_stats,697491858156602,PAPI_L3_TCM,1, 49.71734619,  5.81217956,end
timer_stats,697491859336256,PAPI_L3_TCM,3, 49.80413818,  5.82115173,end
timer_stats,697491860529872,PAPI_L3_TCM,0, 49.89526367,  5.83142090,end
timer_stats,697491861709942,PAPI_L3_TCM,1, 49.98071289,  5.84066772,end
timer_stats,697491862893249,PAPI_L3_TCM,0, 50.15148926,  5.86077881,end
timer_stats,697491864077565,PAPI_L3_TCM,2, 50.24023437,  5.86976624,end
timer_stats,697491865245368,PAPI_L3_TCM,0, 50.32598877,  5.87855530,end
timer_stats,697491866439105,PAPI_L3_TCM,6, 50.41473389,  5.88729858,end
timer_stats,697491867619552,PAPI_L3_TCM,0, 50.49993896,  5.89602661,end
timer_stats,697491868814542,PAPI_L3_TCM,1, 50.61938476,  5.91128540,end
timer_stats,697491869995949,PAPI_L3_TCM,0, 50.76287842,  5.92692566,end
timer_stats,697491871178049,PAPI_L3_TCM,1, 50.84954834,  5.93591309,end
timer_stats,697491872359592,PAPI_L3_TCM,1, 50.93823242,  5.94635010,end
timer_stats,697491873537139,PAPI_L3_TCM,2, 51.02130127,  5.95558166,end
timer_stats,697491874717215,PAPI_L3_TCM,0, 51.10858154,  5.96434021,end
timer_stats,697491875900582,PAPI_L3_TCM,4, 51.22985840,  5.97996521,end
timer_stats,697491877085952,PAPI_L3_TCM,1, 51.36816406,  5.99458313,end
timer_stats,697491878251442,PAPI_L3_TCM,1, 51.45776367,  6.00354004,end
timer_stats,697491879441575,PAPI_L3_TCM,0, 51.54119873,  6.01234436,end
timer_stats,697491880623368,PAPI_L3_TCM,2, 51.63012695,  6.02108764,end
timer_stats,697491881805569,PAPI_L3_TCM,0, 51.75177002,  6.03457642,end
timer_stats,697491882984428,PAPI_L3_TCM,1, 51.89184570,  6.04849243,end
timer_stats,697491884163688,PAPI_L3_TCM,1, 51.97131348,  6.05732727,end
timer_stats,697491885327321,PAPI_L3_TCM,3, 52.05780029,  6.06608581,end
timer_stats,697491886506552,PAPI_L3_TCM,0, 52.14135742,  6.07489014,end
timer_stats,697491887686815,PAPI_L3_TCM,1, 52.22583008,  6.08367920,end
timer_stats,697491888870444,PAPI_L3_TCM,1, 52.34179687,  6.10324097,end
timer_stats,697491890051898,PAPI_L3_TCM,1, 52.48046875,  6.11203003,end
timer_stats,697491891230371,PAPI_L3_TCM,0, 52.56738281,  6.12080383,end
timer_stats,697491892411642,PAPI_L3_TCM,2, 52.64929199,  6.12962341,end
timer_stats,697491893590662,PAPI_L3_TCM,0, 52.73602295,  6.13789368,end
timer_stats,697491894769968,PAPI_L3_TCM,3, 52.84765625,  6.15202331,end
timer_stats,697491895949425,PAPI_L3_TCM,0, 52.98870849,  6.16567993,end
timer_stats,697491897160725,PAPI_L3_TCM,2, 53.07238769,  6.17446899,end
timer_stats,697491898337961,PAPI_L3_TCM,0, 53.15911865,  6.18301392,end
timer_stats,697491899517501,PAPI_L3_TCM,1, 53.24566650,  6.19177246,end
timer_stats,697491900707908,PAPI_L3_TCM,1, 53.33007812,  6.20037842,end
timer_stats,697491901899005,PAPI_L3_TCM,1, 53.44653320,  6.21437073,end
timer_stats,697491903090008,PAPI_L3_TCM,3, 53.58630371,  6.22828674,end
timer_stats,697491904281948,PAPI_L3_TCM,19, 53.67767334,  6.23773193,end
timer_stats,697491905418761,PAPI_L3_TCM,1, 53.76013184,  6.24829102,end
timer_stats,697491906597541,PAPI_L3_TCM,1, 53.84686279,  6.25749207,end
timer_stats,697491907777487,PAPI_L3_TCM,13, 53.96435547,  6.27232361,end
timer_stats,697491908942578,PAPI_L3_TCM,3, 54.10717773,  6.28866577,end
timer_stats,697491910110954,PAPI_L3_TCM,0, 54.19018555,  6.29873657,end
timer_stats,697491911278977,PAPI_L3_TCM,1, 54.27416992,  6.30804443,end
timer_stats,697491912445490,PAPI_L3_TCM,1, 54.35632324,  6.31665039,end
timer_stats,697491913634451,PAPI_L3_TCM,3, 54.44104004,  6.32719421,end
timer_stats,697491914816304,PAPI_L3_TCM,0, 54.55902099,  6.34112549,end
timer_stats,697491915971961,PAPI_L3_TCM,1, 54.69274902,  6.35632324,end
timer_stats,697491917145911,PAPI_L3_TCM,1, 54.77648926,  6.36511230,end
timer_stats,697491918340641,PAPI_L3_TCM,4, 54.85845947,  6.37391662,end
timer_stats,697491919530691,PAPI_L3_TCM,1, 54.94238281,  6.38267517,end
timer_stats,697491920708594,PAPI_L3_TCM,3, 55.02215576,  6.39173889,end
timer_stats,697491921903291,PAPI_L3_TCM,5, 55.13696289,  6.40589905,end
timer_stats,697491923093017,PAPI_L3_TCM,3, 55.26702881,  6.42198181,end
timer_stats,697491924260434,PAPI_L3_TCM,1, 55.33660889,  6.43034363,end
timer_stats,697491925448541,PAPI_L3_TCM,3, 55.40850830,  6.43814087,end
timer_stats,697491926634207,PAPI_L3_TCM,0, 55.47924805,  6.44538879,end
timer_stats,697491927819808,PAPI_L3_TCM,1, 55.58416748,  6.45779419,end
timer_stats,697491928984011,PAPI_L3_TCM,1, 55.69512939,  6.46847534,end
timer_stats,697491930172370,PAPI_L3_TCM,1, 55.76666260,  6.47528076,end
timer_stats,697491931358350,PAPI_L3_TCM,0, 55.83996582,  6.48229980,end
timer_stats,697491932505104,PAPI_L3_TCM,5, 55.91015625,  6.49133301,end
timer_stats,697491933665830,PAPI_L3_TCM,2, 55.98956299,  6.50030518,end
timer_stats,697491934820173,PAPI_L3_TCM,1, 56.06268310,  6.50930786,end
timer_stats,697491935983400,PAPI_L3_TCM,0, 56.20623779,  6.52690124,end
timer_stats,697491937153674,PAPI_L3_TCM,2, 56.27581787,  6.53547668,end
timer_stats,697491938317630,PAPI_L3_TCM,0, 56.34423828,  6.54403686,end
timer_stats,697491939483187,PAPI_L3_TCM,1, 56.41210937,  6.55313110,end
timer_stats,697491940639574,PAPI_L3_TCM,1, 56.49090576,  6.56343079,end
timer_stats,697491941792100,PAPI_L3_TCM,5, 56.56274414,  6.57398987,end
timer_stats,697491942929636,PAPI_L3_TCM,0, 56.68133545,  6.58961487,end
timer_stats,697491944079613,PAPI_L3_TCM,3, 56.80004883,  6.60169983,end
timer_stats,697491945218789,PAPI_L3_TCM,2, 56.87316894,  6.61051941,end
timer_stats,697491946381970,PAPI_L3_TCM,1, 56.95233154,  6.61949158,end
timer_stats,697491947545356,PAPI_L3_TCM,0, 57.02508545,  6.62808227,end
timer_stats,697491948698956,PAPI_L3_TCM,2, 57.10076904,  6.63684082,end
timer_stats,697491949867192,PAPI_L3_TCM,0, 57.20971680,  6.65124512,end
timer_stats,697491951029879,PAPI_L3_TCM,3, 57.31933594,  6.66342163,end
timer_stats,697491952190179,PAPI_L3_TCM,1, 57.39532471,  6.67218018,end
timer_stats,697491953329892,PAPI_L3_TCM,1, 57.47680664,  6.68115234,end
timer_stats,697491954493478,PAPI_L3_TCM,0, 57.54949951,  6.69021606,end
timer_stats,697491955656365,PAPI_L3_TCM,1, 57.62713623,  6.69895935,end
timer_stats,697491956806685,PAPI_L3_TCM,20, 57.69866943,  6.70825195,end
timer_stats,697491957960742,PAPI_L3_TCM,8, 57.80456543,  6.72241211,end
timer_stats,697491959151256,PAPI_L3_TCM,4, 57.90570068,  6.73333740,end
