timer_stats,698207523999151,PAPI_L3_TCM,501,  0.19409180,  0.02096558,end
timer_stats,698207525133879,PAPI_L3_TCM,44,  0.28649902,  0.03149414,end
timer_stats,698207526309213,PAPI_L3_TCM,3,  0.39227295,  0.04208374,end
timer_stats,698207527490138,PAPI_L3_TCM,5,  0.47613525,  0.05218506,end
timer_stats,698207528631205,PAPI_L3_TCM,5,  0.57385254,  0.06332397,end
timer_stats,698207530358121,PAPI_L3_TCM,61,  0.78826904,  0.08508301,end
timer_stats,698207531535915,PAPI_L3_TCM,11,  0.87902832,  0.09561157,end
timer_stats,698207532694806,PAPI_L3_TCM,1,  0.97387695,  0.10635376,end
timer_stats,698207533871664,PAPI_L3_TCM,0,  1.07244873,  0.12225342,end
timer_stats,698207535061175,PAPI_L3_TCM,0,  1.21685791,  0.12762451,end
timer_stats,698207536217395,PAPI_L3_TCM,0,  1.35894775,  0.14541626,end
timer_stats,698207537349479,PAPI_L3_TCM,2,  1.47424316,  0.15618896,end
timer_stats,698207538529578,PAPI_L3_TCM,0,  1.56085205,  0.16677856,end
timer_stats,698207539718832,PAPI_L3_TCM,1,  1.65399170,  0.17727661,end
timer_stats,698207540878166,PAPI_L3_TCM,1,  1.76031494,  0.18865967,end
timer_stats,698207542048391,PAPI_L3_TCM,3,  1.96789551,  0.21005249,end
timer_stats,698207543200558,PAPI_L3_TCM,1,  2.07409668,  0.22006226,end
timer_stats,698207544345935,PAPI_L3_TCM,5,  2.17864990,  0.23049927,end
timer_stats,698207545506506,PAPI_L3_TCM,2,  2.27508545,  0.24076843,end
timer_stats,698207546674893,PAPI_L3_TCM,1,  2.35552978,  0.25138855,end
timer_stats,698207547844797,PAPI_L3_TCM,0,  2.44616699,  0.26170349,end
timer_stats,698207549016149,PAPI_L3_TCM,1,  2.62945557,  0.28208923,end
timer_stats,698207550194933,PAPI_L3_TCM,1,  2.73095703,  0.29203796,end
timer_stats,698207551377128,PAPI_L3_TCM,2,  2.81976318,  0.30210876,end
timer_stats,698207552547649,PAPI_L3_TCM,1,  2.90350342,  0.31199646,end
timer_stats,698207553732219,PAPI_L3_TCM,0,  2.99902344,  0.32231140,end
timer_stats,698207554917207,PAPI_L3_TCM,0,  3.18798828,  0.33735657,end
timer_stats,698207556104348,PAPI_L3_TCM,1,  3.23583984,  0.34745789,end
timer_stats,698207557264936,PAPI_L3_TCM,0,  3.38775635,  0.36329651,end
timer_stats,698207558445723,PAPI_L3_TCM,0,  3.48016357,  0.37339783,end
timer_stats,698207559627904,PAPI_L3_TCM,0,  3.57098388,  0.38609314,end
timer_stats,698207560810722,PAPI_L3_TCM,2,  3.66595459,  0.39909363,end
timer_stats,698207561955443,PAPI_L3_TCM,0,  3.81665039,  0.41481018,end
timer_stats,698207563117410,PAPI_L3_TCM,0,  3.91253662,  0.42535400,end
timer_stats,698207564299465,PAPI_L3_TCM,2,  4.06689453,  0.44235229,end
timer_stats,698207565447879,PAPI_L3_TCM,3,  4.16125488,  0.45449829,end
timer_stats,698207566596903,PAPI_L3_TCM,0,  4.27520752,  0.46743774,end
timer_stats,698207567714992,PAPI_L3_TCM,2,  4.40710449,  0.47958374,end
timer_stats,698207568843120,PAPI_L3_TCM,0,  4.53527832,  0.49206543,end
timer_stats,698207569934786,PAPI_L3_TCM,1,  4.66210937,  0.50430298,end
timer_stats,698207571028472,PAPI_L3_TCM,2,  4.85693359,  0.52221680,end
timer_stats,698207572124159,PAPI_L3_TCM,1,  5.04058838,  0.53421020,end
timer_stats,698207573226437,PAPI_L3_TCM,0,  5.17230225,  0.55157471,end
timer_stats,698207574342461,PAPI_L3_TCM,2,  5.30413818,  0.56385803,end
timer_stats,698207575475249,PAPI_L3_TCM,0,  5.42987060,  0.57659912,end
timer_stats,698207576629857,PAPI_L3_TCM,1,  5.56365967,  0.58833313,end
timer_stats,698207577924358,PAPI_L3_TCM,2,  5.68469238,  0.60066223,end
timer_stats,698207579111745,PAPI_L3_TCM,2,  5.97381592,  0.62373352,end
timer_stats,698207580231298,PAPI_L3_TCM,1,  6.13378906,  0.63473511,end
timer_stats,698207582415672,PAPI_L3_TCM,0,  6.45446777,  0.65899658,end
timer_stats,698207583506414,PAPI_L3_TCM,1,  6.62524414,  0.67120361,end
timer_stats,698207584593269,PAPI_L3_TCM,2,  6.80804443,  0.68386841,end
timer_stats,698207585694310,PAPI_L3_TCM,0,  6.98205566,  0.69531250,end
timer_stats,698207586820612,PAPI_L3_TCM,3,  7.13635254,  0.70635986,end
timer_stats,698207587920574,PAPI_L3_TCM,0,  7.30639648,  0.71705627,end
timer_stats,698207589156154,PAPI_L3_TCM,2,  7.59613037,  0.73680115,end
timer_stats,698207590238227,PAPI_L3_TCM,1,  7.88494873,  0.75531006,end
timer_stats,698207591321108,PAPI_L3_TCM,1,  8.07116699,  0.76914978,end
timer_stats,698207592405402,PAPI_L3_TCM,1,  8.26129150,  0.78335571,end
timer_stats,698207593509523,PAPI_L3_TCM,2,  8.45367432,  0.79718017,end
timer_stats,698207594597537,PAPI_L3_TCM,0,  8.65179443,  0.81044006,end
timer_stats,698207595685838,PAPI_L3_TCM,3,  8.84735107,  0.82444763,end
timer_stats,698207596776037,PAPI_L3_TCM,2,  9.01721191,  0.83663940,end
timer_stats,698207597868050,PAPI_L3_TCM,6,  9.20928955,  0.85002136,end
timer_stats,698207598952329,PAPI_L3_TCM,2,  9.38330078,  0.86230469,end
timer_stats,698207600026114,PAPI_L3_TCM,2,  9.59124756,  0.86857605,end
timer_stats,698207601111005,PAPI_L3_TCM,1,  9.84881592,  0.88911438,end
timer_stats,698207602189243,PAPI_L3_TCM,4, 10.13732910,  0.91001892,end
timer_stats,698207603282442,PAPI_L3_TCM,2, 10.32263183,  0.92225647,end
timer_stats,698207604369789,PAPI_L3_TCM,5, 10.48333740,  0.93435669,end
timer_stats,698207605456944,PAPI_L3_TCM,4, 10.64404297,  0.94651794,end
timer_stats,698207606541604,PAPI_L3_TCM,2, 10.84027099,  0.96002197,end
timer_stats,698207607629420,PAPI_L3_TCM,1, 11.02081299,  0.97250366,end
timer_stats,698207608715683,PAPI_L3_TCM,2, 11.21185303,  0.98597717,end
timer_stats,698207609793937,PAPI_L3_TCM,2, 11.39276123,  0.99871826,end
timer_stats,698207610873318,PAPI_L3_TCM,3, 11.57049560,  1.01118469,end
timer_stats,698207611972574,PAPI_L3_TCM,2, 11.74591064,  1.02391052,end
timer_stats,698207613093360,PAPI_L3_TCM,5, 12.02557373,  1.04406738,end
timer_stats,698207614188323,PAPI_L3_TCM,1, 12.26629639,  1.06507873,end
timer_stats,698207615266014,PAPI_L3_TCM,2, 12.45629883,  1.07855225,end
timer_stats,698207616350173,PAPI_L3_TCM,0, 12.63702392,  1.09185791,end
timer_stats,698207617458446,PAPI_L3_TCM,7, 12.80810547,  1.10549927,end
timer_stats,698207618569375,PAPI_L3_TCM,2, 12.98968506,  1.11709595,end
timer_stats,698207619663375,PAPI_L3_TCM,2, 13.17059326,  1.13238525,end
timer_stats,698207620753018,PAPI_L3_TCM,0, 13.35424805,  1.14433288,end
timer_stats,698207621847917,PAPI_L3_TCM,5, 13.52539062,  1.15737915,end
timer_stats,698207622945779,PAPI_L3_TCM,5, 13.70019531,  1.17282104,end
timer_stats,698207624045893,PAPI_L3_TCM,8, 13.96264648,  1.19335937,end
timer_stats,698207625143404,PAPI_L3_TCM,6, 14.22229004,  1.21478271,end
timer_stats,698207626248281,PAPI_L3_TCM,1, 14.38684082,  1.22883606,end
timer_stats,698207627342345,PAPI_L3_TCM,4, 14.57183838,  1.24116516,end
timer_stats,698207628440028,PAPI_L3_TCM,8, 14.74951172,  1.25621033,end
timer_stats,698207629536487,PAPI_L3_TCM,17, 14.93426514,  1.26947021,end
timer_stats,698207630633274,PAPI_L3_TCM,4, 15.10339355,  1.28286743,end
timer_stats,698207631724785,PAPI_L3_TCM,0, 15.27911377,  1.29782104,end
timer_stats,698207632807148,PAPI_L3_TCM,8, 15.46020508,  1.31158447,end
timer_stats,698207633889286,PAPI_L3_TCM,3, 15.63848877,  1.32675171,end
timer_stats,698207634976410,PAPI_L3_TCM,3, 15.82513428,  1.34194946,end
timer_stats,698207636028581,PAPI_L3_TCM,2, 15.98815918,  1.35437012,end
timer_stats,698207637117809,PAPI_L3_TCM,3, 16.25317383,  1.37431335,end
timer_stats,698207638213674,PAPI_L3_TCM,2, 16.51599121,  1.38824463,end
timer_stats,698207639311661,PAPI_L3_TCM,19, 16.68817139,  1.40948486,end
timer_stats,698207640403709,PAPI_L3_TCM,13, 16.85345459,  1.42228699,end
timer_stats,698207641518981,PAPI_L3_TCM,6, 17.02514648,  1.43560791,end
timer_stats,698207642632361,PAPI_L3_TCM,4, 17.18273926,  1.44874573,end
timer_stats,698207643728183,PAPI_L3_TCM,10, 17.34771728,  1.46327209,end
timer_stats,698207644831761,PAPI_L3_TCM,5, 17.50256348,  1.47558594,end
timer_stats,698207645936668,PAPI_L3_TCM,12, 17.67590332,  1.48820496,end
timer_stats,698207647034377,PAPI_L3_TCM,2, 17.91308594,  1.50651550,end
timer_stats,698207648129195,PAPI_L3_TCM,17, 18.07183838,  1.51853943,end
timer_stats,698207649248937,PAPI_L3_TCM,5, 18.29742432,  1.53753662,end
timer_stats,698207650351395,PAPI_L3_TCM,5, 18.44848633,  1.55036926,end
timer_stats,698207651450575,PAPI_L3_TCM,5, 18.59436035,  1.56472778,end
timer_stats,698207652552632,PAPI_L3_TCM,4, 18.75018311,  1.57653808,end
timer_stats,698207653673356,PAPI_L3_TCM,8, 18.90252686,  1.58863830,end
timer_stats,698207654794828,PAPI_L3_TCM,3, 19.03863525,  1.60226440,end
timer_stats,698207655909935,PAPI_L3_TCM,3, 19.18927002,  1.61570740,end
timer_stats,698207657157696,PAPI_L3_TCM,28, 19.47363281,  1.64393616,end
timer_stats,698207658370602,PAPI_L3_TCM,9, 19.61669922,  1.65731812,end
timer_stats,698207659487985,PAPI_L3_TCM,3, 19.75677490,  1.67068481,end
timer_stats,698207660623161,PAPI_L3_TCM,5, 19.87939453,  1.68101501,end
timer_stats,698207661753598,PAPI_L3_TCM,8, 19.99060058,  1.69477844,end
timer_stats,698207662868083,PAPI_L3_TCM,4, 20.12640381,  1.70817566,end
timer_stats,698207663988451,PAPI_L3_TCM,14, 20.27136230,  1.72219849,end
timer_stats,698207665132675,PAPI_L3_TCM,8, 20.49957275,  1.74293518,end
timer_stats,698207666243459,PAPI_L3_TCM,13, 20.71984863,  1.76301575,end
timer_stats,698207667405001,PAPI_L3_TCM,5, 20.85449219,  1.77600098,end
timer_stats,698207668543068,PAPI_L3_TCM,12, 21.00610351,  1.78919983,end
timer_stats,698207669692179,PAPI_L3_TCM,6, 21.14819336,  1.80084228,end
timer_stats,698207670851578,PAPI_L3_TCM,3, 21.28735351,  1.81304931,end
timer_stats,698207671994185,PAPI_L3_TCM,3, 21.42645264,  1.82568359,end
timer_stats,698207673150314,PAPI_L3_TCM,7, 21.69824219,  1.84938049,end
timer_stats,698207674311593,PAPI_L3_TCM,1, 21.83978271,  1.86230469,end
timer_stats,698207675482108,PAPI_L3_TCM,20, 21.97479248,  1.87449646,end
timer_stats,698207676597088,PAPI_L3_TCM,7, 22.11956787,  1.88664246,end
timer_stats,698207677753225,PAPI_L3_TCM,11, 22.25683594,  1.89929199,end
timer_stats,698207678883570,PAPI_L3_TCM,16, 22.39367676,  1.91209411,end
timer_stats,698207680024146,PAPI_L3_TCM,9, 22.53857422,  1.92575073,end
timer_stats,698207698997187,PAPI_L3_TCM,379, 25.58984375,  2.17346191,end
timer_stats,698207700115190,PAPI_L3_TCM,140, 25.81225586,  2.19644165,end
timer_stats,698207701228080,PAPI_L3_TCM,41, 25.97857666,  2.21092224,end
timer_stats,698207702352075,PAPI_L3_TCM,14, 26.21472168,  2.23381042,end
timer_stats,698207703474056,PAPI_L3_TCM,3, 26.35705566,  2.24990845,end
timer_stats,698207704603064,PAPI_L3_TCM,6, 26.51171875,  2.26322937,end
timer_stats,698207705718920,PAPI_L3_TCM,2, 26.65325928,  2.27516174,end
timer_stats,698207706819847,PAPI_L3_TCM,1, 26.78674316,  2.28639221,end
timer_stats,698207707921523,PAPI_L3_TCM,5, 26.93536377,  2.29786682,end
timer_stats,698207709045722,PAPI_L3_TCM,4, 27.14794922,  2.31344604,end
timer_stats,698207710166878,PAPI_L3_TCM,3, 27.30633545,  2.33311462,end
timer_stats,698207711276250,PAPI_L3_TCM,6, 27.54187012,  2.35069275,end
timer_stats,698207712396345,PAPI_L3_TCM,4, 27.69335937,  2.36450195,end
timer_stats,698207713515392,PAPI_L3_TCM,6, 27.85815430,  2.37748718,end
timer_stats,698207714629009,PAPI_L3_TCM,1, 27.99066162,  2.39070129,end
timer_stats,698207715762040,PAPI_L3_TCM,5, 28.13977051,  2.40405273,end
timer_stats,698207716866607,PAPI_L3_TCM,3, 28.28735351,  2.41732788,end
timer_stats,698207717974751,PAPI_L3_TCM,8, 28.44348144,  2.43067932,end
timer_stats,698207719099242,PAPI_L3_TCM,3, 28.57940674,  2.44250488,end
timer_stats,698207720209706,PAPI_L3_TCM,5, 28.85162353,  2.46853638,end
timer_stats,698207721334620,PAPI_L3_TCM,3, 28.99676514,  2.48223877,end
timer_stats,698207722470938,PAPI_L3_TCM,11, 29.13153076,  2.49505615,end
timer_stats,698207723600708,PAPI_L3_TCM,4, 29.28045654,  2.50796509,end
timer_stats,698207724751123,PAPI_L3_TCM,5, 29.41320801,  2.52178955,end
timer_stats,698207725885752,PAPI_L3_TCM,0, 29.54748535,  2.53320312,end
timer_stats,698207727039613,PAPI_L3_TCM,3, 29.67596435,  2.54898071,end
timer_stats,698207728163951,PAPI_L3_TCM,4, 29.89404297,  2.57130432,end
timer_stats,698207729325143,PAPI_L3_TCM,8, 30.09368896,  2.59001159,end
timer_stats,698207730454603,PAPI_L3_TCM,4, 30.22100830,  2.60148621,end
timer_stats,698207731610914,PAPI_L3_TCM,2, 30.35626221,  2.61408996,end
timer_stats,698207732735700,PAPI_L3_TCM,1, 30.49731445,  2.62675476,end
timer_stats,698207733859059,PAPI_L3_TCM,3, 30.62475586,  2.63926697,end
timer_stats,698207735013094,PAPI_L3_TCM,2, 30.75555420,  2.65148926,end
timer_stats,698207736138171,PAPI_L3_TCM,16, 30.94403076,  2.67071533,end
timer_stats,698207737247875,PAPI_L3_TCM,3, 31.08459472,  2.68397522,end
timer_stats,698207738355650,PAPI_L3_TCM,6, 31.28576660,  2.69776916,end
timer_stats,698207739535993,PAPI_L3_TCM,4, 31.41766357,  2.71064758,end
timer_stats,698207740651615,PAPI_L3_TCM,5, 31.55249023,  2.72395325,end
timer_stats,698207741827349,PAPI_L3_TCM,11, 31.68701172,  2.73551941,end
timer_stats,698207742980194,PAPI_L3_TCM,4, 31.81518555,  2.74839783,end
timer_stats,698207744124340,PAPI_L3_TCM,3, 31.94982910,  2.76046753,end
timer_stats,698207745255809,PAPI_L3_TCM,2, 32.21496582,  2.78897095,end
timer_stats,698207746428808,PAPI_L3_TCM,1, 32.34948730,  2.80187988,end
timer_stats,698207747586006,PAPI_L3_TCM,5, 32.47760010,  2.81495666,end
timer_stats,698207748755940,PAPI_L3_TCM,2, 32.61822510,  2.82705688,end
timer_stats,698207749919266,PAPI_L3_TCM,2, 32.75549316,  2.83879089,end
timer_stats,698207751062962,PAPI_L3_TCM,10, 32.89306640,  2.85231018,end
timer_stats,698207752203503,PAPI_L3_TCM,13, 33.09674072,  2.87391663,end
timer_stats,698207753331519,PAPI_L3_TCM,1, 33.28967285,  2.89286804,end
timer_stats,698207754512216,PAPI_L3_TCM,7, 33.40905762,  2.90557861,end
timer_stats,698207755688865,PAPI_L3_TCM,1, 33.53424072,  2.91767883,end
timer_stats,698207756831183,PAPI_L3_TCM,7, 33.65832520,  2.93103027,end
timer_stats,698207758008251,PAPI_L3_TCM,5, 33.78973389,  2.94331360,end
timer_stats,698207759197811,PAPI_L3_TCM,9, 33.97778320,  2.96299744,end
timer_stats,698207760329117,PAPI_L3_TCM,5, 34.18310547,  2.98590088,end
timer_stats,698207761477676,PAPI_L3_TCM,8, 34.32733154,  3.00076294,end
timer_stats,698207762638650,PAPI_L3_TCM,13, 34.45605469,  3.01550293,end
timer_stats,698207763759035,PAPI_L3_TCM,2, 34.59753418,  3.02989197,end
timer_stats,698207764909539,PAPI_L3_TCM,9, 34.73583984,  3.04479980,end
timer_stats,698207766030370,PAPI_L3_TCM,12, 34.86962891,  3.05928040,end
timer_stats,698207767153301,PAPI_L3_TCM,5, 35.08001709,  3.08181763,end
timer_stats,698207768294978,PAPI_L3_TCM,17, 35.31524658,  3.10752869,end
timer_stats,698207769411129,PAPI_L3_TCM,3, 35.47143554,  3.12243652,end
timer_stats,698207770532776,PAPI_L3_TCM,2, 35.63128662,  3.13859558,end
timer_stats,698207771663504,PAPI_L3_TCM,6, 35.78161621,  3.15592956,end
timer_stats,698207772824138,PAPI_L3_TCM,3, 35.94458008,  3.17138672,end
timer_stats,698207773930936,PAPI_L3_TCM,3, 36.09936523,  3.18629455,end
timer_stats,698207775094923,PAPI_L3_TCM,14, 36.25915527,  3.20387268,end
timer_stats,698207776237770,PAPI_L3_TCM,4, 36.50805664,  3.22619629,end
timer_stats,698207777355441,PAPI_L3_TCM,4, 36.74298096,  3.25073242,end
timer_stats,698207778513792,PAPI_L3_TCM,4, 36.90637207,  3.26542663,end
timer_stats,698207779668476,PAPI_L3_TCM,8, 37.07159424,  3.27946472,end
timer_stats,698207780824244,PAPI_L3_TCM,3, 37.22399902,  3.29280090,end
timer_stats,698207781990608,PAPI_L3_TCM,3, 37.38690185,  3.30635071,end
timer_stats,698207783144745,PAPI_L3_TCM,6, 37.54223633,  3.32020569,end
timer_stats,698207784271484,PAPI_L3_TCM,8, 37.86322021,  3.34669494,end
timer_stats,698207785401044,PAPI_L3_TCM,7, 38.02893066,  3.36328125,end
timer_stats,698207786556978,PAPI_L3_TCM,14, 38.19622803,  3.37588501,end
timer_stats,698207787722612,PAPI_L3_TCM,2, 38.35235596,  3.38925171,end
timer_stats,698207788873166,PAPI_L3_TCM,5, 38.49658203,  3.40222168,end
timer_stats,698207790032454,PAPI_L3_TCM,1, 38.65618896,  3.41461182,end
timer_stats,698207791179158,PAPI_L3_TCM,2, 38.88214111,  3.43426514,end
timer_stats,698207792304686,PAPI_L3_TCM,7, 39.11560059,  3.45526123,end
timer_stats,698207793494467,PAPI_L3_TCM,2, 39.27130127,  3.46723938,end
timer_stats,698207810255604,PAPI_L3_TCM,393, 42.03771973,  3.70605469,end
timer_stats,698207811349865,PAPI_L3_TCM,132, 42.28314209,  3.72883606,end
timer_stats,698207812444855,PAPI_L3_TCM,13, 42.45562744,  3.74411011,end
timer_stats,698207813536849,PAPI_L3_TCM,2, 42.61157226,  3.75692749,end
timer_stats,698207814635094,PAPI_L3_TCM,4, 42.76855469,  3.77177429,end
timer_stats,698207815739178,PAPI_L3_TCM,7, 42.92840576,  3.78927612,end
timer_stats,698207816859572,PAPI_L3_TCM,15, 43.10131836,  3.80606079,end
timer_stats,698207817984186,PAPI_L3_TCM,25, 43.25750732,  3.82070923,end
timer_stats,698207819110003,PAPI_L3_TCM,3, 43.40930176,  3.83650207,end
timer_stats,698207820213196,PAPI_L3_TCM,8, 43.58178711,  3.85087585,end
timer_stats,698207821343932,PAPI_L3_TCM,2, 43.89642334,  3.87841797,end
timer_stats,698207822473389,PAPI_L3_TCM,3, 44.05517578,  3.88569641,end
timer_stats,698207823594273,PAPI_L3_TCM,4, 44.20733643,  3.89955139,end
timer_stats,698207824695380,PAPI_L3_TCM,3, 44.35369873,  3.91444397,end
timer_stats,698207825818296,PAPI_L3_TCM,3, 44.50793457,  3.92861938,end
timer_stats,698207826957813,PAPI_L3_TCM,6, 44.64990234,  3.94230652,end
timer_stats,698207828071779,PAPI_L3_TCM,3, 44.80432129,  3.95892334,end
timer_stats,698207829191151,PAPI_L3_TCM,7, 44.95764160,  3.97215271,end
timer_stats,698207830313395,PAPI_L3_TCM,5, 45.26055908,  3.99377441,end
timer_stats,698207831433229,PAPI_L3_TCM,4, 45.41223144,  4.01545715,end
timer_stats,698207832559313,PAPI_L3_TCM,3, 45.56439209,  4.03097534,end
timer_stats,698207833704835,PAPI_L3_TCM,5, 45.71173096,  4.04560852,end
timer_stats,698207834841894,PAPI_L3_TCM,1, 45.86840820,  4.05899048,end
timer_stats,698207835962715,PAPI_L3_TCM,7, 46.01910400,  4.07368469,end
timer_stats,698207837091922,PAPI_L3_TCM,3, 46.19000244,  4.09173584,end
timer_stats,698207838232193,PAPI_L3_TCM,3, 46.41748047,  4.11009216,end
timer_stats,698207839368237,PAPI_L3_TCM,4, 46.65460205,  4.14082336,end
timer_stats,698207840503764,PAPI_L3_TCM,3, 46.82208252,  4.15417480,end
timer_stats,698207841602402,PAPI_L3_TCM,5, 46.97735596,  4.16874695,end
timer_stats,698207842727587,PAPI_L3_TCM,7, 47.14428711,  4.18424988,end
timer_stats,698207843880523,PAPI_L3_TCM,1, 47.28906250,  4.19778442,end
timer_stats,698207845015500,PAPI_L3_TCM,9, 47.44616699,  4.21351623,end
timer_stats,698207846166487,PAPI_L3_TCM,5, 47.59088135,  4.22729492,end
timer_stats,698207847720439,PAPI_L3_TCM,2659, 47.89367676,  4.25708008,end
timer_stats,698207848841572,PAPI_L3_TCM,34, 48.04479980,  4.26448059,end
timer_stats,698207849966241,PAPI_L3_TCM,10, 48.19738770,  4.28228760,end
timer_stats,698207851121759,PAPI_L3_TCM,0, 48.35443115,  4.29783630,end
timer_stats,698207852239744,PAPI_L3_TCM,19, 48.50433349,  4.31362915,end
timer_stats,698207853370155,PAPI_L3_TCM,9, 48.81829834,  4.34301758,end
timer_stats,698207854501099,PAPI_L3_TCM,3, 48.96459961,  4.35697937,end
timer_stats,698207855612146,PAPI_L3_TCM,4, 49.11663818,  4.37156677,end
timer_stats,698207856750930,PAPI_L3_TCM,7, 49.27777100,  4.38400268,end
timer_stats,698207857881739,PAPI_L3_TCM,3, 49.42840576,  4.39787292,end
timer_stats,698207859014065,PAPI_L3_TCM,2, 49.57385254,  4.41227722,end
timer_stats,698207860136173,PAPI_L3_TCM,0, 49.72607422,  4.42622375,end
timer_stats,698207861244605,PAPI_L3_TCM,4, 49.95568848,  4.44848633,end
timer_stats,698207862401438,PAPI_L3_TCM,3, 50.18341064,  4.47062683,end
timer_stats,698207863556508,PAPI_L3_TCM,4, 50.34228515,  4.48281860,end
timer_stats,698207864701782,PAPI_L3_TCM,3, 50.50317383,  4.49557495,end
timer_stats,698207865853587,PAPI_L3_TCM,5, 50.64605713,  4.51010132,end
timer_stats,698207867005315,PAPI_L3_TCM,1, 50.80175781,  4.52528381,end
timer_stats,698207868127269,PAPI_L3_TCM,4, 50.95263672,  4.53820801,end
timer_stats,698207869231559,PAPI_L3_TCM,5, 51.10192871,  4.55169678,end
timer_stats,698207870383380,PAPI_L3_TCM,4, 51.42077637,  4.58204651,end
timer_stats,698207871536521,PAPI_L3_TCM,3, 51.59960937,  4.59690857,end
timer_stats,698207872655562,PAPI_L3_TCM,2, 51.73919678,  4.61161804,end
timer_stats,698207884074792,PAPI_L3_TCM,262, 53.63397217,  4.78747559,end
timer_stats,698207885179970,PAPI_L3_TCM,111, 53.76898193,  4.80848694,end
timer_stats,698207886293769,PAPI_L3_TCM,18, 54.01757812,  4.83279419,end
timer_stats,698207887405644,PAPI_L3_TCM,5, 54.17449951,  4.84783935,end
timer_stats,698207888496194,PAPI_L3_TCM,11, 54.41790771,  4.87059021,end
timer_stats,698207889585306,PAPI_L3_TCM,5, 54.59191894,  4.88497925,end
timer_stats,698207890693474,PAPI_L3_TCM,28, 54.74566650,  4.89884949,end
timer_stats,698207891818772,PAPI_L3_TCM,20, 54.90795898,  4.91380310,end
timer_stats,698207892948651,PAPI_L3_TCM,12, 55.05169678,  4.92941284,end
timer_stats,698207894083514,PAPI_L3_TCM,16, 55.21496582,  4.94442749,end
timer_stats,698207895200740,PAPI_L3_TCM,1, 55.36859131,  4.95733643,end
timer_stats,698207896307270,PAPI_L3_TCM,6, 55.59179687,  4.97654724,end
timer_stats,698207897414059,PAPI_L3_TCM,4, 55.74096680,  4.99067688,end
timer_stats,698207898551857,PAPI_L3_TCM,2, 55.98516846,  5.01095581,end
timer_stats,698207899685153,PAPI_L3_TCM,1, 56.12213135,  5.02508545,end
timer_stats,698207900816544,PAPI_L3_TCM,2, 56.27764893,  5.03808594,end
timer_stats,698207901925779,PAPI_L3_TCM,2, 56.42535400,  5.05162048,end
timer_stats,698207903066582,PAPI_L3_TCM,2, 56.58581543,  5.06497192,end
timer_stats,698207904180372,PAPI_L3_TCM,1, 56.72619629,  5.07867432,end
timer_stats,698207905267418,PAPI_L3_TCM,8, 56.88439941,  5.09228515,end
timer_stats,698207906403057,PAPI_L3_TCM,2, 57.10766601,  5.11387634,end
timer_stats,698207907534561,PAPI_L3_TCM,5, 57.34344482,  5.13627624,end
timer_stats,698207908656033,PAPI_L3_TCM,0, 57.48394775,  5.15144348,end
timer_stats,698207909774084,PAPI_L3_TCM,4, 57.64514160,  5.16658020,end
timer_stats,698207910882701,PAPI_L3_TCM,2, 57.78100586,  5.18161011,end
timer_stats,698207912023723,PAPI_L3_TCM,4, 57.92840576,  5.19596863,end
timer_stats,698207913143251,PAPI_L3_TCM,1, 58.09643555,  5.21246338,end
timer_stats,698207914286265,PAPI_L3_TCM,2, 58.30187988,  5.23425293,end
timer_stats,698207915441879,PAPI_L3_TCM,1, 58.54364014,  5.25404358,end
timer_stats,698207916567731,PAPI_L3_TCM,6, 58.68341064,  5.26976013,end
timer_stats,698207917713039,PAPI_L3_TCM,1, 58.82110596,  5.28713989,end
timer_stats,698207918846568,PAPI_L3_TCM,7, 58.97631836,  5.30261230,end
timer_stats,698207919937073,PAPI_L3_TCM,2, 59.12921142,  5.31701660,end
timer_stats,698207921066430,PAPI_L3_TCM,5, 59.28466797,  5.33106995,end
timer_stats,698207922217400,PAPI_L3_TCM,0, 59.42706299,  5.34323120,end
timer_stats,698207923366299,PAPI_L3_TCM,2, 59.58990478,  5.35758972,end
timer_stats,698207924509853,PAPI_L3_TCM,2, 59.87371826,  5.38185120,end
timer_stats,698207925620579,PAPI_L3_TCM,7, 60.02380371,  5.39396667,end
timer_stats,698207926763593,PAPI_L3_TCM,4, 60.14489746,  5.40818787,end
timer_stats,698207927903312,PAPI_L3_TCM,3, 60.30718994,  5.42315674,end
timer_stats,698207929051034,PAPI_L3_TCM,16, 60.46136474,  5.43833923,end
timer_stats,698207930197381,PAPI_L3_TCM,11, 60.60302734,  5.45004272,end
timer_stats,698207931391315,PAPI_L3_TCM,9, 60.73303223,  5.46864319,end
timer_stats,698207932535953,PAPI_L3_TCM,7, 61.03308105,  5.48841858,end
timer_stats,698207933646328,PAPI_L3_TCM,5, 61.16052246,  5.50270080,end
timer_stats,698207934787198,PAPI_L3_TCM,2, 61.32159424,  5.51771545,end
timer_stats,698207935943222,PAPI_L3_TCM,4, 61.46423340,  5.52999878,end
timer_stats,698207937092290,PAPI_L3_TCM,12, 61.59582519,  5.54217529,end
timer_stats,698207938202547,PAPI_L3_TCM,7, 61.74432373,  5.55677795,end
timer_stats,698207939357758,PAPI_L3_TCM,19, 61.96453857,  5.57780457,end
timer_stats,698207940527319,PAPI_L3_TCM,14, 62.20245361,  5.60104370,end
timer_stats,698207941697470,PAPI_L3_TCM,9, 62.33245850,  5.61511230,end
timer_stats,698207942859337,PAPI_L3_TCM,8, 62.47589111,  5.62882995,end
timer_stats,698207944031325,PAPI_L3_TCM,9, 62.62188721,  5.64312744,end
timer_stats,698207945177076,PAPI_L3_TCM,7, 62.76971435,  5.65827942,end
timer_stats,698207946366620,PAPI_L3_TCM,3, 62.96655273,  5.67668152,end
timer_stats,698207947534321,PAPI_L3_TCM,1, 63.20294189,  5.69017029,end
timer_stats,698207948677773,PAPI_L3_TCM,5, 63.35211182,  5.70765686,end
timer_stats,698207949803103,PAPI_L3_TCM,8, 63.48754883,  5.72012329,end
timer_stats,698207950942901,PAPI_L3_TCM,4, 63.63543701,  5.73280334,end
timer_stats,698207952084591,PAPI_L3_TCM,3, 63.77490234,  5.74659729,end
timer_stats,698207953236529,PAPI_L3_TCM,12, 63.92382812,  5.75904846,end
timer_stats,698207954420776,PAPI_L3_TCM,7, 64.13757324,  5.78089905,end
timer_stats,698207955609477,PAPI_L3_TCM,6, 64.37744141,  5.80223083,end
timer_stats,698207956764675,PAPI_L3_TCM,1, 64.52050781,  5.81608582,end
timer_stats,698207957938629,PAPI_L3_TCM,3, 64.66809082,  5.82949829,end
timer_stats,698207959077040,PAPI_L3_TCM,2, 64.83221436,  5.84240723,end
timer_stats,698207960249325,PAPI_L3_TCM,6, 64.98699951,  5.85473633,end
timer_stats,698207961407255,PAPI_L3_TCM,0, 65.13671875,  5.86709595,end
timer_stats,698207962578473,PAPI_L3_TCM,8, 65.43280029,  5.89709472,end
timer_stats,698207963744947,PAPI_L3_TCM,3, 65.58691406,  5.90946960,end
timer_stats,698207964920575,PAPI_L3_TCM,3, 65.73907471,  5.92225647,end
timer_stats,698207966070739,PAPI_L3_TCM,4, 65.89624023,  5.93453979,end
timer_stats,698207967233716,PAPI_L3_TCM,15, 66.04290771,  5.94967651,end
timer_stats,698207968372620,PAPI_L3_TCM,7, 66.19915771,  5.96391296,end
timer_stats,698207969507245,PAPI_L3_TCM,7, 66.49700928,  5.98881531,end
timer_stats,698207970640443,PAPI_L3_TCM,20, 66.64410400,  6.01196289,end
timer_stats,698207971795710,PAPI_L3_TCM,29, 66.80480957,  6.02993774,end
timer_stats,698207972917163,PAPI_L3_TCM,30, 66.96105957,  6.04643250,end
timer_stats,698207974072409,PAPI_L3_TCM,6, 67.11853027,  6.06010437,end
timer_stats,698207975203027,PAPI_L3_TCM,6, 67.25994873,  6.07504272,end
timer_stats,698207976336137,PAPI_L3_TCM,22, 67.41650390,  6.08982849,end
timer_stats,698207977465366,PAPI_L3_TCM,5, 67.64056396,  6.11233520,end
timer_stats,698207978588091,PAPI_L3_TCM,7, 67.86938477,  6.13377380,end
timer_stats,698207980035650,PAPI_L3_TCM,66, 68.02740478,  6.14735412,end
timer_stats,698207981170950,PAPI_L3_TCM,18, 68.17999267,  6.16165161,end
timer_stats,698207982302690,PAPI_L3_TCM,14, 68.32800293,  6.17512512,end
timer_stats,698207983436132,PAPI_L3_TCM,8, 68.48376465,  6.18894958,end
timer_stats,698207984563557,PAPI_L3_TCM,7, 68.77813721,  6.21298218,end
timer_stats,698207985851608,PAPI_L3_TCM,19, 68.93402099,  6.22727966,end
timer_stats,698207986984282,PAPI_L3_TCM,8, 69.07562256,  6.23881531,end
timer_stats,698207988308887,PAPI_L3_TCM,24, 69.21820068,  6.25126648,end
timer_stats,698207989444981,PAPI_L3_TCM,2, 69.45526123,  6.27062988,end
timer_stats,698207990620561,PAPI_L3_TCM,3, 69.67236328,  6.28875732,end
timer_stats,698207991781949,PAPI_L3_TCM,0, 69.81805420,  6.30207825,end
timer_stats,698207992924820,PAPI_L3_TCM,3, 69.97198486,  6.31591797,end
timer_stats,698207994062684,PAPI_L3_TCM,21, 70.13146973,  6.33064270,end
timer_stats,698207995183622,PAPI_L3_TCM,4, 70.27770996,  6.34376526,end
timer_stats,698207996349722,PAPI_L3_TCM,5, 70.42761230,  6.35565185,end
timer_stats,698207997512571,PAPI_L3_TCM,5, 70.72259521,  6.37547302,end
timer_stats,698207998674438,PAPI_L3_TCM,4, 70.86590576,  6.39648437,end
timer_stats,698207999836232,PAPI_L3_TCM,6, 71.01940918,  6.41069031,end
timer_stats,698208000983743,PAPI_L3_TCM,4, 71.16284180,  6.42553711,end
timer_stats,698208002140760,PAPI_L3_TCM,4, 71.31524658,  6.44023132,end
timer_stats,698208003268251,PAPI_L3_TCM,27, 71.47583008,  6.45451355,end
timer_stats,698208004375425,PAPI_L3_TCM,13, 71.61889648,  6.46768188,end
timer_stats,698208005480159,PAPI_L3_TCM,13, 71.77691650,  6.48208618,end
timer_stats,698208006599999,PAPI_L3_TCM,9, 72.07519531,  6.50869751,end
timer_stats,698208007706146,PAPI_L3_TCM,3, 72.22528076,  6.52200317,end
timer_stats,698208008820490,PAPI_L3_TCM,14, 72.37445068,  6.53605652,end
timer_stats,698208009907423,PAPI_L3_TCM,16, 72.53308105,  6.54948425,end
timer_stats,698208011012943,PAPI_L3_TCM,7, 72.68304443,  6.56469727,end
timer_stats,698208012107704,PAPI_L3_TCM,14, 72.84368896,  6.57752991,end
timer_stats,698208013242818,PAPI_L3_TCM,27, 72.99554443,  6.59170532,end
timer_stats,698208014370295,PAPI_L3_TCM,1, 73.14282227,  6.60855102,end
timer_stats,698208015486457,PAPI_L3_TCM,2, 73.29254150,  6.63059997,end
timer_stats,698208016609884,PAPI_L3_TCM,9, 73.58880615,  6.65083313,end
timer_stats,698208017885533,PAPI_L3_TCM,52, 73.74060058,  6.66378784,end
timer_stats,698208019017751,PAPI_L3_TCM,14, 73.88732910,  6.67825317,end
timer_stats,698208020163844,PAPI_L3_TCM,4, 74.02587891,  6.69303894,end
timer_stats,698208021269840,PAPI_L3_TCM,3, 74.18609619,  6.70851135,end
timer_stats,698208022710082,PAPI_L3_TCM,59, 74.46844482,  6.73396301,end
timer_stats,698208023874683,PAPI_L3_TCM,10, 74.62261963,  6.74591064,end
timer_stats,698208024971527,PAPI_L3_TCM,16, 74.77423096,  6.75877380,end
timer_stats,698208026071831,PAPI_L3_TCM,7, 74.92114258,  6.77259827,end
timer_stats,698208027226275,PAPI_L3_TCM,7, 75.07611084,  6.78570557,end
timer_stats,698208028652124,PAPI_L3_TCM,43, 75.37670898,  6.81164551,end
timer_stats,698208029820421,PAPI_L3_TCM,10, 75.51403808,  6.82499695,end
timer_stats,698208030998416,PAPI_L3_TCM,5, 75.66564941,  6.83766174,end
timer_stats,698208032130403,PAPI_L3_TCM,13, 75.80987549,  6.85028076,end
timer_stats,698208033274504,PAPI_L3_TCM,2, 75.96844482,  6.86279297,end
timer_stats,698208034447675,PAPI_L3_TCM,5, 76.11328125,  6.87780762,end
timer_stats,698208035597595,PAPI_L3_TCM,0, 76.40405273,  6.90467834,end
timer_stats,698208036743276,PAPI_L3_TCM,5, 76.55273437,  6.91899109,end
timer_stats,698208037894334,PAPI_L3_TCM,20, 76.70471191,  6.93367004,end
timer_stats,698208039064215,PAPI_L3_TCM,5, 76.84954834,  6.94691467,end
timer_stats,698208040205676,PAPI_L3_TCM,0, 77.00549316,  6.95983887,end
timer_stats,698208041364630,PAPI_L3_TCM,2, 77.14630127,  6.97273254,end
timer_stats,698208042539428,PAPI_L3_TCM,0, 77.35943603,  6.99049377,end
timer_stats,698208043698945,PAPI_L3_TCM,1, 77.58251953,  7.01181030,end
timer_stats,698208044844759,PAPI_L3_TCM,3, 77.72955322,  7.02449036,end
timer_stats,698208045998323,PAPI_L3_TCM,7, 77.87982178,  7.03869629,end
timer_stats,698208051474477,PAPI_L3_TCM,93, 78.58239746,  7.11155700,end
timer_stats,698208052641387,PAPI_L3_TCM,34, 78.86163330,  7.13101196,end
timer_stats,698208053771519,PAPI_L3_TCM,8, 79.01013183,  7.14526367,end
timer_stats,698208054946493,PAPI_L3_TCM,9, 79.15997314,  7.15895080,end
timer_stats,698208056044587,PAPI_L3_TCM,7, 79.29949951,  7.17413330,end
timer_stats,698208057155498,PAPI_L3_TCM,1, 79.45269775,  7.18849182,end
timer_stats,698208058261592,PAPI_L3_TCM,7, 79.60614014,  7.20068359,end
timer_stats,698208059445639,PAPI_L3_TCM,3, 79.74438477,  7.21464538,end
timer_stats,698208060593386,PAPI_L3_TCM,4, 80.03619385,  7.24116516,end
timer_stats,698208061761275,PAPI_L3_TCM,3, 80.19610596,  7.25386047,end
timer_stats,698208062907505,PAPI_L3_TCM,0, 80.33538818,  7.26647949,end
timer_stats,698208064050559,PAPI_L3_TCM,4, 80.48400879,  7.27824402,end
timer_stats,698208065207477,PAPI_L3_TCM,0, 80.63897705,  7.29067993,end
timer_stats,698208066409285,PAPI_L3_TCM,1, 80.79156494,  7.30334473,end
timer_stats,698208067565549,PAPI_L3_TCM,4, 81.00689697,  7.32118225,end
timer_stats,698208068680713,PAPI_L3_TCM,5, 81.23541260,  7.34107971,end
timer_stats,698208069865890,PAPI_L3_TCM,5, 81.37725830,  7.35345459,end
timer_stats,698208070999181,PAPI_L3_TCM,3, 81.52490234,  7.36647034,end
timer_stats,698208072120449,PAPI_L3_TCM,2, 81.67089844,  7.37925720,end
timer_stats,698208073260747,PAPI_L3_TCM,4, 81.82763672,  7.39175415,end
timer_stats,698208074423574,PAPI_L3_TCM,0, 81.97155762,  7.40328979,end
timer_stats,698208075569921,PAPI_L3_TCM,3, 82.19799805,  7.42114258,end
timer_stats,698208076729692,PAPI_L3_TCM,3, 82.41693115,  7.43421936,end
timer_stats,698208077869096,PAPI_L3_TCM,5, 82.55657959,  7.44624329,end
timer_stats,698208079018777,PAPI_L3_TCM,0, 82.70581055,  7.45744324,end
timer_stats,698208080182418,PAPI_L3_TCM,2, 82.85522461,  7.46916199,end
timer_stats,698208081316596,PAPI_L3_TCM,0, 83.00872803,  7.48089600,end
timer_stats,698208082509950,PAPI_L3_TCM,6, 83.15948486,  7.49354553,end
timer_stats,698208083670951,PAPI_L3_TCM,0, 83.45599365,  7.51840210,end
timer_stats,698208084845332,PAPI_L3_TCM,1, 83.60095215,  7.53085327,end
timer_stats,698208086020119,PAPI_L3_TCM,0, 83.75659180,  7.54296875,end
timer_stats,698208087210830,PAPI_L3_TCM,1, 83.89782715,  7.55651855,end
timer_stats,698208088392835,PAPI_L3_TCM,1, 84.05010986,  7.57005310,end
timer_stats,698208089544569,PAPI_L3_TCM,2, 84.18127441,  7.58438110,end
timer_stats,698208090698670,PAPI_L3_TCM,1, 84.47064209,  7.61044311,end
timer_stats,698208091852420,PAPI_L3_TCM,5, 84.61401367,  7.62268066,end
timer_stats,698208093027944,PAPI_L3_TCM,0, 84.75878906,  7.63517761,end
timer_stats,698208094209269,PAPI_L3_TCM,4, 84.90142822,  7.64640808,end
timer_stats,698208095359587,PAPI_L3_TCM,1, 85.04858398,  7.65811157,end
timer_stats,698208096538438,PAPI_L3_TCM,4, 85.25012207,  7.67634582,end
timer_stats,698208097716209,PAPI_L3_TCM,1, 85.46997070,  7.69677734,end
timer_stats,698208098865393,PAPI_L3_TCM,23, 85.61456299,  7.71017456,end
timer_stats,698208100034027,PAPI_L3_TCM,5, 85.74798584,  7.72138977,end
timer_stats,698208101173228,PAPI_L3_TCM,2, 85.89447021,  7.73397827,end
timer_stats,698208102367885,PAPI_L3_TCM,0, 86.03454590,  7.74609375,end
timer_stats,698208103523487,PAPI_L3_TCM,1, 86.18249512,  7.75732422,end
timer_stats,698208104698071,PAPI_L3_TCM,0, 86.46398926,  7.78201294,end
timer_stats,698208105862815,PAPI_L3_TCM,1, 86.61584473,  7.79263306,end
timer_stats,698208107051110,PAPI_L3_TCM,0, 86.76251221,  7.80310059,end
timer_stats,698208108210234,PAPI_L3_TCM,5, 86.89697265,  7.81523132,end
timer_stats,698208109373191,PAPI_L3_TCM,2, 87.05114746,  7.82629394,end
timer_stats,698208110538242,PAPI_L3_TCM,2, 87.25085449,  7.84350586,end
timer_stats,698208111727453,PAPI_L3_TCM,1, 87.47009277,  7.86041260,end
timer_stats,698208112920641,PAPI_L3_TCM,2, 87.60778808,  7.87190246,end
timer_stats,698208114086775,PAPI_L3_TCM,0, 87.74414062,  7.88298034,end
timer_stats,698208115268869,PAPI_L3_TCM,1, 87.88970947,  7.89331055,end
timer_stats,698208116421950,PAPI_L3_TCM,7, 88.02655029,  7.90423584,end
timer_stats,698208117571851,PAPI_L3_TCM,4, 88.15881348,  7.92074585,end
timer_stats,698208118748242,PAPI_L3_TCM,2, 88.43615723,  7.93771362,end
timer_stats,698208119927193,PAPI_L3_TCM,2, 88.57714844,  7.94906616,end
timer_stats,698208121094751,PAPI_L3_TCM,0, 88.71502685,  7.96185303,end
timer_stats,698208122256491,PAPI_L3_TCM,9, 88.85498047,  7.97503662,end
timer_stats,698208123427032,PAPI_L3_TCM,0, 88.98144531,  7.98596191,end
timer_stats,698208124609354,PAPI_L3_TCM,3, 89.15563965,  8.00155640,end
timer_stats,698208125764021,PAPI_L3_TCM,0, 89.34771728,  8.01763916,end
timer_stats,698208126925832,PAPI_L3_TCM,2, 89.47290039,  8.02896118,end
timer_stats,698208128113769,PAPI_L3_TCM,0, 89.59301758,  8.03988647,end
timer_stats,698208129276744,PAPI_L3_TCM,4, 89.71008301,  8.05200195,end
timer_stats,698208130414705,PAPI_L3_TCM,0, 89.82708740,  8.06301880,end
timer_stats,698208131595605,PAPI_L3_TCM,1, 90.00299072,  8.07989502,end
timer_stats,698208132707066,PAPI_L3_TCM,5, 90.19537353,  8.09765625,end
timer_stats,698208133877751,PAPI_L3_TCM,8, 90.32684326,  8.11314392,end
timer_stats,698208135053528,PAPI_L3_TCM,1, 90.46356201,  8.12667847,end
timer_stats,698208136238726,PAPI_L3_TCM,3, 90.58740234,  8.13995361,end
timer_stats,698208137398626,PAPI_L3_TCM,2, 90.71582031,  8.15347290,end
timer_stats,698208138571717,PAPI_L3_TCM,2, 90.83660889,  8.16653442,end
timer_stats,698208139715175,PAPI_L3_TCM,1, 91.09307861,  8.19055176,end
timer_stats,698208140870123,PAPI_L3_TCM,4, 91.22827148,  8.20202637,end
timer_stats,698208142044070,PAPI_L3_TCM,0, 91.36297607,  8.21377563,end
timer_stats,698208143182888,PAPI_L3_TCM,2, 91.49542236,  8.22595215,end
timer_stats,698208144332342,PAPI_L3_TCM,2, 91.64111328,  8.23727417,end
timer_stats,698208145472360,PAPI_L3_TCM,10, 91.77343750,  8.24845886,end
timer_stats,698208146652537,PAPI_L3_TCM,6, 92.05126953,  8.27554321,end
timer_stats,698208147823164,PAPI_L3_TCM,3, 92.19714355,  8.28578186,end
timer_stats,698208148975365,PAPI_L3_TCM,3, 92.32574463,  8.29968262,end
timer_stats,698208150144273,PAPI_L3_TCM,3, 92.45935058,  8.31172180,end
timer_stats,698208151317951,PAPI_L3_TCM,2, 92.60864258,  8.32362366,end
timer_stats,698208152483801,PAPI_L3_TCM,2, 92.74548340,  8.33609009,end
timer_stats,698208153619345,PAPI_L3_TCM,2, 92.94659424,  8.35382080,end
timer_stats,698208154779467,PAPI_L3_TCM,4, 93.17132568,  8.37182617,end
timer_stats,698208155942951,PAPI_L3_TCM,2, 93.30987549,  8.38404846,end
timer_stats,698208157084858,PAPI_L3_TCM,3, 93.44671631,  8.39558410,end
timer_stats,698208158255796,PAPI_L3_TCM,1, 93.58892822,  8.40687561,end
timer_stats,698208159399414,PAPI_L3_TCM,6, 93.72808838,  8.41822815,end
timer_stats,698208160576385,PAPI_L3_TCM,0, 93.86932373,  8.43008423,end
timer_stats,698208161761089,PAPI_L3_TCM,6, 94.16168213,  8.45249939,end
timer_stats,698208162926656,PAPI_L3_TCM,2, 94.30151367,  8.46360779,end
timer_stats,698208164069593,PAPI_L3_TCM,8, 94.44342041,  8.47404480,end
timer_stats,698208165231192,PAPI_L3_TCM,1, 94.58068848,  8.48429871,end
timer_stats,698208166394102,PAPI_L3_TCM,2, 94.71771240,  8.49455261,end
timer_stats,698208167570900,PAPI_L3_TCM,1, 94.86407471,  8.50584412,end
timer_stats,698208168716388,PAPI_L3_TCM,5, 95.13623047,  8.52879333,end
timer_stats,698208169820022,PAPI_L3_TCM,5, 95.27691650,  8.53904724,end
timer_stats,698208170946109,PAPI_L3_TCM,3, 95.41662598,  8.54975891,end
timer_stats,698208172083410,PAPI_L3_TCM,3, 95.55944824,  8.56108093,end
timer_stats,698208173245487,PAPI_L3_TCM,2, 95.69763183,  8.57223511,end
timer_stats,698208174379319,PAPI_L3_TCM,1, 95.84259033,  8.58480835,end
timer_stats,698208175547475,PAPI_L3_TCM,3, 95.97497558,  8.59524536,end
timer_stats,698208176685266,PAPI_L3_TCM,4, 96.25177002,  8.61766052,end
timer_stats,698208177842261,PAPI_L3_TCM,3, 96.39398193,  8.63040161,end
timer_stats,698208178982738,PAPI_L3_TCM,5, 96.53466797,  8.64633179,end
timer_stats,698208180130219,PAPI_L3_TCM,6, 96.67443848,  8.66145325,end
timer_stats,698208181264580,PAPI_L3_TCM,4, 96.81787109,  8.67507935,end
timer_stats,698208182398534,PAPI_L3_TCM,2, 96.96093750,  8.68795776,end
timer_stats,698208183532448,PAPI_L3_TCM,1, 97.11163330,  8.70291138,end
timer_stats,698208184631275,PAPI_L3_TCM,5, 97.25341797,  8.71595764,end
timer_stats,698208185759396,PAPI_L3_TCM,11, 97.46643066,  8.73396301,end
timer_stats,698208186891434,PAPI_L3_TCM,1, 97.68023682,  8.75172424,end
timer_stats,698208188076711,PAPI_L3_TCM,2, 97.82379150,  8.76528931,end
timer_stats,698208189185385,PAPI_L3_TCM,11, 97.96765137,  8.77735901,end
timer_stats,698208190339263,PAPI_L3_TCM,2, 98.10998535,  8.78942871,end
timer_stats,698208191496664,PAPI_L3_TCM,3, 98.25207519,  8.80126953,end
timer_stats,698208192645995,PAPI_L3_TCM,1, 98.39141846,  8.81326294,end
timer_stats,698208193805559,PAPI_L3_TCM,4, 98.66461182,  8.83741760,end
timer_stats,698208194959146,PAPI_L3_TCM,0, 98.79522705,  8.84970093,end
timer_stats,698208196095900,PAPI_L3_TCM,1, 98.92523193,  8.86172485,end
timer_stats,698208197229838,PAPI_L3_TCM,3, 99.06530762,  8.87539673,end
timer_stats,698208198390419,PAPI_L3_TCM,2, 99.20758057,  8.88824463,end
timer_stats,698208199547993,PAPI_L3_TCM,4, 99.34710693,  8.90066528,end
timer_stats,698208200711484,PAPI_L3_TCM,2, 99.62170410,  8.92480469,end
timer_stats,698208201873451,PAPI_L3_TCM,2, 99.76629639,  8.93797302,end
timer_stats,698208203041916,PAPI_L3_TCM,5, 99.89599609,  8.95138550,end
timer_stats,698208204191114,PAPI_L3_TCM,8,100.04223633,  8.96653748,end
timer_stats,698208205305501,PAPI_L3_TCM,10,100.17639160,  8.97833252,end
timer_stats,698208206479548,PAPI_L3_TCM,3,100.30780029,  8.98986816,end
timer_stats,698208207628562,PAPI_L3_TCM,3,100.44506836,  9.00160217,end
timer_stats,698208208789667,PAPI_L3_TCM,0,100.72882080,  9.02510071,end
timer_stats,698208209940055,PAPI_L3_TCM,2,100.86138916,  9.03779602,end
timer_stats,698208211073679,PAPI_L3_TCM,1,101.00451660,  9.04895019,end
timer_stats,698208212238796,PAPI_L3_TCM,6,101.13397217,  9.06050110,end
timer_stats,698208213370907,PAPI_L3_TCM,0,101.25335693,  9.07206726,end
timer_stats,698208214520938,PAPI_L3_TCM,1,101.38842773,  9.08543396,end
timer_stats,698208215642629,PAPI_L3_TCM,0,101.50897217,  9.09614563,end
timer_stats,698208216806063,PAPI_L3_TCM,4,101.75292969,  9.12014770,end
timer_stats,698208217955084,PAPI_L3_TCM,0,101.87377930,  9.13191223,end
timer_stats,698208219105428,PAPI_L3_TCM,8,101.99188232,  9.14370727,end
timer_stats,698208220254248,PAPI_L3_TCM,1,102.11694336,  9.15414429,end
timer_stats,698208221393469,PAPI_L3_TCM,4,102.22918701,  9.16586304,end
timer_stats,698208222563391,PAPI_L3_TCM,1,102.34637451,  9.17646789,end
timer_stats,698208223726505,PAPI_L3_TCM,1,102.58624267,  9.19828796,end
timer_stats,698208224889295,PAPI_L3_TCM,0,102.70672607,  9.20997620,end
timer_stats,698208226053400,PAPI_L3_TCM,2,102.83099365,  9.22134399,end
timer_stats,698208227200454,PAPI_L3_TCM,1,102.95550537,  9.23271179,end
timer_stats,698208228363135,PAPI_L3_TCM,2,103.07287598,  9.24603271,end
timer_stats,698208229526026,PAPI_L3_TCM,1,103.20800781,  9.25778198,end
timer_stats,698208230687706,PAPI_L3_TCM,3,103.38989258,  9.27760315,end
timer_stats,698208231859765,PAPI_L3_TCM,0,103.58013916,  9.29638672,end
timer_stats,698208233001729,PAPI_L3_TCM,2,103.70043945,  9.30886841,end
timer_stats,698208234170736,PAPI_L3_TCM,2,103.82757568,  9.31965637,end
timer_stats,698208235330817,PAPI_L3_TCM,3,103.95208740,  9.33168030,end
timer_stats,698208236485611,PAPI_L3_TCM,3,104.07550049,  9.34512329,end
timer_stats,698208237622279,PAPI_L3_TCM,6,104.19274902,  9.35743713,end
timer_stats,698208238813546,PAPI_L3_TCM,1,104.43548584,  9.38050842,end
timer_stats,698208239983801,PAPI_L3_TCM,2,104.54504394,  9.39164734,end
timer_stats,698208241150492,PAPI_L3_TCM,0,104.65893555,  9.40533447,end
timer_stats,698208242310859,PAPI_L3_TCM,5,104.76586914,  9.41891479,end
timer_stats,698208243471480,PAPI_L3_TCM,0,104.88647461,  9.43038940,end
timer_stats,698208244619964,PAPI_L3_TCM,1,104.99090576,  9.44540405,end
timer_stats,698208245784928,PAPI_L3_TCM,2,105.15167236,  9.46194458,end
timer_stats,698208246949260,PAPI_L3_TCM,2,105.33056640,  9.48268127,end
timer_stats,698208248085950,PAPI_L3_TCM,5,105.44244385,  9.49343872,end
timer_stats,698208249248668,PAPI_L3_TCM,3,105.56738281,  9.50703430,end
timer_stats,698208250409432,PAPI_L3_TCM,3,105.68170166,  9.51937866,end
timer_stats,698208251569497,PAPI_L3_TCM,2,105.81481933,  9.53239441,end
timer_stats,698208252738987,PAPI_L3_TCM,2,105.98596191,  9.55218506,end
timer_stats,698208253898458,PAPI_L3_TCM,1,106.17901611,  9.57220459,end
timer_stats,698208255062035,PAPI_L3_TCM,0,106.30126953,  9.58309937,end
timer_stats,698208256205883,PAPI_L3_TCM,10,106.43054199,  9.59529114,end
timer_stats,698208257441581,PAPI_L3_TCM,23,106.55731201,  9.60751343,end
timer_stats,698208258796136,PAPI_L3_TCM,61,106.80224609,  9.63429260,end
timer_stats,698208260047663,PAPI_L3_TCM,10,106.92431640,  9.64639282,end
timer_stats,698208261211625,PAPI_L3_TCM,7,107.06262207,  9.65232849,end
timer_stats,698208262353276,PAPI_L3_TCM,2,107.18902588,  9.66474915,end
timer_stats,698208263465323,PAPI_L3_TCM,5,107.31408691,  9.67926025,end
timer_stats,698208264603947,PAPI_L3_TCM,7,107.44659424,  9.69032287,end
timer_stats,698208265764324,PAPI_L3_TCM,5,107.64239502,  9.71067810,end
timer_stats,698208266921153,PAPI_L3_TCM,3,107.85388183,  9.73242187,end
timer_stats,698208268066793,PAPI_L3_TCM,7,107.98968506,  9.74496460,end
timer_stats,698208269223694,PAPI_L3_TCM,3,108.12982178,  9.75796509,end
timer_stats,698208270376468,PAPI_L3_TCM,3,108.27032471,  9.77029419,end
timer_stats,698208271522365,PAPI_L3_TCM,1,108.40539551,  9.78176880,end
timer_stats,698208272648893,PAPI_L3_TCM,5,108.54876709,  9.79376221,end
timer_stats,698208273786913,PAPI_L3_TCM,6,108.76190185,  9.81173706,end
timer_stats,698208274933124,PAPI_L3_TCM,2,108.98071289,  9.83226013,end
timer_stats,698208276084409,PAPI_L3_TCM,7,109.11755371,  9.84495544,end
timer_stats,698208277231130,PAPI_L3_TCM,4,109.26605224,  9.85591125,end
timer_stats,698208278384464,PAPI_L3_TCM,1,109.41339111,  9.87016296,end
timer_stats,698208279514564,PAPI_L3_TCM,1,109.55718994,  9.88229370,end
timer_stats,698208280652209,PAPI_L3_TCM,7,109.70062256,  9.89402771,end
timer_stats,698208281798083,PAPI_L3_TCM,3,109.98144531,  9.91722107,end
timer_stats,698208282944204,PAPI_L3_TCM,1,110.12664795,  9.92924499,end
timer_stats,698208284080351,PAPI_L3_TCM,3,110.27087402,  9.94142151,end
timer_stats,698208285226602,PAPI_L3_TCM,1,110.40844726,  9.95454407,end
timer_stats,698208286378783,PAPI_L3_TCM,4,110.55242920,  9.96736145,end
timer_stats,698208287514110,PAPI_L3_TCM,1,110.68890381,  9.97900391,end
timer_stats,698208288663381,PAPI_L3_TCM,5,110.82623291,  9.99114990,end
timer_stats,698208289795372,PAPI_L3_TCM,2,110.96972656, 10.00514221,end
timer_stats,698208290953946,PAPI_L3_TCM,3,111.25347900, 10.03211975,end
timer_stats,698208292098370,PAPI_L3_TCM,3,111.39660644, 10.04594421,end
timer_stats,698208293246518,PAPI_L3_TCM,10,111.54248047, 10.05882263,end
timer_stats,698208294378575,PAPI_L3_TCM,2,111.68402099, 10.07054138,end
timer_stats,698208295522653,PAPI_L3_TCM,4,111.82580566, 10.08386230,end
timer_stats,698208296643404,PAPI_L3_TCM,5,111.96142578, 10.09564209,end
timer_stats,698208297802988,PAPI_L3_TCM,9,112.16607666, 10.11544800,end
timer_stats,698208298950309,PAPI_L3_TCM,1,112.37591553, 10.13586426,end
timer_stats,698208300075536,PAPI_L3_TCM,2,112.51379394, 10.14682007,end
timer_stats,698208301226873,PAPI_L3_TCM,3,112.65277099, 10.15835571,end
timer_stats,698208302371898,PAPI_L3_TCM,3,112.79162598, 10.16960144,end
timer_stats,698208303508082,PAPI_L3_TCM,0,112.92645264, 10.18299866,end
timer_stats,698208304646903,PAPI_L3_TCM,4,113.06323242, 10.19631958,end
timer_stats,698208305782457,PAPI_L3_TCM,3,113.20288086, 10.20814514,end
timer_stats,698208306932618,PAPI_L3_TCM,4,113.46002197, 10.23257446,end
timer_stats,698208308075095,PAPI_L3_TCM,1,113.58288574, 10.24676514,end
timer_stats,698208309211312,PAPI_L3_TCM,1,113.70922852, 10.25918579,end
timer_stats,698208310364901,PAPI_L3_TCM,0,113.83270264, 10.27062988,end
timer_stats,698208311512531,PAPI_L3_TCM,2,113.96185303, 10.28228760,end
timer_stats,698208312653459,PAPI_L3_TCM,2,114.08850098, 10.29466247,end
timer_stats,698208313804219,PAPI_L3_TCM,3,114.20434570, 10.30557251,end
timer_stats,698208314953084,PAPI_L3_TCM,0,114.44989014, 10.32662964,end
timer_stats,698208316071688,PAPI_L3_TCM,2,114.57672119, 10.33755493,end
timer_stats,698208317224066,PAPI_L3_TCM,0,114.70538330, 10.34848022,end
timer_stats,698208318373703,PAPI_L3_TCM,1,114.83111572, 10.35964966,end
timer_stats,698208319530770,PAPI_L3_TCM,0,114.95892334, 10.37078857,end
timer_stats,698208320681031,PAPI_L3_TCM,3,115.08807373, 10.38165283,end
timer_stats,698208321822505,PAPI_L3_TCM,0,115.21026611, 10.39306641,end
timer_stats,698208322970806,PAPI_L3_TCM,3,115.46215820, 10.41510010,end
timer_stats,698208324094064,PAPI_L3_TCM,2,115.59991455, 10.42614746,end
timer_stats,698208325235271,PAPI_L3_TCM,2,115.72753906, 10.43756103,end
timer_stats,698208326384179,PAPI_L3_TCM,3,115.85290527, 10.44892883,end
timer_stats,698208327535123,PAPI_L3_TCM,2,115.99145508, 10.46093750,end
timer_stats,698208328679098,PAPI_L3_TCM,2,116.11981201, 10.47256470,end
timer_stats,698208329825135,PAPI_L3_TCM,3,116.32379150, 10.48365784,end
timer_stats,698208330972479,PAPI_L3_TCM,2,116.51647949, 10.50636291,end
timer_stats,698208332094916,PAPI_L3_TCM,4,116.65106201, 10.51869202,end
timer_stats,698208333246420,PAPI_L3_TCM,1,116.77618408, 10.52983093,end
timer_stats,698208334386968,PAPI_L3_TCM,3,116.90545654, 10.54188537,end
timer_stats,698208335538895,PAPI_L3_TCM,1,117.03027344, 10.55210876,end
timer_stats,698208336675390,PAPI_L3_TCM,2,117.15466308, 10.56425476,end
timer_stats,698208337835457,PAPI_L3_TCM,0,117.33624267, 10.58142090,end
timer_stats,698208338990515,PAPI_L3_TCM,2,117.53112793, 10.60054016,end
timer_stats,698208340113589,PAPI_L3_TCM,2,117.65515137, 10.61293030,end
timer_stats,698208341248963,PAPI_L3_TCM,2,117.77221680, 10.62437439,end
timer_stats,698208342390427,PAPI_L3_TCM,0,117.89465332, 10.63529968,end
timer_stats,698208343544465,PAPI_L3_TCM,1,118.00915527, 10.64579773,end
timer_stats,698208344680889,PAPI_L3_TCM,0,118.13653564, 10.65740967,end
timer_stats,698208345829840,PAPI_L3_TCM,4,118.30883789, 10.66818237,end
timer_stats,698208346970660,PAPI_L3_TCM,0,118.49127197, 10.68882751,end
timer_stats,698208348093191,PAPI_L3_TCM,2,118.61193848, 10.69969177,end
timer_stats,698208349232118,PAPI_L3_TCM,0,118.73565674, 10.71061706,end
timer_stats,698208350365937,PAPI_L3_TCM,3,118.84686279, 10.72328186,end
timer_stats,698208351520141,PAPI_L3_TCM,0,118.96936035, 10.73637390,end
timer_stats,698208352676235,PAPI_L3_TCM,1,119.08068848, 10.75010681,end
timer_stats,698208353809702,PAPI_L3_TCM,0,119.21014404, 10.76048279,end
timer_stats,698208354942589,PAPI_L3_TCM,2,119.45233154, 10.78340149,end
timer_stats,698208356074897,PAPI_L3_TCM,2,119.57885742, 10.79521179,end
timer_stats,698208357215674,PAPI_L3_TCM,4,119.70178223, 10.80653381,end
timer_stats,698208358350139,PAPI_L3_TCM,1,119.82733154, 10.82118225,end
timer_stats,698208359481403,PAPI_L3_TCM,3,119.95684814, 10.83320618,end
timer_stats,698208360583284,PAPI_L3_TCM,2,120.07775879, 10.84600830,end
timer_stats,698208361733378,PAPI_L3_TCM,6,120.20501709, 10.85675049,end
timer_stats,698208362914555,PAPI_L3_TCM,0,120.45416260, 10.87947082,end
timer_stats,698208364069057,PAPI_L3_TCM,3,120.57696533, 10.89088440,end
timer_stats,698208365208001,PAPI_L3_TCM,1,120.69464111, 10.90162659,end
timer_stats,698208366381995,PAPI_L3_TCM,4,120.81237793, 10.91285705,end
timer_stats,698208367557472,PAPI_L3_TCM,5,120.93542480, 10.92378235,end
timer_stats,698208368732683,PAPI_L3_TCM,2,121.05792236, 10.93614197,end
timer_stats,698208369913784,PAPI_L3_TCM,0,121.29748535, 10.95796203,end
timer_stats,698208371110748,PAPI_L3_TCM,1,121.40856933, 10.96824646,end
timer_stats,698208372258999,PAPI_L3_TCM,1,121.52178955, 10.97920227,end
timer_stats,698208373404423,PAPI_L3_TCM,1,121.64465332, 10.98942566,end
timer_stats,698208374597828,PAPI_L3_TCM,0,121.76397705, 11.00013733,end
timer_stats,698208375789465,PAPI_L3_TCM,2,121.87933350, 11.01063537,end
timer_stats,698208376964177,PAPI_L3_TCM,0,122.12255859, 11.03210449,end
timer_stats,698208378160251,PAPI_L3_TCM,2,122.24108887, 11.04306030,end
timer_stats,698208379355858,PAPI_L3_TCM,0,122.36511230, 11.05331421,end
timer_stats,698208380514416,PAPI_L3_TCM,1,122.48620605, 11.06449890,end
timer_stats,698208381705617,PAPI_L3_TCM,1,122.60870361, 11.07499695,end
timer_stats,698208382901758,PAPI_L3_TCM,1,122.84899902, 11.09707642,end
timer_stats,698208384074539,PAPI_L3_TCM,1,122.96618652, 11.10803223,end
timer_stats,698208385210587,PAPI_L3_TCM,2,123.09094238, 11.11895752,end
timer_stats,698208386420214,PAPI_L3_TCM,0,123.20855713, 11.12968445,end
timer_stats,698208387621416,PAPI_L3_TCM,2,123.33123779, 11.14039612,end
timer_stats,698208388790037,PAPI_L3_TCM,1,123.44744873, 11.15324402,end
timer_stats,698208389977427,PAPI_L3_TCM,1,123.68927002, 11.17617798,end
timer_stats,698208391170228,PAPI_L3_TCM,1,123.80413818, 11.18707275,end
timer_stats,698208392330316,PAPI_L3_TCM,3,123.92425537, 11.19815063,end
timer_stats,698208393499494,PAPI_L3_TCM,0,124.04064941, 11.20884705,end
timer_stats,698208394692034,PAPI_L3_TCM,2,124.15893555, 11.22166443,end
timer_stats,698208395885408,PAPI_L3_TCM,0,124.26867676, 11.23721313,end
timer_stats,698208397058410,PAPI_L3_TCM,2,124.50427246, 11.25332642,end
timer_stats,698208398214667,PAPI_L3_TCM,1,124.62127685, 11.26429749,end
timer_stats,698208399417258,PAPI_L3_TCM,1,124.74053955, 11.27497864,end
timer_stats,698208400612986,PAPI_L3_TCM,0,124.86169433, 11.28498840,end
timer_stats,698208401818507,PAPI_L3_TCM,2,124.97003174, 11.29817200,end
timer_stats,698208403033799,PAPI_L3_TCM,2,125.20373535, 11.32342529,end
timer_stats,698208404230963,PAPI_L3_TCM,5,125.31158447, 11.33392334,end
timer_stats,698208405404820,PAPI_L3_TCM,3,125.42761230, 11.34507751,end
timer_stats,698208406599764,PAPI_L3_TCM,6,125.53570557, 11.35537720,end
timer_stats,698208407785442,PAPI_L3_TCM,1,125.64672852, 11.36587524,end
timer_stats,698208408977590,PAPI_L3_TCM,5,125.87493896, 11.38800049,end
timer_stats,698208410183125,PAPI_L3_TCM,0,125.98669433, 11.39897156,end
timer_stats,698208411385505,PAPI_L3_TCM,4,126.09729004, 11.40989685,end
timer_stats,698208412584273,PAPI_L3_TCM,2,126.20428467, 11.42088318,end
timer_stats,698208413788874,PAPI_L3_TCM,4,126.31677246, 11.43223572,end
timer_stats,698208414988272,PAPI_L3_TCM,1,126.54931640, 11.45359802,end
timer_stats,698208416164406,PAPI_L3_TCM,6,126.66168213, 11.46453857,end
timer_stats,698208417311837,PAPI_L3_TCM,4,126.77868652, 11.47637939,end
timer_stats,698208418518075,PAPI_L3_TCM,2,126.89331055, 11.48728943,end
timer_stats,698208419716642,PAPI_L3_TCM,2,127.01171875, 11.49815369,end
timer_stats,698208420918534,PAPI_L3_TCM,1,127.23394775, 11.51982117,end
timer_stats,698208422125561,PAPI_L3_TCM,0,127.35284424, 11.53260803,end
timer_stats,698208423331373,PAPI_L3_TCM,3,127.47583008, 11.54722595,end
timer_stats,698208424527170,PAPI_L3_TCM,0,127.57733154, 11.55883789,end
timer_stats,698208425738567,PAPI_L3_TCM,4,127.70617676, 11.57058716,end
timer_stats,698208426942522,PAPI_L3_TCM,2,127.85406494, 11.58692932,end
timer_stats,698208428147853,PAPI_L3_TCM,1,128.03057861, 11.60273743,end
timer_stats,698208429318484,PAPI_L3_TCM,0,128.14062500, 11.61303711,end
timer_stats,698208430518979,PAPI_L3_TCM,1,128.25109863, 11.62353516,end
timer_stats,698208431736983,PAPI_L3_TCM,0,128.36346435, 11.63378906,end
timer_stats,698208432938760,PAPI_L3_TCM,2,128.54113769, 11.64987182,end
timer_stats,698208434138175,PAPI_L3_TCM,7,128.69952392, 11.66693115,end
timer_stats,698208435343349,PAPI_L3_TCM,6,128.80523682, 11.67715454,end
timer_stats,698208436551467,PAPI_L3_TCM,1,128.91949463, 11.68972778,end
timer_stats,698208437765428,PAPI_L3_TCM,2,129.03540039, 11.70021057,end
timer_stats,698208438953243,PAPI_L3_TCM,0,129.21026611, 11.71553039,end
timer_stats,698208440153124,PAPI_L3_TCM,2,129.36517334, 11.73132324,end
timer_stats,698208441318908,PAPI_L3_TCM,0,129.48986816, 11.74151611,end
timer_stats,698208442504738,PAPI_L3_TCM,2,129.58868408, 11.75190735,end
timer_stats,698208443703400,PAPI_L3_TCM,0,129.70971680, 11.76240540,end
timer_stats,698208444902014,PAPI_L3_TCM,5,129.86773682, 11.77819824,end
timer_stats,698208446101059,PAPI_L3_TCM,0,130.03247070, 11.79365540,end
timer_stats,698208447303380,PAPI_L3_TCM,1,130.15338135, 11.80393982,end
timer_stats,698208448510284,PAPI_L3_TCM,0,130.25756836, 11.81428528,end
timer_stats,698208449708055,PAPI_L3_TCM,1,130.36694336, 11.82458496,end
timer_stats,698208450896163,PAPI_L3_TCM,0,130.49444580, 11.83459473,end
timer_stats,698208452094983,PAPI_L3_TCM,2,130.70086670, 11.85507202,end
timer_stats,698208453262735,PAPI_L3_TCM,0,130.81396484, 11.86512756,end
timer_stats,698208454459582,PAPI_L3_TCM,2,130.93859863, 11.87535095,end
timer_stats,698208455656076,PAPI_L3_TCM,0,131.03338623, 11.88577270,end
timer_stats,698208456858471,PAPI_L3_TCM,2,131.15002441, 11.89627075,end
timer_stats,698208458055262,PAPI_L3_TCM,0,131.36987304, 11.91712952,end
timer_stats,698208459241180,PAPI_L3_TCM,1,131.49121094, 11.92759705,end
timer_stats,698208460425731,PAPI_L3_TCM,3,131.60589599, 11.93785095,end
timer_stats,698208461611308,PAPI_L3_TCM,5,131.71112060, 11.94883728,end
timer_stats,698208463112188,PAPI_L3_TCM,6,131.88543701, 11.96484375,end
timer_stats,698208464283828,PAPI_L3_TCM,2,132.04724121, 11.98263550,end
timer_stats,698208465457916,PAPI_L3_TCM,0,132.17028809, 11.99476624,end
timer_stats,698208466643016,PAPI_L3_TCM,1,132.26947021, 12.00532532,end
timer_stats,698208467826615,PAPI_L3_TCM,1,132.38580322, 12.01625061,end
timer_stats,698208469020489,PAPI_L3_TCM,1,132.54895020, 12.02980041,end
timer_stats,698208470204640,PAPI_L3_TCM,1,132.71337891, 12.04635620,end
timer_stats,698208471405584,PAPI_L3_TCM,3,132.81909180, 12.05685425,end
timer_stats,698208472600542,PAPI_L3_TCM,1,132.92639160, 12.06781006,end
timer_stats,698208473791680,PAPI_L3_TCM,2,133.03399658, 12.07855224,end
timer_stats,698208474974487,PAPI_L3_TCM,0,133.22760010, 12.09664917,end
timer_stats,698208476167878,PAPI_L3_TCM,1,133.27648926, 12.10202026,end
timer_stats,698208477342489,PAPI_L3_TCM,0,133.45190429, 12.11764526,end
timer_stats,698208478528420,PAPI_L3_TCM,2,133.54425049, 12.12649536,end
timer_stats,698208479723124,PAPI_L3_TCM,0,133.64874267, 12.13699341,end
timer_stats,698208480919502,PAPI_L3_TCM,2,133.76593017, 12.15194702,end
timer_stats,698208482119323,PAPI_L3_TCM,0,133.90313721, 12.16622925,end
timer_stats,698208483302111,PAPI_L3_TCM,2,134.06707764, 12.17501831,end
timer_stats,698208484502246,PAPI_L3_TCM,0,134.16522217, 12.18380737,end
timer_stats,698208485706056,PAPI_L3_TCM,1,134.26611328, 12.19387817,end
timer_stats,698208486888757,PAPI_L3_TCM,0,134.35455322, 12.20426941,end
timer_stats,698208488102799,PAPI_L3_TCM,2,134.50640869, 12.21836853,end
timer_stats,698208489265686,PAPI_L3_TCM,0,134.65692139, 12.23277283,end
timer_stats,698208490458553,PAPI_L3_TCM,2,134.75964355, 12.24174499,end
timer_stats,698208491658908,PAPI_L3_TCM,0,134.86083984, 12.25048828,end
timer_stats,698208492854289,PAPI_L3_TCM,3,134.94885254, 12.26089478,end
timer_stats,698208494048613,PAPI_L3_TCM,3,135.10211182, 12.27259827,end
timer_stats,698208495245955,PAPI_L3_TCM,1,135.25604248, 12.28712463,end
timer_stats,698208496441885,PAPI_L3_TCM,1,135.33959961, 12.29576111,end
timer_stats,698208497637037,PAPI_L3_TCM,1,135.45452881, 12.30574036,end
timer_stats,698208498817851,PAPI_L3_TCM,1,135.53912353, 12.31465149,end
timer_stats,698208499997902,PAPI_L3_TCM,2,135.69293213, 12.32720947,end
timer_stats,698208501211499,PAPI_L3_TCM,1,135.84649658, 12.34263611,end
timer_stats,698208502412507,PAPI_L3_TCM,2,135.94799805, 12.35246277,end
timer_stats,698208503606235,PAPI_L3_TCM,0,136.04205322, 12.36129761,end
timer_stats,698208504801549,PAPI_L3_TCM,1,136.14617920, 12.37005615,end
timer_stats,698208505996764,PAPI_L3_TCM,0,136.27728271, 12.38412476,end
timer_stats,698208507181428,PAPI_L3_TCM,1,136.44622803, 12.39947510,end
timer_stats,698208508383748,PAPI_L3_TCM,1,136.55017090, 12.40975952,end
timer_stats,698208509581937,PAPI_L3_TCM,3,136.64685059, 12.41835022,end
timer_stats,698208510763261,PAPI_L3_TCM,0,136.74591064, 12.42893982,end
timer_stats,698208511957522,PAPI_L3_TCM,2,136.89459228, 12.43898010,end
timer_stats,698208513168430,PAPI_L3_TCM,1,137.04791260, 12.45941162,end
timer_stats,698208514360820,PAPI_L3_TCM,1,137.14587402, 12.47000122,end
timer_stats,698208515557399,PAPI_L3_TCM,0,137.24920654, 12.48001098,end
timer_stats,698208516748723,PAPI_L3_TCM,1,137.34777832, 12.48881531,end
timer_stats,698208517917447,PAPI_L3_TCM,0,137.45269775, 12.49732971,end
timer_stats,698208519090701,PAPI_L3_TCM,2,137.59509277, 12.51173401,end
timer_stats,698208520285692,PAPI_L3_TCM,1,137.74084472, 12.52574158,end
timer_stats,698208521452013,PAPI_L3_TCM,2,137.84155273, 12.53453064,end
timer_stats,698208522644258,PAPI_L3_TCM,0,137.94885254, 12.54455566,end
timer_stats,698208523841055,PAPI_L3_TCM,1,138.04699707, 12.55468750,end
timer_stats,698208525036619,PAPI_L3_TCM,0,138.18536377, 12.57046509,end
timer_stats,698208526203117,PAPI_L3_TCM,1,138.34863281, 12.58587646,end
timer_stats,698208527397575,PAPI_L3_TCM,0,138.44531250, 12.59643555,end
timer_stats,698208528589976,PAPI_L3_TCM,2,138.54736328, 12.60668945,end
timer_stats,698208529792590,PAPI_L3_TCM,0,138.64721680, 12.61688232,end
timer_stats,698208530974368,PAPI_L3_TCM,2,138.74719238, 12.62542724,end
timer_stats,698208532172315,PAPI_L3_TCM,1,138.94354248, 12.64071655,end
timer_stats,698208533338116,PAPI_L3_TCM,1,139.04290771, 12.65081787,end
timer_stats,698208534530071,PAPI_L3_TCM,0,139.14178467, 12.66064453,end
timer_stats,698208535723152,PAPI_L3_TCM,1,139.24536133, 12.67071533,end
timer_stats,698208536916007,PAPI_L3_TCM,0,139.34844971, 12.68099976,end
timer_stats,698208538102681,PAPI_L3_TCM,2,139.49743652, 12.69537353,end
timer_stats,698208539286348,PAPI_L3_TCM,0,139.65246582, 12.71264648,end
timer_stats,698208540486466,PAPI_L3_TCM,3,139.75744629, 12.72314453,end
timer_stats,698208541667697,PAPI_L3_TCM,1,139.85650635, 12.73345947,end
timer_stats,698208542845818,PAPI_L3_TCM,1,139.96032715, 12.74241638,end
timer_stats,698208544029378,PAPI_L3_TCM,2,140.06616211, 12.75291443,end
timer_stats,698208545194977,PAPI_L3_TCM,2,140.28454590, 12.77365112,end
timer_stats,698208546375514,PAPI_L3_TCM,2,140.39361572, 12.78460693,end
timer_stats,698208547567865,PAPI_L3_TCM,2,140.49462891, 12.79515075,end
timer_stats,698208548760930,PAPI_L3_TCM,0,140.60076904, 12.80516052,end
timer_stats,698208549954094,PAPI_L3_TCM,2,140.69970703, 12.81571960,end
timer_stats,698208551155564,PAPI_L3_TCM,0,140.84216309, 12.83146667,end
timer_stats,698208552347449,PAPI_L3_TCM,2,141.00079346, 12.84642029,end
timer_stats,698208553512817,PAPI_L3_TCM,0,141.10498047, 12.85667419,end
timer_stats,698208554705867,PAPI_L3_TCM,2,141.20202637, 12.86723328,end
timer_stats,698208555886025,PAPI_L3_TCM,0,141.30694580, 12.87751770,end
timer_stats,698208557078710,PAPI_L3_TCM,2,141.39916992, 12.88807678,end
timer_stats,698208558258960,PAPI_L3_TCM,0,141.59844971, 12.90824890,end
timer_stats,698208559440229,PAPI_L3_TCM,2,141.69360351, 12.91835022,end
timer_stats,698208560635256,PAPI_L3_TCM,0,141.78741455, 12.92715454,end
timer_stats,698208561826157,PAPI_L3_TCM,1,141.88867187, 12.93739319,end
timer_stats,698208563007242,PAPI_L3_TCM,0,141.98449707, 12.94721985,end
timer_stats,698208564192816,PAPI_L3_TCM,1,142.17419434, 12.96763611,end
timer_stats,698208565356546,PAPI_L3_TCM,0,142.27087402, 12.97796631,end
timer_stats,698208566539724,PAPI_L3_TCM,2,142.35845947, 12.98629761,end
timer_stats,698208567718939,PAPI_L3_TCM,0,142.44726562, 12.99638367,end
timer_stats,698208568909633,PAPI_L3_TCM,2,142.54040527, 13.00645447,end
timer_stats,698208570092490,PAPI_L3_TCM,0,142.63378906, 13.01676941,end
timer_stats,698208571273522,PAPI_L3_TCM,1,142.81347656, 13.03717041,end
timer_stats,698208572452686,PAPI_L3_TCM,1,142.90411377, 13.04772949,end
timer_stats,698208573643563,PAPI_L3_TCM,1,142.99676514, 13.05780029,end
timer_stats,698208574832921,PAPI_L3_TCM,0,143.08435059, 13.06811523,end
timer_stats,698208576046925,PAPI_L3_TCM,3,143.17340088, 13.07818603,end
timer_stats,698208577214326,PAPI_L3_TCM,3,143.34960937, 13.09835815,end
timer_stats,698208578405628,PAPI_L3_TCM,2,143.43365478, 13.10800171,end
timer_stats,698208579595048,PAPI_L3_TCM,0,143.52459717, 13.11830139,end
timer_stats,698208580788606,PAPI_L3_TCM,1,143.61132812, 13.12837219,end
timer_stats,698208581976544,PAPI_L3_TCM,0,143.69830322, 13.13717651,end
timer_stats,698208583167125,PAPI_L3_TCM,1,143.87420654, 13.15759277,end
timer_stats,698208584352510,PAPI_L3_TCM,3,143.96917724, 13.16830444,end
timer_stats,698208585518947,PAPI_L3_TCM,2,144.05737305, 13.17924499,end
timer_stats,698208586697754,PAPI_L3_TCM,0,144.14343262, 13.18955994,end
timer_stats,698208587878465,PAPI_L3_TCM,2,144.23681641, 13.20005798,end
timer_stats,698208589058773,PAPI_L3_TCM,0,144.32843017, 13.21034241,end
timer_stats,698208590239697,PAPI_L3_TCM,1,144.50354004, 13.23121643,end
timer_stats,698208591419805,PAPI_L3_TCM,0,144.59417724, 13.24153137,end
timer_stats,698208592600592,PAPI_L3_TCM,2,144.68017578, 13.25187683,end
timer_stats,698208593753097,PAPI_L3_TCM,1,144.78186035, 13.26280212,end
timer_stats,698208594907204,PAPI_L3_TCM,4,144.87628174, 13.27401733,end
timer_stats,698208596091052,PAPI_L3_TCM,1,144.97070312, 13.28405762,end
timer_stats,698208597253473,PAPI_L3_TCM,2,145.14886474, 13.30444336,end
timer_stats,698208598435661,PAPI_L3_TCM,0,145.24102783, 13.31475830,end
timer_stats,698208599616968,PAPI_L3_TCM,1,145.33416748, 13.32507324,end
timer_stats,698208600799732,PAPI_L3_TCM,0,145.42395019, 13.33541870,end
timer_stats,698208601980774,PAPI_L3_TCM,1,145.51416016, 13.34576416,end
timer_stats,698208603165371,PAPI_L3_TCM,0,145.69592285, 13.36703491,end
timer_stats,698208604362708,PAPI_L3_TCM,3,145.78997803, 13.37731933,end
timer_stats,698208605529213,PAPI_L3_TCM,0,145.88201904, 13.38764953,end
timer_stats,698208606722981,PAPI_L3_TCM,2,145.97943115, 13.39772034,end
timer_stats,698208607917309,PAPI_L3_TCM,0,146.07128906, 13.40803528,end
timer_stats,698208609132813,PAPI_L3_TCM,1,146.20880127, 13.42396545,end
timer_stats,698208610314494,PAPI_L3_TCM,0,146.36077881, 13.43913269,end
timer_stats,698208611492838,PAPI_L3_TCM,1,146.45587158, 13.44920349,end
timer_stats,698208612672153,PAPI_L3_TCM,1,146.54968262, 13.46000671,end
timer_stats,698208613872303,PAPI_L3_TCM,1,146.63940430, 13.47035217,end
timer_stats,698208615062214,PAPI_L3_TCM,1,146.73498535, 13.48066711,end
timer_stats,698208616247862,PAPI_L3_TCM,3,146.93487549, 13.50189209,end
timer_stats,698208617414990,PAPI_L3_TCM,0,147.03961182, 13.51239014,end
timer_stats,698208618609797,PAPI_L3_TCM,2,147.14398193, 13.52500915,end
timer_stats,698208619804639,PAPI_L3_TCM,0,147.23937988, 13.53660583,end
timer_stats,698208620999913,PAPI_L3_TCM,1,147.34991455, 13.54673767,end
timer_stats,698208622195697,PAPI_L3_TCM,0,147.55041504, 13.56932068,end
timer_stats,698208623389015,PAPI_L3_TCM,2,147.65106201, 13.58027649,end
timer_stats,698208624570396,PAPI_L3_TCM,2,147.76257324, 13.59071350,end
timer_stats,698208625717806,PAPI_L3_TCM,2,147.86383057, 13.60287475,end
timer_stats,698208626869800,PAPI_L3_TCM,2,147.97882080, 13.61392212,end
timer_stats,698208628032288,PAPI_L3_TCM,2,148.09063721, 13.62458801,end
timer_stats,698208629187043,PAPI_L3_TCM,0,148.28887939, 13.64588928,end
timer_stats,698208630368597,PAPI_L3_TCM,1,148.39813232, 13.65591430,end
timer_stats,698208631551915,PAPI_L3_TCM,1,148.50006103, 13.66604614,end
timer_stats,698208632733789,PAPI_L3_TCM,1,148.60729980, 13.67654419,end
timer_stats,698208633915896,PAPI_L3_TCM,0,148.70581055, 13.68692017,end
timer_stats,698208635108321,PAPI_L3_TCM,2,148.80749512, 13.69741821,end
timer_stats,698208636309469,PAPI_L3_TCM,1,148.99981689, 13.71826172,end
timer_stats,698208637504029,PAPI_L3_TCM,1,149.09436035, 13.72857666,end
timer_stats,698208638694563,PAPI_L3_TCM,0,149.19281006, 13.73977661,end
timer_stats,698208639886122,PAPI_L3_TCM,1,149.28613281, 13.75119018,end
timer_stats,698208641078052,PAPI_L3_TCM,1,149.42864990, 13.76193237,end
timer_stats,698208642269407,PAPI_L3_TCM,1,149.52514648, 13.78268432,end
timer_stats,698208643460178,PAPI_L3_TCM,0,149.67095947, 13.79319763,end
timer_stats,698208644652005,PAPI_L3_TCM,3,149.76196289, 13.80375671,end
timer_stats,698208645842070,PAPI_L3_TCM,0,149.86016846, 13.81376648,end
timer_stats,698208647038498,PAPI_L3_TCM,1,149.95715332, 13.82405090,end
timer_stats,698208648180522,PAPI_L3_TCM,1,150.10406494, 13.83969116,end
timer_stats,698208649372282,PAPI_L3_TCM,1,150.24774170, 13.85533142,end
timer_stats,698208650562047,PAPI_L3_TCM,0,150.34350586, 13.86561584,end
timer_stats,698208651753238,PAPI_L3_TCM,1,150.43725586, 13.87660217,end
timer_stats,698208652931769,PAPI_L3_TCM,1,150.53424072, 13.88710022,end
timer_stats,698208654120700,PAPI_L3_TCM,1,150.63439941, 13.89735412,end
timer_stats,698208655299471,PAPI_L3_TCM,0,150.82373047, 13.91865539,end
timer_stats,698208656478369,PAPI_L3_TCM,2,150.92303467, 13.92915344,end
timer_stats,698208657657840,PAPI_L3_TCM,3,151.01531982, 13.94038391,end
timer_stats,698208658837247,PAPI_L3_TCM,1,151.11541748, 13.95130920,end
timer_stats,698208660033771,PAPI_L3_TCM,2,151.20898437, 13.96382141,end
timer_stats,698208661199976,PAPI_L3_TCM,2,151.35681152, 13.98193359,end
timer_stats,698208662392094,PAPI_L3_TCM,0,151.50012207, 13.99789429,end
timer_stats,698208663583264,PAPI_L3_TCM,2,151.59411621, 14.00886536,end
timer_stats,698208664775886,PAPI_L3_TCM,1,151.69464111, 14.01979065,end
timer_stats,698208665965993,PAPI_L3_TCM,1,151.78814697, 14.03135681,end
timer_stats,698208667157937,PAPI_L3_TCM,1,151.93518066, 14.04765320,end
timer_stats,698208668339109,PAPI_L3_TCM,4,152.07775879, 14.05909729,end
timer_stats,698208669501633,PAPI_L3_TCM,0,152.17089844, 14.06965637,end
timer_stats,698208670693500,PAPI_L3_TCM,5,152.26629639, 14.08018494,end
timer_stats,698208671882989,PAPI_L3_TCM,10,152.36431885, 14.09046936,end
timer_stats,698208673076306,PAPI_L3_TCM,9,152.45770264, 14.10194397,end
timer_stats,698208674266963,PAPI_L3_TCM,0,152.65093994, 14.12294006,end
timer_stats,698208675456977,PAPI_L3_TCM,1,152.74566650, 14.13346863,end
timer_stats,698208676650502,PAPI_L3_TCM,1,152.84381103, 14.14375305,end
timer_stats,698208677840343,PAPI_L3_TCM,1,152.93792724, 14.15408325,end
timer_stats,698208679032641,PAPI_L3_TCM,1,153.03204346, 14.16441345,end
timer_stats,698208680223965,PAPI_L3_TCM,3,153.17779541, 14.17985535,end
timer_stats,698208681417473,PAPI_L3_TCM,1,153.32049560, 14.19532776,end
timer_stats,698208682609758,PAPI_L3_TCM,2,153.41534424, 14.20564270,end
timer_stats,698208683802322,PAPI_L3_TCM,0,153.50994873, 14.21595764,end
timer_stats,698208684940576,PAPI_L3_TCM,2,153.61016846, 14.22624206,end
timer_stats,698208686106096,PAPI_L3_TCM,0,153.70452881, 14.23678589,end
timer_stats,698208687297341,PAPI_L3_TCM,1,153.89532471, 14.25762939,end
timer_stats,698208688488585,PAPI_L3_TCM,1,153.98797607, 14.26773071,end
timer_stats,698208689679759,PAPI_L3_TCM,3,154.08587646, 14.27801514,end
timer_stats,698208690869954,PAPI_L3_TCM,0,154.18017578, 14.28857422,end
timer_stats,698208692062285,PAPI_L3_TCM,7,154.27575684, 14.30020142,end
timer_stats,698208693253597,PAPI_L3_TCM,2,154.42260742, 14.31652832,end
timer_stats,698208694454781,PAPI_L3_TCM,1,154.56475830, 14.33256531,end
timer_stats,698208695644571,PAPI_L3_TCM,0,154.65740967, 14.34306335,end
timer_stats,698208696835716,PAPI_L3_TCM,2,154.75408935, 14.35472107,end
timer_stats,698208698027187,PAPI_L3_TCM,0,154.85107422, 14.36497498,end
timer_stats,698208699221761,PAPI_L3_TCM,2,154.98968506, 14.38072205,end
timer_stats,698208700413778,PAPI_L3_TCM,1,155.13861084, 14.39637756,end
timer_stats,698208701603747,PAPI_L3_TCM,2,155.23144531, 14.40644836,end
timer_stats,698208702794974,PAPI_L3_TCM,0,155.32592773, 14.41677856,end
timer_stats,698208703985969,PAPI_L3_TCM,0,155.42089844, 14.42709351,end
timer_stats,698208705183486,PAPI_L3_TCM,2,155.51641846, 14.43760681,end
timer_stats,698208706376087,PAPI_L3_TCM,1,155.71496582, 14.45817566,end
timer_stats,698208707565555,PAPI_L3_TCM,0,155.80578613, 14.46852112,end
timer_stats,698208708757039,PAPI_L3_TCM,3,155.89984131, 14.47911072,end
timer_stats,698208709948640,PAPI_L3_TCM,1,155.99945068, 14.48939514,end
timer_stats,698208711112067,PAPI_L3_TCM,2,156.09307861, 14.49928284,end
timer_stats,698208712276836,PAPI_L3_TCM,2,156.23431396, 14.51502991,end
timer_stats,698208713466310,PAPI_L3_TCM,0,156.37963867, 14.53047180,end
timer_stats,698208714659911,PAPI_L3_TCM,0,156.47442627, 14.54078674,end
timer_stats,698208715850535,PAPI_L3_TCM,2,156.57000732, 14.55110168,end
timer_stats,698208717042769,PAPI_L3_TCM,1,156.67047119, 14.56111145,end
timer_stats,698208718243601,PAPI_L3_TCM,2,156.80957031, 14.57662964,end
timer_stats,698208719407142,PAPI_L3_TCM,0,156.95343017, 14.59211731,end
timer_stats,698208720601062,PAPI_L3_TCM,4,157.04949951, 14.60243225,end
timer_stats,698208721792276,PAPI_L3_TCM,0,157.14508057, 14.61250305,end
timer_stats,698208722983671,PAPI_L3_TCM,0,157.24218750, 14.62260437,end
timer_stats,698208724178199,PAPI_L3_TCM,1,157.33862305, 14.63316345,end
timer_stats,698208725368216,PAPI_L3_TCM,1,157.53076172, 14.65400696,end
timer_stats,698208726559178,PAPI_L3_TCM,0,157.62243652, 14.66413879,end
timer_stats,698208727748842,PAPI_L3_TCM,2,157.71948242, 14.67445374,end
timer_stats,698208728941402,PAPI_L3_TCM,1,157.81396484, 14.68479919,end
timer_stats,698208730133687,PAPI_L3_TCM,3,157.90893555, 14.69557190,end
timer_stats,698208731325161,PAPI_L3_TCM,0,158.05035400, 14.71772766,end
timer_stats,698208732516686,PAPI_L3_TCM,2,158.19421387, 14.72773743,end
timer_stats,698208733709220,PAPI_L3_TCM,0,158.28588867, 14.73783874,end
timer_stats,698208734908311,PAPI_L3_TCM,1,158.39025879, 14.74917603,end
timer_stats,698208736103232,PAPI_L3_TCM,1,158.48394775, 14.76031494,end
timer_stats,698208737295133,PAPI_L3_TCM,2,158.57720947, 14.77130127,end
timer_stats,698208738485971,PAPI_L3_TCM,0,158.76800537, 14.79299927,end
timer_stats,698208739677981,PAPI_L3_TCM,4,158.86596680, 14.80343628,end
timer_stats,698208740868320,PAPI_L3_TCM,1,158.96319580, 14.81393432,end
timer_stats,698208742059650,PAPI_L3_TCM,2,159.05865478, 14.82464599,end
timer_stats,698208743222322,PAPI_L3_TCM,1,159.20190430, 14.84051514,end
timer_stats,698208744385409,PAPI_L3_TCM,1,159.29852295, 14.85597229,end
timer_stats,698208745576183,PAPI_L3_TCM,3,159.44958496, 14.86647034,end
timer_stats,698208746766987,PAPI_L3_TCM,2,159.54534912, 14.87699890,end
timer_stats,698208747958729,PAPI_L3_TCM,1,159.63787842, 14.88713074,end
timer_stats,698208749154783,PAPI_L3_TCM,3,159.72845459, 14.89768982,end
timer_stats,698208750318964,PAPI_L3_TCM,0,159.91571045, 14.91831970,end
timer_stats,698208751510692,PAPI_L3_TCM,1,160.01409912, 14.92881775,end
timer_stats,698208752703093,PAPI_L3_TCM,1,160.10375977, 14.93894958,end
timer_stats,698208753895273,PAPI_L3_TCM,0,160.20068359, 14.94902038,end
timer_stats,698208755091358,PAPI_L3_TCM,2,160.30926514, 14.95903015,end
timer_stats,698208756255236,PAPI_L3_TCM,3,160.39526367, 14.96916199,end
timer_stats,698208757447316,PAPI_L3_TCM,0,160.58129883, 14.98960876,end
timer_stats,698208758642805,PAPI_L3_TCM,3,160.68096924, 14.99986267,end
timer_stats,698208759818382,PAPI_L3_TCM,384,160.77392578, 15.01020813,end
timer_stats,698208761011086,PAPI_L3_TCM,2,160.88250732, 15.02046204,end
timer_stats,698208762205924,PAPI_L3_TCM,10,160.96844482, 15.03059387,end
timer_stats,698208763395302,PAPI_L3_TCM,1,161.12384033, 15.04061890,end
timer_stats,698208764586236,PAPI_L3_TCM,1,161.25506592, 15.05722046,end
timer_stats,698208765776994,PAPI_L3_TCM,2,161.35034180, 15.06726074,end
timer_stats,698208766937491,PAPI_L3_TCM,0,161.45568848, 15.07818603,end
timer_stats,698208768131619,PAPI_L3_TCM,3,161.55572510, 15.08865356,end
timer_stats,698208769332707,PAPI_L3_TCM,0,161.68676758, 15.10507202,end
timer_stats,698208770522538,PAPI_L3_TCM,1,161.84130859, 15.12081909,end
timer_stats,698208771712832,PAPI_L3_TCM,0,161.94024658, 15.13108826,end
timer_stats,698208772875216,PAPI_L3_TCM,2,162.03405762, 15.14115906,end
timer_stats,698208774063587,PAPI_L3_TCM,0,162.13177490, 15.15167236,end
timer_stats,698208775265901,PAPI_L3_TCM,3,162.22802734, 15.16241455,end
timer_stats,698208776453962,PAPI_L3_TCM,1,162.41241455, 15.18307495,end
timer_stats,698208777642440,PAPI_L3_TCM,2,162.51287842, 15.19357300,end
timer_stats,698208778829974,PAPI_L3_TCM,0,162.60968017, 15.20410156,end
timer_stats,698208780030249,PAPI_L3_TCM,2,162.69445801, 15.21450806,end
timer_stats,698208781200200,PAPI_L3_TCM,0,162.79064941, 15.22476196,end
timer_stats,698208782393324,PAPI_L3_TCM,2,162.92932129, 15.24026489,end
timer_stats,698208783581532,PAPI_L3_TCM,0,163.08508301, 15.25079346,end
timer_stats,698208784769406,PAPI_L3_TCM,2,163.17791748, 15.26092529,end
timer_stats,698208785955377,PAPI_L3_TCM,0,163.27441406, 15.27078247,end
timer_stats,698208787147594,PAPI_L3_TCM,2,163.36932373, 15.28111267,end
timer_stats,698208788334603,PAPI_L3_TCM,1,163.46789551, 15.29139709,end
timer_stats,698208789526137,PAPI_L3_TCM,1,163.65667724, 15.31230164,end
timer_stats,698208790713928,PAPI_L3_TCM,0,163.75689697, 15.32234192,end
timer_stats,698208791900369,PAPI_L3_TCM,1,163.84197998, 15.33274841,end
timer_stats,698208793089330,PAPI_L3_TCM,1,163.94573974, 15.34251404,end
timer_stats,698208794277611,PAPI_L3_TCM,1,164.04010010, 15.35307312,end
timer_stats,698208795465975,PAPI_L3_TCM,0,164.22796631, 15.37371826,end
timer_stats,698208796646646,PAPI_L3_TCM,3,164.32238769, 15.38406372,end
timer_stats,698208797835310,PAPI_L3_TCM,0,164.41558838, 15.39440918,end
timer_stats,698208799016505,PAPI_L3_TCM,1,164.52380371, 15.40438843,end
timer_stats,698208800197516,PAPI_L3_TCM,1,164.61859131, 15.41473389,end
timer_stats,698208801373603,PAPI_L3_TCM,1,164.75128174, 15.43005371,end
timer_stats,698208802550488,PAPI_L3_TCM,3,164.90228271, 15.44549560,end
timer_stats,698208803751579,PAPI_L3_TCM,4,165.00842285, 15.45614624,end
timer_stats,698208804932380,PAPI_L3_TCM,1,165.10412598, 15.46646118,end
timer_stats,698208806111841,PAPI_L3_TCM,2,165.19232178, 15.47682190,end
timer_stats,698208807290835,PAPI_L3_TCM,0,165.33020019, 15.49256897,end
timer_stats,698208808479259,PAPI_L3_TCM,3,165.47845459, 15.50865173,end
timer_stats,698208809666711,PAPI_L3_TCM,2,165.57025146, 15.51942444,end
timer_stats,698208828871980,PAPI_L3_TCM,338,167.99279785, 15.77705383,end
timer_stats,698208829984487,PAPI_L3_TCM,137,168.11560059, 15.78746033,end
timer_stats,698208831081830,PAPI_L3_TCM,9,168.23730469, 15.79795837,end
timer_stats,698208832182907,PAPI_L3_TCM,5,168.36444092, 15.80821228,end
timer_stats,698208833292090,PAPI_L3_TCM,5,168.48059082, 15.81877136,end
timer_stats,698208834389404,PAPI_L3_TCM,4,168.65075684, 15.83428955,end
timer_stats,698208835486263,PAPI_L3_TCM,1,168.82342529, 15.85018921,end
timer_stats,698208836583194,PAPI_L3_TCM,2,168.96203613, 15.86083984,end
timer_stats,698208837680275,PAPI_L3_TCM,1,169.07592773, 15.87139892,end
timer_stats,698208838776493,PAPI_L3_TCM,0,169.20208740, 15.87655639,end
timer_stats,698208839872683,PAPI_L3_TCM,2,169.32489014, 15.88705444,end
timer_stats,698208840943077,PAPI_L3_TCM,2,169.42785644, 15.89746094,end
timer_stats,698208842039818,PAPI_L3_TCM,1,169.55981445, 15.90768432,end
timer_stats,698208843137187,PAPI_L3_TCM,0,169.67608642, 15.91867065,end
timer_stats,698208844235753,PAPI_L3_TCM,3,169.80694580, 15.92916870,end
timer_stats,698208845335108,PAPI_L3_TCM,2,169.93218994, 15.94128418,end
timer_stats,698208846432773,PAPI_L3_TCM,1,170.04779053, 15.95199585,end
timer_stats,698208847529711,PAPI_L3_TCM,0,170.28747559, 15.97299194,end
timer_stats,698208848626452,PAPI_L3_TCM,4,170.40557861, 15.98373413,end
timer_stats,698208849722712,PAPI_L3_TCM,0,170.52557373, 15.99423218,end
timer_stats,698208850807144,PAPI_L3_TCM,2,170.64373779, 16.00473022,end
timer_stats,698208851904988,PAPI_L3_TCM,0,170.77453613, 16.01632690,end
timer_stats,698208853003051,PAPI_L3_TCM,5,170.88531494, 16.02871704,end
timer_stats,698208854087907,PAPI_L3_TCM,2,170.99566650, 16.03915405,end
timer_stats,698208855186121,PAPI_L3_TCM,4,171.13061523, 16.05050659,end
timer_stats,698208856283143,PAPI_L3_TCM,4,171.24450684, 16.06146240,end
timer_stats,698208857352752,PAPI_L3_TCM,2,171.36047363, 16.07281494,end
timer_stats,698208858435119,PAPI_L3_TCM,3,171.54119873, 16.08367920,end
timer_stats,698208859533433,PAPI_L3_TCM,7,171.71856689, 16.10543823,end
timer_stats,698208860630202,PAPI_L3_TCM,4,171.83935547, 16.11596680,end
timer_stats,698208861727531,PAPI_L3_TCM,2,171.96478271, 16.12597656,end
timer_stats,698208862810295,PAPI_L3_TCM,1,172.08593750, 16.13650513,end
timer_stats,698208863907880,PAPI_L3_TCM,3,172.21057129, 16.14700317,end
timer_stats,698208865004528,PAPI_L3_TCM,4,172.33288574, 16.15773010,end
timer_stats,698208866105074,PAPI_L3_TCM,3,172.44738769, 16.16804504,end
timer_stats,698208867188560,PAPI_L3_TCM,2,172.57702637, 16.17829895,end
timer_stats,698208868288113,PAPI_L3_TCM,4,172.69354248, 16.18843079,end
timer_stats,698208869357738,PAPI_L3_TCM,0,172.81591797, 16.19895935,end
timer_stats,698208870440290,PAPI_L3_TCM,1,172.93640137, 16.20903015,end
timer_stats,698208871536885,PAPI_L3_TCM,0,173.18292236, 16.22984314,end
timer_stats,698208872633402,PAPI_L3_TCM,3,173.30737305, 16.23991394,end
timer_stats,698208873730354,PAPI_L3_TCM,0,173.42919922, 16.25041199,end
timer_stats,698208874812784,PAPI_L3_TCM,1,173.54663086, 16.26072693,end
timer_stats,698208875909917,PAPI_L3_TCM,0,173.67462158, 16.27122497,end
timer_stats,698208877006252,PAPI_L3_TCM,3,173.79058838, 16.28172302,end
timer_stats,698208878089601,PAPI_L3_TCM,0,173.91064453, 16.29203796,end
timer_stats,698208879175212,PAPI_L3_TCM,1,174.03259277, 16.30278015,end
timer_stats,698208880272225,PAPI_L3_TCM,2,174.15625000, 16.31303406,end
timer_stats,698208881341349,PAPI_L3_TCM,1,174.27978516, 16.32307434,end
timer_stats,698208882423591,PAPI_L3_TCM,0,174.40057373, 16.33360290,end
timer_stats,698208883506308,PAPI_L3_TCM,1,174.57812500, 16.34907532,end
timer_stats,698208884602361,PAPI_L3_TCM,2,174.76348877, 16.36476135,end
timer_stats,698208885686123,PAPI_L3_TCM,0,174.87890625, 16.37532043,end
timer_stats,698208886768851,PAPI_L3_TCM,0,175.00903320, 16.38581848,end
timer_stats,698208887851463,PAPI_L3_TCM,0,175.12939453, 16.39588928,end
timer_stats,698208888947552,PAPI_L3_TCM,2,175.25311279, 16.40617371,end
timer_stats,698208890030175,PAPI_L3_TCM,0,175.37017822, 16.41673279,end
timer_stats,698208891113183,PAPI_L3_TCM,0,175.49652099, 16.42723083,end
timer_stats,698208892211601,PAPI_L3_TCM,3,175.61590576, 16.43775940,end
timer_stats,698208893281236,PAPI_L3_TCM,0,175.74206543, 16.44775390,end
timer_stats,698208894363904,PAPI_L3_TCM,1,175.86077881, 16.45785522,end
timer_stats,698208895460712,PAPI_L3_TCM,0,176.03314209, 16.47384643,end
timer_stats,698208896557592,PAPI_L3_TCM,3,176.21453857, 16.48953247,end
timer_stats,698208897653640,PAPI_L3_TCM,0,176.33062744, 16.49984741,end
timer_stats,698208898736583,PAPI_L3_TCM,1,176.45123291, 16.51013183,end
timer_stats,698208899818945,PAPI_L3_TCM,1,176.56768799, 16.52066040,end
timer_stats,698208900916309,PAPI_L3_TCM,3,176.69384766, 16.53115845,end
timer_stats,698208901999296,PAPI_L3_TCM,0,176.80487060, 16.54174805,end
timer_stats,698208903081706,PAPI_L3_TCM,1,176.92218017, 16.55227661,end
timer_stats,698208904180815,PAPI_L3_TCM,2,177.04394531, 16.56233215,end
timer_stats,698208905250132,PAPI_L3_TCM,1,177.16473389, 16.57289123,end
timer_stats,698208906332489,PAPI_L3_TCM,0,177.27990723, 16.58345032,end
timer_stats,698208907414750,PAPI_L3_TCM,0,177.39978027, 16.59397888,end
timer_stats,698208908510646,PAPI_L3_TCM,2,177.63256836, 16.61502075,end
timer_stats,698208909606673,PAPI_L3_TCM,0,177.74957275, 16.62533569,end
timer_stats,698208910689044,PAPI_L3_TCM,0,177.87463379, 16.63583374,end
timer_stats,698208911773973,PAPI_L3_TCM,6,177.99188232, 16.64611816,end
timer_stats,698208912871596,PAPI_L3_TCM,7,178.10125732, 16.65722656,end
timer_stats,698208913954374,PAPI_L3_TCM,1,178.21508789, 16.66815186,end
timer_stats,698208915036955,PAPI_L3_TCM,0,178.32562256, 16.67910767,end
timer_stats,698208916120469,PAPI_L3_TCM,3,178.43743896, 16.68960571,end
timer_stats,698208917217801,PAPI_L3_TCM,0,178.54864502, 16.69989014,end
timer_stats,698208918314339,PAPI_L3_TCM,1,178.66101074, 16.71038818,end
timer_stats,698208919411248,PAPI_L3_TCM,0,178.77490234, 16.72088623,end
timer_stats,698208920508064,PAPI_L3_TCM,3,178.94488525, 16.73654175,end
timer_stats,698208921605649,PAPI_L3_TCM,0,179.10540771, 16.75225830,end
timer_stats,698208922702135,PAPI_L3_TCM,1,179.21771240, 16.76232910,end
timer_stats,698208923798208,PAPI_L3_TCM,0,179.33227539, 16.77282715,end
timer_stats,698208924894402,PAPI_L3_TCM,3,179.43634033, 16.78338623,end
timer_stats,698208925990587,PAPI_L3_TCM,0,179.54913330, 16.79388428,end
timer_stats,698208927059366,PAPI_L3_TCM,1,179.66137695, 16.80415344,end
timer_stats,698208928128146,PAPI_L3_TCM,2,179.77337646, 16.81468201,end
timer_stats,698208929199061,PAPI_L3_TCM,1,179.88793945, 16.82493591,end
timer_stats,698208930295562,PAPI_L3_TCM,0,180.00079346, 16.83546448,end
timer_stats,698208931392218,PAPI_L3_TCM,1,180.10864258, 16.84602356,end
timer_stats,698208932488502,PAPI_L3_TCM,2,180.27929687, 16.86262512,end
timer_stats,698208933585630,PAPI_L3_TCM,1,180.44818115, 16.87829590,end
timer_stats,698208934682335,PAPI_L3_TCM,0,180.56182861, 16.88882446,end
timer_stats,698208935779313,PAPI_L3_TCM,1,180.67956543, 16.89935303,end
timer_stats,698208936876254,PAPI_L3_TCM,2,180.79748535, 16.90985107,end
timer_stats,698208937972069,PAPI_L3_TCM,0,180.90594482, 16.92041015,end
timer_stats,698208939053954,PAPI_L3_TCM,0,181.02557373, 16.93090820,end
timer_stats,698208940152593,PAPI_L3_TCM,2,181.13690185, 16.94094848,end
timer_stats,698208941222305,PAPI_L3_TCM,0,181.25213623, 16.95147705,end
timer_stats,698208942305065,PAPI_L3_TCM,0,181.36376953, 16.96154785,end
timer_stats,698208943387003,PAPI_L3_TCM,0,181.47021484, 16.97210693,end
timer_stats,698208944483575,PAPI_L3_TCM,3,181.65014648, 16.98773193,end
timer_stats,698208945580322,PAPI_L3_TCM,0,181.81256103, 17.00296021,end
timer_stats,698208946662138,PAPI_L3_TCM,1,181.92633057, 17.01327515,end
timer_stats,698208947745064,PAPI_L3_TCM,0,182.04003906, 17.02377319,end
timer_stats,698208948842110,PAPI_L3_TCM,3,182.15686035, 17.03433227,end
timer_stats,698208949924251,PAPI_L3_TCM,0,182.27008057, 17.04486084,end
timer_stats,698208951009446,PAPI_L3_TCM,4,182.38488770, 17.05514526,end
timer_stats,698208952093616,PAPI_L3_TCM,2,182.50433349, 17.06564331,end
timer_stats,698208953163119,PAPI_L3_TCM,1,182.62609863, 17.07633972,end
timer_stats,698208954257846,PAPI_L3_TCM,0,182.72949219, 17.08692932,end
timer_stats,698208955352419,PAPI_L3_TCM,0,182.84008789, 17.09745788,end
timer_stats,698208956435351,PAPI_L3_TCM,2,182.94970703, 17.10777283,end
timer_stats,698208957537106,PAPI_L3_TCM,0,183.17071533, 17.13081360,end
timer_stats,698208958631820,PAPI_L3_TCM,0,183.28454590, 17.14166260,end
timer_stats,698208959727487,PAPI_L3_TCM,0,183.39739990, 17.15209961,end
timer_stats,698208960809691,PAPI_L3_TCM,0,183.51501465, 17.16400146,end
timer_stats,698208961881552,PAPI_L3_TCM,6,183.63531494, 17.17503357,end
timer_stats,698208962950650,PAPI_L3_TCM,1,183.74731445, 17.18595886,end
timer_stats,698208964020469,PAPI_L3_TCM,3,183.85986328, 17.19712829,end
timer_stats,698208965088863,PAPI_L3_TCM,0,183.97772217, 17.20756531,end
timer_stats,698208966157237,PAPI_L3_TCM,1,184.08789062, 17.21784973,end
timer_stats,698208967225570,PAPI_L3_TCM,1,184.19757080, 17.22837829,end
timer_stats,698208968308231,PAPI_L3_TCM,3,184.30468750, 17.23893738,end
timer_stats,698208969377325,PAPI_L3_TCM,2,184.42443847, 17.24943542,end
timer_stats,698208970445113,PAPI_L3_TCM,5,184.54937744, 17.26014709,end
timer_stats,698208971512589,PAPI_L3_TCM,2,184.71838379, 17.27629089,end
timer_stats,698208972580546,PAPI_L3_TCM,1,184.90344238, 17.29141235,end
timer_stats,698208973648633,PAPI_L3_TCM,1,185.02526855, 17.30238342,end
timer_stats,698208974717548,PAPI_L3_TCM,3,185.14752197, 17.31353760,end
timer_stats,698208975785213,PAPI_L3_TCM,0,185.26501465, 17.31866455,end
timer_stats,698208976852243,PAPI_L3_TCM,2,185.37756347, 17.32943725,end
timer_stats,698208977920739,PAPI_L3_TCM,0,185.49395752, 17.33972168,end
timer_stats,698208978987969,PAPI_L3_TCM,2,185.61468506, 17.35000610,end
timer_stats,698208980055256,PAPI_L3_TCM,2,185.73382568, 17.36074829,end
timer_stats,698208981122326,PAPI_L3_TCM,2,185.85174560, 17.37170410,end
timer_stats,698208982190709,PAPI_L3_TCM,1,185.96722412, 17.38244629,end
timer_stats,698208983259230,PAPI_L3_TCM,1,186.09228516, 17.39340210,end
timer_stats,698208984340809,PAPI_L3_TCM,2,186.20556641, 17.40412903,end
timer_stats,698208985431156,PAPI_L3_TCM,1,186.32220459, 17.41462707,end
timer_stats,698208986521604,PAPI_L3_TCM,0,186.49298096, 17.43046570,end
timer_stats,698208987603735,PAPI_L3_TCM,3,186.60650635, 17.44145203,end
timer_stats,698208988684639,PAPI_L3_TCM,0,186.77410889, 17.45753479,end
timer_stats,698208989770807,PAPI_L3_TCM,1,186.88702392, 17.46846008,end
timer_stats,698208990860602,PAPI_L3_TCM,0,186.99383545, 17.47944641,end
timer_stats,698208991941519,PAPI_L3_TCM,3,187.11004639, 17.49037170,end
timer_stats,698208993023260,PAPI_L3_TCM,2,187.23034668, 17.50151062,end
timer_stats,698208994113617,PAPI_L3_TCM,0,187.34100342, 17.51200867,end
timer_stats,698208995205758,PAPI_L3_TCM,3,187.45489502, 17.52297973,end
timer_stats,698208996298091,PAPI_L3_TCM,3,187.57446289, 17.53390503,end
timer_stats,698208997396640,PAPI_L3_TCM,2,187.68908691, 17.54464722,end
timer_stats,698208998486336,PAPI_L3_TCM,1,187.80694580, 17.55508423,end
timer_stats,698208999575521,PAPI_L3_TCM,0,187.97998047, 17.57095337,end
timer_stats,698209000657603,PAPI_L3_TCM,3,188.15289307, 17.58682251,end
timer_stats,698209001746814,PAPI_L3_TCM,0,188.26660156, 17.59735107,end
timer_stats,698209002836569,PAPI_L3_TCM,1,188.38500976, 17.60784912,end
timer_stats,698209003925623,PAPI_L3_TCM,0,188.49511719, 17.61877441,end
timer_stats,698209005006986,PAPI_L3_TCM,4,188.60644531, 17.62969971,end
timer_stats,698209006096777,PAPI_L3_TCM,0,188.71539307, 17.64044189,end
timer_stats,698209007185750,PAPI_L3_TCM,2,188.82653809, 17.65115356,end
timer_stats,698209008275034,PAPI_L3_TCM,2,188.93499756, 17.66210937,end
timer_stats,698209009344558,PAPI_L3_TCM,1,189.04309082, 17.67391968,end
timer_stats,698209010413910,PAPI_L3_TCM,0,189.16302490, 17.68551636,end
timer_stats,698209011494543,PAPI_L3_TCM,1,189.26806641, 17.69781494,end
timer_stats,698209012586673,PAPI_L3_TCM,0,189.43328857, 17.71566772,end
timer_stats,698209013656196,PAPI_L3_TCM,2,189.59912109, 17.73194885,end
timer_stats,698209014748548,PAPI_L3_TCM,0,189.71478271, 17.74263000,end
timer_stats,698209015840543,PAPI_L3_TCM,2,189.82360840, 17.75334167,end
timer_stats,698209016932431,PAPI_L3_TCM,0,189.93524170, 17.76499939,end
timer_stats,698209018015287,PAPI_L3_TCM,1,190.04541016, 17.77619934,end
timer_stats,698209019096294,PAPI_L3_TCM,0,190.15191650, 17.78633118,end
timer_stats,698209020179112,PAPI_L3_TCM,3,190.26293945, 17.79753113,end
timer_stats,698209021248777,PAPI_L3_TCM,0,190.37854004, 17.80824280,end
timer_stats,698209022344339,PAPI_L3_TCM,1,190.49865723, 17.81871033,end
timer_stats,698209023438893,PAPI_L3_TCM,0,190.60693359, 17.82994079,end
timer_stats,698209024516568,PAPI_L3_TCM,4,190.72845459, 17.84155273,end
timer_stats,698209025598515,PAPI_L3_TCM,0,190.89697266, 17.84689331,end
timer_stats,698209026680548,PAPI_L3_TCM,1,191.05236816, 17.86773682,end
timer_stats,698209027763263,PAPI_L3_TCM,0,191.16729736, 17.87802124,end
timer_stats,698209028845356,PAPI_L3_TCM,3,191.28063965, 17.88809204,end
timer_stats,698209029926996,PAPI_L3_TCM,0,191.38970947, 17.89840698,end
timer_stats,698209031009046,PAPI_L3_TCM,1,191.49566650, 17.90875244,end
timer_stats,698209032091349,PAPI_L3_TCM,2,191.60821533, 17.91903686,end
timer_stats,698209033161874,PAPI_L3_TCM,4,191.71899414, 17.92861938,end
timer_stats,698209034243153,PAPI_L3_TCM,0,191.82684326, 17.93847656,end
timer_stats,698209035338702,PAPI_L3_TCM,1,191.93505859, 17.94903564,end
timer_stats,698209036420406,PAPI_L3_TCM,2,192.03833008, 17.95938110,end
timer_stats,698209037515487,PAPI_L3_TCM,1,192.15179443, 17.97012329,end
timer_stats,698209038597273,PAPI_L3_TCM,0,192.25628662, 17.98043823,end
timer_stats,698209039678947,PAPI_L3_TCM,1,192.47351074, 18.00105286,end
timer_stats,698209040760791,PAPI_L3_TCM,2,192.58447266, 18.01133728,end
timer_stats,698209041842061,PAPI_L3_TCM,1,192.69360352, 18.02186584,end
timer_stats,698209042922828,PAPI_L3_TCM,0,192.79888916, 18.03187561,end
timer_stats,698209044018392,PAPI_L3_TCM,3,192.90686035, 18.04258728,end
timer_stats,698209045095462,PAPI_L3_TCM,7,193.01861572, 18.05332947,end
timer_stats,698209046193741,PAPI_L3_TCM,1,193.12811279, 18.06361389,end
timer_stats,698209047285072,PAPI_L3_TCM,0,193.23504639, 18.07562256,end
timer_stats,698209048380883,PAPI_L3_TCM,4,193.33758545, 18.08645630,end
timer_stats,698209049459038,PAPI_L3_TCM,0,193.45098877, 18.09695435,end
timer_stats,698209050540260,PAPI_L3_TCM,1,193.55957031, 18.10726929,end
timer_stats,698209051621298,PAPI_L3_TCM,0,193.66571045, 18.11734009,end
timer_stats,698209052703017,PAPI_L3_TCM,3,193.88073730, 18.13772583,end
timer_stats,698209053784393,PAPI_L3_TCM,0,193.99182129, 18.14797973,end
timer_stats,698209054865185,PAPI_L3_TCM,1,194.10095215, 18.15826416,end
timer_stats,698209055945590,PAPI_L3_TCM,0,194.20318603, 18.16931152,end
timer_stats,698209057036981,PAPI_L3_TCM,4,194.31634521, 18.17956543,end
timer_stats,698209058130572,PAPI_L3_TCM,0,194.41717529, 18.18989563,end
timer_stats,698209059222265,PAPI_L3_TCM,1,194.52746582, 18.20018005,end
timer_stats,698209060317836,PAPI_L3_TCM,2,194.63580322, 18.21049499,end
timer_stats,698209061386157,PAPI_L3_TCM,1,194.74536133, 18.22077942,end
timer_stats,698209062467406,PAPI_L3_TCM,0,194.85571289, 18.23106384,end
timer_stats,698209063548851,PAPI_L3_TCM,1,194.95928955, 18.24186706,end
timer_stats,698209064630396,PAPI_L3_TCM,2,195.12432861, 18.25732422,end
timer_stats,698209065726800,PAPI_L3_TCM,2,195.28216553, 18.27302551,end
timer_stats,698209066823220,PAPI_L3_TCM,0,195.39349365, 18.28330994,end
timer_stats,698209067919137,PAPI_L3_TCM,1,195.50006103, 18.29386902,end
timer_stats,698209069014575,PAPI_L3_TCM,2,195.60552978, 18.30441284,end
timer_stats,698209070111260,PAPI_L3_TCM,1,195.71667480, 18.31445312,end
timer_stats,698209071205883,PAPI_L3_TCM,0,195.82470703, 18.32473755,end
timer_stats,698209072300214,PAPI_L3_TCM,3,195.93182373, 18.33480835,end
timer_stats,698209073367487,PAPI_L3_TCM,0,196.03704834, 18.34460449,end
timer_stats,698209074435735,PAPI_L3_TCM,1,196.14111328, 18.35604858,end
timer_stats,698209075503104,PAPI_L3_TCM,1,196.24542236, 18.36611938,end
timer_stats,698209076570384,PAPI_L3_TCM,2,196.34887695, 18.37622070,end
timer_stats,698209077638250,PAPI_L3_TCM,0,196.45098877, 18.38656616,end
timer_stats,698209078705479,PAPI_L3_TCM,0,196.66436767, 18.40782165,end
timer_stats,698209079772260,PAPI_L3_TCM,0,196.77130127, 18.41810608,end
timer_stats,698209080838935,PAPI_L3_TCM,2,196.87835693, 18.42886353,end
timer_stats,698209081905176,PAPI_L3_TCM,0,196.98211670, 18.43896484,end
timer_stats,698209082973522,PAPI_L3_TCM,3,197.08813477, 18.44921875,end
timer_stats,698209084041088,PAPI_L3_TCM,2,197.19622803, 18.45947266,end
timer_stats,698209085108911,PAPI_L3_TCM,2,197.29534912, 18.47052002,end
timer_stats,698209086175602,PAPI_L3_TCM,0,197.40209961, 18.48059082,end
timer_stats,698209087242731,PAPI_L3_TCM,2,197.50329590, 18.49093628,end
timer_stats,698209088309980,PAPI_L3_TCM,2,197.61029053, 18.50122070,end
timer_stats,698209089376832,PAPI_L3_TCM,2,197.71173096, 18.51156616,end
timer_stats,698209090444156,PAPI_L3_TCM,0,197.81488037, 18.52188110,end
timer_stats,698209091511574,PAPI_L3_TCM,2,197.91955566, 18.53286743,end
timer_stats,698209092595475,PAPI_L3_TCM,4,198.07495117, 18.54318237,end
timer_stats,698209093680539,PAPI_L3_TCM,2,198.17742920, 18.55819702,end
timer_stats,698209094775682,PAPI_L3_TCM,0,198.33227539, 18.57218933,end
timer_stats,698209095861634,PAPI_L3_TCM,1,198.42993164, 18.58177185,end
timer_stats,698209096942879,PAPI_L3_TCM,2,198.52703857, 18.59213257,end
timer_stats,698209098037101,PAPI_L3_TCM,0,198.63311767, 18.60139465,end
timer_stats,698209099131395,PAPI_L3_TCM,0,198.73638916, 18.61096191,end
timer_stats,698209100218119,PAPI_L3_TCM,2,198.83599853, 18.62129211,end
timer_stats,698209101285227,PAPI_L3_TCM,0,198.93640137, 18.63117981,end
timer_stats,698209102379259,PAPI_L3_TCM,1,199.03588867, 18.64080810,end
timer_stats,698209103469136,PAPI_L3_TCM,0,199.13714600, 18.65065002,end
timer_stats,698209104550498,PAPI_L3_TCM,3,199.23388672, 18.65982055,end
timer_stats,698209105640241,PAPI_L3_TCM,0,199.38952637, 18.67008972,end
timer_stats,698209106708525,PAPI_L3_TCM,1,199.54510498, 18.69053650,end
timer_stats,698209107775766,PAPI_L3_TCM,0,199.65161133, 18.70060730,end
timer_stats,698209108842900,PAPI_L3_TCM,0,199.75439453, 18.71093750,end
timer_stats,698209109909311,PAPI_L3_TCM,0,199.85491943, 18.72082519,end
timer_stats,698209110975704,PAPI_L3_TCM,2,199.95379639, 18.73095703,end
timer_stats,698209112058515,PAPI_L3_TCM,2,200.05456543, 18.74009704,end
timer_stats,698209113125743,PAPI_L3_TCM,1,200.15887451, 18.75039673,end
timer_stats,698209114214429,PAPI_L3_TCM,0,200.26483154, 18.76045227,end
timer_stats,698209115305986,PAPI_L3_TCM,1,200.36431885, 18.77030945,end
timer_stats,698209116386129,PAPI_L3_TCM,2,200.46636963, 18.77993774,end
timer_stats,698209117473116,PAPI_L3_TCM,2,200.56451416, 18.79006958,end
timer_stats,698209118565396,PAPI_L3_TCM,0,200.66833496, 18.79917908,end
timer_stats,698209119656494,PAPI_L3_TCM,1,200.81750488, 18.80780029,end
timer_stats,698209120739171,PAPI_L3_TCM,2,200.97625732, 18.82229614,end
timer_stats,698209121806184,PAPI_L3_TCM,1,201.07647705, 18.83712768,end
timer_stats,698209122872904,PAPI_L3_TCM,0,201.18164062, 18.84719848,end
timer_stats,698209123939324,PAPI_L3_TCM,1,201.28942871, 18.85702515,end
timer_stats,698209125007301,PAPI_L3_TCM,2,201.38995361, 18.86712646,end
timer_stats,698209126098457,PAPI_L3_TCM,2,201.49060059, 18.87747192,end
timer_stats,698209127192414,PAPI_L3_TCM,0,201.58892822, 18.88685608,end
timer_stats,698209128274054,PAPI_L3_TCM,3,201.69299316, 18.89717102,end
timer_stats,698209129368801,PAPI_L3_TCM,0,201.79357910, 18.90705872,end
timer_stats,698209130459492,PAPI_L3_TCM,0,201.89233398, 18.91670227,end
timer_stats,698209131550637,PAPI_L3_TCM,0,201.99530029, 18.92678833,end
timer_stats,698209132632326,PAPI_L3_TCM,3,202.09869385, 18.93508911,end
timer_stats,698209133723363,PAPI_L3_TCM,0,202.29791260, 18.94944763,end
timer_stats,698209134818894,PAPI_L3_TCM,2,202.39471435, 18.96376037,end
timer_stats,698209135901012,PAPI_L3_TCM,0,202.49847412, 18.97334289,end
timer_stats,698209136982235,PAPI_L3_TCM,3,202.60052490, 18.98344421,end
timer_stats,698209138077154,PAPI_L3_TCM,0,202.70343017, 18.99372864,end
timer_stats,698209139172489,PAPI_L3_TCM,1,202.80212402, 19.00312805,end
timer_stats,698209140269425,PAPI_L3_TCM,2,202.90313721, 19.01368713,end
timer_stats,698209141342587,PAPI_L3_TCM,1,203.00671387, 19.02400207,end
timer_stats,698209142436262,PAPI_L3_TCM,0,203.11077881, 19.03358459,end
timer_stats,698209143530280,PAPI_L3_TCM,2,203.20690918, 19.04371643,end
timer_stats,698209144610912,PAPI_L3_TCM,2,203.31341553, 19.05375671,end
timer_stats,698209145708267,PAPI_L3_TCM,6,203.50793457, 19.07243347,end
timer_stats,698209146804071,PAPI_L3_TCM,0,203.61383057, 19.08515930,end
timer_stats,698209147898329,PAPI_L3_TCM,1,203.71520996, 19.09547424,end
timer_stats,698209148980578,PAPI_L3_TCM,2,203.81103516, 19.10585022,end
timer_stats,698209150075713,PAPI_L3_TCM,0,203.91412353, 19.11637878,end
timer_stats,698209151171705,PAPI_L3_TCM,0,204.01501465, 19.12669372,end
timer_stats,698209152241461,PAPI_L3_TCM,2,204.12182617, 19.13719177,end
timer_stats,698209153310418,PAPI_L3_TCM,1,204.22961426, 19.14772034,end
timer_stats,698209154378188,PAPI_L3_TCM,1,204.33166504, 19.15803528,end
timer_stats,698209155447119,PAPI_L3_TCM,0,204.43383789, 19.16835022,end
timer_stats,698209156515451,PAPI_L3_TCM,1,204.54058838, 19.17863464,end
timer_stats,698209157609410,PAPI_L3_TCM,0,204.64111328, 19.18873596,end
timer_stats,698209158703094,PAPI_L3_TCM,0,204.74249267, 19.19927978,end
timer_stats,698209159796905,PAPI_L3_TCM,0,204.94610596, 19.21969604,end
timer_stats,698209160880476,PAPI_L3_TCM,8,205.04925537, 19.22999573,end
timer_stats,698209161976808,PAPI_L3_TCM,4,205.15289307, 19.24049377,end
timer_stats,698209163072444,PAPI_L3_TCM,1,205.25689697, 19.25028992,end
timer_stats,698209164158467,PAPI_L3_TCM,2,205.35498047, 19.26042175,end
timer_stats,698209165230107,PAPI_L3_TCM,3,205.45843506, 19.27049255,end
