timer_stats,697749251959176,PAPI_L3_TCM,407,  0.06396484,  0.01025391,end
timer_stats,697749253107119,PAPI_L3_TCM,38,  0.19061279,  0.03240967,end
timer_stats,697749254270299,PAPI_L3_TCM,16,  0.24499512,  0.03958130,end
timer_stats,697749255461793,PAPI_L3_TCM,7,  0.30920410,  0.04785156,end
timer_stats,697749256721951,PAPI_L3_TCM,19,  0.37316894,  0.05841064,end
timer_stats,697749257860445,PAPI_L3_TCM,10,  0.44000244,  0.06890869,end
timer_stats,697749259053772,PAPI_L3_TCM,4,  0.50598144,  0.07989502,end
timer_stats,697749260219425,PAPI_L3_TCM,3,  0.63702393,  0.10072327,end
timer_stats,697749261387756,PAPI_L3_TCM,7,  0.71057129,  0.11097717,end
timer_stats,697749262585363,PAPI_L3_TCM,13,  0.77258301,  0.12107849,end
timer_stats,697749263755460,PAPI_L3_TCM,5,  0.84356689,  0.13252258,end
timer_stats,697749264923894,PAPI_L3_TCM,10,  0.91265869,  0.14147949,end
timer_stats,697749266094998,PAPI_L3_TCM,1,  1.00811768,  0.15393066,end
timer_stats,697749267262941,PAPI_L3_TCM,1,  1.11816406,  0.17289734,end
timer_stats,697749268417645,PAPI_L3_TCM,0,  1.18762207,  0.18186951,end
timer_stats,697749269587089,PAPI_L3_TCM,1,  1.25799560,  0.19062805,end
timer_stats,697749270746460,PAPI_L3_TCM,0,  1.33154297,  0.20112610,end
timer_stats,697749271920990,PAPI_L3_TCM,2,  1.40850830,  0.21159363,end
timer_stats,697749273088987,PAPI_L3_TCM,0,  1.50677490,  0.22731018,end
timer_stats,697749274242851,PAPI_L3_TCM,2,  1.63323975,  0.24166870,end
timer_stats,697749275408988,PAPI_L3_TCM,0,  1.70385742,  0.25173950,end
timer_stats,697749276555919,PAPI_L3_TCM,1,  1.77740478,  0.26052856,end
timer_stats,697749277721355,PAPI_L3_TCM,0,  1.85839844,  0.27056885,end
timer_stats,697749278880503,PAPI_L3_TCM,1,  1.93890381,  0.28082275,end
timer_stats,697749280049367,PAPI_L3_TCM,1,  2.01922607,  0.28979492,end
timer_stats,697749281198407,PAPI_L3_TCM,2,  2.18383789,  0.30778503,end
timer_stats,697749282367561,PAPI_L3_TCM,0,  2.26239014,  0.31681824,end
timer_stats,697749283536051,PAPI_L3_TCM,2,  2.34307861,  0.32560730,end
timer_stats,697749284712152,PAPI_L3_TCM,1,  2.42462158,  0.33436584,end
timer_stats,697749285889252,PAPI_L3_TCM,1,  2.50335693,  0.34339905,end
timer_stats,697749287060866,PAPI_L3_TCM,0,  2.58801270,  0.34901428,end
timer_stats,697749288232136,PAPI_L3_TCM,2,  2.74597168,  0.36734009,end
timer_stats,697749289375523,PAPI_L3_TCM,0,  2.82586670,  0.37661743,end
timer_stats,697749290551994,PAPI_L3_TCM,2,  2.90252686,  0.38543701,end
timer_stats,697749291725538,PAPI_L3_TCM,0,  2.98266601,  0.39633179,end
timer_stats,697749292900648,PAPI_L3_TCM,3,  3.06280517,  0.40643310,end
timer_stats,697749294075175,PAPI_L3_TCM,3,  3.16900635,  0.41534424,end
timer_stats,697749295242562,PAPI_L3_TCM,1,  3.29730225,  0.43292236,end
timer_stats,697749296416916,PAPI_L3_TCM,1,  3.37585449,  0.44189453,end
timer_stats,697749297613117,PAPI_L3_TCM,1,  3.45324707,  0.45166016,end
timer_stats,697749298772184,PAPI_L3_TCM,0,  3.52929687,  0.46044922,end
timer_stats,697749299956861,PAPI_L3_TCM,2,  3.60034180,  0.46925354,end
timer_stats,697749301147498,PAPI_L3_TCM,1,  3.69793701,  0.48704529,end
timer_stats,697749302344549,PAPI_L3_TCM,2,  3.81689453,  0.49539184,end
timer_stats,697749303541669,PAPI_L3_TCM,0,  3.88989258,  0.50439453,end
timer_stats,697749304739297,PAPI_L3_TCM,2,  3.96484375,  0.51315307,end
timer_stats,697749305939877,PAPI_L3_TCM,0,  4.04016113,  0.52172851,end
timer_stats,697749307126681,PAPI_L3_TCM,1,  4.13647461,  0.53419495,end
timer_stats,697749308332405,PAPI_L3_TCM,1,  4.25634766,  0.54743957,end
timer_stats,697749309503342,PAPI_L3_TCM,2,  4.33386230,  0.55570984,end
timer_stats,697749310689056,PAPI_L3_TCM,0,  4.40533447,  0.56477356,end
timer_stats,697749311887623,PAPI_L3_TCM,2,  4.48559570,  0.57331848,end
timer_stats,697749313086374,PAPI_L3_TCM,1,  4.55810547,  0.58460998,end
timer_stats,697749314272058,PAPI_L3_TCM,1,  4.70440674,  0.59973144,end
timer_stats,697749315459082,PAPI_L3_TCM,0,  4.77789307,  0.60827637,end
timer_stats,697749316654169,PAPI_L3_TCM,2,  4.85437012,  0.61724853,end
timer_stats,697749317853309,PAPI_L3_TCM,0,  4.93017578,  0.62602234,end
timer_stats,697749319040316,PAPI_L3_TCM,2,  4.99945068,  0.63487244,end
timer_stats,697749320226867,PAPI_L3_TCM,1,  5.15124512,  0.65245056,end
timer_stats,697749321397187,PAPI_L3_TCM,2,  5.22351074,  0.66123962,end
timer_stats,697749322596145,PAPI_L3_TCM,0,  5.30059814,  0.66618347,end
timer_stats,697749323794122,PAPI_L3_TCM,1,  5.37182617,  0.67550659,end
timer_stats,697749324994199,PAPI_L3_TCM,1,  5.44940185,  0.68423462,end
timer_stats,697749326191283,PAPI_L3_TCM,1,  5.59826660,  0.70181274,end
timer_stats,697749327392147,PAPI_L3_TCM,0,  5.67279053,  0.71060181,end
timer_stats,697749328592220,PAPI_L3_TCM,3,  5.74450684,  0.71942139,end
timer_stats,697749329790994,PAPI_L3_TCM,0,  5.82122803,  0.72819519,end
timer_stats,697749330991008,PAPI_L3_TCM,2,  5.89996338,  0.73716736,end
timer_stats,697749332191166,PAPI_L3_TCM,0,  6.04486084,  0.74620056,end
timer_stats,697749333362826,PAPI_L3_TCM,1,  6.12500000,  0.76048279,end
timer_stats,697749334561044,PAPI_L3_TCM,0,  6.19543457,  0.76930237,end
timer_stats,697749335760964,PAPI_L3_TCM,1,  6.27038574,  0.77857971,end
timer_stats,697749336964112,PAPI_L3_TCM,1,  6.34185791,  0.78761291,end
timer_stats,697749338170091,PAPI_L3_TCM,2,  6.49151611,  0.80540466,end
timer_stats,697749339369399,PAPI_L3_TCM,0,  6.56762695,  0.81417847,end
timer_stats,697749340570696,PAPI_L3_TCM,3,  6.63696289,  0.82299805,end
timer_stats,697749341771137,PAPI_L3_TCM,1,  6.71203613,  0.83157349,end
timer_stats,697749342970011,PAPI_L3_TCM,1,  6.78851318,  0.84033203,end
timer_stats,697749344177118,PAPI_L3_TCM,1,  6.93298340,  0.85771179,end
timer_stats,697749345350595,PAPI_L3_TCM,1,  7.00531006,  0.86653137,end
timer_stats,697749346497349,PAPI_L3_TCM,0,  7.07977295,  0.87532043,end
timer_stats,697749351186828,PAPI_L3_TCM,10,  7.42828369,  0.91857910,end
timer_stats,697749352394448,PAPI_L3_TCM,6,  7.50012207,  0.92907715,end
timer_stats,697749353574122,PAPI_L3_TCM,2,  7.57165527,  0.93807983,end
timer_stats,697749354776342,PAPI_L3_TCM,0,  7.64288330,  0.94683838,end
timer_stats,697749355979116,PAPI_L3_TCM,1,  7.71441650,  0.95564270,end
timer_stats,697749357210950,PAPI_L3_TCM,3,  7.85778809,  0.97323608,end
timer_stats,697749358415301,PAPI_L3_TCM,1,  7.93139648,  0.98156738,end
timer_stats,697749359619545,PAPI_L3_TCM,0,  8.00329590,  0.99011230,end
timer_stats,697749360828762,PAPI_L3_TCM,3,  8.07806396,  0.99890137,end
timer_stats,697749362034919,PAPI_L3_TCM,0,  8.14709473,  1.00744629,end
timer_stats,697749363243050,PAPI_L3_TCM,2,  8.29119873,  1.02484131,end
timer_stats,697749364454787,PAPI_L3_TCM,1,  8.36181641,  1.03384399,end
timer_stats,697749365666898,PAPI_L3_TCM,2,  8.43280029,  1.04290771,end
timer_stats,697749366866172,PAPI_L3_TCM,0,  8.50592041,  1.05166626,end
timer_stats,697749368066225,PAPI_L3_TCM,2,  8.57720947,  1.06048584,end
timer_stats,697749369248529,PAPI_L3_TCM,0,  8.71960449,  1.07781982,end
timer_stats,697749370459970,PAPI_L3_TCM,2,  8.79138183,  1.08660888,end
timer_stats,697749371667914,PAPI_L3_TCM,0,  8.86212158,  1.09539795,end
timer_stats,697749372884158,PAPI_L3_TCM,3,  8.93432617,  1.10440063,end
timer_stats,697749374094258,PAPI_L3_TCM,0,  9.00634766,  1.11318970,end
timer_stats,697749375289046,PAPI_L3_TCM,1,  9.14489746,  1.13063049,end
timer_stats,697749376497853,PAPI_L3_TCM,1,  9.21795654,  1.13896179,end
timer_stats,697749377708604,PAPI_L3_TCM,1,  9.28808594,  1.14776611,end
timer_stats,697749378911137,PAPI_L3_TCM,0,  9.35852051,  1.15612793,end
timer_stats,697749380108781,PAPI_L3_TCM,3,  9.42858887,  1.16497803,end
timer_stats,697749381292425,PAPI_L3_TCM,0,  9.57257080,  1.18231201,end
timer_stats,697749382500182,PAPI_L3_TCM,2,  9.64404297,  1.19113159,end
timer_stats,697749383711433,PAPI_L3_TCM,0,  9.71600342,  1.19992065,end
timer_stats,697749384926100,PAPI_L3_TCM,2,  9.78570557,  1.20851135,end
timer_stats,697749386123874,PAPI_L3_TCM,0,  9.85839844,  1.21733093,end
timer_stats,697749387323465,PAPI_L3_TCM,1, 10.01080322,  1.23492431,end
timer_stats,697749388522552,PAPI_L3_TCM,1, 10.08447266,  1.24349975,end
timer_stats,697749389732893,PAPI_L3_TCM,2, 10.15533447,  1.25210571,end
timer_stats,697749390933787,PAPI_L3_TCM,0, 10.23266601,  1.26063537,end
timer_stats,697749392130604,PAPI_L3_TCM,3, 10.30889892,  1.26942444,end
timer_stats,697749393310584,PAPI_L3_TCM,0, 10.45538330,  1.28707886,end
timer_stats,697749394506824,PAPI_L3_TCM,1, 10.53173828,  1.29608154,end
timer_stats,697749395705852,PAPI_L3_TCM,0, 10.60455322,  1.30490112,end
timer_stats,697749396906352,PAPI_L3_TCM,2, 10.67938232,  1.31372070,end
timer_stats,697749398103206,PAPI_L3_TCM,0, 10.75494385,  1.32228088,end
timer_stats,697749399300627,PAPI_L3_TCM,2, 10.90008545,  1.33966064,end
timer_stats,697749400492170,PAPI_L3_TCM,2, 10.98156738,  1.34909057,end
timer_stats,697749401698231,PAPI_L3_TCM,2, 11.05700683,  1.35940552,end
timer_stats,697749402894765,PAPI_L3_TCM,0, 11.13665771,  1.36944580,end
timer_stats,697749404087825,PAPI_L3_TCM,1, 11.21588135,  1.38000488,end
timer_stats,697749405235499,PAPI_L3_TCM,0, 11.36975098,  1.39593506,end
timer_stats,697749406454010,PAPI_L3_TCM,104, 11.44494629,  1.41137695,end
timer_stats,697749407661074,PAPI_L3_TCM,0, 11.52526855,  1.42141724,end
timer_stats,697749408855815,PAPI_L3_TCM,2, 11.60479736,  1.43173218,end
timer_stats,697749410058595,PAPI_L3_TCM,0, 11.68536377,  1.44152832,end
timer_stats,697749411227433,PAPI_L3_TCM,2, 11.78820801,  1.45162964,end
timer_stats,697749412422367,PAPI_L3_TCM,0, 11.91406250,  1.47027588,end
timer_stats,697749413628190,PAPI_L3_TCM,1, 11.99591064,  1.48052978,end
timer_stats,697749414831784,PAPI_L3_TCM,0, 12.06738281,  1.48913574,end
timer_stats,697749416051808,PAPI_L3_TCM,2, 12.14306641,  1.49794006,end
timer_stats,697749417227332,PAPI_L3_TCM,0, 12.21838379,  1.51188660,end
timer_stats,697749418430499,PAPI_L3_TCM,2, 12.37561035,  1.52561951,end
timer_stats,697749419635476,PAPI_L3_TCM,0, 12.44708252,  1.53445435,end
timer_stats,697749420818656,PAPI_L3_TCM,3, 12.53271484,  1.54495239,end
timer_stats,697749422027560,PAPI_L3_TCM,0, 12.60791016,  1.55484009,end
timer_stats,697749423233391,PAPI_L3_TCM,1, 12.70629883,  1.56210327,end
timer_stats,697749424438068,PAPI_L3_TCM,1, 12.83673096,  1.57604980,end
timer_stats,697749425627219,PAPI_L3_TCM,1, 12.91363525,  1.58639526,end
timer_stats,697749426831819,PAPI_L3_TCM,0, 12.98828125,  1.59497070,end
timer_stats,697749428043243,PAPI_L3_TCM,3, 13.06384277,  1.60377502,end
timer_stats,697749429222637,PAPI_L3_TCM,0, 13.16510010,  1.62287903,end
timer_stats,697749430428998,PAPI_L3_TCM,2, 13.29882812,  1.63163757,end
timer_stats,697749431634275,PAPI_L3_TCM,0, 13.37524414,  1.64067078,end
timer_stats,697749432840929,PAPI_L3_TCM,2, 13.45703125,  1.65074158,end
timer_stats,697749434046280,PAPI_L3_TCM,0, 13.53240967,  1.66136169,end
timer_stats,697749435251850,PAPI_L3_TCM,1, 13.68768310,  1.67936706,end
timer_stats,697749436457814,PAPI_L3_TCM,1, 13.76458740,  1.68865967,end
timer_stats,697749437664254,PAPI_L3_TCM,2, 13.84417724,  1.69812012,end
timer_stats,697749438873015,PAPI_L3_TCM,0, 13.92309570,  1.70686340,end
timer_stats,697749440082452,PAPI_L3_TCM,3, 14.00170898,  1.71583557,end
timer_stats,697749441259430,PAPI_L3_TCM,0, 14.09820557,  1.72807312,end
timer_stats,697749442463537,PAPI_L3_TCM,1, 14.23223877,  1.74200439,end
timer_stats,697749443667501,PAPI_L3_TCM,0, 14.31243896,  1.75079346,end
timer_stats,697749444873635,PAPI_L3_TCM,1, 14.39086914,  1.75961304,end
timer_stats,697749446078969,PAPI_L3_TCM,0, 14.47015381,  1.76861572,end
timer_stats,697749447281209,PAPI_L3_TCM,2, 14.57330322,  1.78257751,end
timer_stats,697749448460109,PAPI_L3_TCM,1, 14.70269775,  1.80101013,end
timer_stats,697749449664280,PAPI_L3_TCM,2, 14.78051758,  1.81121826,end
timer_stats,697749450872894,PAPI_L3_TCM,0, 14.87097168,  1.82186889,end
timer_stats,697749452083485,PAPI_L3_TCM,2, 14.94354248,  1.83047485,end
timer_stats,697749453256229,PAPI_L3_TCM,0, 15.04888916,  1.84826660,end
timer_stats,697749454457246,PAPI_L3_TCM,1, 15.18505859,  1.85678100,end
timer_stats,697749455659880,PAPI_L3_TCM,0, 15.26269531,  1.86514282,end
timer_stats,697749456863434,PAPI_L3_TCM,2, 15.34197998,  1.87521362,end
timer_stats,697749458067531,PAPI_L3_TCM,0, 15.42120361,  1.88400269,end
timer_stats,697749459270762,PAPI_L3_TCM,2, 15.57836914,  1.90136719,end
timer_stats,697749460472159,PAPI_L3_TCM,1, 15.65740967,  1.91011047,end
timer_stats,697749461674972,PAPI_L3_TCM,1, 15.73565674,  1.91888428,end
timer_stats,697749462838506,PAPI_L3_TCM,0, 15.81762695,  1.92785644,end
timer_stats,697749464022920,PAPI_L3_TCM,2, 15.89654541,  1.93684387,end
timer_stats,697749465215831,PAPI_L3_TCM,0, 15.97918701,  1.94557190,end
timer_stats,697749466419164,PAPI_L3_TCM,2, 16.13269043,  1.96298218,end
timer_stats,697749467618381,PAPI_L3_TCM,0, 16.21551514,  1.97172546,end
timer_stats,697749468818919,PAPI_L3_TCM,2, 16.29901123,  1.98023987,end
timer_stats,697749470008333,PAPI_L3_TCM,1, 16.37774658,  1.98973083,end
timer_stats,697749471168173,PAPI_L3_TCM,2, 16.45922851,  1.99955749,end
timer_stats,697749472330097,PAPI_L3_TCM,1, 16.61096191,  2.01991272,end
timer_stats,697749473501011,PAPI_L3_TCM,1, 16.69329834,  2.02995300,end
timer_stats,697749474673281,PAPI_L3_TCM,0, 16.77423096,  2.03869629,end
timer_stats,697749475846378,PAPI_L3_TCM,2, 16.85211182,  2.04769897,end
timer_stats,697749477018669,PAPI_L3_TCM,0, 16.93890381,  2.05819702,end
timer_stats,697749478189770,PAPI_L3_TCM,2, 17.01531982,  2.06857300,end
timer_stats,697749479359827,PAPI_L3_TCM,0, 17.18414307,  2.08940124,end
timer_stats,697749480532751,PAPI_L3_TCM,2, 17.26428223,  2.09977722,end
timer_stats,697749481704654,PAPI_L3_TCM,0, 17.34735107,  2.11006164,end
timer_stats,697749482879091,PAPI_L3_TCM,1, 17.42614746,  2.12037659,end
timer_stats,697749484049759,PAPI_L3_TCM,1, 17.50744629,  2.13020325,end
timer_stats,697749485191855,PAPI_L3_TCM,2, 17.59368896,  2.14047241,end
timer_stats,697749486349182,PAPI_L3_TCM,0, 17.70855713,  2.15571594,end
timer_stats,697749487507556,PAPI_L3_TCM,2, 17.84240723,  2.16920471,end
timer_stats,697749488668510,PAPI_L3_TCM,1, 17.92340088,  2.17884827,end
timer_stats,697749489828140,PAPI_L3_TCM,1, 18.00195312,  2.18766785,end
timer_stats,697749490986184,PAPI_L3_TCM,0, 18.08392334,  2.19641113,end
timer_stats,697749492175795,PAPI_L3_TCM,2, 18.15759277,  2.20501709,end
timer_stats,697749493346712,PAPI_L3_TCM,0, 18.32080078,  2.22276306,end
timer_stats,697749494486999,PAPI_L3_TCM,3, 18.40612793,  2.23149109,end
timer_stats,697749495627152,PAPI_L3_TCM,0, 18.48602295,  2.24229431,end
timer_stats,697749496792193,PAPI_L3_TCM,4, 18.56311035,  2.25106811,end
timer_stats,697749497978864,PAPI_L3_TCM,0, 18.64428711,  2.25979614,end
timer_stats,697749499139778,PAPI_L3_TCM,2, 18.72039795,  2.26858520,end
timer_stats,697749500325642,PAPI_L3_TCM,1, 18.82800293,  2.28251648,end
timer_stats,697749501466838,PAPI_L3_TCM,2, 18.95745850,  2.29640198,end
timer_stats,697749502652352,PAPI_L3_TCM,0, 19.03430176,  2.30537415,end
timer_stats,697749503806719,PAPI_L3_TCM,2, 19.10852051,  2.31420898,end
timer_stats,697749505004227,PAPI_L3_TCM,0, 19.19055176,  2.32293701,end
timer_stats,697749511500858,PAPI_L3_TCM,3, 19.62121582,  2.37734985,end
timer_stats,697749512665992,PAPI_L3_TCM,5, 19.73492432,  2.38818359,end
timer_stats,697749513862139,PAPI_L3_TCM,1, 19.82189941,  2.39709473,end
timer_stats,697749515054959,PAPI_L3_TCM,0, 19.88616943,  2.40571594,end
timer_stats,697749516248389,PAPI_L3_TCM,2, 19.95703125,  2.41453552,end
timer_stats,697749517416480,PAPI_L3_TCM,0, 20.10595703,  2.43206787,end
timer_stats,697749518583597,PAPI_L3_TCM,2, 20.17797851,  2.44110107,end
timer_stats,697749519776998,PAPI_L3_TCM,0, 20.25469971,  2.45141601,end
timer_stats,697749520972872,PAPI_L3_TCM,2, 20.33660889,  2.46170044,end
timer_stats,697749522165819,PAPI_L3_TCM,0, 20.40673828,  2.47204590,end
timer_stats,697749523358229,PAPI_L3_TCM,1, 20.47839355,  2.48242187,end
timer_stats,697749524552473,PAPI_L3_TCM,1, 20.62982178,  2.49768066,end
timer_stats,697749525746927,PAPI_L3_TCM,1, 20.70880127,  2.50796509,end
timer_stats,697749526920064,PAPI_L3_TCM,0, 20.78509521,  2.51803589,end
timer_stats,697749528088658,PAPI_L3_TCM,3, 20.86248779,  2.52789307,end
timer_stats,697749529243852,PAPI_L3_TCM,0, 20.94879150,  2.53833008,end
timer_stats,697749530432542,PAPI_L3_TCM,2, 21.08563232,  2.55903625,end
timer_stats,697749531616106,PAPI_L3_TCM,0, 21.15838623,  2.56784057,end
timer_stats,697749532804020,PAPI_L3_TCM,2, 21.23040771,  2.57666015,end
timer_stats,697749534004087,PAPI_L3_TCM,0, 21.31207275,  2.58537292,end
timer_stats,697749535197551,PAPI_L3_TCM,1, 21.37225342,  2.59400940,end
timer_stats,697749536399982,PAPI_L3_TCM,1, 21.47222900,  2.60731506,end
timer_stats,697749537571428,PAPI_L3_TCM,2, 21.60052490,  2.61753845,end
timer_stats,697749538769752,PAPI_L3_TCM,0, 21.66888428,  2.62638855,end
timer_stats,697749539973596,PAPI_L3_TCM,2, 21.73333740,  2.63523865,end
timer_stats,697749541185197,PAPI_L3_TCM,1, 21.80535889,  2.64401245,end
timer_stats,697749542385621,PAPI_L3_TCM,1, 21.94909668,  2.65798950,end
timer_stats,697749543583005,PAPI_L3_TCM,0, 22.02764893,  2.67160034,end
timer_stats,697749544785419,PAPI_L3_TCM,2, 22.08862304,  2.68051147,end
timer_stats,697749545985683,PAPI_L3_TCM,0, 22.15832519,  2.68933105,end
timer_stats,697749547185440,PAPI_L3_TCM,2, 22.23114014,  2.69808960,end
timer_stats,697749548383464,PAPI_L3_TCM,1, 22.36901855,  2.71575928,end
timer_stats,697749549586298,PAPI_L3_TCM,2, 22.44793701,  2.72448730,end
timer_stats,697749550789255,PAPI_L3_TCM,0, 22.51550293,  2.73309326,end
timer_stats,697749551989635,PAPI_L3_TCM,1, 22.57977295,  2.74169922,end
timer_stats,697749553194559,PAPI_L3_TCM,1, 22.65142822,  2.75048828,end
timer_stats,697749554394803,PAPI_L3_TCM,1, 22.74340820,  2.76293945,end
timer_stats,697749555597244,PAPI_L3_TCM,0, 22.87084961,  2.77658081,end
timer_stats,697749556801135,PAPI_L3_TCM,3, 22.93096924,  2.78547668,end
timer_stats,697749558003005,PAPI_L3_TCM,0, 23.01092529,  2.79417419,end
timer_stats,697749559201569,PAPI_L3_TCM,2, 23.06945801,  2.80281067,end
timer_stats,697749560403263,PAPI_L3_TCM,1, 23.20922851,  2.81991577,end
timer_stats,697749561602657,PAPI_L3_TCM,1, 23.28540039,  2.82867432,end
timer_stats,697749562803020,PAPI_L3_TCM,0, 23.35797119,  2.83743286,end
timer_stats,697749564373422,PAPI_L3_TCM,1353, 23.48419189,  2.85516357,end
timer_stats,697749565593293,PAPI_L3_TCM,20, 23.55535889,  2.86393738,end
timer_stats,697749566797720,PAPI_L3_TCM,8, 23.63385010,  2.87220764,end
timer_stats,697749567998517,PAPI_L3_TCM,0, 23.70446777,  2.88102722,end
timer_stats,697749569210641,PAPI_L3_TCM,3, 23.76239014,  2.88969421,end
timer_stats,697749570411195,PAPI_L3_TCM,0, 23.86199951,  2.90208435,end
timer_stats,697749571612639,PAPI_L3_TCM,1, 23.96838379,  2.91563415,end
timer_stats,697749572811597,PAPI_L3_TCM,1, 24.03790283,  2.92445373,end
timer_stats,697749574008727,PAPI_L3_TCM,1, 24.11279297,  2.93321228,end
timer_stats,697749575207560,PAPI_L3_TCM,0, 24.18743896,  2.94197082,end
timer_stats,697749576399814,PAPI_L3_TCM,4, 24.31323242,  2.95919800,end
timer_stats,697749577601678,PAPI_L3_TCM,1, 24.39025879,  2.96795654,end
timer_stats,697749578803012,PAPI_L3_TCM,2, 24.46160889,  2.97671509,end
timer_stats,697749580015226,PAPI_L3_TCM,0, 24.51873779,  2.98559570,end
timer_stats,697749581214817,PAPI_L3_TCM,1, 24.59887695,  2.99404907,end
timer_stats,697749582416391,PAPI_L3_TCM,0, 24.72302246,  3.01126098,end
timer_stats,697749583618382,PAPI_L3_TCM,1, 24.79827881,  3.02001953,end
timer_stats,697749584823819,PAPI_L3_TCM,1, 24.86395264,  3.02838135,end
timer_stats,697749586029930,PAPI_L3_TCM,2, 24.93804932,  3.03689575,end
timer_stats,697749587231057,PAPI_L3_TCM,0, 25.00329590,  3.04568481,end
timer_stats,697749588421708,PAPI_L3_TCM,5, 25.11621094,  3.06011963,end
timer_stats,697749589598424,PAPI_L3_TCM,1, 25.22131348,  3.07598877,end
timer_stats,697749590762025,PAPI_L3_TCM,1, 25.28491211,  3.08480835,end
timer_stats,697749591923675,PAPI_L3_TCM,2, 25.36199951,  3.09356689,end
timer_stats,697749593104736,PAPI_L3_TCM,1, 25.43347168,  3.10235596,end
timer_stats,697749596156746,PAPI_L3_TCM,3, 25.63073730,  3.12692261,end
timer_stats,697749597305567,PAPI_L3_TCM,4, 25.68634033,  3.13433838,end
timer_stats,697749598512136,PAPI_L3_TCM,0, 25.78564453,  3.14669800,end
timer_stats,697749599716580,PAPI_L3_TCM,2, 25.89428711,  3.16069031,end
timer_stats,697749600918758,PAPI_L3_TCM,1, 25.96386719,  3.16950989,end
timer_stats,697749602123728,PAPI_L3_TCM,1, 26.04699707,  3.17826843,end
timer_stats,697749603314432,PAPI_L3_TCM,0, 26.10998535,  3.18711853,end
timer_stats,697749604522770,PAPI_L3_TCM,2, 26.21441650,  3.19918823,end
timer_stats,697749605725970,PAPI_L3_TCM,0, 26.31536865,  3.21328735,end
timer_stats,697749606918414,PAPI_L3_TCM,2, 26.39105225,  3.22206116,end
timer_stats,697749608119555,PAPI_L3_TCM,1, 26.46191406,  3.23060608,end
timer_stats,697749609316848,PAPI_L3_TCM,2, 26.53131104,  3.23945618,end
timer_stats,697749610510025,PAPI_L3_TCM,0, 26.62103271,  3.25184631,end
timer_stats,697749611704503,PAPI_L3_TCM,1, 26.74023437,  3.26577759,end
timer_stats,697749612901080,PAPI_L3_TCM,1, 26.80718994,  3.27459717,end
timer_stats,697749614094317,PAPI_L3_TCM,1, 26.87103271,  3.28295898,end
timer_stats,697749615287725,PAPI_L3_TCM,0, 26.94128418,  3.28790283,end
timer_stats,697749616492992,PAPI_L3_TCM,3, 27.02789307,  3.30014038,end
timer_stats,697749617697569,PAPI_L3_TCM,0, 27.14440918,  3.31359863,end
timer_stats,697749618905060,PAPI_L3_TCM,2, 27.21307373,  3.32192993,end
timer_stats,697749620106500,PAPI_L3_TCM,1, 27.28088379,  3.33050537,end
timer_stats,697749621316304,PAPI_L3_TCM,1, 27.34765625,  3.33886719,end
timer_stats,697749622522784,PAPI_L3_TCM,0, 27.43640137,  3.35086059,end
timer_stats,697749623717508,PAPI_L3_TCM,1, 27.55242920,  3.36410522,end
timer_stats,697749624916419,PAPI_L3_TCM,1, 27.62158203,  3.37289429,end
timer_stats,697749626119010,PAPI_L3_TCM,2, 27.68914795,  3.38145447,end
timer_stats,697749627322127,PAPI_L3_TCM,0, 27.75646972,  3.38981628,end
timer_stats,697749628529274,PAPI_L3_TCM,3, 27.88635254,  3.40744018,end
timer_stats,697749629733515,PAPI_L3_TCM,0, 27.95849609,  3.41622925,end
timer_stats,697749630942245,PAPI_L3_TCM,1, 28.02600097,  3.42501831,end
timer_stats,697749632144282,PAPI_L3_TCM,1, 28.09240722,  3.43359375,end
timer_stats,697749633352219,PAPI_L3_TCM,1, 28.16235351,  3.44238281,end
timer_stats,697749634560910,PAPI_L3_TCM,0, 28.29699707,  3.45977783,end
timer_stats,697749635767804,PAPI_L3_TCM,2, 28.36682129,  3.46855163,end
timer_stats,697749636973581,PAPI_L3_TCM,1, 28.42932129,  3.47740173,end
timer_stats,697749638178395,PAPI_L3_TCM,2, 28.50292969,  3.48612976,end
timer_stats,697749639383559,PAPI_L3_TCM,0, 28.57006836,  3.49473572,end
timer_stats,697749640590673,PAPI_L3_TCM,2, 28.70288086,  3.51191711,end
timer_stats,697749641771687,PAPI_L3_TCM,0, 28.77270508,  3.51707458,end
timer_stats,697749642942530,PAPI_L3_TCM,1, 28.83886719,  3.52592468,end
timer_stats,697749644145391,PAPI_L3_TCM,0, 28.90704346,  3.53450012,end
timer_stats,697749645339178,PAPI_L3_TCM,2, 28.97381592,  3.54335022,end
timer_stats,697749646529609,PAPI_L3_TCM,0, 29.06439209,  3.55577087,end
timer_stats,697749647720340,PAPI_L3_TCM,2, 29.17767334,  3.56950378,end
timer_stats,697749648911147,PAPI_L3_TCM,0, 29.24566650,  3.57853699,end
timer_stats,697749650074694,PAPI_L3_TCM,1, 29.31982422,  3.58885193,end
timer_stats,697749651261944,PAPI_L3_TCM,0, 29.39196777,  3.59892273,end
timer_stats,697749652472358,PAPI_L3_TCM,2, 29.48718262,  3.61434936,end
timer_stats,697749653673685,PAPI_L3_TCM,0, 29.60223389,  3.62916565,end
timer_stats,697749654876446,PAPI_L3_TCM,2, 29.67291260,  3.63926697,end
timer_stats,697749656084483,PAPI_L3_TCM,1, 29.74548340,  3.64958191,end
timer_stats,697749657286417,PAPI_L3_TCM,2, 29.81781006,  3.65937805,end
timer_stats,697749658489041,PAPI_L3_TCM,0, 29.91357422,  3.67462158,end
timer_stats,697749659650305,PAPI_L3_TCM,1, 30.02838135,  3.68994140,end
timer_stats,697749660839908,PAPI_L3_TCM,0, 30.10131836,  3.69976807,end
timer_stats,697749662046332,PAPI_L3_TCM,1, 30.17883301,  3.71011352,end
timer_stats,697749663250686,PAPI_L3_TCM,0, 30.25482178,  3.71997070,end
timer_stats,697749664458384,PAPI_L3_TCM,2, 30.36053467,  3.73522949,end
timer_stats,697749665667771,PAPI_L3_TCM,0, 30.48120117,  3.75003052,end
timer_stats,697749666879008,PAPI_L3_TCM,2, 30.54852295,  3.75885010,end
timer_stats,697749668089969,PAPI_L3_TCM,1, 30.61737061,  3.76763916,end
timer_stats,697749669296176,PAPI_L3_TCM,1, 30.68273926,  3.77645874,end
timer_stats,697749670506384,PAPI_L3_TCM,0, 30.81762695,  3.79431152,end
timer_stats,697749671710278,PAPI_L3_TCM,1, 30.90142822,  3.80453491,end
timer_stats,697749672919205,PAPI_L3_TCM,0, 30.97271728,  3.81488037,end
timer_stats,697749674110722,PAPI_L3_TCM,2, 31.04669189,  3.82516479,end
timer_stats,697749675303196,PAPI_L3_TCM,0, 31.12030029,  3.83573913,end
timer_stats,697749676508187,PAPI_L3_TCM,2, 31.26782226,  3.85636902,end
timer_stats,697749677711127,PAPI_L3_TCM,0, 31.34643554,  3.86637878,end
timer_stats,697749678905701,PAPI_L3_TCM,1, 31.41699219,  3.87495422,end
timer_stats,697749681330482,PAPI_L3_TCM,0, 31.55480957,  3.89225769,end
timer_stats,697749682535366,PAPI_L3_TCM,2, 31.64642334,  3.90469360,end
timer_stats,697749683759450,PAPI_L3_TCM,0, 31.77185058,  3.91833496,end
timer_stats,697749684980144,PAPI_L3_TCM,3, 31.84020996,  3.92716980,end
timer_stats,697749686181808,PAPI_L3_TCM,0, 31.92034912,  3.93594360,end
timer_stats,697749687384195,PAPI_L3_TCM,2, 32.00231934,  3.94471741,end
timer_stats,697749688588396,PAPI_L3_TCM,0, 32.10791016,  3.95690918,end
timer_stats,697749689794732,PAPI_L3_TCM,1, 32.23980713,  3.97088623,end
timer_stats,697749690997003,PAPI_L3_TCM,0, 32.32043457,  3.98019409,end
timer_stats,697749692200094,PAPI_L3_TCM,1, 32.40753174,  3.99044800,end
timer_stats,697749693348891,PAPI_L3_TCM,0, 32.48553467,  4.00004578,end
timer_stats,697749694513175,PAPI_L3_TCM,2, 32.58868408,  4.01313782,end
timer_stats,697749695716826,PAPI_L3_TCM,0, 32.72607422,  4.02676392,end
timer_stats,697749697095653,PAPI_L3_TCM,52, 32.80566406,  4.03652954,end
timer_stats,697749698423534,PAPI_L3_TCM,27, 32.88769531,  4.04566955,end
timer_stats,697749699596648,PAPI_L3_TCM,3, 33.04882812,  4.06346130,end
timer_stats,697749700800112,PAPI_L3_TCM,2, 33.12811279,  4.07228088,end
timer_stats,697749702004059,PAPI_L3_TCM,6, 33.20959473,  4.08105469,end
timer_stats,697749703192173,PAPI_L3_TCM,4, 33.28839111,  4.08985901,end
timer_stats,697749704393204,PAPI_L3_TCM,5, 33.36529541,  4.09870911,end
timer_stats,697749705598698,PAPI_L3_TCM,0, 33.53125000,  4.11601257,end
timer_stats,697749706786818,PAPI_L3_TCM,2, 33.61102295,  4.12460327,end
timer_stats,697749707986445,PAPI_L3_TCM,3, 33.69256592,  4.13316345,end
timer_stats,697749709189252,PAPI_L3_TCM,3, 33.77160644,  4.14170837,end
timer_stats,697749710388109,PAPI_L3_TCM,3, 33.85382080,  4.15049744,end
timer_stats,697749711587190,PAPI_L3_TCM,5, 34.01257324,  4.16848755,end
timer_stats,697749712786887,PAPI_L3_TCM,1, 34.08593750,  4.17758179,end
timer_stats,697749714003158,PAPI_L3_TCM,2, 34.16479492,  4.18658447,end
timer_stats,697749715189875,PAPI_L3_TCM,0, 34.24139404,  4.19592285,end
timer_stats,697749716389839,PAPI_L3_TCM,3, 34.31903076,  4.20425415,end
timer_stats,697749717584713,PAPI_L3_TCM,3, 34.42773437,  4.21719360,end
timer_stats,697749718743040,PAPI_L3_TCM,4, 34.55346680,  4.23138428,end
timer_stats,697749719924424,PAPI_L3_TCM,5, 34.63092041,  4.24014282,end
timer_stats,697749721137281,PAPI_L3_TCM,3, 34.70800781,  4.24893188,end
timer_stats,697749722325175,PAPI_L3_TCM,0, 34.78387451,  4.25769043,end
timer_stats,697749723529619,PAPI_L3_TCM,2, 34.92382812,  4.27481079,end
timer_stats,697749724730553,PAPI_L3_TCM,4, 34.99566650,  4.28363037,end
timer_stats,697749725923094,PAPI_L3_TCM,3, 35.06542969,  4.29222107,end
timer_stats,697749727109941,PAPI_L3_TCM,0, 35.13995361,  4.30122375,end
timer_stats,697749728293727,PAPI_L3_TCM,2, 35.21496582,  4.31022644,end
timer_stats,697749729489721,PAPI_L3_TCM,0, 35.28961182,  4.31901550,end
timer_stats,697749730668795,PAPI_L3_TCM,7, 35.43505859,  4.33610535,end
timer_stats,697749731871436,PAPI_L3_TCM,3, 35.50329590,  4.34492493,end
timer_stats,697749733070930,PAPI_L3_TCM,6, 35.57220459,  4.35353088,end
timer_stats,697749734269457,PAPI_L3_TCM,4, 35.64343262,  4.36233520,end
timer_stats,697749735468038,PAPI_L3_TCM,4, 35.71136474,  4.37112427,end
timer_stats,697749736673855,PAPI_L3_TCM,1, 35.85345459,  4.38891601,end
timer_stats,697749737891582,PAPI_L3_TCM,1, 35.92651367,  4.39926147,end
timer_stats,697749739095169,PAPI_L3_TCM,4, 35.99945068,  4.40803528,end
timer_stats,697749740293673,PAPI_L3_TCM,3, 36.07318115,  4.41682434,end
timer_stats,697749741469617,PAPI_L3_TCM,0, 36.14306640,  4.42561340,end
timer_stats,697749742672678,PAPI_L3_TCM,4, 36.28845215,  4.44367981,end
timer_stats,697749743877165,PAPI_L3_TCM,2, 36.35992432,  4.45249939,end
timer_stats,697749745076222,PAPI_L3_TCM,3, 36.43579101,  4.46128845,end
timer_stats,697749746275520,PAPI_L3_TCM,0, 36.51708984,  4.46955871,end
timer_stats,697749747475134,PAPI_L3_TCM,1, 36.59069824,  4.47840881,end
timer_stats,697749748676517,PAPI_L3_TCM,2, 36.75085449,  4.49617004,end
timer_stats,697749749883494,PAPI_L3_TCM,4, 36.82897949,  4.50523376,end
timer_stats,697749751073948,PAPI_L3_TCM,0, 36.91424560,  4.51429748,end
timer_stats,697749752250305,PAPI_L3_TCM,3, 36.99353027,  4.51966858,end
timer_stats,697749753421929,PAPI_L3_TCM,0, 37.07092285,  4.52845764,end
timer_stats,697749754610650,PAPI_L3_TCM,2, 37.22515869,  4.54627991,end
timer_stats,697749755811371,PAPI_L3_TCM,0, 37.30511474,  4.55482483,end
timer_stats,697749757013901,PAPI_L3_TCM,2, 37.38372803,  4.56382751,end
timer_stats,697749758202058,PAPI_L3_TCM,0, 37.46472168,  4.57261658,end
timer_stats,697749759390992,PAPI_L3_TCM,3, 37.54174804,  4.58119202,end
timer_stats,697749760593579,PAPI_L3_TCM,0, 37.69799805,  4.59858704,end
timer_stats,697749761793406,PAPI_L3_TCM,2, 37.77618408,  4.60844421,end
timer_stats,697749762983630,PAPI_L3_TCM,0, 37.85894775,  4.61720276,end
timer_stats,697749764174871,PAPI_L3_TCM,2, 37.93670654,  4.62603760,end
timer_stats,697749765346322,PAPI_L3_TCM,3, 38.01812744,  4.63502502,end
timer_stats,697749766530869,PAPI_L3_TCM,1, 38.09375000,  4.64329529,end
timer_stats,697749767717142,PAPI_L3_TCM,0, 38.23663330,  4.66090393,end
timer_stats,697749768916859,PAPI_L3_TCM,2, 38.30944824,  4.66944885,end
timer_stats,697749770113150,PAPI_L3_TCM,0, 38.38214111,  4.67825317,end
timer_stats,697749771309697,PAPI_L3_TCM,3, 38.45678711,  4.68682861,end
timer_stats,697749772506005,PAPI_L3_TCM,1, 38.53247070,  4.69586181,end
timer_stats,697749773681865,PAPI_L3_TCM,3, 38.68090820,  4.71347046,end
timer_stats,697749774879313,PAPI_L3_TCM,3, 38.75842285,  4.72250366,end
timer_stats,697749776078776,PAPI_L3_TCM,11, 38.83105469,  4.73126221,end
timer_stats,697749779720528,PAPI_L3_TCM,0, 39.10113525,  4.76235962,end
timer_stats,697749781105926,PAPI_L3_TCM,24, 39.17272949,  4.77011108,end
timer_stats,697749782299740,PAPI_L3_TCM,0, 39.24285889,  4.77886963,end
timer_stats,697749783500997,PAPI_L3_TCM,4, 39.31512451,  4.78762817,end
timer_stats,697749784699605,PAPI_L3_TCM,2, 39.46270752,  4.80514526,end
timer_stats,697749785899018,PAPI_L3_TCM,2, 39.53686523,  4.81390381,end
timer_stats,697749787095002,PAPI_L3_TCM,0, 39.60479736,  4.82141113,end
timer_stats,697749788290066,PAPI_L3_TCM,1, 39.68481445,  4.83038330,end
timer_stats,697749789458443,PAPI_L3_TCM,1, 39.76306152,  4.83914185,end
timer_stats,697749790620007,PAPI_L3_TCM,1, 39.87255859,  4.85171509,end
timer_stats,697749791805484,PAPI_L3_TCM,1, 39.99462890,  4.86518860,end
timer_stats,697749793001082,PAPI_L3_TCM,2, 40.06671142,  4.87400818,end
timer_stats,697749794212125,PAPI_L3_TCM,0, 40.13940430,  4.88304138,end
timer_stats,697749795404572,PAPI_L3_TCM,2, 40.21685791,  4.89201355,end
timer_stats,697749796598973,PAPI_L3_TCM,0, 40.32269287,  4.90956116,end
timer_stats,697749797793063,PAPI_L3_TCM,1, 40.44042969,  4.91856384,end
timer_stats,697749798975067,PAPI_L3_TCM,0, 40.51605224,  4.92733764,end
timer_stats,697749800157764,PAPI_L3_TCM,1, 40.59057617,  4.93609619,end
timer_stats,697749801326081,PAPI_L3_TCM,0, 40.66351318,  4.94491577,end
timer_stats,697749802508132,PAPI_L3_TCM,2, 40.73583984,  4.95396423,end
timer_stats,697749803689719,PAPI_L3_TCM,0, 40.88659668,  4.97151184,end
timer_stats,697749804872353,PAPI_L3_TCM,2, 40.96557617,  4.98052978,end
timer_stats,697749806053277,PAPI_L3_TCM,0, 41.05017090,  4.98928833,end
timer_stats,697749807233634,PAPI_L3_TCM,1, 41.12683105,  4.99783325,end
timer_stats,697749808413591,PAPI_L3_TCM,0, 41.20880127,  5.00637817,end
timer_stats,697749809607318,PAPI_L3_TCM,1, 41.32446289,  5.01902771,end
timer_stats,697749810790279,PAPI_L3_TCM,0, 41.45104980,  5.03273010,end
timer_stats,697749811971283,PAPI_L3_TCM,2, 41.53125000,  5.04173279,end
timer_stats,697749813154650,PAPI_L3_TCM,1, 41.61474609,  5.05049133,end
timer_stats,697749814353481,PAPI_L3_TCM,2, 41.68957520,  5.05955505,end
timer_stats,697749815535821,PAPI_L3_TCM,0, 41.77172851,  5.06806946,end
timer_stats,697749816718281,PAPI_L3_TCM,1, 41.89056396,  5.08561707,end
timer_stats,697749817899888,PAPI_L3_TCM,0, 42.01660156,  5.09440613,end
timer_stats,697749819078302,PAPI_L3_TCM,1, 42.09881592,  5.10301208,end
timer_stats,697749820232336,PAPI_L3_TCM,0, 42.18316650,  5.11178589,end
timer_stats,697749821371733,PAPI_L3_TCM,2, 42.26611328,  5.12054443,end
timer_stats,697749822563287,PAPI_L3_TCM,0, 42.34619140,  5.12933350,end
timer_stats,697749823753684,PAPI_L3_TCM,2, 42.51141357,  5.14739990,end
timer_stats,697749824951548,PAPI_L3_TCM,0, 42.59442139,  5.15676880,end
timer_stats,697749826133519,PAPI_L3_TCM,1, 42.67932129,  5.16603088,end
timer_stats,697749827314359,PAPI_L3_TCM,0, 42.76416015,  5.17478943,end
timer_stats,697749828461562,PAPI_L3_TCM,1, 42.85021973,  5.18331909,end
timer_stats,697749829666430,PAPI_L3_TCM,0, 42.96856689,  5.19735718,end
timer_stats,697749830860484,PAPI_L3_TCM,2, 43.10150146,  5.21148681,end
timer_stats,697749832054651,PAPI_L3_TCM,0, 43.18408203,  5.22106934,end
timer_stats,697749833196868,PAPI_L3_TCM,3, 43.26751709,  5.23065185,end
timer_stats,697749834387069,PAPI_L3_TCM,0, 43.35253906,  5.23919678,end
timer_stats,697749835581246,PAPI_L3_TCM,1, 43.43896484,  5.24795532,end
timer_stats,697749836772409,PAPI_L3_TCM,0, 43.60845947,  5.26559448,end
timer_stats,697749837969133,PAPI_L3_TCM,1, 43.69451904,  5.27438354,end
timer_stats,697749839156864,PAPI_L3_TCM,0, 43.77832031,  5.28318787,end
timer_stats,697749840347878,PAPI_L3_TCM,2, 43.86730957,  5.29148865,end
timer_stats,697749841515099,PAPI_L3_TCM,0, 43.94897461,  5.30030823,end
timer_stats,697749842679129,PAPI_L3_TCM,2, 44.07501221,  5.31269836,end
timer_stats,697749843870250,PAPI_L3_TCM,0, 44.20385742,  5.32667541,end
timer_stats,697749845058880,PAPI_L3_TCM,1, 44.29199219,  5.33522033,end
timer_stats,697749846225774,PAPI_L3_TCM,0, 44.38336182,  5.34449768,end
timer_stats,697749847415908,PAPI_L3_TCM,1, 44.46752930,  5.35328674,end
timer_stats,697749848603062,PAPI_L3_TCM,1, 44.55609131,  5.36227417,end
timer_stats,697749849796766,PAPI_L3_TCM,2, 44.68914795,  5.37597656,end
timer_stats,697749850989463,PAPI_L3_TCM,0, 44.81274414,  5.38900757,end
timer_stats,697749852180594,PAPI_L3_TCM,2, 44.90124512,  5.39778137,end
timer_stats,697749853344680,PAPI_L3_TCM,0, 44.98309326,  5.40663147,end
timer_stats,697749854535207,PAPI_L3_TCM,1, 45.08001709,  5.41532898,end
timer_stats,697749855725491,PAPI_L3_TCM,1, 45.24560547,  5.43278503,end
timer_stats,697749856917052,PAPI_L3_TCM,1, 45.33886719,  5.44200134,end
timer_stats,697749858106959,PAPI_L3_TCM,0, 45.42779541,  5.45075989,end
timer_stats,697749859296303,PAPI_L3_TCM,2, 45.50488281,  5.45970154,end
timer_stats,697749860484784,PAPI_L3_TCM,0, 45.59411621,  5.46844482,end
timer_stats,697749861674487,PAPI_L3_TCM,2, 45.71893310,  5.48107910,end
timer_stats,697749862853808,PAPI_L3_TCM,0, 45.86145019,  5.49472046,end
timer_stats,697749864043572,PAPI_L3_TCM,1, 45.94860840,  5.50349426,end
timer_stats,697749865207596,PAPI_L3_TCM,0, 46.02697754,  5.51269531,end
timer_stats,697749866396485,PAPI_L3_TCM,1, 46.12170410,  5.52140808,end
timer_stats,697749867587353,PAPI_L3_TCM,0, 46.23608398,  5.53038025,end
timer_stats,697749868778867,PAPI_L3_TCM,2, 46.36975098,  5.54902649,end
timer_stats,697749869971664,PAPI_L3_TCM,0, 46.45489502,  5.55784607,end
timer_stats,697749871134828,PAPI_L3_TCM,2, 46.55133057,  5.56651306,end
timer_stats,697749872324829,PAPI_L3_TCM,0, 46.64221191,  5.57502746,end
timer_stats,697749873465166,PAPI_L3_TCM,4, 46.71588135,  5.58493042,end
timer_stats,697749874642719,PAPI_L3_TCM,0, 46.79248047,  5.59326172,end
timer_stats,697749875833286,PAPI_L3_TCM,1, 46.94830322,  5.61117554,end
timer_stats,697749877024697,PAPI_L3_TCM,0, 47.02545166,  5.61996460,end
timer_stats,697749878232994,PAPI_L3_TCM,2, 47.11285400,  5.63021851,end
timer_stats,697749879416235,PAPI_L3_TCM,0, 47.19470215,  5.64074707,end
timer_stats,697749880613249,PAPI_L3_TCM,2, 47.27185058,  5.65112305,end
timer_stats,697749881813560,PAPI_L3_TCM,0, 47.42797851,  5.67050171,end
timer_stats,697749883002947,PAPI_L3_TCM,1, 47.51641846,  5.67916870,end
timer_stats,697749884198387,PAPI_L3_TCM,0, 47.59234619,  5.68951416,end
timer_stats,697749885342677,PAPI_L3_TCM,2, 47.66925049,  5.69854736,end
timer_stats,697749886499551,PAPI_L3_TCM,0, 47.74774170,  5.70776367,end
timer_stats,697749887669421,PAPI_L3_TCM,2, 47.86206055,  5.72239685,end
timer_stats,697749888836545,PAPI_L3_TCM,0, 47.97906494,  5.73503113,end
timer_stats,697749890007479,PAPI_L3_TCM,2, 48.05261230,  5.74253845,end
timer_stats,697749891162233,PAPI_L3_TCM,0, 48.14270019,  5.75273132,end
timer_stats,697749892327844,PAPI_L3_TCM,4, 48.21203613,  5.76162720,end
timer_stats,697749893491540,PAPI_L3_TCM,0, 48.29455566,  5.77064514,end
timer_stats,697749894670824,PAPI_L3_TCM,1, 48.36694336,  5.77841186,end
timer_stats,697749895855668,PAPI_L3_TCM,0, 48.50323486,  5.79528808,end
timer_stats,697749897038382,PAPI_L3_TCM,2, 48.58752441,  5.79934692,end
timer_stats,697749898213999,PAPI_L3_TCM,1, 48.66455078,  5.80679321,end
timer_stats,697749899410557,PAPI_L3_TCM,2, 48.73712158,  5.81538391,end
timer_stats,697749900593844,PAPI_L3_TCM,0, 48.81195068,  5.82238769,end
timer_stats,697749901787984,PAPI_L3_TCM,1, 48.94604492,  5.83636475,end
timer_stats,697749902972301,PAPI_L3_TCM,0, 49.02508545,  5.84356689,end
timer_stats,697749904166278,PAPI_L3_TCM,1, 49.09045410,  5.84997558,end
timer_stats,697749905305976,PAPI_L3_TCM,0, 49.16723633,  5.85649109,end
timer_stats,697749906486316,PAPI_L3_TCM,2, 49.23352051,  5.86407471,end
timer_stats,697749907676726,PAPI_L3_TCM,0, 49.30743408,  5.87263489,end
timer_stats,697749908861283,PAPI_L3_TCM,2, 49.45678711,  5.88714600,end
timer_stats,697749910055084,PAPI_L3_TCM,0, 49.52215576,  5.89450073,end
timer_stats,697749911238788,PAPI_L3_TCM,1, 49.59576416,  5.90176392,end
timer_stats,697749912420352,PAPI_L3_TCM,0, 49.66430664,  5.90859985,end
timer_stats,697749913618309,PAPI_L3_TCM,1, 49.74865723,  5.91571045,end
timer_stats,697749914809300,PAPI_L3_TCM,3, 49.84655762,  5.93112182,end
timer_stats,697749916016060,PAPI_L3_TCM,3, 49.96875000,  5.93988037,end
timer_stats,697749917181220,PAPI_L3_TCM,0, 50.04699707,  5.94866943,end
timer_stats,697749918371484,PAPI_L3_TCM,2, 50.11944580,  5.95951843,end
timer_stats,697749919568922,PAPI_L3_TCM,0, 50.20898437,  5.97023010,end
timer_stats,697749920761579,PAPI_L3_TCM,2, 50.28875732,  5.97923279,end
timer_stats,697749921957743,PAPI_L3_TCM,0, 50.45129394,  5.99160767,end
timer_stats,697749923135897,PAPI_L3_TCM,1, 50.53088379,  6.00038147,end
timer_stats,697749924325197,PAPI_L3_TCM,0, 50.59704590,  6.00935364,end
timer_stats,697749925490961,PAPI_L3_TCM,2, 50.68341064,  6.01782227,end
timer_stats,697749926670831,PAPI_L3_TCM,0, 50.76055908,  6.02662659,end
timer_stats,697749927862242,PAPI_L3_TCM,2, 50.91204834,  6.04432678,end
timer_stats,697749929054559,PAPI_L3_TCM,0, 51.00030518,  6.05300903,end
timer_stats,697749930233243,PAPI_L3_TCM,1, 51.08050537,  6.06176758,end
timer_stats,697749931423384,PAPI_L3_TCM,0, 51.15942383,  6.07055664,end
timer_stats,697749932613920,PAPI_L3_TCM,9, 51.23773193,  6.07931518,end
timer_stats,697749933808428,PAPI_L3_TCM,4, 51.35186768,  6.09329223,end
timer_stats,697749934999978,PAPI_L3_TCM,10, 51.46417236,  6.10568237,end
