timer_stats,696936299759175,PAPI_L3_TCM,181,  0.09973144,  0.01074219,end
timer_stats,696936300898177,PAPI_L3_TCM,25,  0.19201660,  0.02148437,end
timer_stats,696936302028066,PAPI_L3_TCM,1,  0.28833008,  0.03308105,end
timer_stats,696936303183701,PAPI_L3_TCM,4,  0.37744141,  0.04377746,end
timer_stats,696936304296856,PAPI_L3_TCM,4,  0.47778320,  0.05459595,end
timer_stats,696936305478767,PAPI_L3_TCM,58,  0.57434082,  0.06527710,end
timer_stats,696936306604008,PAPI_L3_TCM,18,  0.77081299,  0.08760071,end
timer_stats,696936307751857,PAPI_L3_TCM,0,  0.85644531,  0.09858704,end
timer_stats,696936308905062,PAPI_L3_TCM,2,  0.95031738,  0.10957336,end
timer_stats,696936310060593,PAPI_L3_TCM,1,  1.04052734,  0.11982727,end
timer_stats,696936311215234,PAPI_L3_TCM,1,  1.13012695,  0.13032532,end
timer_stats,696936312307719,PAPI_L3_TCM,2,  1.22802734,  0.14103699,end
timer_stats,696936313435473,PAPI_L3_TCM,3,  1.31805420,  0.15666199,end
timer_stats,696936314589101,PAPI_L3_TCM,2,  1.45220947,  0.16468811,end
timer_stats,696936315739456,PAPI_L3_TCM,1,  1.59552002,  0.18298340,end
timer_stats,696936316861620,PAPI_L3_TCM,16,  1.69384766,  0.19367981,end
timer_stats,696936317981439,PAPI_L3_TCM,0,  1.81530762,  0.20613098,end
timer_stats,696936319266834,PAPI_L3_TCM,16,  1.94799805,  0.22091675,end
timer_stats,696936320616483,PAPI_L3_TCM,20,  2.19171142,  0.23907471,end
timer_stats,696936321742937,PAPI_L3_TCM,10,  2.30529785,  0.25500488,end
timer_stats,696936322850379,PAPI_L3_TCM,4,  2.43707275,  0.26651001,end
timer_stats,696936323971591,PAPI_L3_TCM,7,  2.57653809,  0.28007507,end
timer_stats,696936325085601,PAPI_L3_TCM,2,  2.72344971,  0.29318237,end
timer_stats,696936326194846,PAPI_L3_TCM,2,  2.87353516,  0.30583191,end
timer_stats,696936327296617,PAPI_L3_TCM,1,  3.02117920,  0.31819153,end
timer_stats,696936328399832,PAPI_L3_TCM,4,  3.18035888,  0.33126831,end
timer_stats,696936329504143,PAPI_L3_TCM,0,  3.42919922,  0.34390259,end
timer_stats,696936330601589,PAPI_L3_TCM,2,  3.63415527,  0.36360168,end
timer_stats,696936331706844,PAPI_L3_TCM,7,  3.96136475,  0.38255310,end
timer_stats,696936332802802,PAPI_L3_TCM,9,  4.20556641,  0.39701843,end
timer_stats,696936333894436,PAPI_L3_TCM,8,  4.40753174,  0.41183472,end
timer_stats,696936334979980,PAPI_L3_TCM,12,  4.66784668,  0.42599487,end
timer_stats,696936336031388,PAPI_L3_TCM,6,  4.86431885,  0.44126892,end
timer_stats,696936339906812,PAPI_L3_TCM,71,  5.65649414,  0.49601746,end
timer_stats,696936340992309,PAPI_L3_TCM,23,  5.84490967,  0.50967407,end
timer_stats,696936342077295,PAPI_L3_TCM,6,  6.06933594,  0.52461243,end
timer_stats,696936343160772,PAPI_L3_TCM,5,  6.31225586,  0.54019165,end
timer_stats,696936344247503,PAPI_L3_TCM,7,  6.54650879,  0.55613708,end
timer_stats,696936345331752,PAPI_L3_TCM,5,  6.78802490,  0.57014465,end
timer_stats,696936346416530,PAPI_L3_TCM,9,  7.02459717,  0.58433533,end
timer_stats,696936347497743,PAPI_L3_TCM,5,  7.26721191,  0.59950256,end
timer_stats,696936348578164,PAPI_L3_TCM,33,  7.60528564,  0.62078857,end
timer_stats,696936349656730,PAPI_L3_TCM,18,  7.81842041,  0.63735962,end
timer_stats,696936350739017,PAPI_L3_TCM,3,  8.19390869,  0.66082764,end
timer_stats,696936351828965,PAPI_L3_TCM,8,  8.43389892,  0.67594909,end
timer_stats,696936352917103,PAPI_L3_TCM,11,  8.66210937,  0.69116211,end
timer_stats,696936353999273,PAPI_L3_TCM,2,  8.90716553,  0.70559692,end
timer_stats,696936355082742,PAPI_L3_TCM,8,  9.14868164,  0.72030640,end
timer_stats,696936356163727,PAPI_L3_TCM,7,  9.38165283,  0.73596191,end
timer_stats,696936357246288,PAPI_L3_TCM,4,  9.62829590,  0.75108337,end
timer_stats,696936358327487,PAPI_L3_TCM,7,  9.88153076,  0.76669311,end
timer_stats,696936359410195,PAPI_L3_TCM,8, 10.14166260,  0.78231812,end
timer_stats,696936360491845,PAPI_L3_TCM,4, 10.39013672,  0.79751587,end
timer_stats,696936361574198,PAPI_L3_TCM,7, 10.60058594,  0.81289673,end
timer_stats,696936362656279,PAPI_L3_TCM,4, 11.09741211,  0.84628296,end
timer_stats,696936363742262,PAPI_L3_TCM,19, 11.22424316,  0.85369873,end
timer_stats,696936366505305,PAPI_L3_TCM,15, 11.76672363,  0.88404846,end
timer_stats,696936367674626,PAPI_L3_TCM,10, 12.03082275,  0.91096497,end
timer_stats,696936368766143,PAPI_L3_TCM,9, 12.24957275,  0.92417908,end
timer_stats,696936369870008,PAPI_L3_TCM,3, 12.48730469,  0.93872070,end
timer_stats,696936370967782,PAPI_L3_TCM,7, 12.71563721,  0.95445251,end
timer_stats,696936372022044,PAPI_L3_TCM,3, 12.95068359,  0.96893310,end
timer_stats,696936373111328,PAPI_L3_TCM,1, 13.21978760,  0.98402405,end
timer_stats,696936374195095,PAPI_L3_TCM,3, 13.47741699,  0.99884033,end
timer_stats,696936375280710,PAPI_L3_TCM,2, 13.68328857,  1.01362610,end
timer_stats,696936376363174,PAPI_L3_TCM,11, 13.92645264,  1.02877807,end
timer_stats,696936377447830,PAPI_L3_TCM,2, 14.19683838,  1.04379272,end
timer_stats,696936378530646,PAPI_L3_TCM,3, 14.53845215,  1.06657409,end
timer_stats,696936379612999,PAPI_L3_TCM,6, 14.66717529,  1.07403564,end
timer_stats,696936380693542,PAPI_L3_TCM,15, 15.13671875,  1.10304260,end
timer_stats,696936381775244,PAPI_L3_TCM,3, 15.37371826,  1.11944580,end
timer_stats,696936384702279,PAPI_L3_TCM,233, 15.84167480,  1.16017151,end
timer_stats,696936385790184,PAPI_L3_TCM,94, 16.12622070,  1.18368530,end
timer_stats,696936386873387,PAPI_L3_TCM,15, 16.38183594,  1.19978332,end
timer_stats,696936387952965,PAPI_L3_TCM,1, 16.63269043,  1.21618652,end
timer_stats,696936389032793,PAPI_L3_TCM,7, 16.90063476,  1.23277283,end
timer_stats,696936390112138,PAPI_L3_TCM,1, 17.17077637,  1.24104309,end
timer_stats,696936391191777,PAPI_L3_TCM,7, 17.41827393,  1.25788879,end
timer_stats,696936392272733,PAPI_L3_TCM,7, 17.63818359,  1.27479553,end
timer_stats,696936393353498,PAPI_L3_TCM,12, 17.91436767,  1.29269409,end
timer_stats,696936394433488,PAPI_L3_TCM,5, 18.16558838,  1.30979919,end
timer_stats,696936395513535,PAPI_L3_TCM,5, 18.42150879,  1.32749939,end
timer_stats,696936396593271,PAPI_L3_TCM,3, 18.64416504,  1.34478760,end
timer_stats,696936397675278,PAPI_L3_TCM,5, 18.92596436,  1.36172485,end
timer_stats,696936398757765,PAPI_L3_TCM,8, 19.30871582,  1.38819885,end
timer_stats,696936399842322,PAPI_L3_TCM,4, 19.65759277,  1.41342163,end
timer_stats,696936400923598,PAPI_L3_TCM,4, 19.93218994,  1.43041992,end
timer_stats,696936402005787,PAPI_L3_TCM,5, 20.18878174,  1.44764709,end
timer_stats,696936403086330,PAPI_L3_TCM,3, 20.44104004,  1.46520996,end
timer_stats,696936404166789,PAPI_L3_TCM,15, 20.68542480,  1.48268127,end
timer_stats,696936405246852,PAPI_L3_TCM,4, 20.93444824,  1.49967957,end
timer_stats,696936406326015,PAPI_L3_TCM,8, 21.18408203,  1.51722717,end
timer_stats,696936407405692,PAPI_L3_TCM,8, 21.42053222,  1.53431702,end
timer_stats,696936408485494,PAPI_L3_TCM,5, 21.68988037,  1.55160522,end
timer_stats,696936409566000,PAPI_L3_TCM,5, 21.95092773,  1.56866455,end
timer_stats,696936410646023,PAPI_L3_TCM,4, 22.19555664,  1.58598328,end
timer_stats,696936411726636,PAPI_L3_TCM,3, 22.69665527,  1.62115478,end
timer_stats,696936412807373,PAPI_L3_TCM,9, 22.95227051,  1.63871765,end
timer_stats,696936415380301,PAPI_L3_TCM,67, 23.34429932,  1.67718506,end
timer_stats,696936416461367,PAPI_L3_TCM,29, 23.52026367,  1.69564819,end
timer_stats,696936417542963,PAPI_L3_TCM,6, 23.75164795,  1.71278381,end
timer_stats,696936418623712,PAPI_L3_TCM,2, 24.03045654,  1.72988892,end
timer_stats,696936419703849,PAPI_L3_TCM,2, 24.28576660,  1.74678040,end
timer_stats,696936420785326,PAPI_L3_TCM,8, 24.67364502,  1.77238464,end
timer_stats,696936421866422,PAPI_L3_TCM,3, 25.02008057,  1.79785156,end
timer_stats,696936422948700,PAPI_L3_TCM,10, 25.28784180,  1.81462097,end
timer_stats,696936424018711,PAPI_L3_TCM,9, 25.53063965,  1.83238220,end
timer_stats,696936425109095,PAPI_L3_TCM,19, 25.79089355,  1.84889221,end
timer_stats,696936426195590,PAPI_L3_TCM,11, 26.03662109,  1.86621094,end
timer_stats,696936427280030,PAPI_L3_TCM,4, 26.27886963,  1.88227844,end
timer_stats,696936428361940,PAPI_L3_TCM,1, 26.52270508,  1.89915466,end
timer_stats,696936429445389,PAPI_L3_TCM,11, 26.76165771,  1.91601562,end
timer_stats,696936430518230,PAPI_L3_TCM,10, 26.98553467,  1.93151855,end
timer_stats,696936431605945,PAPI_L3_TCM,8, 27.19720459,  1.94683838,end
timer_stats,696936432698548,PAPI_L3_TCM,2, 27.40899658,  1.96247864,end
timer_stats,696936433799781,PAPI_L3_TCM,29, 27.83978271,  1.99351501,end
timer_stats,696936434880293,PAPI_L3_TCM,8, 28.04650879,  2.00846863,end
timer_stats,696936435984433,PAPI_L3_TCM,4, 28.25238037,  2.02302551,end
timer_stats,696936437095776,PAPI_L3_TCM,0, 28.44537353,  2.03764343,end
timer_stats,696936438202150,PAPI_L3_TCM,2, 28.63543701,  2.05204773,end
timer_stats,696936439308744,PAPI_L3_TCM,0, 28.81298828,  2.06675720,end
timer_stats,696936440404596,PAPI_L3_TCM,5, 29.00103760,  2.08119202,end
timer_stats,696936441507524,PAPI_L3_TCM,0, 29.19653320,  2.09536743,end
timer_stats,696936442592114,PAPI_L3_TCM,5, 29.37683105,  2.10955811,end
timer_stats,696936443692025,PAPI_L3_TCM,5, 29.55261230,  2.12283325,end
timer_stats,696936444772130,PAPI_L3_TCM,1, 29.89086914,  2.14372253,end
timer_stats,696936445895739,PAPI_L3_TCM,1, 30.05450439,  2.16349792,end
timer_stats,696936447026026,PAPI_L3_TCM,11, 30.20874023,  2.17720032,end
timer_stats,696936448127407,PAPI_L3_TCM,0, 30.36608887,  2.19017029,end
timer_stats,696936449242859,PAPI_L3_TCM,3, 30.51855469,  2.20251465,end
timer_stats,696936450392544,PAPI_L3_TCM,1, 30.67230225,  2.21505737,end
timer_stats,696936451529271,PAPI_L3_TCM,1, 30.81231689,  2.22770691,end
timer_stats,696936452663144,PAPI_L3_TCM,1, 30.95947265,  2.24011230,end
timer_stats,696936453799861,PAPI_L3_TCM,3, 31.24719238,  2.26568603,end
timer_stats,696936454939791,PAPI_L3_TCM,0, 31.39013672,  2.27838135,end
timer_stats,696936456063255,PAPI_L3_TCM,2, 31.52600098,  2.29107666,end
timer_stats,696936457182938,PAPI_L3_TCM,0, 31.67468262,  2.30328369,end
timer_stats,696936458328093,PAPI_L3_TCM,2, 31.80926514,  2.31527710,end
timer_stats,696936459478868,PAPI_L3_TCM,0, 31.94055176,  2.32803345,end
timer_stats,696936460622543,PAPI_L3_TCM,2, 32.07928467,  2.34025574,end
timer_stats,696936461777648,PAPI_L3_TCM,0, 32.29736328,  2.35896301,end
timer_stats,696936462920590,PAPI_L3_TCM,2, 32.50183105,  2.37785339,end
timer_stats,696936464070243,PAPI_L3_TCM,0, 32.63732910,  2.39059448,end
timer_stats,696936465196012,PAPI_L3_TCM,3, 32.77905273,  2.40333557,end
timer_stats,696936467930960,PAPI_L3_TCM,21, 33.19683838,  2.44120788,end
timer_stats,696936469044166,PAPI_L3_TCM,4, 33.33160400,  2.45431518,end
timer_stats,696936470166563,PAPI_L3_TCM,3, 33.46875000,  2.46638489,end
timer_stats,696936471287876,PAPI_L3_TCM,4, 33.60473633,  2.47827148,end
timer_stats,696936472420833,PAPI_L3_TCM,1, 33.73638916,  2.48945618,end
timer_stats,696936473546933,PAPI_L3_TCM,1, 33.86102295,  2.50102234,end
timer_stats,696936474672331,PAPI_L3_TCM,0, 33.98669434,  2.51226807,end
timer_stats,696936475795311,PAPI_L3_TCM,4, 34.23376465,  2.53613281,end
timer_stats,696936476925316,PAPI_L3_TCM,1, 34.35937500,  2.54867554,end
timer_stats,696936478057401,PAPI_L3_TCM,1, 34.48675537,  2.56016540,end
timer_stats,696936479186178,PAPI_L3_TCM,3, 34.60559082,  2.57121277,end
timer_stats,696936480317058,PAPI_L3_TCM,4, 34.73187256,  2.58247375,end
timer_stats,696936481451367,PAPI_L3_TCM,1, 34.85034180,  2.59432983,end
timer_stats,696936482573868,PAPI_L3_TCM,2, 34.97039795,  2.60636902,end
timer_stats,696936483695729,PAPI_L3_TCM,1, 35.08538818,  2.61843872,end
timer_stats,696936484811226,PAPI_L3_TCM,2, 35.32672119,  2.64134216,end
timer_stats,696936485893162,PAPI_L3_TCM,1, 35.44976807,  2.65223694,end
timer_stats,696936487000060,PAPI_L3_TCM,2, 35.57128906,  2.66313171,end
timer_stats,696936488109134,PAPI_L3_TCM,2, 35.69604492,  2.67405701,end
timer_stats,696936489189742,PAPI_L3_TCM,1, 35.81323242,  2.68524170,end
timer_stats,696936490297676,PAPI_L3_TCM,1, 35.93395996,  2.69567871,end
timer_stats,696936491445120,PAPI_L3_TCM,1, 36.04418945,  2.70642090,end
timer_stats,696936492576363,PAPI_L3_TCM,0, 36.15472412,  2.71691895,end
timer_stats,696936493710057,PAPI_L3_TCM,2, 36.27087402,  2.72760010,end
timer_stats,696936494840696,PAPI_L3_TCM,0, 36.49365234,  2.74856567,end
timer_stats,696936495971258,PAPI_L3_TCM,1, 36.59686279,  2.75978088,end
timer_stats,696936497113747,PAPI_L3_TCM,9, 36.70703125,  2.77006531,end
timer_stats,696936498263393,PAPI_L3_TCM,1, 36.81500244,  2.78054809,end
timer_stats,696936499415087,PAPI_L3_TCM,0, 36.91003418,  2.79089355,end
timer_stats,696936500558857,PAPI_L3_TCM,3, 37.01745605,  2.80111694,end
timer_stats,696936501710267,PAPI_L3_TCM,0, 37.12554932,  2.81208801,end
timer_stats,696936502853166,PAPI_L3_TCM,2, 37.32897949,  2.83354187,end
timer_stats,696936504010510,PAPI_L3_TCM,2, 37.42858887,  2.84361267,end
timer_stats,696936505138180,PAPI_L3_TCM,1, 37.53302002,  2.85411072,end
timer_stats,696936506292032,PAPI_L3_TCM,0, 37.63531494,  2.86503601,end
