timer_stats,655969742273198,PAPI_L3_TCM,499,  0.07214355,  0.01068115,end
timer_stats,655969743381099,PAPI_L3_TCM,43,  0.14068603,  0.02120972,end
timer_stats,655969744488954,PAPI_L3_TCM,4,  0.21002197,  0.03282165,end
timer_stats,655969745625162,PAPI_L3_TCM,7,  0.27404785,  0.04307556,end
timer_stats,655969746776354,PAPI_L3_TCM,24,  0.33868408,  0.05360413,end
timer_stats,655969747911105,PAPI_L3_TCM,19,  0.48297119,  0.07556152,end
timer_stats,655969749087917,PAPI_L3_TCM,3,  0.55194092,  0.08450317,end
timer_stats,655969750266002,PAPI_L3_TCM,2,  0.61755371,  0.09477234,end
timer_stats,655969751415420,PAPI_L3_TCM,3,  0.68835449,  0.10502624,end
timer_stats,655969752567189,PAPI_L3_TCM,3,  0.75927734,  0.11576843,end
timer_stats,655969753705573,PAPI_L3_TCM,2,  0.83300781,  0.12644958,end
timer_stats,655969754845954,PAPI_L3_TCM,2,  0.98291016,  0.14875793,end
timer_stats,655969755988373,PAPI_L3_TCM,0,  1.05480957,  0.15998840,end
timer_stats,655969757489386,PAPI_L3_TCM,54,  1.14447021,  0.17207336,end
timer_stats,655969758623077,PAPI_L3_TCM,0,  1.22406006,  0.18397522,end
timer_stats,655969759772577,PAPI_L3_TCM,0,  1.31701660,  0.19508362,end
timer_stats,655969760899137,PAPI_L3_TCM,0,  1.48559570,  0.21789551,end
timer_stats,655969762036072,PAPI_L3_TCM,1,  1.57202148,  0.22816467,end
timer_stats,655969763168396,PAPI_L3_TCM,0,  1.65411377,  0.23915100,end
timer_stats,655969764282718,PAPI_L3_TCM,3,  1.74133301,  0.24940491,end
timer_stats,655969765424459,PAPI_L3_TCM,0,  1.82092285,  0.25994873,end
timer_stats,655969766594864,PAPI_L3_TCM,0,  1.90557861,  0.27020264,end
timer_stats,655969767765323,PAPI_L3_TCM,0,  2.02777100,  0.28033447,end
timer_stats,655969768926571,PAPI_L3_TCM,1,  2.14782715,  0.30140686,end
timer_stats,655969770118053,PAPI_L3_TCM,0,  2.23693848,  0.31216431,end
timer_stats,655969771313744,PAPI_L3_TCM,0,  2.32299805,  0.32267761,end
timer_stats,655969772492586,PAPI_L3_TCM,1,  2.40728760,  0.33302307,end
timer_stats,655969773686155,PAPI_L3_TCM,1,  2.49749756,  0.34355164,end
timer_stats,655969774876537,PAPI_L3_TCM,0,  2.68060303,  0.36505127,end
timer_stats,655969776073409,PAPI_L3_TCM,1,  2.76629639,  0.37557983,end
timer_stats,655969777232297,PAPI_L3_TCM,0,  2.86212158,  0.38607788,end
timer_stats,655969778424765,PAPI_L3_TCM,0,  2.95074463,  0.39895630,end
timer_stats,655969779619526,PAPI_L3_TCM,0,  3.04315186,  0.41116333,end
timer_stats,655969780793018,PAPI_L3_TCM,2,  3.22949219,  0.43138122,end
timer_stats,655969781981953,PAPI_L3_TCM,0,  3.32409668,  0.44258118,end
timer_stats,655969783171202,PAPI_L3_TCM,1,  3.41619873,  0.45286560,end
timer_stats,655969784364400,PAPI_L3_TCM,1,  3.51007080,  0.46318054,end
timer_stats,655969785532072,PAPI_L3_TCM,0,  3.60156250,  0.47369385,end
timer_stats,655969786723300,PAPI_L3_TCM,0,  3.69805908,  0.48394775,end
timer_stats,655969787915369,PAPI_L3_TCM,0,  3.88439941,  0.50407410,end
timer_stats,655969789095157,PAPI_L3_TCM,1,  3.97155762,  0.51469421,end
timer_stats,655969790264009,PAPI_L3_TCM,0,  4.07366943,  0.52494812,end
timer_stats,655969791452230,PAPI_L3_TCM,0,  4.16687012,  0.53526306,end
timer_stats,655969792633095,PAPI_L3_TCM,2,  4.26208496,  0.54560852,end
timer_stats,655969793823724,PAPI_L3_TCM,0,  4.39099121,  0.56108093,end
timer_stats,655969795010822,PAPI_L3_TCM,0,  4.54730225,  0.57676697,end
timer_stats,655969796202110,PAPI_L3_TCM,1,  4.63702392,  0.58714294,end
timer_stats,655969797370232,PAPI_L3_TCM,0,  4.73474121,  0.59741211,end
timer_stats,655969798620620,PAPI_L3_TCM,20,  4.83306885,  0.60906982,end
timer_stats,655969799773132,PAPI_L3_TCM,20,  4.93560791,  0.62075806,end
timer_stats,655969800892977,PAPI_L3_TCM,2,  5.13293457,  0.64356994,end
timer_stats,655969802053189,PAPI_L3_TCM,4,  5.22839355,  0.65412903,end
timer_stats,655969803237660,PAPI_L3_TCM,1,  5.32708740,  0.66505432,end
timer_stats,655969804379839,PAPI_L3_TCM,2,  5.42211914,  0.67581177,end
timer_stats,655969805493474,PAPI_L3_TCM,1,  5.51916504,  0.68603516,end
timer_stats,655969806594941,PAPI_L3_TCM,9,  5.60162353,  0.69679260,end
timer_stats,655969807704106,PAPI_L3_TCM,1,  5.68939209,  0.70875549,end
timer_stats,655969808840761,PAPI_L3_TCM,0,  5.79199219,  0.72105408,end
timer_stats,655969809986059,PAPI_L3_TCM,0,  6.00872803,  0.74696350,end
timer_stats,655969811090168,PAPI_L3_TCM,1,  6.12170410,  0.75920105,end
timer_stats,655969812188015,PAPI_L3_TCM,1,  6.23693848,  0.77334595,end
timer_stats,655969813295693,PAPI_L3_TCM,1,  6.35302734,  0.78799438,end
timer_stats,655969814386881,PAPI_L3_TCM,0,  6.47015381,  0.80050659,end
timer_stats,655969815528222,PAPI_L3_TCM,0,  6.58947754,  0.81303406,end
timer_stats,655969818228074,PAPI_L3_TCM,1,  6.95428467,  0.85009766,end
timer_stats,655969819357556,PAPI_L3_TCM,1,  7.08715820,  0.86267090,end
timer_stats,655969820483912,PAPI_L3_TCM,2,  7.21496582,  0.87477112,end
timer_stats,655969821610129,PAPI_L3_TCM,3,  7.36035156,  0.88734436,end
timer_stats,655969822720193,PAPI_L3_TCM,0,  7.51843262,  0.89837646,end
timer_stats,655969823824734,PAPI_L3_TCM,0,  7.68182373,  0.91015625,end
timer_stats,655969824921875,PAPI_L3_TCM,2,  8.02001953,  0.93440247,end
timer_stats,655969826031309,PAPI_L3_TCM,0,  8.19451904,  0.94664001,end
timer_stats,655969827129168,PAPI_L3_TCM,0,  8.36602783,  0.95812988,end
timer_stats,655969828230857,PAPI_L3_TCM,2,  8.54260254,  0.96989441,end
timer_stats,655969829314397,PAPI_L3_TCM,0,  8.72235107,  0.98120117,end
timer_stats,655969830401994,PAPI_L3_TCM,2,  8.89715576,  0.99301147,end
timer_stats,655969831510050,PAPI_L3_TCM,0,  9.07592773,  1.00457764,end
timer_stats,655969832621435,PAPI_L3_TCM,2,  9.24884033,  1.01611328,end
timer_stats,655969833715570,PAPI_L3_TCM,0,  9.42456055,  1.02787781,end
timer_stats,655969834802914,PAPI_L3_TCM,0,  9.60412598,  1.03990173,end
timer_stats,655969835897814,PAPI_L3_TCM,0,  9.94958496,  1.06248474,end
timer_stats,655969837077841,PAPI_L3_TCM,11, 10.13684082,  1.07463074,end
timer_stats,655969838247014,PAPI_L3_TCM,9, 10.32147217,  1.08638000,end
timer_stats,655969839399023,PAPI_L3_TCM,12, 10.49584961,  1.09844971,end
timer_stats,655969840636333,PAPI_L3_TCM,16, 10.67718506,  1.11019897,end
timer_stats,655969841742843,PAPI_L3_TCM,2, 10.85736084,  1.12196350,end
timer_stats,655969842833416,PAPI_L3_TCM,4, 11.04052734,  1.13371277,end
timer_stats,655969844060659,PAPI_L3_TCM,20, 11.29400635,  1.15571594,end
timer_stats,655969845262394,PAPI_L3_TCM,12, 11.46063232,  1.16819763,end
timer_stats,655969846358509,PAPI_L3_TCM,0, 11.63415527,  1.17974853,end
timer_stats,655969847470539,PAPI_L3_TCM,4, 11.81042480,  1.19128418,end
timer_stats,655969848575387,PAPI_L3_TCM,1, 11.99304199,  1.20275879,end
timer_stats,655969849673387,PAPI_L3_TCM,0, 12.16217041,  1.21481323,end
timer_stats,655969850790627,PAPI_L3_TCM,4, 12.34716797,  1.22656250,end
timer_stats,655969851895147,PAPI_L3_TCM,0, 12.53015137,  1.23826599,end
timer_stats,655969853002062,PAPI_L3_TCM,0, 12.87628174,  1.25602722,end
timer_stats,655969854108371,PAPI_L3_TCM,2, 13.06561279,  1.26799011,end
timer_stats,655969855202390,PAPI_L3_TCM,1, 13.23602295,  1.27958679,end
timer_stats,655969856298188,PAPI_L3_TCM,0, 13.41967773,  1.29159546,end
timer_stats,655969857406427,PAPI_L3_TCM,1, 13.59655762,  1.30314636,end
timer_stats,655969858507593,PAPI_L3_TCM,0, 13.78643799,  1.31462097,end
timer_stats,655969859627229,PAPI_L3_TCM,3, 13.96386719,  1.32615662,end
timer_stats,655969860723735,PAPI_L3_TCM,2, 14.14483642,  1.33767700,end
timer_stats,655969861823798,PAPI_L3_TCM,2, 14.31365967,  1.34973144,end
timer_stats,655969862928909,PAPI_L3_TCM,1, 14.58001709,  1.36726379,end
timer_stats,655969864023384,PAPI_L3_TCM,1, 14.85949707,  1.38562012,end
timer_stats,655969865136241,PAPI_L3_TCM,2, 15.04742432,  1.39732361,end
timer_stats,655969866244727,PAPI_L3_TCM,0, 15.23291016,  1.40879822,end
timer_stats,655969867349961,PAPI_L3_TCM,0, 15.41857910,  1.42076111,end
timer_stats,655969868450937,PAPI_L3_TCM,2, 15.60266113,  1.43272400,end
timer_stats,655969869555472,PAPI_L3_TCM,5, 15.78216553,  1.44520569,end
timer_stats,655969870653683,PAPI_L3_TCM,3, 15.96539307,  1.45738220,end
timer_stats,655969871760084,PAPI_L3_TCM,0, 16.15148926,  1.46954346,end
timer_stats,655969872850230,PAPI_L3_TCM,3, 16.33380127,  1.48104858,end
timer_stats,655969873940131,PAPI_L3_TCM,4, 16.70550537,  1.49816894,end
timer_stats,655969875036039,PAPI_L3_TCM,1, 16.88842773,  1.51647949,end
timer_stats,655969876130530,PAPI_L3_TCM,1, 17.07312012,  1.52844238,end
timer_stats,655969877234691,PAPI_L3_TCM,4, 17.24804687,  1.54043579,end
timer_stats,655969878335046,PAPI_L3_TCM,0, 17.44268799,  1.55212402,end
timer_stats,655969879431348,PAPI_L3_TCM,1, 17.61981201,  1.56388855,end
timer_stats,655969880526683,PAPI_L3_TCM,0, 17.81127930,  1.57606506,end
timer_stats,655969881627064,PAPI_L3_TCM,1, 17.98510742,  1.58833313,end
timer_stats,655969882731662,PAPI_L3_TCM,0, 18.17199707,  1.60029602,end
timer_stats,655969883818993,PAPI_L3_TCM,0, 18.35418701,  1.61178589,end
timer_stats,655969884911230,PAPI_L3_TCM,2, 18.54241943,  1.62397766,end
timer_stats,655969886015486,PAPI_L3_TCM,1, 18.90399170,  1.64747620,end
timer_stats,655969887107199,PAPI_L3_TCM,0, 19.08990478,  1.65919495,end
timer_stats,655969888221940,PAPI_L3_TCM,5, 19.27325439,  1.67071533,end
timer_stats,655969889315302,PAPI_L3_TCM,0, 19.46173096,  1.68240356,end
timer_stats,655969890440390,PAPI_L3_TCM,3, 19.64447021,  1.69392395,end
timer_stats,655969891537488,PAPI_L3_TCM,0, 19.82501221,  1.70545959,end
timer_stats,655969892628238,PAPI_L3_TCM,0, 20.01104736,  1.71697998,end
timer_stats,655969893719491,PAPI_L3_TCM,0, 20.19201660,  1.72856140,end
timer_stats,655969894811112,PAPI_L3_TCM,3, 20.38299560,  1.74003601,end
timer_stats,655969895903513,PAPI_L3_TCM,0, 20.56323242,  1.75158691,end
timer_stats,655969897000264,PAPI_L3_TCM,0, 20.93481445,  1.77484131,end
timer_stats,655969898087417,PAPI_L3_TCM,2, 21.12512207,  1.78639221,end
timer_stats,655969899178589,PAPI_L3_TCM,1, 21.31140137,  1.79792786,end
timer_stats,655969900260939,PAPI_L3_TCM,4, 21.49346924,  1.80996704,end
timer_stats,655969901357796,PAPI_L3_TCM,0, 21.67950439,  1.82168579,end
timer_stats,655969902450572,PAPI_L3_TCM,0, 21.86340332,  1.83364868,end
timer_stats,655969903542187,PAPI_L3_TCM,0, 22.05377197,  1.84512329,end
timer_stats,655969904636656,PAPI_L3_TCM,4, 22.23846435,  1.85733032,end
timer_stats,655969905727366,PAPI_L3_TCM,3, 22.41784668,  1.86935425,end
timer_stats,655969906809823,PAPI_L3_TCM,9, 22.59515381,  1.88108826,end
timer_stats,655969907891581,PAPI_L3_TCM,4, 22.96099853,  1.90072632,end
timer_stats,655969909062193,PAPI_L3_TCM,3, 23.32849121,  1.91961670,end
timer_stats,655969910328782,PAPI_L3_TCM,2, 23.52917480,  1.93161011,end
timer_stats,655969911480366,PAPI_L3_TCM,0, 23.73333740,  1.94413757,end
timer_stats,655969912600079,PAPI_L3_TCM,0, 23.94317627,  1.95617676,end
timer_stats,655969913682855,PAPI_L3_TCM,1, 24.14935303,  1.96911621,end
timer_stats,655969914845301,PAPI_L3_TCM,3, 24.36871338,  1.98081970,end
timer_stats,655969915927825,PAPI_L3_TCM,57, 24.68450928,  1.99281311,end
timer_stats,655969917051563,PAPI_L3_TCM,7, 25.00286865,  2.01794434,end
timer_stats,655969918222453,PAPI_L3_TCM,2, 25.21319580,  2.03134155,end
timer_stats,655969919372889,PAPI_L3_TCM,2, 25.41442871,  2.04286194,end
timer_stats,655969920465747,PAPI_L3_TCM,5, 25.62677002,  2.05484009,end
timer_stats,655969921589783,PAPI_L3_TCM,0, 25.84259033,  2.06750488,end
timer_stats,655969922678343,PAPI_L3_TCM,0, 26.06823730,  2.08027649,end
timer_stats,655969938374781,PAPI_L3_TCM,108, 29.21215820,  2.27807617,end
timer_stats,655969939461893,PAPI_L3_TCM,27, 29.42230225,  2.29380798,end
timer_stats,655969940542728,PAPI_L3_TCM,11, 29.66107178,  2.30958557,end
timer_stats,655969941623944,PAPI_L3_TCM,2, 29.93591308,  2.32382202,end
timer_stats,655969942702203,PAPI_L3_TCM,2, 30.18359375,  2.33818054,end
timer_stats,655969943779525,PAPI_L3_TCM,2, 30.44720459,  2.35321045,end
timer_stats,655969944856950,PAPI_L3_TCM,5, 30.71917725,  2.36836242,end
timer_stats,655969945935376,PAPI_L3_TCM,2, 30.97540283,  2.38394165,end
timer_stats,655969947012874,PAPI_L3_TCM,7, 31.36108398,  2.40750122,end
timer_stats,655969959351244,PAPI_L3_TCM,270, 33.92120361,  2.57112121,end
timer_stats,655969960443491,PAPI_L3_TCM,138, 34.11267090,  2.58561706,end
timer_stats,655969961522682,PAPI_L3_TCM,14, 34.37170410,  2.59950256,end
timer_stats,655969962600842,PAPI_L3_TCM,11, 34.63684082,  2.61289978,end
timer_stats,655969963678493,PAPI_L3_TCM,4, 34.89654541,  2.62631225,end
timer_stats,655969964756226,PAPI_L3_TCM,9, 35.15362549,  2.64021301,end
timer_stats,655969965832949,PAPI_L3_TCM,6, 35.41485596,  2.65412903,end
timer_stats,655969966915243,PAPI_L3_TCM,3, 35.67419434,  2.66801453,end
timer_stats,655969967992809,PAPI_L3_TCM,5, 36.20788574,  2.68212891,end
timer_stats,655969969074903,PAPI_L3_TCM,8, 36.47119141,  2.71032715,end
timer_stats,655969970152333,PAPI_L3_TCM,5, 36.72357178,  2.72419739,end
timer_stats,655969971237281,PAPI_L3_TCM,5, 36.99078369,  2.73800659,end
timer_stats,655969972314940,PAPI_L3_TCM,9, 37.25372314,  2.75202942,end
timer_stats,655969973396133,PAPI_L3_TCM,7, 37.51361084,  2.76580811,end
timer_stats,655969974473843,PAPI_L3_TCM,2, 37.78369140,  2.77958679,end
timer_stats,655969975550735,PAPI_L3_TCM,3, 38.05194092,  2.79360962,end
timer_stats,655969976628436,PAPI_L3_TCM,7, 38.31451416,  2.80819702,end
timer_stats,655969977705335,PAPI_L3_TCM,5, 38.57415771,  2.82232666,end
timer_stats,655969978781702,PAPI_L3_TCM,1, 38.84332275,  2.83618164,end
timer_stats,655969979859848,PAPI_L3_TCM,15, 39.10388184,  2.85023498,end
timer_stats,655969980936862,PAPI_L3_TCM,6, 39.36346435,  2.86433411,end
timer_stats,655969982013593,PAPI_L3_TCM,7, 39.76043701,  2.88436890,end
timer_stats,655969983091664,PAPI_L3_TCM,9, 40.16192627,  2.90586853,end
timer_stats,655969984169462,PAPI_L3_TCM,5, 40.42700195,  2.92013550,end
timer_stats,655969985246231,PAPI_L3_TCM,5, 40.67883301,  2.93479919,end
timer_stats,655969986323355,PAPI_L3_TCM,8, 40.94183349,  2.94961548,end
timer_stats,655969987400367,PAPI_L3_TCM,3, 41.21252441,  2.96391296,end
timer_stats,655969988478843,PAPI_L3_TCM,24, 41.46002197,  2.97862244,end
timer_stats,655969989557182,PAPI_L3_TCM,10, 41.72448730,  2.99256897,end
timer_stats,655969990634274,PAPI_L3_TCM,3, 41.99066162,  3.00683594,end
timer_stats,655969991731649,PAPI_L3_TCM,8, 42.24633789,  3.02169800,end
timer_stats,655969992809029,PAPI_L3_TCM,7, 42.53204346,  3.03593445,end
timer_stats,655969993886264,PAPI_L3_TCM,4, 42.78485107,  3.04977417,end
timer_stats,655969994962869,PAPI_L3_TCM,8, 43.04943848,  3.06359863,end
timer_stats,655969996017368,PAPI_L3_TCM,5, 43.56738281,  3.09152222,end
timer_stats,655969998698750,PAPI_L3_TCM,124, 44.03063965,  3.13848877,end
timer_stats,655969999782301,PAPI_L3_TCM,24, 44.22460937,  3.15507507,end
timer_stats,655970000860233,PAPI_L3_TCM,11, 44.50244140,  3.17100525,end
timer_stats,655970001936873,PAPI_L3_TCM,3, 44.76293945,  3.18658447,end
timer_stats,655970003013499,PAPI_L3_TCM,3, 45.29565430,  3.20257568,end
timer_stats,655970004088870,PAPI_L3_TCM,5, 45.55859375,  3.23384094,end
timer_stats,655970005169646,PAPI_L3_TCM,7, 45.82849121,  3.24937439,end
timer_stats,655970006246269,PAPI_L3_TCM,7, 46.10394287,  3.26602173,end
timer_stats,655970007322984,PAPI_L3_TCM,4, 46.36267090,  3.28250122,end
timer_stats,655970008399382,PAPI_L3_TCM,7, 46.63574219,  3.29911804,end
timer_stats,655970009475606,PAPI_L3_TCM,3, 46.91546631,  3.31503296,end
timer_stats,655970010551821,PAPI_L3_TCM,6, 47.18035889,  3.33102417,end
timer_stats,655970011629253,PAPI_L3_TCM,2, 47.44976807,  3.34704590,end
timer_stats,655970012705291,PAPI_L3_TCM,2, 47.71661377,  3.36283874,end
timer_stats,655970013783792,PAPI_L3_TCM,7, 47.97314453,  3.37861633,end
timer_stats,655970014862605,PAPI_L3_TCM,12, 48.24645996,  3.39576721,end
timer_stats,655970015940827,PAPI_L3_TCM,10, 48.51013184,  3.41253662,end
timer_stats,655970017019803,PAPI_L3_TCM,5, 48.92260742,  3.42968750,end
timer_stats,655970018098187,PAPI_L3_TCM,2, 49.31384277,  3.46284485,end
timer_stats,655970019178521,PAPI_L3_TCM,2, 49.58258057,  3.47996521,end
timer_stats,655970020254701,PAPI_L3_TCM,5, 49.85516357,  3.49594116,end
timer_stats,655970021332470,PAPI_L3_TCM,12, 50.12237549,  3.51213074,end
timer_stats,655970022409135,PAPI_L3_TCM,4, 50.39422607,  3.53021240,end
timer_stats,655970023485394,PAPI_L3_TCM,1, 50.67504883,  3.54989624,end
timer_stats,655970024561879,PAPI_L3_TCM,5, 50.92767334,  3.56826782,end
timer_stats,655970025639717,PAPI_L3_TCM,14, 51.20782471,  3.58439636,end
timer_stats,655970026717527,PAPI_L3_TCM,9, 51.47021484,  3.60150146,end
timer_stats,655970027795083,PAPI_L3_TCM,2, 51.74505615,  3.61703491,end
timer_stats,655970028871516,PAPI_L3_TCM,8, 52.01184082,  3.63313293,end
timer_stats,655970029948604,PAPI_L3_TCM,2, 52.28485107,  3.64913940,end
timer_stats,655970031024875,PAPI_L3_TCM,8, 52.68402099,  3.67182922,end
timer_stats,655970032099542,PAPI_L3_TCM,1, 53.08813476,  3.69638061,end
timer_stats,655970033175706,PAPI_L3_TCM,5, 53.35052490,  3.71025085,end
timer_stats,655970034255718,PAPI_L3_TCM,15, 53.61639404,  3.72378540,end
timer_stats,655970035333491,PAPI_L3_TCM,7, 53.87353515,  3.73780823,end
timer_stats,655970036411567,PAPI_L3_TCM,23, 54.14080810,  3.75164795,end
timer_stats,655970040485823,PAPI_L3_TCM,251, 55.04577637,  3.80940246,end
timer_stats,655970041577217,PAPI_L3_TCM,120, 55.26007080,  3.82620239,end
timer_stats,655970042654351,PAPI_L3_TCM,12, 55.50726318,  3.84207153,end
timer_stats,655970043730284,PAPI_L3_TCM,3, 55.79962158,  3.85014343,end
timer_stats,655970044845927,PAPI_L3_TCM,8, 56.04956055,  3.86706543,end
timer_stats,655970045924361,PAPI_L3_TCM,4, 56.32031250,  3.88304138,end
timer_stats,655970047003337,PAPI_L3_TCM,11, 56.58093262,  3.89930725,end
timer_stats,655970048083055,PAPI_L3_TCM,7, 57.11682129,  3.92219543,end
timer_stats,655970049159321,PAPI_L3_TCM,2, 57.38348389,  3.94680786,end
timer_stats,655970050236246,PAPI_L3_TCM,5, 57.66094971,  3.96275330,end
timer_stats,655970051313236,PAPI_L3_TCM,6, 57.92297363,  3.97898865,end
timer_stats,655970052389495,PAPI_L3_TCM,3, 58.19012451,  3.99472046,end
timer_stats,655970053466387,PAPI_L3_TCM,11, 58.45416260,  4.01095581,end
timer_stats,655970054542789,PAPI_L3_TCM,5, 58.72064209,  4.02853393,end
timer_stats,655970055627346,PAPI_L3_TCM,63, 58.99389648,  4.04487610,end
timer_stats,655970056707866,PAPI_L3_TCM,34, 59.25518799,  4.06108093,end
timer_stats,655970058252851,PAPI_L3_TCM,3881, 59.78692627,  4.09352112,end
timer_stats,655970059333117,PAPI_L3_TCM,40, 60.06402588,  4.10943603,end
timer_stats,655970060408855,PAPI_L3_TCM,11, 60.35522461,  4.12677002,end
timer_stats,655970061483653,PAPI_L3_TCM,3, 60.59259033,  4.14306641,end
timer_stats,655970062557476,PAPI_L3_TCM,3, 60.86291504,  4.15902710,end
timer_stats,655970063631482,PAPI_L3_TCM,2, 61.13543701,  4.17521667,end
timer_stats,655970064705342,PAPI_L3_TCM,4, 61.40289307,  4.19140625,end
timer_stats,655970065779535,PAPI_L3_TCM,3, 61.69055176,  4.20748901,end
timer_stats,655970066851982,PAPI_L3_TCM,4, 61.95471191,  4.22364807,end
timer_stats,655970067925756,PAPI_L3_TCM,6, 62.20446777,  4.23986816,end
timer_stats,655970069000640,PAPI_L3_TCM,8, 62.46423340,  4.25607300,end
timer_stats,655970070074794,PAPI_L3_TCM,6, 62.73376465,  4.27226257,end
timer_stats,655970071147954,PAPI_L3_TCM,4, 63.27496338,  4.30416870,end
timer_stats,655970072221891,PAPI_L3_TCM,7, 63.52856445,  4.31999206,end
timer_stats,655970073295375,PAPI_L3_TCM,7, 63.82928467,  4.33610535,end
timer_stats,655970074368697,PAPI_L3_TCM,2, 64.10559082,  4.35229492,end
timer_stats,655970075441698,PAPI_L3_TCM,5, 64.33575439,  4.36856079,end
timer_stats,655970076515357,PAPI_L3_TCM,10, 64.60266113,  4.38438415,end
timer_stats,655970077589296,PAPI_L3_TCM,4, 64.90075683,  4.40051269,end
timer_stats,655970078663676,PAPI_L3_TCM,2, 65.13287353,  4.41723633,end
timer_stats,655970079738327,PAPI_L3_TCM,15, 65.43499756,  4.43099976,end
timer_stats,655970083686995,PAPI_L3_TCM,159, 66.34283447,  4.50546264,end
timer_stats,655970084771237,PAPI_L3_TCM,66, 66.51348877,  4.52255249,end
timer_stats,655970085849569,PAPI_L3_TCM,2, 66.78332520,  4.53829956,end
timer_stats,655970086925739,PAPI_L3_TCM,9, 67.07495117,  4.55403137,end
timer_stats,655970088005507,PAPI_L3_TCM,4, 67.33770752,  4.56954956,end
timer_stats,655970089080989,PAPI_L3_TCM,5, 67.59924316,  4.58480835,end
timer_stats,655970090158820,PAPI_L3_TCM,3, 68.11254883,  4.61709595,end
timer_stats,655970091234343,PAPI_L3_TCM,3, 68.24926758,  4.62570190,end
timer_stats,655970092309599,PAPI_L3_TCM,5, 68.67535400,  4.64869690,end
timer_stats,655970093385251,PAPI_L3_TCM,5, 68.93786621,  4.66400146,end
timer_stats,655970094461953,PAPI_L3_TCM,5, 69.17535400,  4.68019104,end
timer_stats,655970095547984,PAPI_L3_TCM,4, 69.45184326,  4.69729614,end
timer_stats,655970096627156,PAPI_L3_TCM,3, 69.74255371,  4.71415710,end
timer_stats,655970097705938,PAPI_L3_TCM,8, 70.00964355,  4.73010254,end
timer_stats,655970098786183,PAPI_L3_TCM,3, 70.25628662,  4.74633789,end
timer_stats,655970099870825,PAPI_L3_TCM,6, 70.52331543,  4.76275635,end
timer_stats,655970100951046,PAPI_L3_TCM,4, 70.81988525,  4.77888489,end
timer_stats,655970102033490,PAPI_L3_TCM,5, 71.06719971,  4.79515076,end
timer_stats,655970103117730,PAPI_L3_TCM,6, 71.35687256,  4.81124878,end
timer_stats,655970104198703,PAPI_L3_TCM,11, 71.87182617,  4.84410095,end
timer_stats,655970105278027,PAPI_L3_TCM,3, 72.15832520,  4.86016846,end
timer_stats,655970106357319,PAPI_L3_TCM,10, 72.40972900,  4.87591553,end
timer_stats,655970107439481,PAPI_L3_TCM,5, 72.69750977,  4.89196777,end
timer_stats,655970108520104,PAPI_L3_TCM,9, 72.96990967,  4.90795898,end
timer_stats,655970109599956,PAPI_L3_TCM,6, 73.21209717,  4.92420959,end
timer_stats,655970110679494,PAPI_L3_TCM,4, 73.47149658,  4.94042969,end
timer_stats,655970111759739,PAPI_L3_TCM,4, 73.78179932,  4.95623779,end
timer_stats,655970112841526,PAPI_L3_TCM,4, 74.03472900,  4.97218323,end
timer_stats,655970113923058,PAPI_L3_TCM,7, 74.31811523,  4.98811340,end
timer_stats,655970115002420,PAPI_L3_TCM,10, 74.54333496,  5.00439453,end
timer_stats,655970116084630,PAPI_L3_TCM,4, 74.82098389,  5.02047729,end
timer_stats,655970117164222,PAPI_L3_TCM,7, 75.25006103,  5.03607178,end
timer_stats,655970118243478,PAPI_L3_TCM,1, 75.64007568,  5.06123352,end
timer_stats,655970119323271,PAPI_L3_TCM,4, 75.89562988,  5.08476257,end
timer_stats,655970120403363,PAPI_L3_TCM,7, 76.15808105,  5.10064697,end
timer_stats,655970121482022,PAPI_L3_TCM,3, 76.45458984,  5.11672973,end
timer_stats,655970122560769,PAPI_L3_TCM,2, 76.71948242,  5.13288879,end
timer_stats,655970123641697,PAPI_L3_TCM,4, 76.97741699,  5.14808655,end
timer_stats,655970127875789,PAPI_L3_TCM,124, 77.88208008,  5.21238708,end
timer_stats,655970128968298,PAPI_L3_TCM,61, 78.05548096,  5.22816467,end
timer_stats,655970130052810,PAPI_L3_TCM,5, 78.32452392,  5.24220276,end
timer_stats,655970131136184,PAPI_L3_TCM,10, 78.70361328,  5.25582886,end
timer_stats,655970132218079,PAPI_L3_TCM,6, 78.97082520,  5.27705383,end
timer_stats,655970133300490,PAPI_L3_TCM,6, 79.36376953,  5.29705810,end
timer_stats,655970134382684,PAPI_L3_TCM,8, 79.59930420,  5.31101990,end
timer_stats,655970135464490,PAPI_L3_TCM,8, 79.87158203,  5.32502746,end
timer_stats,655970136547583,PAPI_L3_TCM,9, 80.16516113,  5.33880615,end
timer_stats,655970137630603,PAPI_L3_TCM,4, 80.39550781,  5.35275268,end
timer_stats,655970138714278,PAPI_L3_TCM,7, 80.68365478,  5.36706543,end
timer_stats,655970139795711,PAPI_L3_TCM,2, 80.95013428,  5.38088989,end
timer_stats,655970140882535,PAPI_L3_TCM,4, 81.21313476,  5.39472961,end
timer_stats,655970141969151,PAPI_L3_TCM,3, 81.47851562,  5.40902710,end
timer_stats,655970143054356,PAPI_L3_TCM,1, 81.73687744,  5.42335510,end
timer_stats,655970144139211,PAPI_L3_TCM,7, 82.13995361,  5.44473267,end
timer_stats,655970145224763,PAPI_L3_TCM,8, 82.41918945,  5.45925903,end
timer_stats,655970146309575,PAPI_L3_TCM,7, 82.78259277,  5.48004150,end
timer_stats,655970147394549,PAPI_L3_TCM,4, 83.07812500,  5.49374389,end
timer_stats,655970148479185,PAPI_L3_TCM,3, 83.34899902,  5.51020813,end
timer_stats,655970149563603,PAPI_L3_TCM,3, 83.59729004,  5.52639770,end
timer_stats,655970150647411,PAPI_L3_TCM,4, 83.86779785,  5.54237366,end
timer_stats,655970151731037,PAPI_L3_TCM,3, 84.14093017,  5.55831909,end
timer_stats,655970152815998,PAPI_L3_TCM,9, 84.41308594,  5.57377624,end
timer_stats,655970153899904,PAPI_L3_TCM,5, 84.66937256,  5.59004211,end
timer_stats,655970154984160,PAPI_L3_TCM,6, 84.93865967,  5.60626221,end
timer_stats,655970156027678,PAPI_L3_TCM,9, 85.20837402,  5.62243652,end
timer_stats,655970157111589,PAPI_L3_TCM,5, 85.47448730,  5.63835144,end
timer_stats,655970158195590,PAPI_L3_TCM,2, 85.74072265,  5.65457153,end
timer_stats,655970159280140,PAPI_L3_TCM,4, 86.15142822,  5.67959595,end
timer_stats,655970160364047,PAPI_L3_TCM,10, 86.54235840,  5.70314026,end
timer_stats,655970161448588,PAPI_L3_TCM,8, 86.81488037,  5.71932983,end
timer_stats,655970162532892,PAPI_L3_TCM,4, 87.08306885,  5.73570251,end
timer_stats,655970163616768,PAPI_L3_TCM,5, 87.35888672,  5.75189209,end
timer_stats,655970164700716,PAPI_L3_TCM,5, 87.63464355,  5.76733398,end
timer_stats,655970165784276,PAPI_L3_TCM,6, 87.89093017,  5.78334045,end
timer_stats,655970166867666,PAPI_L3_TCM,4, 88.15258789,  5.79931640,end
timer_stats,655970167951512,PAPI_L3_TCM,7, 88.42309570,  5.81552124,end
timer_stats,655970169036620,PAPI_L3_TCM,1, 88.68780517,  5.83146667,end
timer_stats,655970170120678,PAPI_L3_TCM,3, 88.95227051,  5.84713745,end
timer_stats,655970171203248,PAPI_L3_TCM,1, 89.21942139,  5.86334228,end
timer_stats,655970172287287,PAPI_L3_TCM,18, 89.63800049,  5.88813782,end
timer_stats,655970173371527,PAPI_L3_TCM,10, 90.02960205,  5.91264343,end
timer_stats,655970174454742,PAPI_L3_TCM,4, 90.28723145,  5.92881775,end
timer_stats,655970175537972,PAPI_L3_TCM,1, 90.56738281,  5.94496155,end
timer_stats,655970176622546,PAPI_L3_TCM,11, 90.83770752,  5.96087646,end
timer_stats,655970177705462,PAPI_L3_TCM,1, 91.10510254,  5.97686768,end
timer_stats,655970178789250,PAPI_L3_TCM,4, 91.36718750,  5.99301147,end
timer_stats,655970179873440,PAPI_L3_TCM,7, 91.63012695,  6.00936890,end
timer_stats,655970180958805,PAPI_L3_TCM,4, 91.89727783,  6.02496338,end
timer_stats,655970184841150,PAPI_L3_TCM,118, 92.85003662,  6.10115051,end
timer_stats,655970185935281,PAPI_L3_TCM,63, 93.03753662,  6.11776733,end
timer_stats,655970187021371,PAPI_L3_TCM,4, 93.29302978,  6.13305664,end
timer_stats,655970188107028,PAPI_L3_TCM,6, 93.56011963,  6.14886475,end
timer_stats,655970189192387,PAPI_L3_TCM,4, 93.83087158,  6.16389465,end
timer_stats,655970190277473,PAPI_L3_TCM,6, 94.23883057,  6.18846130,end
timer_stats,655970191364038,PAPI_L3_TCM,5, 94.62573242,  6.21159363,end
timer_stats,655970192449870,PAPI_L3_TCM,7, 94.90686035,  6.22700500,end
timer_stats,655970193534809,PAPI_L3_TCM,1, 95.17987060,  6.24317932,end
timer_stats,655970194620283,PAPI_L3_TCM,5, 95.43933105,  6.25917053,end
timer_stats,655970195704902,PAPI_L3_TCM,1, 95.72113037,  6.27597046,end
timer_stats,655970196790787,PAPI_L3_TCM,4, 95.97467041,  6.29164123,end
timer_stats,655970197876397,PAPI_L3_TCM,9, 96.24127197,  6.30828857,end
timer_stats,655970198961537,PAPI_L3_TCM,4, 96.51794433,  6.32487488,end
timer_stats,655970200024042,PAPI_L3_TCM,4, 96.77667236,  6.34104919,end
timer_stats,655970201108209,PAPI_L3_TCM,11, 97.05261230,  6.35697937,end
timer_stats,655970202194665,PAPI_L3_TCM,3, 97.32263183,  6.37313843,end
timer_stats,655970203279327,PAPI_L3_TCM,5, 97.71429443,  6.39817810,end
timer_stats,655970204363899,PAPI_L3_TCM,5, 98.11889648,  6.42123413,end
timer_stats,655970205448338,PAPI_L3_TCM,7, 98.38726807,  6.43743896,end
timer_stats,655970206532648,PAPI_L3_TCM,3, 98.65075683,  6.45344543,end
timer_stats,655970207618599,PAPI_L3_TCM,5, 98.93237305,  6.46963501,end
timer_stats,655970208703405,PAPI_L3_TCM,5, 99.18701172,  6.48541260,end
timer_stats,655970209788033,PAPI_L3_TCM,8, 99.46936035,  6.50137329,end
timer_stats,655970210871728,PAPI_L3_TCM,2, 99.73181152,  6.51759338,end
timer_stats,655970211955826,PAPI_L3_TCM,5,100.00585937,  6.53355408,end
timer_stats,655970213042170,PAPI_L3_TCM,6,100.28344726,  6.54991150,end
timer_stats,655970214126503,PAPI_L3_TCM,4,100.53015137,  6.56597900,end
timer_stats,655970215210575,PAPI_L3_TCM,2,100.80633545,  6.58166504,end
timer_stats,655970216293784,PAPI_L3_TCM,6,101.21435547,  6.60673523,end
timer_stats,655970217378618,PAPI_L3_TCM,6,101.61590576,  6.63002014,end
timer_stats,655970218463410,PAPI_L3_TCM,4,101.87091064,  6.64604187,end
timer_stats,655970219549664,PAPI_L3_TCM,1,102.14794922,  6.66220093,end
timer_stats,655970220635765,PAPI_L3_TCM,8,102.41815185,  6.67837524,end
timer_stats,655970221721203,PAPI_L3_TCM,4,102.68811035,  6.69454956,end
timer_stats,655970222805660,PAPI_L3_TCM,5,102.95080566,  6.71051025,end
timer_stats,655970223891149,PAPI_L3_TCM,7,103.20983887,  6.72640991,end
timer_stats,655970224976990,PAPI_L3_TCM,8,103.48480224,  6.74238586,end
timer_stats,655970226061911,PAPI_L3_TCM,1,103.75915527,  6.75857544,end
timer_stats,655970227146569,PAPI_L3_TCM,4,104.03100586,  6.77452087,end
timer_stats,655970228230687,PAPI_L3_TCM,8,104.28430176,  6.79051208,end
timer_stats,655970229315350,PAPI_L3_TCM,3,104.70477295,  6.81552124,end
timer_stats,655970230400558,PAPI_L3_TCM,4,105.10131836,  6.83929443,end
timer_stats,655970231484600,PAPI_L3_TCM,9,105.36352539,  6.85552978,end
timer_stats,655970232569697,PAPI_L3_TCM,4,105.63842773,  6.87126159,end
timer_stats,655970233654290,PAPI_L3_TCM,3,105.91241455,  6.88772583,end
timer_stats,655970234739404,PAPI_L3_TCM,2,106.17199707,  6.90347290,end
timer_stats,655970235823727,PAPI_L3_TCM,4,106.44055176,  6.91969299,end
timer_stats,655970236909393,PAPI_L3_TCM,6,106.71649170,  6.93537903,end
timer_stats,655970237994106,PAPI_L3_TCM,4,106.98223877,  6.95162964,end
timer_stats,655970239079418,PAPI_L3_TCM,6,107.24798584,  6.96762085,end
timer_stats,655970240164448,PAPI_L3_TCM,10,107.52258301,  6.98338318,end
timer_stats,655970244215356,PAPI_L3_TCM,155,108.47906494,  7.07514954,end
timer_stats,655970245309746,PAPI_L3_TCM,43,108.89129639,  7.10156250,end
timer_stats,655970246393578,PAPI_L3_TCM,10,109.17938232,  7.11730957,end
timer_stats,655970247476454,PAPI_L3_TCM,4,109.44219971,  7.13311768,end
timer_stats,655970248559868,PAPI_L3_TCM,3,109.70947266,  7.14865112,end
timer_stats,655970249642920,PAPI_L3_TCM,2,109.96356201,  7.16450500,end
timer_stats,655970250726429,PAPI_L3_TCM,2,110.23950195,  7.18017578,end
timer_stats,655970251807519,PAPI_L3_TCM,5,110.51391602,  7.19592285,end
timer_stats,655970252889522,PAPI_L3_TCM,2,110.78338623,  7.21168518,end
timer_stats,655970253973040,PAPI_L3_TCM,8,111.05224609,  7.22769165,end
timer_stats,655970255054515,PAPI_L3_TCM,3,111.32714844,  7.24456787,end
timer_stats,655970256136225,PAPI_L3_TCM,5,111.59954834,  7.26000977,end
timer_stats,655970257218124,PAPI_L3_TCM,2,111.85894775,  7.27526855,end
timer_stats,655970258300693,PAPI_L3_TCM,3,112.39270020,  7.30726623,end
timer_stats,655970259384505,PAPI_L3_TCM,5,112.66473389,  7.32395935,end
timer_stats,655970260467182,PAPI_L3_TCM,4,112.94232178,  7.33964538,end
timer_stats,655970261549095,PAPI_L3_TCM,9,113.21740723,  7.35563659,end
timer_stats,655970262632011,PAPI_L3_TCM,4,113.46984863,  7.37161255,end
timer_stats,655970263713967,PAPI_L3_TCM,3,113.73712158,  7.38739014,end
timer_stats,655970264797163,PAPI_L3_TCM,6,114.00610352,  7.40309143,end
timer_stats,655970265880443,PAPI_L3_TCM,3,114.27777099,  7.41934204,end
timer_stats,655970266962653,PAPI_L3_TCM,8,114.54431152,  7.43536377,end
timer_stats,655970268022446,PAPI_L3_TCM,6,114.80841064,  7.45117187,end
timer_stats,655970269103387,PAPI_L3_TCM,4,115.07360840,  7.46672058,end
timer_stats,655970270185616,PAPI_L3_TCM,2,115.34527588,  7.48262024,end
timer_stats,655970271268005,PAPI_L3_TCM,6,115.61492920,  7.49864197,end
timer_stats,655970272350721,PAPI_L3_TCM,1,116.15118408,  7.53070068,end
timer_stats,655970273432787,PAPI_L3_TCM,7,116.41864014,  7.54695129,end
timer_stats,655970274515582,PAPI_L3_TCM,5,116.69207764,  7.56268310,end
timer_stats,655970275597882,PAPI_L3_TCM,3,116.95593262,  7.57894897,end
timer_stats,655970276681035,PAPI_L3_TCM,5,117.21905517,  7.59471130,end
timer_stats,655970277763445,PAPI_L3_TCM,3,117.48773193,  7.61048889,end
timer_stats,655970278846340,PAPI_L3_TCM,3,117.75524902,  7.62651062,end
timer_stats,655970279928458,PAPI_L3_TCM,5,118.03723144,  7.64222717,end
timer_stats,655970281011882,PAPI_L3_TCM,4,118.30682373,  7.65792847,end
timer_stats,655970282094804,PAPI_L3_TCM,8,118.56860352,  7.67361450,end
timer_stats,655970283176610,PAPI_L3_TCM,1,118.83496094,  7.68984985,end
timer_stats,655970284259359,PAPI_L3_TCM,4,119.22314453,  7.70613098,end
timer_stats,655970285341210,PAPI_L3_TCM,3,119.63989258,  7.73027038,end
timer_stats,655970286423832,PAPI_L3_TCM,5,119.91040039,  7.75384521,end
timer_stats,655970287505765,PAPI_L3_TCM,5,120.18139648,  7.76954651,end
timer_stats,655970288588639,PAPI_L3_TCM,10,120.44396973,  7.78582764,end
timer_stats,655970289670979,PAPI_L3_TCM,2,120.71990967,  7.80204773,end
timer_stats,655970290753129,PAPI_L3_TCM,4,120.97979736,  7.81787109,end
timer_stats,655970291834381,PAPI_L3_TCM,2,121.23950195,  7.83384704,end
timer_stats,655970292918077,PAPI_L3_TCM,5,121.51690674,  7.84985351,end
timer_stats,655970294001335,PAPI_L3_TCM,3,121.78900146,  7.86604309,end
timer_stats,655970295084245,PAPI_L3_TCM,3,122.06085205,  7.88182068,end
timer_stats,655970296167363,PAPI_L3_TCM,5,122.32183838,  7.89790344,end
timer_stats,655970297249912,PAPI_L3_TCM,3,122.60632324,  7.91339111,end
timer_stats,655970298331849,PAPI_L3_TCM,4,123.13287353,  7.94638061,end
timer_stats,655970299414453,PAPI_L3_TCM,4,123.41284180,  7.96189880,end
timer_stats,655970300497715,PAPI_L3_TCM,5,123.67895508,  7.97769165,end
timer_stats,655970301580063,PAPI_L3_TCM,6,123.95404053,  7.99372864,end
timer_stats,655970302663421,PAPI_L3_TCM,3,124.22052002,  8.00978088,end
timer_stats,655970303747345,PAPI_L3_TCM,2,124.48455811,  8.02604675,end
timer_stats,655970308796317,PAPI_L3_TCM,124,125.68316650,  8.12591553,end
timer_stats,655970309891662,PAPI_L3_TCM,60,125.87695312,  8.14178467,end
timer_stats,655970310985727,PAPI_L3_TCM,19,126.14337158,  8.15734863,end
timer_stats,655970312078105,PAPI_L3_TCM,19,126.42352295,  8.17314148,end
timer_stats,655970313165983,PAPI_L3_TCM,7,126.69000244,  8.18847656,end
timer_stats,655970314254533,PAPI_L3_TCM,9,126.95385742,  8.20455933,end
timer_stats,655970315342155,PAPI_L3_TCM,8,127.22485352,  8.22015381,end
timer_stats,655970316428926,PAPI_L3_TCM,12,127.76641846,  8.25125122,end
timer_stats,655970317516524,PAPI_L3_TCM,7,128.03216553,  8.26673889,end
timer_stats,655970318603240,PAPI_L3_TCM,7,128.29608154,  8.28231812,end
timer_stats,655970319692384,PAPI_L3_TCM,10,128.56567383,  8.29788208,end
timer_stats,655970320779171,PAPI_L3_TCM,7,128.83880615,  8.31344604,end
timer_stats,655970321866762,PAPI_L3_TCM,1,129.10827637,  8.32925415,end
timer_stats,655970322953396,PAPI_L3_TCM,7,129.38391113,  8.34504700,end
timer_stats,655970324026852,PAPI_L3_TCM,12,129.64282227,  8.36058044,end
timer_stats,655970325113557,PAPI_L3_TCM,3,129.91522217,  8.37612915,end
timer_stats,655970326200889,PAPI_L3_TCM,2,130.17822266,  8.39170837,end
timer_stats,655970327287545,PAPI_L3_TCM,4,130.44848633,  8.40748596,end
timer_stats,655970328373682,PAPI_L3_TCM,5,130.85101318,  8.43214416,end
timer_stats,655970329460293,PAPI_L3_TCM,7,131.26080322,  8.45576477,end
timer_stats,655970330548173,PAPI_L3_TCM,3,131.52069092,  8.47157287,end
timer_stats,655970331634962,PAPI_L3_TCM,7,131.78369141,  8.48922729,end
timer_stats,655970332721221,PAPI_L3_TCM,3,132.05053711,  8.50494385,end
timer_stats,655970333808724,PAPI_L3_TCM,6,132.32879639,  8.52064514,end
timer_stats,655970334895564,PAPI_L3_TCM,4,132.59942627,  8.53735351,end
timer_stats,655970335983127,PAPI_L3_TCM,5,132.87084961,  8.55285644,end
timer_stats,655970337070575,PAPI_L3_TCM,4,133.14215088,  8.56863403,end
timer_stats,655970338156658,PAPI_L3_TCM,6,133.41278076,  8.58419800,end
timer_stats,655970339242863,PAPI_L3_TCM,5,133.67871094,  8.60003662,end
timer_stats,655970340330049,PAPI_L3_TCM,7,134.08319092,  8.62420654,end
timer_stats,655970341417419,PAPI_L3_TCM,6,134.36071777,  8.63998413,end
timer_stats,655970342504562,PAPI_L3_TCM,5,134.76605224,  8.66316223,end
timer_stats,655970343591624,PAPI_L3_TCM,12,135.02557373,  8.67922974,end
timer_stats,655970344678233,PAPI_L3_TCM,10,135.30767822,  8.69470215,end
timer_stats,655970345764567,PAPI_L3_TCM,2,135.57910156,  8.70996094,end
timer_stats,655970346851207,PAPI_L3_TCM,5,135.84289551,  8.72572327,end
timer_stats,655970347937672,PAPI_L3_TCM,2,136.11163330,  8.74114990,end
timer_stats,655970349025683,PAPI_L3_TCM,7,136.37976074,  8.75646973,end
timer_stats,655970350112187,PAPI_L3_TCM,3,136.64868164,  8.77221680,end
timer_stats,655970351198166,PAPI_L3_TCM,3,136.92028809,  8.78776550,end
timer_stats,655970352283325,PAPI_L3_TCM,5,137.19763184,  8.80323791,end
timer_stats,655970353369798,PAPI_L3_TCM,4,137.59631348,  8.82742310,end
timer_stats,655970354456498,PAPI_L3_TCM,11,137.99798584,  8.85075378,end
timer_stats,655970355542672,PAPI_L3_TCM,6,138.27081299,  8.86663818,end
timer_stats,655970356640922,PAPI_L3_TCM,29,138.54431152,  8.88241577,end
timer_stats,655970357728639,PAPI_L3_TCM,31,138.81317139,  8.89845276,end
timer_stats,655970358813798,PAPI_L3_TCM,7,139.07110596,  8.91477966,end
timer_stats,655970359897791,PAPI_L3_TCM,4,139.34271240,  8.93058777,end
timer_stats,655970360980749,PAPI_L3_TCM,12,139.62158203,  8.93925476,end
timer_stats,655970362063891,PAPI_L3_TCM,8,139.87695312,  8.95489502,end
timer_stats,655970363146645,PAPI_L3_TCM,2,140.15057373,  8.97044372,end
timer_stats,655970364229855,PAPI_L3_TCM,7,140.40777588,  8.98580932,end
timer_stats,655970365312938,PAPI_L3_TCM,7,140.71429443,  9.00103760,end
timer_stats,655970366396503,PAPI_L3_TCM,4,140.95861816,  9.01692200,end
timer_stats,655970367479047,PAPI_L3_TCM,2,141.48425293,  9.04876709,end
timer_stats,655970368563063,PAPI_L3_TCM,7,141.75677490,  9.06457519,end
timer_stats,655970369646515,PAPI_L3_TCM,5,142.02801514,  9.07987976,end
timer_stats,655970374666954,PAPI_L3_TCM,336,143.16943359,  9.17868042,end
timer_stats,655970375765765,PAPI_L3_TCM,117,143.38171387,  9.19258118,end
timer_stats,655970376852000,PAPI_L3_TCM,17,143.64770508,  9.20693970,end
timer_stats,655970377937013,PAPI_L3_TCM,5,143.91589355,  9.22035217,end
timer_stats,655970379019370,PAPI_L3_TCM,3,144.17498779,  9.23379517,end
timer_stats,655970380105157,PAPI_L3_TCM,6,144.46636963,  9.24789429,end
timer_stats,655970381188943,PAPI_L3_TCM,2,144.71002197,  9.26187134,end
timer_stats,655970382271883,PAPI_L3_TCM,2,144.96942139,  9.27552795,end
timer_stats,655970383355409,PAPI_L3_TCM,10,145.26434326,  9.28886414,end
timer_stats,655970384439728,PAPI_L3_TCM,5,145.66381836,  9.30844116,end
timer_stats,655970385524136,PAPI_L3_TCM,4,146.03356934,  9.32986450,end
timer_stats,655970386607624,PAPI_L3_TCM,2,146.31304932,  9.34349060,end
timer_stats,655970387691034,PAPI_L3_TCM,4,146.60272217,  9.35681152,end
timer_stats,655970388775067,PAPI_L3_TCM,7,146.84881592,  9.36431885,end
timer_stats,655970389858991,PAPI_L3_TCM,3,147.10095215,  9.37803650,end
timer_stats,655970390941851,PAPI_L3_TCM,2,147.37249756,  9.39166260,end
timer_stats,655970392025275,PAPI_L3_TCM,7,147.64447021,  9.40554809,end
timer_stats,655970393108680,PAPI_L3_TCM,4,147.90148926,  9.41923523,end
timer_stats,655970394191722,PAPI_L3_TCM,7,148.20471191,  9.43301392,end
timer_stats,655970395276928,PAPI_L3_TCM,2,148.44268799,  9.44674682,end
timer_stats,655970396361651,PAPI_L3_TCM,6,148.71014404,  9.46055603,end
timer_stats,655970397444797,PAPI_L3_TCM,3,149.10632324,  9.48207092,end
timer_stats,655970398527751,PAPI_L3_TCM,5,149.50445557,  9.50283813,end
timer_stats,655970399610910,PAPI_L3_TCM,4,149.76184082,  9.51673889,end
timer_stats,655970400694560,PAPI_L3_TCM,13,150.05218506,  9.53025818,end
timer_stats,655970401777137,PAPI_L3_TCM,2,150.29656982,  9.54461670,end
timer_stats,655970402863955,PAPI_L3_TCM,4,150.56585693,  9.55825806,end
timer_stats,655970403947409,PAPI_L3_TCM,11,150.83074951,  9.57301330,end
timer_stats,655970405031324,PAPI_L3_TCM,5,151.09997559,  9.58880615,end
timer_stats,655970406114363,PAPI_L3_TCM,3,151.40576172,  9.60400391,end
timer_stats,655970407196760,PAPI_L3_TCM,3,151.63159180,  9.61947632,end
timer_stats,655970408279093,PAPI_L3_TCM,9,151.93560791,  9.63497925,end
timer_stats,655970409361514,PAPI_L3_TCM,4,152.16888428,  9.65087891,end
timer_stats,655970410444830,PAPI_L3_TCM,5,152.69903564,  9.68255615,end
timer_stats,655970411527407,PAPI_L3_TCM,4,152.84417724,  9.69013977,end
timer_stats,655970412610108,PAPI_L3_TCM,4,153.26898193,  9.71426392,end
timer_stats,655970413693868,PAPI_L3_TCM,11,153.52990723,  9.73027039,end
timer_stats,655970414775837,PAPI_L3_TCM,3,153.78704834,  9.74610901,end
timer_stats,655970415858662,PAPI_L3_TCM,4,154.05926514,  9.76181030,end
timer_stats,655970416944382,PAPI_L3_TCM,14,154.32183838,  9.77789307,end
timer_stats,655970418027192,PAPI_L3_TCM,4,154.59210205,  9.79434204,end
timer_stats,655970419109563,PAPI_L3_TCM,3,154.86999512,  9.80989075,end
timer_stats,655970420192420,PAPI_L3_TCM,5,155.16058349,  9.82537842,end
timer_stats,655970421275220,PAPI_L3_TCM,3,155.39941406,  9.84106445,end
timer_stats,655970422358152,PAPI_L3_TCM,6,155.70690918,  9.85647583,end
timer_stats,655970423439812,PAPI_L3_TCM,5,156.10394287,  9.87875366,end
timer_stats,655970424523517,PAPI_L3_TCM,9,156.47796631,  9.90342712,end
timer_stats,655970425605788,PAPI_L3_TCM,0,156.78527832,  9.91912842,end
timer_stats,655970426688166,PAPI_L3_TCM,6,157.04895019,  9.93527222,end
timer_stats,655970427771060,PAPI_L3_TCM,4,157.32891846,  9.95100403,end
timer_stats,655970428855217,PAPI_L3_TCM,8,157.59228516,  9.96707153,end
timer_stats,655970429937875,PAPI_L3_TCM,5,157.86444092,  9.98309326,end
timer_stats,655970431022190,PAPI_L3_TCM,2,158.14306641,  9.99951172,end
timer_stats,655970432107208,PAPI_L3_TCM,6,158.37701416, 10.01509094,end
timer_stats,655970433189748,PAPI_L3_TCM,9,158.65673828, 10.03057861,end
timer_stats,655970434271235,PAPI_L3_TCM,1,158.90466309, 10.04595947,end
timer_stats,655970435365513,PAPI_L3_TCM,12,159.19940185, 10.06190491,end
timer_stats,655970436448459,PAPI_L3_TCM,10,159.57775879, 10.08689880,end
timer_stats,655970437531067,PAPI_L3_TCM,5,159.85034179, 10.09425354,end
timer_stats,655970438612557,PAPI_L3_TCM,2,160.14886474, 10.10881042,end
timer_stats,655970439697413,PAPI_L3_TCM,12,160.55175781, 10.13291931,end
timer_stats,655970440781339,PAPI_L3_TCM,8,160.82580566, 10.14868164,end
timer_stats,655970441864244,PAPI_L3_TCM,2,161.04809570, 10.16459656,end
timer_stats,655970442947049,PAPI_L3_TCM,0,161.32031250, 10.18035889,end
timer_stats,655970444022641,PAPI_L3_TCM,11,161.59735107, 10.19659424,end
timer_stats,655970445105771,PAPI_L3_TCM,3,161.88720703, 10.21276855,end
timer_stats,655970446187819,PAPI_L3_TCM,9,162.14941406, 10.22853088,end
timer_stats,655970447270150,PAPI_L3_TCM,2,162.41790771, 10.24432373,end
timer_stats,655970448353594,PAPI_L3_TCM,10,162.66979980, 10.26013183,end
timer_stats,655970449436067,PAPI_L3_TCM,2,162.96911621, 10.27578735,end
timer_stats,655970450518622,PAPI_L3_TCM,5,163.36444092, 10.29942322,end
timer_stats,655970451600531,PAPI_L3_TCM,1,163.75134277, 10.32293701,end
timer_stats,655970452683671,PAPI_L3_TCM,10,164.04223633, 10.33914185,end
timer_stats,655970457359047,PAPI_L3_TCM,153,164.99877930, 10.41227722,end
timer_stats,655970458454462,PAPI_L3_TCM,96,165.16723633, 10.42904663,end
timer_stats,655970459538075,PAPI_L3_TCM,1,165.55273437, 10.45222473,end
timer_stats,655970460621691,PAPI_L3_TCM,12,165.94506836, 10.47671509,end
timer_stats,655970461705454,PAPI_L3_TCM,13,166.22137451, 10.49226379,end
timer_stats,655970462788395,PAPI_L3_TCM,14,166.48773193, 10.50834656,end
timer_stats,655970463869590,PAPI_L3_TCM,6,166.75494385, 10.52391052,end
timer_stats,655970464951694,PAPI_L3_TCM,6,167.01824951, 10.53944397,end
timer_stats,655970466036928,PAPI_L3_TCM,4,167.30004883, 10.55612182,end
timer_stats,655970467119870,PAPI_L3_TCM,3,167.56848144, 10.57208252,end
timer_stats,655970468202957,PAPI_L3_TCM,4,167.83740234, 10.58833313,end
timer_stats,655970469285989,PAPI_L3_TCM,2,168.11016846, 10.60437012,end
timer_stats,655970470369504,PAPI_L3_TCM,4,168.36053467, 10.62016296,end
timer_stats,655970471452291,PAPI_L3_TCM,8,168.62811279, 10.63563537,end
timer_stats,655970472535170,PAPI_L3_TCM,3,169.02783203, 10.65876770,end
timer_stats,655970473618585,PAPI_L3_TCM,5,169.30242920, 10.67449951,end
timer_stats,655970474701300,PAPI_L3_TCM,4,169.69464111, 10.69895935,end
timer_stats,655970475799831,PAPI_L3_TCM,4,169.96337891, 10.71473694,end
timer_stats,655970476886359,PAPI_L3_TCM,5,170.23565674, 10.73048401,end
timer_stats,655970477974901,PAPI_L3_TCM,18,170.49249267, 10.74626159,end
timer_stats,655970479063754,PAPI_L3_TCM,26,170.79107666, 10.76188660,end
timer_stats,655970480149810,PAPI_L3_TCM,6,171.05200195, 10.77803039,end
timer_stats,655970481236282,PAPI_L3_TCM,9,171.31787109, 10.79425049,end
timer_stats,655970482323244,PAPI_L3_TCM,9,171.59759521, 10.81018066,end
timer_stats,655970483409664,PAPI_L3_TCM,8,171.86285400, 10.82615662,end
timer_stats,655970484497188,PAPI_L3_TCM,5,172.26116943, 10.84234619,end
timer_stats,655970485583362,PAPI_L3_TCM,4,172.54388428, 10.86589050,end
timer_stats,655970486670337,PAPI_L3_TCM,4,172.93646240, 10.88999939,end
timer_stats,655970487756930,PAPI_L3_TCM,6,173.21661377, 10.90621948,end
timer_stats,655970488842316,PAPI_L3_TCM,6,173.47607422, 10.92248535,end
timer_stats,655970489928872,PAPI_L3_TCM,3,173.74511719, 10.93850708,end
timer_stats,655970491015583,PAPI_L3_TCM,2,174.02459717, 10.95445251,end
timer_stats,655970492100881,PAPI_L3_TCM,1,174.27514648, 10.97052002,end
timer_stats,655970493187852,PAPI_L3_TCM,10,174.54376221, 10.98675537,end
timer_stats,655970494274903,PAPI_L3_TCM,14,174.81530762, 11.00299072,end
timer_stats,655970495362230,PAPI_L3_TCM,5,175.08154297, 11.01873779,end
timer_stats,655970496449268,PAPI_L3_TCM,5,175.35424805, 11.03472900,end
timer_stats,655970497536694,PAPI_L3_TCM,6,175.61651611, 11.05050659,end
timer_stats,655970498622991,PAPI_L3_TCM,3,176.15795898, 11.07392883,end
timer_stats,655970499709578,PAPI_L3_TCM,5,176.42028809, 11.09832764,end
timer_stats,655970500796584,PAPI_L3_TCM,4,176.67730713, 11.11532593,end
timer_stats,655970501883130,PAPI_L3_TCM,8,176.96154785, 11.13192749,end
timer_stats,655970502970104,PAPI_L3_TCM,6,177.23400879, 11.14880371,end
timer_stats,655970504026235,PAPI_L3_TCM,6,177.50341797, 11.16589355,end
timer_stats,655970505112274,PAPI_L3_TCM,2,177.77563477, 11.18208313,end
timer_stats,655970506199090,PAPI_L3_TCM,8,178.03808594, 11.19779968,end
timer_stats,655970507286019,PAPI_L3_TCM,3,178.30950928, 11.21403503,end
timer_stats,655970508372228,PAPI_L3_TCM,4,178.58013916, 11.22998047,end
timer_stats,655970509459421,PAPI_L3_TCM,12,178.84973144, 11.24548340,end
timer_stats,655970510546266,PAPI_L3_TCM,9,179.11718750, 11.26148987,end
timer_stats,655970511633179,PAPI_L3_TCM,5,179.66040039, 11.28482055,end
timer_stats,655970512730784,PAPI_L3_TCM,2,179.92980957, 11.30865478,end
timer_stats,655970513817744,PAPI_L3_TCM,7,180.18933105, 11.32444763,end
timer_stats,655970514904187,PAPI_L3_TCM,12,180.46649170, 11.34016418,end
timer_stats,655970515991773,PAPI_L3_TCM,1,180.71679687, 11.35574341,end
timer_stats,655970517084387,PAPI_L3_TCM,3,180.98925781, 11.37194824,end
timer_stats,655970518169854,PAPI_L3_TCM,4,181.27124023, 11.38812256,end
timer_stats,655970519256393,PAPI_L3_TCM,10,181.50872803, 11.40438843,end
timer_stats,655970520341886,PAPI_L3_TCM,5,181.79504395, 11.42028808,end
timer_stats,655970521427723,PAPI_L3_TCM,7,182.07012939, 11.43623352,end
timer_stats,655970522513759,PAPI_L3_TCM,6,182.33178711, 11.45223999,end
timer_stats,655970523599929,PAPI_L3_TCM,6,182.87243652, 11.48417664,end
timer_stats,655970524686399,PAPI_L3_TCM,6,183.14080810, 11.50038147,end
timer_stats,655970525774852,PAPI_L3_TCM,11,183.41674805, 11.51652527,end
timer_stats,655970526862105,PAPI_L3_TCM,17,183.68988037, 11.53271484,end
timer_stats,655970527948889,PAPI_L3_TCM,14,183.95269775, 11.54870605,end
timer_stats,655970529036422,PAPI_L3_TCM,3,184.22723389, 11.56491089,end
timer_stats,655970534234728,PAPI_L3_TCM,309,185.43817139, 11.64759827,end
timer_stats,655970535329075,PAPI_L3_TCM,122,185.62652588, 11.66514587,end
timer_stats,655970536425170,PAPI_L3_TCM,10,185.90148926, 11.68061828,end
timer_stats,655970537519514,PAPI_L3_TCM,6,186.16656494, 11.69616699,end
timer_stats,655970538609291,PAPI_L3_TCM,9,186.54919434, 11.71896362,end
timer_stats,655970539698817,PAPI_L3_TCM,8,186.95910645, 11.74316406,end
timer_stats,655970540788276,PAPI_L3_TCM,4,187.21673584, 11.76000976,end
timer_stats,655970541877555,PAPI_L3_TCM,1,187.48736572, 11.77618408,end
timer_stats,655970542966300,PAPI_L3_TCM,7,187.75531006, 11.79223633,end
timer_stats,655970544027082,PAPI_L3_TCM,1,188.02960205, 11.80844116,end
timer_stats,655970545116800,PAPI_L3_TCM,5,188.30834961, 11.82513428,end
timer_stats,655970546204962,PAPI_L3_TCM,1,188.58514404, 11.84135437,end
timer_stats,655970547293779,PAPI_L3_TCM,5,188.83660889, 11.85716247,end
timer_stats,655970548381566,PAPI_L3_TCM,3,189.10369873, 11.87388611,end
timer_stats,655970549470499,PAPI_L3_TCM,6,189.36828613, 11.88961792,end
timer_stats,655970550559390,PAPI_L3_TCM,9,189.65850830, 11.90557861,end
timer_stats,655970551648399,PAPI_L3_TCM,4,190.05676269, 11.92893982,end
timer_stats,655970552736344,PAPI_L3_TCM,6,190.45147705, 11.95309448,end
timer_stats,655970553841563,PAPI_L3_TCM,5,190.72021484, 11.96859741,end
timer_stats,655970554930249,PAPI_L3_TCM,5,190.98693848, 11.98484802,end
timer_stats,655970556022027,PAPI_L3_TCM,8,191.26513672, 12.00103760,end
timer_stats,655970557110794,PAPI_L3_TCM,14,191.53472900, 12.01727295,end
timer_stats,655970558199745,PAPI_L3_TCM,5,191.79675293, 12.03399658,end
timer_stats,655970559288359,PAPI_L3_TCM,2,192.07879639, 12.04960632,end
timer_stats,655970560376588,PAPI_L3_TCM,5,192.35791016, 12.06506348,end
timer_stats,655970561465193,PAPI_L3_TCM,2,192.61309814, 12.08084106,end
timer_stats,655970562553851,PAPI_L3_TCM,1,192.86730957, 12.09690857,end
timer_stats,655970563642369,PAPI_L3_TCM,3,193.28729248, 12.11265564,end
timer_stats,655970564731573,PAPI_L3_TCM,6,193.69403076, 12.14437866,end
timer_stats,655970565820384,PAPI_L3_TCM,11,193.94860840, 12.16024780,end
timer_stats,655970566909436,PAPI_L3_TCM,4,194.21252441, 12.17654419,end
timer_stats,655970567998174,PAPI_L3_TCM,2,194.49121094, 12.19256592,end
timer_stats,655970569091372,PAPI_L3_TCM,6,194.75970459, 12.20851135,end
timer_stats,655970570180353,PAPI_L3_TCM,5,195.03784180, 12.22474670,end
timer_stats,655970571268510,PAPI_L3_TCM,6,195.29766846, 12.24052429,end
timer_stats,655970572356231,PAPI_L3_TCM,8,195.57196045, 12.25630188,end
timer_stats,655970573444609,PAPI_L3_TCM,8,195.83770752, 12.27210999,end
timer_stats,655970574533759,PAPI_L3_TCM,7,196.11523437, 12.28858948,end
timer_stats,655970575622479,PAPI_L3_TCM,11,196.52191162, 12.31240845,end
timer_stats,655970576710226,PAPI_L3_TCM,11,196.92962646, 12.33685303,end
timer_stats,655970577799585,PAPI_L3_TCM,7,197.20104980, 12.35310364,end
timer_stats,655970578887668,PAPI_L3_TCM,4,197.45599365, 12.36915588,end
timer_stats,655970579976171,PAPI_L3_TCM,6,197.71972656, 12.38537598,end
timer_stats,655970581065382,PAPI_L3_TCM,6,197.99285889, 12.40155029,end
timer_stats,655970582153745,PAPI_L3_TCM,3,198.24737549, 12.41784668,end
timer_stats,655970583242159,PAPI_L3_TCM,5,198.53247070, 12.43374634,end
timer_stats,655970584329874,PAPI_L3_TCM,8,198.79840088, 12.44952392,end
timer_stats,655970585417488,PAPI_L3_TCM,5,199.06671142, 12.46508789,end
timer_stats,655970586505915,PAPI_L3_TCM,10,199.33953857, 12.48086548,end
timer_stats,655970587595362,PAPI_L3_TCM,10,199.61151123, 12.49684143,end
timer_stats,655970588685118,PAPI_L3_TCM,17,200.01556396, 12.52111816,end
timer_stats,655970589774019,PAPI_L3_TCM,4,200.41247559, 12.54524231,end
timer_stats,655970590871964,PAPI_L3_TCM,8,200.70050049, 12.56120300,end
timer_stats,655970591959976,PAPI_L3_TCM,9,200.96643066, 12.57742310,end
timer_stats,655970593048544,PAPI_L3_TCM,9,201.22418213, 12.59367371,end
timer_stats,655970594137308,PAPI_L3_TCM,4,201.49084473, 12.60983276,end
timer_stats,655970595226625,PAPI_L3_TCM,3,201.75854492, 12.62605285,end
timer_stats,655970596314221,PAPI_L3_TCM,2,202.03698730, 12.64227295,end
timer_stats,655970597403163,PAPI_L3_TCM,5,202.30749512, 12.65780640,end
timer_stats,655970598491446,PAPI_L3_TCM,2,202.57781982, 12.67362976,end
timer_stats,655970599581462,PAPI_L3_TCM,5,202.84008789, 12.68957519,end
timer_stats,655970600670421,PAPI_L3_TCM,2,203.37768555, 12.72181702,end
timer_stats,655970601760340,PAPI_L3_TCM,9,203.64184570, 12.73858642,end
timer_stats,655970602848825,PAPI_L3_TCM,4,203.91613769, 12.75447082,end
timer_stats,655970603937360,PAPI_L3_TCM,11,204.18695068, 12.77070618,end
timer_stats,655970605026530,PAPI_L3_TCM,4,204.46057129, 12.78671264,end
timer_stats,655970606115251,PAPI_L3_TCM,6,204.72387695, 12.80294800,end
timer_stats,655970611039561,PAPI_L3_TCM,204,205.93267822, 12.91229248,end
timer_stats,655970612137701,PAPI_L3_TCM,117,206.14733887, 12.92851257,end
timer_stats,655970613223190,PAPI_L3_TCM,4,206.42071533, 12.94409180,end
timer_stats,655970614306715,PAPI_L3_TCM,4,206.67602539, 12.95994568,end
timer_stats,655970615391491,PAPI_L3_TCM,3,206.94659424, 12.97547912,end
timer_stats,655970616474397,PAPI_L3_TCM,7,207.21234131, 12.99127197,end
timer_stats,655970617557885,PAPI_L3_TCM,3,207.48577881, 13.00679016,end
timer_stats,655970618641285,PAPI_L3_TCM,2,207.88488769, 13.02990723,end
timer_stats,655970619724798,PAPI_L3_TCM,2,208.29223633, 13.05467224,end
timer_stats,655970620809015,PAPI_L3_TCM,7,208.55236816, 13.07072449,end
timer_stats,655970621893114,PAPI_L3_TCM,5,208.82604980, 13.08622742,end
timer_stats,655970622977058,PAPI_L3_TCM,5,209.09466553, 13.10200500,end
timer_stats,655970624024041,PAPI_L3_TCM,6,209.35632324, 13.11804199,end
timer_stats,655970625106744,PAPI_L3_TCM,6,209.63958740, 13.13438415,end
timer_stats,655970626190218,PAPI_L3_TCM,3,209.91546631, 13.15036011,end
timer_stats,655970627273112,PAPI_L3_TCM,3,210.17889404, 13.16661072,end
timer_stats,655970628355723,PAPI_L3_TCM,7,210.44885254, 13.18237305,end
timer_stats,655970629438733,PAPI_L3_TCM,15,210.71771240, 13.19841003,end
timer_stats,655970630521132,PAPI_L3_TCM,3,210.98950195, 13.21392822,end
timer_stats,655970631610251,PAPI_L3_TCM,4,211.26251221, 13.22962951,end
timer_stats,655970632694652,PAPI_L3_TCM,5,211.65722656, 13.25346374,end
timer_stats,655970633779123,PAPI_L3_TCM,10,212.06781006, 13.27809143,end
timer_stats,655970634861038,PAPI_L3_TCM,3,212.32757568, 13.29380798,end
timer_stats,655970635944341,PAPI_L3_TCM,4,212.59100342, 13.31054687,end
timer_stats,655970637027451,PAPI_L3_TCM,7,212.85992432, 13.32649231,end
timer_stats,655970638110615,PAPI_L3_TCM,4,213.13769531, 13.34245300,end
timer_stats,655970639194584,PAPI_L3_TCM,3,213.40521240, 13.35820007,end
timer_stats,655970640277848,PAPI_L3_TCM,9,213.67456055, 13.37396240,end
timer_stats,655970641361242,PAPI_L3_TCM,7,213.94451904, 13.39001465,end
timer_stats,655970642444818,PAPI_L3_TCM,5,214.20556641, 13.40559387,end
timer_stats,655970643528253,PAPI_L3_TCM,10,214.48968506, 13.42253113,end
timer_stats,655970644611634,PAPI_L3_TCM,12,214.75347900, 13.43824768,end
timer_stats,655970645695751,PAPI_L3_TCM,4,215.15991211, 13.45449829,end
timer_stats,655970646778084,PAPI_L3_TCM,11,215.56176758, 13.48596191,end
timer_stats,655970647860900,PAPI_L3_TCM,8,215.82104492, 13.50204468,end
timer_stats,655970648945446,PAPI_L3_TCM,15,216.10345459, 13.51829529,end
timer_stats,655970650027081,PAPI_L3_TCM,4,216.37133789, 13.53427124,end
timer_stats,655970651110374,PAPI_L3_TCM,3,216.63079834, 13.54981994,end
timer_stats,655970652194895,PAPI_L3_TCM,5,216.90759277, 13.56579590,end
timer_stats,655970653278635,PAPI_L3_TCM,15,217.17614746, 13.58151245,end
timer_stats,655970654361637,PAPI_L3_TCM,4,217.43774414, 13.59710693,end
timer_stats,655970655444700,PAPI_L3_TCM,4,217.71337891, 13.61289978,end
timer_stats,655970656528506,PAPI_L3_TCM,7,217.98059082, 13.62913513,end
timer_stats,655970657612412,PAPI_L3_TCM,9,218.25378418, 13.64494324,end
timer_stats,655970658695884,PAPI_L3_TCM,8,218.66027832, 13.66828918,end
timer_stats,655970659779042,PAPI_L3_TCM,4,219.05358887, 13.69252014,end
timer_stats,655970660862528,PAPI_L3_TCM,8,219.32995605, 13.70874023,end
timer_stats,655970661944579,PAPI_L3_TCM,8,219.59539795, 13.72476196,end
timer_stats,655970663027657,PAPI_L3_TCM,4,219.86779785, 13.74053955,end
timer_stats,655970664111248,PAPI_L3_TCM,8,220.13952637, 13.75653076,end
timer_stats,655970665193760,PAPI_L3_TCM,7,220.41027832, 13.77272034,end
timer_stats,655970666277001,PAPI_L3_TCM,3,220.67590332, 13.78854370,end
timer_stats,655970667359531,PAPI_L3_TCM,8,220.93634033, 13.80435181,end
timer_stats,655970668442474,PAPI_L3_TCM,11,221.20532227, 13.82040405,end
timer_stats,655970669525071,PAPI_L3_TCM,3,221.47924805, 13.83615112,end
timer_stats,655970670608484,PAPI_L3_TCM,8,221.74548340, 13.85168457,end
timer_stats,655970671689949,PAPI_L3_TCM,6,222.01843262, 13.86767578,end
timer_stats,655970672773284,PAPI_L3_TCM,8,222.55297852, 13.90022278,end
timer_stats,655970673854913,PAPI_L3_TCM,1,222.82611084, 13.91642761,end
timer_stats,655970674936755,PAPI_L3_TCM,5,223.09631348, 13.93241882,end
timer_stats,655970676022992,PAPI_L3_TCM,6,223.36614990, 13.94815063,end
timer_stats,655970677106088,PAPI_L3_TCM,6,223.63244629, 13.96391296,end
timer_stats,655970678188833,PAPI_L3_TCM,2,223.91058349, 13.98013305,end
timer_stats,655970679272066,PAPI_L3_TCM,5,224.17254639, 13.99536133,end
timer_stats,655970680354460,PAPI_L3_TCM,5,224.44720459, 14.01107788,end
timer_stats,655970681438314,PAPI_L3_TCM,3,224.71905517, 14.02639770,end
timer_stats,655970682521411,PAPI_L3_TCM,4,224.97601318, 14.04167175,end
timer_stats,655970683604546,PAPI_L3_TCM,5,225.24859619, 14.05844116,end
timer_stats,655970689853396,PAPI_L3_TCM,210,226.69665527, 14.18817139,end
timer_stats,655970690951352,PAPI_L3_TCM,91,226.93048096, 14.20201111,end
timer_stats,655970692034100,PAPI_L3_TCM,4,227.17913818, 14.21647644,end
timer_stats,655970693114832,PAPI_L3_TCM,2,227.44946289, 14.23051453,end
timer_stats,655970694201896,PAPI_L3_TCM,3,227.70208740, 14.24424744,end
timer_stats,655970695285958,PAPI_L3_TCM,5,227.97766113, 14.25814819,end
timer_stats,655970696369819,PAPI_L3_TCM,5,228.23992920, 14.27163696,end
timer_stats,655970697455382,PAPI_L3_TCM,5,228.49737549, 14.28533935,end
timer_stats,655970698538804,PAPI_L3_TCM,1,228.77740478, 14.30062866,end
timer_stats,655970699622612,PAPI_L3_TCM,2,229.03472900, 14.31428528,end
timer_stats,655970700706135,PAPI_L3_TCM,9,229.43438721, 14.33483887,end
timer_stats,655970701789264,PAPI_L3_TCM,3,229.70526123, 14.34873962,end
timer_stats,655970702872493,PAPI_L3_TCM,1,230.10205078, 14.36964416,end
timer_stats,655970703956589,PAPI_L3_TCM,8,230.36437988, 14.38320923,end
timer_stats,655970705041155,PAPI_L3_TCM,3,230.62951660, 14.39685058,end
timer_stats,655970706123044,PAPI_L3_TCM,5,230.88970947, 14.41075134,end
timer_stats,655970707205860,PAPI_L3_TCM,2,231.16125488, 14.42433166,end
timer_stats,655970708290690,PAPI_L3_TCM,3,231.42742920, 14.43815613,end
timer_stats,655970709373122,PAPI_L3_TCM,2,231.67987060, 14.45182800,end
timer_stats,655970710456702,PAPI_L3_TCM,7,231.96514892, 14.46566772,end
timer_stats,655970711539627,PAPI_L3_TCM,1,232.21203613, 14.47932434,end
timer_stats,655970712623634,PAPI_L3_TCM,13,232.47888184, 14.49298096,end
timer_stats,655970713706291,PAPI_L3_TCM,7,232.74652099, 14.50663757,end
timer_stats,655970714789209,PAPI_L3_TCM,5,233.27319336, 14.53364563,end
timer_stats,655970715872232,PAPI_L3_TCM,2,233.54101562, 14.54750061,end
timer_stats,655970716956840,PAPI_L3_TCM,9,233.80163574, 14.56120300,end
timer_stats,655970718039863,PAPI_L3_TCM,1,234.07757568, 14.57505798,end
timer_stats,655970719124091,PAPI_L3_TCM,6,234.33660889, 14.58891296,end
timer_stats,655970720208255,PAPI_L3_TCM,12,234.59936523, 14.60281372,end
timer_stats,655970721291353,PAPI_L3_TCM,8,234.85845947, 14.61622619,end
timer_stats,655970722374567,PAPI_L3_TCM,9,235.12652588, 14.63037109,end
timer_stats,655970723456812,PAPI_L3_TCM,8,235.38891602, 14.64425659,end
timer_stats,655970724540230,PAPI_L3_TCM,6,235.66027832, 14.65812683,end
timer_stats,655970725623345,PAPI_L3_TCM,6,235.92205810, 14.67201233,end
timer_stats,655970726707533,PAPI_L3_TCM,5,236.19348144, 14.68588257,end
timer_stats,655970727790912,PAPI_L3_TCM,2,236.70733642, 14.71392822,end
timer_stats,655970728875686,PAPI_L3_TCM,3,236.97381592, 14.72776794,end
timer_stats,655970729958743,PAPI_L3_TCM,6,237.25164795, 14.74162292,end
timer_stats,655970731041465,PAPI_L3_TCM,2,237.50073242, 14.75535583,end
timer_stats,655970732125147,PAPI_L3_TCM,9,237.77343750, 14.76901245,end
timer_stats,655970733208494,PAPI_L3_TCM,14,238.03491211, 14.78283691,end
timer_stats,655970734291869,PAPI_L3_TCM,5,238.29364014, 14.79670715,end
timer_stats,655970735375010,PAPI_L3_TCM,1,238.56744385, 14.81011963,end
timer_stats,655970736458886,PAPI_L3_TCM,6,238.83117676, 14.82356262,end
timer_stats,655970737542688,PAPI_L3_TCM,2,239.09521484, 14.83723450,end
timer_stats,655970738626932,PAPI_L3_TCM,4,239.35675049, 14.85113525,end
timer_stats,655970739709932,PAPI_L3_TCM,3,239.62689209, 14.86474609,end
timer_stats,655970740794553,PAPI_L3_TCM,9,240.15557861, 14.89317322,end
timer_stats,655970741877563,PAPI_L3_TCM,3,240.42626953, 14.90698242,end
timer_stats,655970742961121,PAPI_L3_TCM,5,240.67510986, 14.92089844,end
timer_stats,655970744023421,PAPI_L3_TCM,16,240.93878174, 14.93475342,end
timer_stats,655970745107165,PAPI_L3_TCM,8,241.21691894, 14.94859314,end
timer_stats,655970746190997,PAPI_L3_TCM,5,241.48120117, 14.96249389,end
timer_stats,655970747273857,PAPI_L3_TCM,3,241.73187256, 14.97634888,end
timer_stats,655970748356346,PAPI_L3_TCM,6,242.00982666, 14.98999023,end
timer_stats,655970749438555,PAPI_L3_TCM,7,242.27532959, 15.00413513,end
timer_stats,655970750522773,PAPI_L3_TCM,7,242.53991699, 15.01777649,end
timer_stats,655970751605530,PAPI_L3_TCM,10,242.80072021, 15.03189087,end
timer_stats,655970752690909,PAPI_L3_TCM,5,243.07672119, 15.04617309,end
timer_stats,655970753775502,PAPI_L3_TCM,8,243.32781982, 15.06101990,end
timer_stats,655970754859555,PAPI_L3_TCM,2,243.85961914, 15.08892822,end
timer_stats,655970755942507,PAPI_L3_TCM,3,244.13323974, 15.10346985,end
timer_stats,655970757026847,PAPI_L3_TCM,5,244.38677978, 15.11714172,end
timer_stats,655970758147810,PAPI_L3_TCM,35,244.64508057, 15.13174438,end
timer_stats,655970759266870,PAPI_L3_TCM,60,244.82879639, 15.14247131,end
timer_stats,655970760359538,PAPI_L3_TCM,36,245.08148193, 15.15634155,end
timer_stats,655970761448972,PAPI_L3_TCM,18,245.30737305, 15.17041016,end
timer_stats,655970762530784,PAPI_L3_TCM,6,245.54095459, 15.18447876,end
timer_stats,655970763612906,PAPI_L3_TCM,15,245.80163574, 15.19911194,end
timer_stats,655970764694327,PAPI_L3_TCM,6,246.03588867, 15.21342468,end
timer_stats,655970765776232,PAPI_L3_TCM,15,246.30090332, 15.22726440,end
timer_stats,655970766854932,PAPI_L3_TCM,3,246.78643799, 15.25450134,end
timer_stats,655970767935451,PAPI_L3_TCM,4,247.04296875, 15.26815796,end
timer_stats,655970769020619,PAPI_L3_TCM,17,247.27258301, 15.28271484,end
timer_stats,655970770104290,PAPI_L3_TCM,15,247.50506592, 15.29676819,end
timer_stats,655970771183837,PAPI_L3_TCM,7,247.76031494, 15.31045532,end
timer_stats,655970772262999,PAPI_L3_TCM,5,248.02563477, 15.32412720,end
timer_stats,655970773341533,PAPI_L3_TCM,6,248.28582764, 15.33782959,end
timer_stats,655970774419780,PAPI_L3_TCM,3,248.53942871, 15.35130310,end
timer_stats,655970775497855,PAPI_L3_TCM,3,248.79693603, 15.36499023,end
timer_stats,655970776576932,PAPI_L3_TCM,2,249.05834961, 15.37869263,end
timer_stats,655970777655886,PAPI_L3_TCM,4,249.31738281, 15.39237976,end
timer_stats,655970778737590,PAPI_L3_TCM,15,249.56976318, 15.40673828,end
timer_stats,655970779819482,PAPI_L3_TCM,4,249.93286133, 15.42671203,end
timer_stats,655970780900932,PAPI_L3_TCM,0,250.31549072, 15.44764709,end
timer_stats,655970781981772,PAPI_L3_TCM,5,250.58093262, 15.46101379,end
timer_stats,655970783062371,PAPI_L3_TCM,15,250.83886719, 15.47442627,end
timer_stats,655970784148271,PAPI_L3_TCM,7,251.06500244, 15.48825073,end
timer_stats,655970785229568,PAPI_L3_TCM,1,251.31292724, 15.50196838,end
timer_stats,655970786308608,PAPI_L3_TCM,4,251.56970215, 15.51564026,end
timer_stats,655970787391078,PAPI_L3_TCM,17,251.83709717, 15.53070068,end
timer_stats,655970788481510,PAPI_L3_TCM,26,252.06726074, 15.54234314,end
timer_stats,655970791223794,PAPI_L3_TCM,44,252.65026855, 15.57882690,end
timer_stats,655970792315161,PAPI_L3_TCM,47,252.84680176, 15.59284973,end
timer_stats,655970793412641,PAPI_L3_TCM,23,253.10418701, 15.60632324,end
timer_stats,655970794523936,PAPI_L3_TCM,12,253.34619141, 15.62084961,end
timer_stats,655970795618159,PAPI_L3_TCM,2,253.59417724, 15.63549805,end
timer_stats,655970796725538,PAPI_L3_TCM,52,253.84533691, 15.65141296,end
timer_stats,655970797833670,PAPI_L3_TCM,20,254.33825684, 15.68196106,end
timer_stats,655970798941393,PAPI_L3_TCM,12,254.59521484, 15.69723511,end
timer_stats,655970800048108,PAPI_L3_TCM,6,254.84234619, 15.71211243,end
timer_stats,655970801166162,PAPI_L3_TCM,6,255.09686279, 15.72827148,end
timer_stats,655970802287119,PAPI_L3_TCM,2,255.34429932, 15.74368286,end
timer_stats,655970803419407,PAPI_L3_TCM,6,255.57800293, 15.75888062,end
timer_stats,655970804547118,PAPI_L3_TCM,2,255.82922363, 15.77380371,end
timer_stats,655970805671633,PAPI_L3_TCM,3,256.06317139, 15.78872681,end
timer_stats,655970806791672,PAPI_L3_TCM,2,256.30847168, 15.80432129,end
timer_stats,655970807911871,PAPI_L3_TCM,3,256.67614746, 15.82669067,end
timer_stats,655970809041038,PAPI_L3_TCM,3,257.03424072, 15.85003662,end
timer_stats,655970810161360,PAPI_L3_TCM,3,257.27679443, 15.86552429,end
timer_stats,655970811282364,PAPI_L3_TCM,1,257.51361084, 15.88092041,end
timer_stats,655970812404717,PAPI_L3_TCM,5,257.75646973, 15.89607239,end
timer_stats,655970813530708,PAPI_L3_TCM,1,257.98645019, 15.91079712,end
timer_stats,655970814666504,PAPI_L3_TCM,4,258.21124267, 15.92573547,end
timer_stats,655970815793739,PAPI_L3_TCM,1,258.43811035, 15.94023132,end
timer_stats,655970816904738,PAPI_L3_TCM,15,258.90039062, 15.96194458,end
timer_stats,655970818009908,PAPI_L3_TCM,5,259.12170410, 15.98521423,end
timer_stats,655970819114444,PAPI_L3_TCM,3,259.33856201, 15.99998474,end
timer_stats,655970820218613,PAPI_L3_TCM,4,259.56372070, 16.01473999,end
timer_stats,655970821321341,PAPI_L3_TCM,6,259.78210449, 16.02980041,end
timer_stats,655970822423642,PAPI_L3_TCM,2,260.00274658, 16.04438782,end
timer_stats,655970823533638,PAPI_L3_TCM,2,260.21569824, 16.05918884,end
timer_stats,655970824642755,PAPI_L3_TCM,4,260.43481445, 16.07420349,end
timer_stats,655970825749972,PAPI_L3_TCM,1,260.65594482, 16.08860779,end
timer_stats,655970826857604,PAPI_L3_TCM,0,261.07958984, 16.10978699,end
timer_stats,655970827963784,PAPI_L3_TCM,2,261.29406738, 16.13162231,end
timer_stats,655970829074165,PAPI_L3_TCM,2,261.50994873, 16.14604187,end
timer_stats,655970830183757,PAPI_L3_TCM,2,261.71545410, 16.16070557,end
timer_stats,655970831292331,PAPI_L3_TCM,0,261.93194580, 16.17509460,end
timer_stats,655970832396339,PAPI_L3_TCM,3,262.15148926, 16.18922424,end
timer_stats,655970833507251,PAPI_L3_TCM,1,262.35351562, 16.20372009,end
timer_stats,655970834626992,PAPI_L3_TCM,2,262.57037353, 16.21792602,end
timer_stats,655970835738307,PAPI_L3_TCM,5,262.78698730, 16.23181152,end
timer_stats,655970836840958,PAPI_L3_TCM,4,263.08953857, 16.25396728,end
timer_stats,655970837948997,PAPI_L3_TCM,0,263.41442871, 16.26905823,end
timer_stats,655970839059561,PAPI_L3_TCM,2,263.61499023, 16.29107666,end
timer_stats,655970840170959,PAPI_L3_TCM,2,263.81738281, 16.30534363,end
timer_stats,655970841274305,PAPI_L3_TCM,2,264.02014160, 16.31961059,end
timer_stats,655970846688497,PAPI_L3_TCM,120,264.91296387, 16.40078735,end
timer_stats,655970847783715,PAPI_L3_TCM,47,265.06713867, 16.41566467,end
timer_stats,655970848928570,PAPI_L3_TCM,16,265.46087646, 16.44352722,end
timer_stats,655970850069245,PAPI_L3_TCM,17,265.66589355, 16.45730591,end
timer_stats,655970851208108,PAPI_L3_TCM,1,265.86358642, 16.47090149,end
timer_stats,655970852350901,PAPI_L3_TCM,5,266.06634521, 16.48471069,end
timer_stats,655970853490756,PAPI_L3_TCM,1,266.26550293, 16.49882507,end
timer_stats,655970854632935,PAPI_L3_TCM,1,266.45709228, 16.51287842,end
timer_stats,655970855773299,PAPI_L3_TCM,0,266.65930176, 16.52668762,end
timer_stats,655970856915984,PAPI_L3_TCM,2,267.04760742, 16.54731750,end
timer_stats,655970858055235,PAPI_L3_TCM,0,267.24511719, 16.56855774,end
timer_stats,655970859194203,PAPI_L3_TCM,2,267.44024658, 16.58262634,end
timer_stats,655970860333465,PAPI_L3_TCM,2,267.63250732, 16.59642029,end
timer_stats,655970861475564,PAPI_L3_TCM,2,267.81713867, 16.61051941,end
timer_stats,655970862615253,PAPI_L3_TCM,0,268.00830078, 16.62525940,end
timer_stats,655970863753690,PAPI_L3_TCM,2,268.18383789, 16.64002991,end
timer_stats,655970864893625,PAPI_L3_TCM,0,268.45709228, 16.65347290,end
timer_stats,655970866032011,PAPI_L3_TCM,1,268.71051025, 16.67979431,end
timer_stats,655970867170658,PAPI_L3_TCM,0,268.88238525, 16.69281006,end
timer_stats,655970868309279,PAPI_L3_TCM,2,269.05566406, 16.70587158,end
timer_stats,655970869448727,PAPI_L3_TCM,0,269.22528076, 16.71940613,end
timer_stats,655970870589943,PAPI_L3_TCM,2,269.38470459, 16.73315430,end
timer_stats,655970871729130,PAPI_L3_TCM,1,269.56146240, 16.74732971,end
timer_stats,655970872867098,PAPI_L3_TCM,1,269.72540283, 16.75993347,end
timer_stats,655970874005528,PAPI_L3_TCM,1,270.04406738, 16.78497314,end
timer_stats,655970875157741,PAPI_L3_TCM,1,270.19738769, 16.79768372,end
timer_stats,655970876304067,PAPI_L3_TCM,1,270.35534668, 16.81033325,end
timer_stats,655970877442998,PAPI_L3_TCM,7,270.51055908, 16.82304382,end
timer_stats,655970878585722,PAPI_L3_TCM,1,270.66809082, 16.83567810,end
timer_stats,655970879723725,PAPI_L3_TCM,2,270.81903076, 16.84832764,end
timer_stats,655970880868199,PAPI_L3_TCM,1,270.97637939, 16.86114502,end
timer_stats,655970882006737,PAPI_L3_TCM,2,271.28192139, 16.88523865,end
timer_stats,655970883146652,PAPI_L3_TCM,2,271.42126465, 16.89773559,end
timer_stats,655970884285954,PAPI_L3_TCM,1,271.57080078, 16.90995789,end
timer_stats,655970885423638,PAPI_L3_TCM,0,271.71575928, 16.92242432,end
timer_stats,655970886565846,PAPI_L3_TCM,2,271.84820557, 16.93518066,end
timer_stats,655970887707377,PAPI_L3_TCM,0,271.99731445, 16.94758606,end
timer_stats,655970888845963,PAPI_L3_TCM,2,272.13415527, 16.95980835,end
timer_stats,655970889985101,PAPI_L3_TCM,0,272.41900635, 16.98451233,end
timer_stats,655970891122922,PAPI_L3_TCM,2,272.55395508, 16.99702454,end
timer_stats,655970892263261,PAPI_L3_TCM,0,272.69384766, 17.00901794,end
timer_stats,655970893400146,PAPI_L3_TCM,1,272.83264160, 17.02130127,end
timer_stats,655970894538311,PAPI_L3_TCM,0,272.97296142, 17.03276062,end
timer_stats,655970895681536,PAPI_L3_TCM,2,273.10479736, 17.04507446,end
timer_stats,655970896821025,PAPI_L3_TCM,0,273.23785400, 17.05738830,end
timer_stats,655970897978830,PAPI_L3_TCM,2,273.50006103, 17.08123779,end
timer_stats,655970899138872,PAPI_L3_TCM,0,273.64178467, 17.09300232,end
timer_stats,655970900294877,PAPI_L3_TCM,1,273.77337646, 17.10505676,end
timer_stats,655970901679430,PAPI_L3_TCM,377,273.90905762, 17.11149597,end
timer_stats,655970902911219,PAPI_L3_TCM,147,274.09973144, 17.12954712,end
timer_stats,655970904030504,PAPI_L3_TCM,5,274.30554199, 17.14758301,end
timer_stats,655970905148342,PAPI_L3_TCM,5,274.43414307, 17.15991211,end
timer_stats,655970906267023,PAPI_L3_TCM,3,274.57336426, 17.17214966,end
timer_stats,655970907384445,PAPI_L3_TCM,4,274.70239258, 17.18447876,end
timer_stats,655970908487474,PAPI_L3_TCM,2,274.83178711, 17.19679260,end
timer_stats,655970909607806,PAPI_L3_TCM,4,274.97131347, 17.20906067,end
timer_stats,655970910724339,PAPI_L3_TCM,0,275.10455322, 17.22109985,end
timer_stats,655970911846152,PAPI_L3_TCM,10,275.23730469, 17.23315430,end
timer_stats,655970912952157,PAPI_L3_TCM,28,275.43853760, 17.24539185,end
timer_stats,655970914069215,PAPI_L3_TCM,24,275.64068603, 17.26890564,end
timer_stats,655970915187786,PAPI_L3_TCM,8,275.76367187, 17.28071594,end
timer_stats,655970916285964,PAPI_L3_TCM,3,275.89501953, 17.29325867,end
timer_stats,655970917407214,PAPI_L3_TCM,0,276.01422119, 17.30436706,end
timer_stats,655970918576983,PAPI_L3_TCM,1,276.13275146, 17.31571960,end
timer_stats,655970919719114,PAPI_L3_TCM,0,276.25067139, 17.32707214,end
timer_stats,655970920843876,PAPI_L3_TCM,4,276.37207031, 17.33840942,end
timer_stats,655970921983295,PAPI_L3_TCM,4,276.60351562, 17.35513305,end
timer_stats,655970923127472,PAPI_L3_TCM,2,276.71533203, 17.37210083,end
timer_stats,655970924248056,PAPI_L3_TCM,2,276.83038330, 17.38351440,end
timer_stats,655970925373593,PAPI_L3_TCM,2,276.95428467, 17.39460754,end
timer_stats,655970926513618,PAPI_L3_TCM,0,277.06604004, 17.40599060,end
timer_stats,655970927658604,PAPI_L3_TCM,5,277.18585205, 17.41737366,end
timer_stats,655970928796002,PAPI_L3_TCM,1,277.30133057, 17.42851257,end
timer_stats,655970929937849,PAPI_L3_TCM,1,277.41687012, 17.43968201,end
timer_stats,655970931083254,PAPI_L3_TCM,0,277.65631103, 17.46192932,end
timer_stats,655970932193940,PAPI_L3_TCM,2,277.78204346, 17.47303772,end
timer_stats,655970933318119,PAPI_L3_TCM,2,277.89843750, 17.48472595,end
timer_stats,655970934481088,PAPI_L3_TCM,4,278.02612305, 17.49601746,end
timer_stats,655970935630429,PAPI_L3_TCM,6,278.13598633, 17.50691223,end
timer_stats,655970936774207,PAPI_L3_TCM,1,278.26019287, 17.51803589,end
timer_stats,655970937926105,PAPI_L3_TCM,0,278.36871338, 17.53500366,end
timer_stats,655970939075493,PAPI_L3_TCM,1,278.59173584, 17.55197143,end
timer_stats,655970940258393,PAPI_L3_TCM,382,278.70965576, 17.56285095,end
timer_stats,655970941382249,PAPI_L3_TCM,4,278.82556152, 17.57400513,end
timer_stats,655970942531258,PAPI_L3_TCM,0,278.94451904, 17.58511353,end
timer_stats,655970943683411,PAPI_L3_TCM,4,279.05480957, 17.59628296,end
timer_stats,655970944829827,PAPI_L3_TCM,2,279.17321777, 17.60714722,end
timer_stats,655970945977939,PAPI_L3_TCM,1,279.34082031, 17.62390137,end
timer_stats,655970947127190,PAPI_L3_TCM,0,279.50885010, 17.64064026,end
timer_stats,655970948265587,PAPI_L3_TCM,2,279.62182617, 17.65180969,end
timer_stats,655970949388977,PAPI_L3_TCM,0,279.74127197, 17.66291809,end
timer_stats,655970950537478,PAPI_L3_TCM,2,279.85235596, 17.67387390,end
timer_stats,655970951688032,PAPI_L3_TCM,0,279.96893310, 17.68499756,end
timer_stats,655970952836792,PAPI_L3_TCM,5,280.07647705, 17.69621277,end
timer_stats,655970953985140,PAPI_L3_TCM,0,280.24853516, 17.71292114,end
timer_stats,655970955132668,PAPI_L3_TCM,1,280.42242432, 17.73010254,end
timer_stats,655970956255063,PAPI_L3_TCM,1,280.53430176, 17.74102783,end
timer_stats,655970957402860,PAPI_L3_TCM,3,280.65136719, 17.75238037,end
timer_stats,655970958548911,PAPI_L3_TCM,0,280.76184082, 17.76330566,end
timer_stats,655970959698864,PAPI_L3_TCM,4,280.87304687, 17.77423096,end
timer_stats,655970960858063,PAPI_L3_TCM,0,280.98852539, 17.78540039,end
timer_stats,655970962005279,PAPI_L3_TCM,2,281.16033936, 17.80212402,end
timer_stats,655970963154022,PAPI_L3_TCM,1,281.32312012, 17.81842041,end
timer_stats,655970964276570,PAPI_L3_TCM,1,281.43627930, 17.82955933,end
timer_stats,655970965423853,PAPI_L3_TCM,0,281.54650879, 17.84051514,end
timer_stats,655970966574513,PAPI_L3_TCM,3,281.64996338, 17.85127258,end
timer_stats,655970967723071,PAPI_L3_TCM,0,281.76293945, 17.86241150,end
timer_stats,655970968896660,PAPI_L3_TCM,2,281.86401367, 17.87338257,end
timer_stats,655970970044205,PAPI_L3_TCM,0,282.02441406, 17.88992310,end
timer_stats,655970971193255,PAPI_L3_TCM,2,282.18988037, 17.90713501,end
timer_stats,655970972321749,PAPI_L3_TCM,0,282.29357910, 17.91812134,end
timer_stats,655970973472368,PAPI_L3_TCM,1,282.40270996, 17.92904663,end
timer_stats,655970974620158,PAPI_L3_TCM,0,282.50854492, 17.94000244,end
timer_stats,655970975769496,PAPI_L3_TCM,2,282.62048340, 17.95114136,end
timer_stats,655970976916871,PAPI_L3_TCM,0,282.72412109, 17.96163940,end
timer_stats,655970978081706,PAPI_L3_TCM,2,282.92596436, 17.98367310,end
timer_stats,655970979245230,PAPI_L3_TCM,0,283.03283691, 17.99438476,end
timer_stats,655970980381616,PAPI_L3_TCM,2,283.13342285, 18.00537109,end
timer_stats,655970981550154,PAPI_L3_TCM,0,283.23455810, 18.01586914,end
timer_stats,655970982720069,PAPI_L3_TCM,1,283.33642578, 18.02685547,end
timer_stats,655970983887918,PAPI_L3_TCM,0,283.43768311, 18.03738403,end
timer_stats,655970985056323,PAPI_L3_TCM,1,283.63793945, 18.05888367,end
timer_stats,655970986222478,PAPI_L3_TCM,0,283.73779297, 18.06941223,end
timer_stats,655970987374825,PAPI_L3_TCM,2,283.84204101, 18.08039856,end
timer_stats,655970988542014,PAPI_L3_TCM,0,283.94067383, 18.09115600,end
timer_stats,655970989711806,PAPI_L3_TCM,2,284.04278564, 18.10165405,end
timer_stats,655970990879021,PAPI_L3_TCM,5,284.14593506, 18.11283874,end
timer_stats,655970992060696,PAPI_L3_TCM,2,284.34399414, 18.13475037,end
timer_stats,655970993230731,PAPI_L3_TCM,0,284.44305420, 18.14549255,end
timer_stats,655970994376213,PAPI_L3_TCM,3,284.54235840, 18.15599060,end
timer_stats,655970995542688,PAPI_L3_TCM,0,284.64160156, 18.16673279,end
timer_stats,655970996713882,PAPI_L3_TCM,2,284.74652100, 18.17723083,end
timer_stats,655970997885573,PAPI_L3_TCM,0,284.84301758, 18.18775940,end
timer_stats,655970999033931,PAPI_L3_TCM,2,284.94409180, 18.20405579,end
timer_stats,655971000177578,PAPI_L3_TCM,0,285.14593506, 18.22016907,end
timer_stats,655971001358088,PAPI_L3_TCM,1,285.24353027, 18.23091125,end
timer_stats,655971002525357,PAPI_L3_TCM,0,285.34472656, 18.24137878,end
timer_stats,655971003677466,PAPI_L3_TCM,1,285.44006348, 18.25213623,end
timer_stats,655971004841267,PAPI_L3_TCM,0,285.53936767, 18.26287842,end
timer_stats,655971005991393,PAPI_L3_TCM,2,285.64306641, 18.27896118,end
timer_stats,655971007160470,PAPI_L3_TCM,0,285.83941650, 18.29502869,end
timer_stats,655971008331935,PAPI_L3_TCM,3,285.93499756, 18.30552673,end
timer_stats,655971009500410,PAPI_L3_TCM,0,286.03472900, 18.31625366,end
timer_stats,655971010668732,PAPI_L3_TCM,1,286.13586426, 18.32675171,end
timer_stats,655971011836817,PAPI_L3_TCM,0,286.23400879, 18.33746338,end
timer_stats,655971013012742,PAPI_L3_TCM,2,286.36822510, 18.35360718,end
timer_stats,655971014185023,PAPI_L3_TCM,0,286.52349853, 18.36993408,end
timer_stats,655971015355321,PAPI_L3_TCM,2,286.62011719, 18.38046265,end
timer_stats,655971016526506,PAPI_L3_TCM,1,286.72052002, 18.39117432,end
timer_stats,655971017699471,PAPI_L3_TCM,4,286.81848144, 18.40188599,end
timer_stats,655971018869586,PAPI_L3_TCM,0,286.91314697, 18.41241455,end
timer_stats,655971020026804,PAPI_L3_TCM,2,287.05303955, 18.42807007,end
timer_stats,655971021192782,PAPI_L3_TCM,0,287.20324707, 18.44418335,end
timer_stats,655971022359984,PAPI_L3_TCM,1,287.29827881, 18.45492554,end
timer_stats,655971023528016,PAPI_L3_TCM,0,287.39392090, 18.46569824,end
timer_stats,655971024718558,PAPI_L3_TCM,2,287.48986816, 18.47644043,end
timer_stats,655971025891123,PAPI_L3_TCM,0,287.58856201, 18.48715210,end
timer_stats,655971027060198,PAPI_L3_TCM,2,287.72583008, 18.50369263,end
timer_stats,655971028231283,PAPI_L3_TCM,1,287.87274170, 18.51980591,end
timer_stats,655971029405668,PAPI_L3_TCM,1,287.96820068, 18.53079224,end
timer_stats,655971030576113,PAPI_L3_TCM,0,288.06402588, 18.54151916,end
timer_stats,655971031746498,PAPI_L3_TCM,1,288.15734863, 18.55204773,end
timer_stats,655971032918903,PAPI_L3_TCM,1,288.25738525, 18.56248474,end
timer_stats,655971034068372,PAPI_L3_TCM,7,288.38604736, 18.57926941,end
timer_stats,655971035241832,PAPI_L3_TCM,3,288.53216553, 18.59463501,end
timer_stats,655971036415487,PAPI_L3_TCM,3,288.61944580, 18.60472107,end
timer_stats,655971037590862,PAPI_L3_TCM,0,288.70355225, 18.61506653,end
timer_stats,655971038764427,PAPI_L3_TCM,1,288.79101562, 18.62557983,end
timer_stats,655971039950222,PAPI_L3_TCM,0,288.88250732, 18.63583374,end
timer_stats,655971041148534,PAPI_L3_TCM,1,289.05847168, 18.65644836,end
timer_stats,655971042299592,PAPI_L3_TCM,0,289.14282226, 18.66676330,end
timer_stats,655971043473297,PAPI_L3_TCM,1,289.22943115, 18.67726135,end
timer_stats,655971044649652,PAPI_L3_TCM,1,289.31567383, 18.68778992,end
timer_stats,655971045823264,PAPI_L3_TCM,2,289.40667725, 18.69807434,end
timer_stats,655971046977587,PAPI_L3_TCM,0,289.49707031, 18.70347595,end
timer_stats,655971048152824,PAPI_L3_TCM,3,289.66253662, 18.72486877,end
timer_stats,655971049339616,PAPI_L3_TCM,0,289.75427246, 18.73539734,end
timer_stats,655971050515811,PAPI_L3_TCM,1,289.84106445, 18.74568176,end
timer_stats,655971051691662,PAPI_L3_TCM,1,289.92529297, 18.75617981,end
timer_stats,655971052867864,PAPI_L3_TCM,3,290.01867676, 18.76664734,end
timer_stats,655971054042026,PAPI_L3_TCM,0,290.09765625, 18.77723694,end
timer_stats,655971055219381,PAPI_L3_TCM,2,290.26440430, 18.79814148,end
timer_stats,655971056375579,PAPI_L3_TCM,1,290.35156250, 18.80842590,end
timer_stats,655971057549571,PAPI_L3_TCM,1,290.43688965, 18.81871033,end
timer_stats,655971058727592,PAPI_L3_TCM,0,290.52557373, 18.82872009,end
timer_stats,655971059901491,PAPI_L3_TCM,1,290.61236572, 18.83921814,end
timer_stats,655971061078439,PAPI_L3_TCM,1,290.74359131, 18.85473633,end
timer_stats,655971062256311,PAPI_L3_TCM,1,290.86517334, 18.87039185,end
timer_stats,655971063430452,PAPI_L3_TCM,0,290.94824219, 18.88070679,end
timer_stats,655971064614701,PAPI_L3_TCM,4,291.03521728, 18.89120483,end
timer_stats,655971065790126,PAPI_L3_TCM,0,291.12414551, 18.90148926,end
timer_stats,655971066949482,PAPI_L3_TCM,1,291.20245361, 18.90692139,end
timer_stats,655971068123139,PAPI_L3_TCM,2,291.36859131, 18.92779541,end
timer_stats,655971069299001,PAPI_L3_TCM,1,291.45855713, 18.93804932,end
timer_stats,655971070474499,PAPI_L3_TCM,0,291.53631592, 18.94866943,end
timer_stats,655971071651161,PAPI_L3_TCM,1,291.61834717, 18.95898437,end
timer_stats,655971072828506,PAPI_L3_TCM,1,291.71246338, 18.96917725,end
timer_stats,655971073984800,PAPI_L3_TCM,1,291.79272461, 18.97952270,end
timer_stats,655971075158649,PAPI_L3_TCM,0,291.95440674, 19.00068664,end
timer_stats,655971076342647,PAPI_L3_TCM,2,292.04266357, 19.01118469,end
timer_stats,655971077497515,PAPI_L3_TCM,0,292.12084961, 19.02174377,end
timer_stats,655971078652664,PAPI_L3_TCM,1,292.21234131, 19.03218079,end
timer_stats,655971079825562,PAPI_L3_TCM,0,292.29089355, 19.04301453,end
timer_stats,655971081008527,PAPI_L3_TCM,2,292.37713623, 19.05351257,end
timer_stats,655971082187836,PAPI_L3_TCM,0,292.53845215, 19.07441711,end
timer_stats,655971083344962,PAPI_L3_TCM,2,292.62731933, 19.08467102,end
timer_stats,655971084519239,PAPI_L3_TCM,1,292.70996094, 19.09495544,end
timer_stats,655971085697184,PAPI_L3_TCM,1,292.79125977, 19.10548401,end
timer_stats,655971086856165,PAPI_L3_TCM,0,292.86859131, 19.11581421,end
timer_stats,655971088052941,PAPI_L3_TCM,2,292.95806885, 19.12603760,end
timer_stats,655971089234606,PAPI_L3_TCM,0,293.09460449, 19.14166260,end
timer_stats,655971090410354,PAPI_L3_TCM,1,293.20434570, 19.15740967,end
timer_stats,655971091588276,PAPI_L3_TCM,0,293.28869629, 19.16766357,end
timer_stats,655971092769291,PAPI_L3_TCM,2,293.36322021, 19.17828369,end
timer_stats,655971093946482,PAPI_L3_TCM,0,293.44732666, 19.18853760,end
timer_stats,655971095122877,PAPI_L3_TCM,1,293.52716064, 19.19863892,end
timer_stats,655971096304979,PAPI_L3_TCM,1,293.66729736, 19.21917725,end
timer_stats,655971097480291,PAPI_L3_TCM,1,293.77252197, 19.22958374,end
timer_stats,655971098657509,PAPI_L3_TCM,0,293.85089111, 19.23991394,end
timer_stats,655971099808441,PAPI_L3_TCM,1,293.93438721, 19.25044250,end
timer_stats,655971100985012,PAPI_L3_TCM,1,294.02203369, 19.26087951,end
timer_stats,655971102146024,PAPI_L3_TCM,1,294.17388916, 19.28309631,end
timer_stats,655971103309685,PAPI_L3_TCM,0,294.25433350, 19.29353332,end
timer_stats,655971104471197,PAPI_L3_TCM,0,294.33502197, 19.30421448,end
timer_stats,655971105621592,PAPI_L3_TCM,0,294.41107178, 19.31518555,end
timer_stats,655971106774711,PAPI_L3_TCM,1,294.49029541, 19.32583618,end
timer_stats,655971107927611,PAPI_L3_TCM,0,294.56604004, 19.33703613,end
timer_stats,655971109084105,PAPI_L3_TCM,11,294.66839600, 19.35391235,end
timer_stats,655971110243120,PAPI_L3_TCM,8,294.79803467, 19.37013245,end
timer_stats,655971111429990,PAPI_L3_TCM,6,294.88427734, 19.38055420,end
timer_stats,655971112590456,PAPI_L3_TCM,4,294.96136475, 19.39105225,end
timer_stats,655971113739659,PAPI_L3_TCM,5,295.04486084, 19.40155029,end
timer_stats,655971114885931,PAPI_L3_TCM,4,295.11938476, 19.41168213,end
