timer_stats,697599427918421,PAPI_L3_TCM,350,  0.07910156,  0.01052856,end
timer_stats,697599429051127,PAPI_L3_TCM,38,  0.15740967,  0.02078247,end
timer_stats,697599430215207,PAPI_L3_TCM,7,  0.23217773,  0.03216553,end
timer_stats,697599431404551,PAPI_L3_TCM,12,  0.30548096,  0.04193115,end
timer_stats,697599432970425,PAPI_L3_TCM,45,  0.47003174,  0.06297302,end
timer_stats,697599434134779,PAPI_L3_TCM,24,  0.54840088,  0.07347107,end
timer_stats,697599435299266,PAPI_L3_TCM,3,  0.62353516,  0.08377075,end
timer_stats,697599436440486,PAPI_L3_TCM,3,  0.70123291,  0.09402466,end
timer_stats,697599437606883,PAPI_L3_TCM,6,  0.81481934,  0.10989380,end
timer_stats,697599438769353,PAPI_L3_TCM,4,  0.94104004,  0.12554931,end
timer_stats,697599439924033,PAPI_L3_TCM,5,  1.02221680,  0.13690185,end
timer_stats,697599441076970,PAPI_L3_TCM,9,  1.10620117,  0.14733887,end
timer_stats,697599442218200,PAPI_L3_TCM,0,  1.18518066,  0.15893555,end
timer_stats,697599443371163,PAPI_L3_TCM,0,  1.26483154,  0.16920471,end
timer_stats,697599444510311,PAPI_L3_TCM,2,  1.34277344,  0.17930603,end
timer_stats,697599445667947,PAPI_L3_TCM,2,  1.51141357,  0.19984436,end
timer_stats,697599446833163,PAPI_L3_TCM,0,  1.59326172,  0.21034241,end
timer_stats,697599447997821,PAPI_L3_TCM,3,  1.67584228,  0.22132873,end
timer_stats,697599449173144,PAPI_L3_TCM,1,  1.76007080,  0.23162842,end
timer_stats,697599450337921,PAPI_L3_TCM,1,  1.84216308,  0.24241638,end
timer_stats,697599451501685,PAPI_L3_TCM,0,  1.92584228,  0.25291443,end
timer_stats,697599452655885,PAPI_L3_TCM,0,  2.01263428,  0.26292419,end
timer_stats,697599453821852,PAPI_L3_TCM,0,  2.18298340,  0.28376770,end
timer_stats,697599454987735,PAPI_L3_TCM,1,  2.26495361,  0.29429626,end
timer_stats,697599456126452,PAPI_L3_TCM,1,  2.34600830,  0.30461120,end
timer_stats,697599457268455,PAPI_L3_TCM,5,  2.43652344,  0.31556702,end
timer_stats,697599458434093,PAPI_L3_TCM,0,  2.52209473,  0.32565308,end
timer_stats,697599459600089,PAPI_L3_TCM,1,  2.61822510,  0.33636475,end
timer_stats,697599460767413,PAPI_L3_TCM,1,  2.80218506,  0.35745239,end
timer_stats,697599461933103,PAPI_L3_TCM,0,  2.89459228,  0.36776733,end
timer_stats,697599463100760,PAPI_L3_TCM,0,  2.98358154,  0.37789917,end
timer_stats,697599464267866,PAPI_L3_TCM,2,  3.07714844,  0.38818359,end
timer_stats,697599465409849,PAPI_L3_TCM,2,  3.17132568,  0.39938354,end
timer_stats,697599466577727,PAPI_L3_TCM,3,  3.26055908,  0.40994263,end
timer_stats,697599467746221,PAPI_L3_TCM,0,  3.44329834,  0.43008423,end
timer_stats,697599468912807,PAPI_L3_TCM,2,  3.53106689,  0.44061279,end
timer_stats,697599470083278,PAPI_L3_TCM,0,  3.61706543,  0.45220947,end
timer_stats,697599471250027,PAPI_L3_TCM,0,  3.70574951,  0.46447754,end
timer_stats,697599472392108,PAPI_L3_TCM,2,  3.79223633,  0.47470093,end
timer_stats,697599473569104,PAPI_L3_TCM,4,  3.88128662,  0.48480225,end
timer_stats,697599474729155,PAPI_L3_TCM,0,  4.04083252,  0.50466919,end
timer_stats,697599475902351,PAPI_L3_TCM,3,  4.11614990,  0.51324463,end
timer_stats,697599477084332,PAPI_L3_TCM,1,  4.19311523,  0.52201843,end
timer_stats,697599478248012,PAPI_L3_TCM,1,  4.26666260,  0.53083801,end
timer_stats,697599479420106,PAPI_L3_TCM,0,  4.34149170,  0.53964233,end
timer_stats,697599480594419,PAPI_L3_TCM,1,  4.41845703,  0.54815674,end
timer_stats,697599481766953,PAPI_L3_TCM,0,  4.56945801,  0.56593323,end
timer_stats,697599482939959,PAPI_L3_TCM,1,  4.64483643,  0.57472229,end
timer_stats,697599484112560,PAPI_L3_TCM,1,  4.71838379,  0.58332825,end
timer_stats,697599485264366,PAPI_L3_TCM,3,  4.79138184,  0.59217834,end
timer_stats,697599486433210,PAPI_L3_TCM,0,  4.87011719,  0.60067749,end
timer_stats,697599487616727,PAPI_L3_TCM,1,  4.96569824,  0.60926819,end
timer_stats,697599488789734,PAPI_L3_TCM,1,  5.09210205,  0.62664795,end
timer_stats,697599489964618,PAPI_L3_TCM,0,  5.16430664,  0.63522339,end
timer_stats,697599491146974,PAPI_L3_TCM,0,  5.24188232,  0.64396667,end
timer_stats,697599492322191,PAPI_L3_TCM,2,  5.31469727,  0.65257263,end
timer_stats,697599493472828,PAPI_L3_TCM,0,  5.39068603,  0.66157532,end
timer_stats,697599494637938,PAPI_L3_TCM,3,  5.48376465,  0.67407226,end
timer_stats,697599495814478,PAPI_L3_TCM,0,  5.61102295,  0.68734741,end
timer_stats,697599496992955,PAPI_L3_TCM,5,  5.68420410,  0.69615173,end
timer_stats,697599498170268,PAPI_L3_TCM,0,  5.75689697,  0.70518494,end
timer_stats,697599499348832,PAPI_L3_TCM,0,  5.83068848,  0.71485901,end
timer_stats,697599500526886,PAPI_L3_TCM,1,  5.90765381,  0.72334289,end
timer_stats,697599501705769,PAPI_L3_TCM,1,  6.05126953,  0.73750305,end
timer_stats,697599502870547,PAPI_L3_TCM,0,  6.12500000,  0.75013733,end
timer_stats,697599504055783,PAPI_L3_TCM,4,  6.19317627,  0.75897217,end
timer_stats,697599505207190,PAPI_L3_TCM,0,  6.27136230,  0.76773071,end
timer_stats,697599506384483,PAPI_L3_TCM,2,  6.34600830,  0.77801514,end
timer_stats,697599507564803,PAPI_L3_TCM,0,  6.42102051,  0.78680420,end
timer_stats,697599508746467,PAPI_L3_TCM,1,  6.56951904,  0.80682373,end
timer_stats,697599509926814,PAPI_L3_TCM,0,  6.63891602,  0.81564331,end
timer_stats,697599511110917,PAPI_L3_TCM,1,  6.71301269,  0.82441711,end
timer_stats,697599512287311,PAPI_L3_TCM,1,  6.78344726,  0.83302307,end
timer_stats,697599513446484,PAPI_L3_TCM,3,  6.85888672,  0.83815002,end
timer_stats,697599514613658,PAPI_L3_TCM,0,  6.93218994,  0.84693909,end
timer_stats,697599515796439,PAPI_L3_TCM,3,  7.07440185,  0.86428833,end
timer_stats,697599516976642,PAPI_L3_TCM,1,  7.14312744,  0.87286377,end
timer_stats,697599518162399,PAPI_L3_TCM,0,  7.21569824,  0.88166809,end
timer_stats,697599519331062,PAPI_L3_TCM,0,  7.28778076,  0.88978576,end
timer_stats,697599520510919,PAPI_L3_TCM,2,  7.36181640,  0.89854431,end
timer_stats,697599521696149,PAPI_L3_TCM,0,  7.45959472,  0.91094971,end
timer_stats,697599522866833,PAPI_L3_TCM,4,  7.57995605,  0.92425537,end
timer_stats,697599524054546,PAPI_L3_TCM,1,  7.65045166,  0.93214416,end
timer_stats,697599525209877,PAPI_L3_TCM,2,  7.72467041,  0.94068909,end
timer_stats,697599526391690,PAPI_L3_TCM,0,  7.79260254,  0.94929504,end
timer_stats,697599527573884,PAPI_L3_TCM,0,  7.86968994,  0.95759582,end
timer_stats,697599528757178,PAPI_L3_TCM,1,  8.01342773,  0.97541809,end
timer_stats,697599529936454,PAPI_L3_TCM,1,  8.08264160,  0.98425293,end
timer_stats,697599531123938,PAPI_L3_TCM,0,  8.15643310,  0.99284363,end
timer_stats,697599532299655,PAPI_L3_TCM,4,  8.22747803,  1.00166321,end
timer_stats,697599533458105,PAPI_L3_TCM,0,  8.30194092,  1.01063537,end
timer_stats,697599534625888,PAPI_L3_TCM,1,  8.37396240,  1.01899719,end
timer_stats,697599535808312,PAPI_L3_TCM,0,  8.51287842,  1.03642273,end
timer_stats,697599536988202,PAPI_L3_TCM,1,  8.58557129,  1.04476929,end
timer_stats,697599538163009,PAPI_L3_TCM,0,  8.66149902,  1.05326843,end
timer_stats,697599539345742,PAPI_L3_TCM,1,  8.73150635,  1.06234741,end
timer_stats,697599540528440,PAPI_L3_TCM,1,  8.80444336,  1.07183838,end
timer_stats,697599541711787,PAPI_L3_TCM,3,  8.87603760,  1.08087158,end
timer_stats,697599542877850,PAPI_L3_TCM,0,  9.01702881,  1.09777832,end
timer_stats,697599544065324,PAPI_L3_TCM,2,  9.09344482,  1.10676575,end
timer_stats,697599545220920,PAPI_L3_TCM,0,  9.16589355,  1.11489868,end
timer_stats,697599546403768,PAPI_L3_TCM,0,  9.23852539,  1.12367248,end
timer_stats,697599547582678,PAPI_L3_TCM,0,  9.30816650,  1.13273621,end
timer_stats,697599548762111,PAPI_L3_TCM,2,  9.45159912,  1.15055847,end
timer_stats,697599549943561,PAPI_L3_TCM,0,  9.52709961,  1.15928650,end
timer_stats,697599551109435,PAPI_L3_TCM,3,  9.59704590,  1.16787720,end
timer_stats,697599552284811,PAPI_L3_TCM,1,  9.66650391,  1.17669678,end
timer_stats,697599553447309,PAPI_L3_TCM,2,  9.74188232,  1.18545532,end
timer_stats,697599554612895,PAPI_L3_TCM,0,  9.81134033,  1.19403076,end
timer_stats,697599555792799,PAPI_L3_TCM,0,  9.95458984,  1.21183777,end
timer_stats,697599556975836,PAPI_L3_TCM,1, 10.02600098,  1.22042847,end
timer_stats,697599558164136,PAPI_L3_TCM,1, 10.09735107,  1.22901916,end
timer_stats,697599559345243,PAPI_L3_TCM,0, 10.16967773,  1.23782349,end
timer_stats,697599560528376,PAPI_L3_TCM,4, 10.24694824,  1.24658203,end
timer_stats,697599561707750,PAPI_L3_TCM,0, 10.33581543,  1.25811768,end
timer_stats,697599562886911,PAPI_L3_TCM,2, 10.46014404,  1.27180481,end
timer_stats,697599564071907,PAPI_L3_TCM,1, 10.53350830,  1.28034973,end
timer_stats,697599565226758,PAPI_L3_TCM,0, 10.60595703,  1.28894043,end
timer_stats,697599566407688,PAPI_L3_TCM,0, 10.67706299,  1.29772949,end
timer_stats,697599567589888,PAPI_L3_TCM,1, 10.74963379,  1.30627441,end
timer_stats,697599568770045,PAPI_L3_TCM,1, 10.89111328,  1.32391357,end
timer_stats,697599569950415,PAPI_L3_TCM,3, 10.96362305,  1.33271789,end
timer_stats,697599571130258,PAPI_L3_TCM,0, 11.03674316,  1.34150696,end
timer_stats,697599572306829,PAPI_L3_TCM,3, 11.10864258,  1.35179138,end
timer_stats,697599573461935,PAPI_L3_TCM,0, 11.18811035,  1.36228943,end
timer_stats,697599574643356,PAPI_L3_TCM,0, 11.26501465,  1.37101746,end
timer_stats,697599575822733,PAPI_L3_TCM,0, 11.41540527,  1.39012146,end
timer_stats,697599577017893,PAPI_L3_TCM,23, 11.48889160,  1.39866638,end
timer_stats,697599578184273,PAPI_L3_TCM,0, 11.56237793,  1.40724182,end
timer_stats,697599579352783,PAPI_L3_TCM,3, 11.63714599,  1.41606140,end
timer_stats,697599580536860,PAPI_L3_TCM,1, 11.71160889,  1.42481995,end
timer_stats,697599581716490,PAPI_L3_TCM,2, 11.78717041,  1.43336487,end
timer_stats,697599582884834,PAPI_L3_TCM,0, 11.93157959,  1.45072937,end
timer_stats,697599584075371,PAPI_L3_TCM,1, 12.00463867,  1.45930481,end
timer_stats,697599585228828,PAPI_L3_TCM,0, 12.07843017,  1.46786499,end
timer_stats,697599586408704,PAPI_L3_TCM,1, 12.15124512,  1.47645569,end
timer_stats,697599587589128,PAPI_L3_TCM,0, 12.22778320,  1.48521423,end
timer_stats,697599588772759,PAPI_L3_TCM,4, 12.37713623,  1.50277710,end
timer_stats,697599589953102,PAPI_L3_TCM,0, 12.44689941,  1.51159668,end
timer_stats,697599591128249,PAPI_L3_TCM,2, 12.52185058,  1.52033997,end
timer_stats,697599592303129,PAPI_L3_TCM,0, 12.59271240,  1.52915954,end
timer_stats,697599593459333,PAPI_L3_TCM,0, 12.66937256,  1.53813171,end
timer_stats,697599594626373,PAPI_L3_TCM,0, 12.74841308,  1.54838562,end
timer_stats,697599595807703,PAPI_L3_TCM,1, 12.89642334,  1.56578064,end
timer_stats,697599596991443,PAPI_L3_TCM,1, 12.97644043,  1.57429504,end
timer_stats,697599598160920,PAPI_L3_TCM,3, 13.04864502,  1.58329773,end
timer_stats,697599599329863,PAPI_L3_TCM,0, 13.12738037,  1.59205627,end
timer_stats,697599600507227,PAPI_L3_TCM,3, 13.19842529,  1.60111999,end
timer_stats,697599601687270,PAPI_L3_TCM,0, 13.27612305,  1.60987854,end
timer_stats,697599602857754,PAPI_L3_TCM,0, 13.42816162,  1.62739563,end
timer_stats,697599604033565,PAPI_L3_TCM,1, 13.50274658,  1.63642883,end
timer_stats,697599605185738,PAPI_L3_TCM,1, 13.57867432,  1.64521790,end
timer_stats,697599606367815,PAPI_L3_TCM,0, 13.65258789,  1.65499878,end
timer_stats,697599607548248,PAPI_L3_TCM,3, 13.72918701,  1.66375732,end
timer_stats,697599608732512,PAPI_L3_TCM,1, 13.82397461,  1.67620850,end
timer_stats,697599609914015,PAPI_L3_TCM,2, 13.95434570,  1.68991089,end
timer_stats,697599611089639,PAPI_L3_TCM,6, 14.03479004,  1.69935608,end
timer_stats,697599612266092,PAPI_L3_TCM,1, 14.10723877,  1.70878601,end
timer_stats,697599613423326,PAPI_L3_TCM,0, 14.18286133,  1.71781921,end
timer_stats,697599614593876,PAPI_L3_TCM,1, 14.25805664,  1.72657776,end
timer_stats,697599615766023,PAPI_L3_TCM,0, 14.35900879,  1.73851013,end
timer_stats,697599616945990,PAPI_L3_TCM,4, 14.48815918,  1.75241089,end
timer_stats,697599618119727,PAPI_L3_TCM,1, 14.56030273,  1.76123047,end
timer_stats,697599619291184,PAPI_L3_TCM,2, 14.63916016,  1.76998901,end
timer_stats,697599620462911,PAPI_L3_TCM,1, 14.71484375,  1.77850342,end
timer_stats,697599621639921,PAPI_L3_TCM,0, 14.78717041,  1.78706360,end
timer_stats,697599622807841,PAPI_L3_TCM,0, 14.94409180,  1.80210876,end
timer_stats,697599623983321,PAPI_L3_TCM,1, 15.01898193,  1.81579590,end
timer_stats,697599625165891,PAPI_L3_TCM,2, 15.09552002,  1.82458496,end
timer_stats,697599626344975,PAPI_L3_TCM,3, 15.16705322,  1.83366394,end
timer_stats,697599627526135,PAPI_L3_TCM,0, 15.24810791,  1.84240723,end
timer_stats,697599628705679,PAPI_L3_TCM,3, 15.32537842,  1.85137939,end
timer_stats,697599629888932,PAPI_L3_TCM,0, 15.47521973,  1.87011719,end
timer_stats,697599631063393,PAPI_L3_TCM,0, 15.54980469,  1.87936401,end
timer_stats,697599632240016,PAPI_L3_TCM,1, 15.63085937,  1.88854980,end
timer_stats,697599633394333,PAPI_L3_TCM,1, 15.71093750,  1.89958191,end
timer_stats,697599634562074,PAPI_L3_TCM,0, 15.79022217,  1.90858459,end
timer_stats,697599635728640,PAPI_L3_TCM,3, 15.87255859,  1.91220093,end
timer_stats,697599636899587,PAPI_L3_TCM,1, 16.02282715,  1.92916870,end
timer_stats,697599638077070,PAPI_L3_TCM,2, 16.10083008,  1.93748474,end
timer_stats,697599639244700,PAPI_L3_TCM,0, 16.18292236,  1.94602966,end
timer_stats,697599640408127,PAPI_L3_TCM,1, 16.25805664,  1.95483398,end
timer_stats,697599641583854,PAPI_L3_TCM,0, 16.34362793,  1.96557617,end
timer_stats,697599642747761,PAPI_L3_TCM,1, 16.42401123,  1.97552490,end
timer_stats,697599643911705,PAPI_L3_TCM,0, 16.58624268,  1.99375915,end
timer_stats,697599645078458,PAPI_L3_TCM,3, 16.66796875,  2.00297546,end
timer_stats,697599646243075,PAPI_L3_TCM,0, 16.74822998,  2.01194763,end
timer_stats,697599647407202,PAPI_L3_TCM,2, 16.82800293,  2.02070618,end
timer_stats,697599648583932,PAPI_L3_TCM,1, 16.90551758,  2.02931213,end
timer_stats,697599649760195,PAPI_L3_TCM,0, 17.00805664,  2.04203796,end
timer_stats,697599650935019,PAPI_L3_TCM,0, 17.14355469,  2.05667114,end
timer_stats,697599652114587,PAPI_L3_TCM,2, 17.22241211,  2.06570434,end
timer_stats,697599653264283,PAPI_L3_TCM,0, 17.30340576,  2.07492065,end
timer_stats,697599654444289,PAPI_L3_TCM,3, 17.38726807,  2.08547973,end
timer_stats,697599655611397,PAPI_L3_TCM,0, 17.46942139,  2.09552002,end
timer_stats,697599656775183,PAPI_L3_TCM,3, 17.54345703,  2.10432434,end
timer_stats,697599657924750,PAPI_L3_TCM,0, 17.69451904,  2.12182617,end
timer_stats,697599659073080,PAPI_L3_TCM,0, 17.76873779,  2.13085937,end
timer_stats,697599660223404,PAPI_L3_TCM,1, 17.84466553,  2.13983154,end
timer_stats,697599661372494,PAPI_L3_TCM,1, 17.91644287,  2.14862060,end
timer_stats,697599662523844,PAPI_L3_TCM,0, 17.98992920,  2.15690613,end
timer_stats,697599663673531,PAPI_L3_TCM,3, 18.06494141,  2.16590881,end
timer_stats,697599664822908,PAPI_L3_TCM,1, 18.15911865,  2.17840576,end
timer_stats,697599665971808,PAPI_L3_TCM,2, 18.27874756,  2.19216919,end
timer_stats,697599667124668,PAPI_L3_TCM,0, 18.35479736,  2.20092773,end
timer_stats,697599668274161,PAPI_L3_TCM,1, 18.42803955,  2.20950317,end
timer_stats,697599669421005,PAPI_L3_TCM,0, 18.49816894,  2.21810913,end
timer_stats,697599670567522,PAPI_L3_TCM,1, 18.57293701,  2.22691345,end
timer_stats,697599671715101,PAPI_L3_TCM,0, 18.65393066,  2.23542786,end
timer_stats,697599672865109,PAPI_L3_TCM,4, 18.79833984,  2.25373840,end
timer_stats,697599673985888,PAPI_L3_TCM,1, 18.87817383,  2.26342773,end
timer_stats,697599679620352,PAPI_L3_TCM,56, 19.27514648,  2.31613159,end
timer_stats,697599680705939,PAPI_L3_TCM,6, 19.35192871,  2.32717895,end
timer_stats,697599681787596,PAPI_L3_TCM,1, 19.43310547,  2.33749390,end
timer_stats,697599682868135,PAPI_L3_TCM,1, 19.59631348,  2.35830688,end
timer_stats,697599683948518,PAPI_L3_TCM,1, 19.68121338,  2.36834717,end
timer_stats,697599685029841,PAPI_L3_TCM,2, 19.75787353,  2.37847900,end
timer_stats,697599686110889,PAPI_L3_TCM,3, 19.83953857,  2.38879395,end
timer_stats,697599687191245,PAPI_L3_TCM,0, 19.92181396,  2.39910888,end
timer_stats,697599688272675,PAPI_L3_TCM,4, 20.00054932,  2.40971374,end
timer_stats,697599689359612,PAPI_L3_TCM,0, 20.08367920,  2.42002869,end
timer_stats,697599690440072,PAPI_L3_TCM,0, 20.16314697,  2.43013000,end
timer_stats,697599691521108,PAPI_L3_TCM,0, 20.24645996,  2.44018554,end
timer_stats,697599692602955,PAPI_L3_TCM,3, 20.32788086,  2.45031738,end
timer_stats,697599693683742,PAPI_L3_TCM,0, 20.40881348,  2.46063232,end
timer_stats,697599694764805,PAPI_L3_TCM,3, 20.49078369,  2.47113037,end
timer_stats,697599695846704,PAPI_L3_TCM,0, 20.57019043,  2.48165893,end
timer_stats,697599696929155,PAPI_L3_TCM,4, 20.68133545,  2.49713135,end
timer_stats,697599698010611,PAPI_L3_TCM,0, 20.80700683,  2.51214600,end
timer_stats,697599699091174,PAPI_L3_TCM,0, 20.89111328,  2.52221680,end
timer_stats,697599700176704,PAPI_L3_TCM,2, 20.97149658,  2.53253174,end
timer_stats,697599701261410,PAPI_L3_TCM,1, 21.04962158,  2.54309082,end
timer_stats,697599702355004,PAPI_L3_TCM,0, 21.13623047,  2.55334473,end
timer_stats,697599703504471,PAPI_L3_TCM,3, 21.21795654,  2.56436157,end
timer_stats,697599704639151,PAPI_L3_TCM,2, 21.30682373,  2.57453918,end
timer_stats,697599705795694,PAPI_L3_TCM,2, 21.37652588,  2.58467102,end
timer_stats,697599706945488,PAPI_L3_TCM,1, 21.51885986,  2.60487366,end
timer_stats,697599708098535,PAPI_L3_TCM,0, 21.59411621,  2.61540222,end
timer_stats,697599709255172,PAPI_L3_TCM,0, 21.67230225,  2.62565613,end
timer_stats,697599710405165,PAPI_L3_TCM,1, 21.75189209,  2.63414001,end
timer_stats,697599711555352,PAPI_L3_TCM,0, 21.81610107,  2.64338684,end
timer_stats,697599712705289,PAPI_L3_TCM,4, 21.88659668,  2.65217590,end
timer_stats,697599713857803,PAPI_L3_TCM,0, 21.98547363,  2.66632080,end
timer_stats,697599715020102,PAPI_L3_TCM,2, 22.09674072,  2.68032837,end
timer_stats,697599716192612,PAPI_L3_TCM,1, 22.16998291,  2.68905640,end
timer_stats,697599717348856,PAPI_L3_TCM,0, 22.23626709,  2.69743347,end
timer_stats,697599718528020,PAPI_L3_TCM,0, 22.30877686,  2.70616150,end
timer_stats,697599719705050,PAPI_L3_TCM,2, 22.37707519,  2.71495056,end
timer_stats,697599720875370,PAPI_L3_TCM,1, 22.44604492,  2.72377014,end
timer_stats,697599722058227,PAPI_L3_TCM,3, 22.58721924,  2.74061584,end
timer_stats,697599723230677,PAPI_L3_TCM,0, 22.64996338,  2.74856567,end
timer_stats,697599724398984,PAPI_L3_TCM,3, 22.71740722,  2.75715637,end
timer_stats,697599725577274,PAPI_L3_TCM,0, 22.79095459,  2.76544189,end
timer_stats,697599726760798,PAPI_L3_TCM,0, 22.85583496,  2.77429199,end
timer_stats,697599727944091,PAPI_L3_TCM,0, 22.99554443,  2.79064941,end
timer_stats,697599729551703,PAPI_L3_TCM,1088, 23.06329346,  2.79922485,end
timer_stats,697599730733586,PAPI_L3_TCM,30, 23.13275146,  2.80776977,end
timer_stats,697599731910417,PAPI_L3_TCM,3, 23.22229004,  2.81950378,end
timer_stats,697599733077853,PAPI_L3_TCM,1, 23.33758545,  2.83297729,end
timer_stats,697599734258974,PAPI_L3_TCM,2, 23.40716553,  2.84150696,end
timer_stats,697599735439564,PAPI_L3_TCM,0, 23.47570801,  2.84985351,end
timer_stats,697599736591394,PAPI_L3_TCM,2, 23.54327393,  2.85867309,end
timer_stats,697599737761755,PAPI_L3_TCM,0, 23.61706543,  2.86718750,end
timer_stats,697599738938141,PAPI_L3_TCM,1, 23.74688721,  2.88491821,end
timer_stats,697599740090892,PAPI_L3_TCM,2, 23.81579590,  2.89370728,end
timer_stats,697599741242935,PAPI_L3_TCM,3, 23.89031982,  2.90240478,end
timer_stats,697599742422352,PAPI_L3_TCM,0, 23.95910644,  2.91101074,end
timer_stats,697599743599772,PAPI_L3_TCM,2, 24.02148437,  2.91993713,end
timer_stats,697599744765289,PAPI_L3_TCM,2, 24.09667969,  2.92839050,end
timer_stats,697599745943905,PAPI_L3_TCM,0, 24.18041992,  2.94029236,end
timer_stats,697599747130949,PAPI_L3_TCM,0, 24.29479980,  2.95426941,end
timer_stats,697599748310536,PAPI_L3_TCM,2, 24.36877441,  2.96224976,end
timer_stats,697599749488876,PAPI_L3_TCM,1, 24.43408203,  2.97085571,end
timer_stats,697599750669534,PAPI_L3_TCM,3, 24.50305176,  2.97943115,end
timer_stats,697599751847743,PAPI_L3_TCM,0, 24.56805420,  2.98800659,end
timer_stats,697599753016967,PAPI_L3_TCM,3, 24.70581055,  3.00564575,end
timer_stats,697599754196330,PAPI_L3_TCM,0, 24.77734375,  3.01438904,end
timer_stats,697599755397288,PAPI_L3_TCM,3, 24.84906006,  3.02496338,end
timer_stats,697599756541804,PAPI_L3_TCM,6, 24.93560791,  3.03491211,end
timer_stats,697599757670788,PAPI_L3_TCM,1, 25.00677490,  3.04486084,end
timer_stats,697599758826108,PAPI_L3_TCM,0, 25.08538818,  3.05514526,end
timer_stats,697599759990621,PAPI_L3_TCM,3, 25.20629883,  3.06990051,end
timer_stats,697599761160378,PAPI_L3_TCM,1, 25.30468750,  3.08543396,end
timer_stats,697599762280814,PAPI_L3_TCM,2, 25.38006592,  3.09553528,end
timer_stats,697599763390025,PAPI_L3_TCM,0, 25.45471191,  3.10585022,end
timer_stats,697599764499435,PAPI_L3_TCM,2, 25.53155518,  3.11592102,end
timer_stats,697599769891225,PAPI_L3_TCM,45, 25.90356445,  3.16934204,end
timer_stats,697599771006491,PAPI_L3_TCM,3, 26.02221680,  3.18325806,end
timer_stats,697599772115811,PAPI_L3_TCM,2, 26.09411621,  3.19360351,end
timer_stats,697599773228782,PAPI_L3_TCM,3, 26.16369629,  3.20372009,end
timer_stats,697599774338005,PAPI_L3_TCM,0, 26.23779297,  3.21354675,end
timer_stats,697599775446818,PAPI_L3_TCM,2, 26.31622314,  3.22401428,end
timer_stats,697599776555308,PAPI_L3_TCM,2, 26.38635254,  3.23390198,end
timer_stats,697599777664375,PAPI_L3_TCM,0, 26.45989990,  3.24397278,end
timer_stats,697599778771968,PAPI_L3_TCM,0, 26.52941894,  3.25389099,end
timer_stats,697599779881615,PAPI_L3_TCM,1, 26.60058594,  3.26425171,end
timer_stats,697599780990368,PAPI_L3_TCM,2, 26.74487304,  3.28442383,end
timer_stats,697599782100864,PAPI_L3_TCM,3, 26.81555176,  3.29452515,end
timer_stats,697599783216328,PAPI_L3_TCM,0, 26.89111328,  3.30433655,end
timer_stats,697599784325345,PAPI_L3_TCM,4, 26.96252441,  3.31468201,end
timer_stats,697599785409568,PAPI_L3_TCM,0, 27.03472900,  3.32481384,end
timer_stats,697599786504871,PAPI_L3_TCM,0, 27.10717773,  3.33470154,end
timer_stats,697599787599945,PAPI_L3_TCM,0, 27.18084717,  3.34477234,end
timer_stats,697599788708411,PAPI_L3_TCM,3, 27.25170898,  3.35466003,end
timer_stats,697599789816171,PAPI_L3_TCM,0, 27.32861328,  3.36470032,end
timer_stats,697599790925271,PAPI_L3_TCM,3, 27.40460205,  3.37498474,end
timer_stats,697599792035158,PAPI_L3_TCM,2, 27.52124023,  3.39030456,end
timer_stats,697599793149752,PAPI_L3_TCM,2, 27.61499023,  3.40538025,end
timer_stats,697599794263998,PAPI_L3_TCM,0, 27.69201660,  3.41566467,end
timer_stats,697599795374598,PAPI_L3_TCM,0, 27.76831055,  3.42524719,end
timer_stats,697599796483645,PAPI_L3_TCM,2, 27.83386230,  3.43544006,end
timer_stats,697599797593085,PAPI_L3_TCM,0, 27.90576172,  3.44529724,end
timer_stats,697599798701025,PAPI_L3_TCM,0, 27.98101807,  3.45558166,end
timer_stats,697599799810235,PAPI_L3_TCM,3, 28.05352783,  3.46568298,end
timer_stats,697599800918998,PAPI_L3_TCM,2, 28.11926269,  3.47608948,end
timer_stats,697599802028858,PAPI_L3_TCM,2, 28.24414062,  3.49125671,end
timer_stats,697599803140388,PAPI_L3_TCM,0, 28.34356689,  3.50630188,end
timer_stats,697599804222921,PAPI_L3_TCM,2, 28.41796875,  3.51661682,end
timer_stats,697599805331778,PAPI_L3_TCM,0, 28.48577881,  3.52677917,end
timer_stats,697599806440422,PAPI_L3_TCM,1, 28.56335449,  3.53681946,end
timer_stats,697599807548001,PAPI_L3_TCM,0, 28.63781738,  3.54710388,end
timer_stats,697599808657404,PAPI_L3_TCM,5, 28.71002197,  3.55744934,end
timer_stats,697599809739868,PAPI_L3_TCM,0, 28.78045654,  3.56753540,end
timer_stats,697599810821591,PAPI_L3_TCM,1, 28.85491943,  3.57760620,end
timer_stats,697599811929411,PAPI_L3_TCM,0, 28.92541504,  3.58770752,end
timer_stats,697599813039652,PAPI_L3_TCM,2, 29.04431152,  3.60272217,end
timer_stats,697599814152025,PAPI_L3_TCM,0, 29.13995361,  3.61825561,end
timer_stats,697599815259898,PAPI_L3_TCM,0, 29.21484375,  3.62808227,end
timer_stats,697599816368925,PAPI_L3_TCM,2, 29.28070068,  3.63825989,end
timer_stats,697599817484761,PAPI_L3_TCM,3, 29.35870361,  3.64805603,end
timer_stats,697599818593341,PAPI_L3_TCM,0, 29.42877197,  3.65815735,end
timer_stats,697599819702095,PAPI_L3_TCM,2, 29.50323486,  3.66822815,end
timer_stats,697599820810708,PAPI_L3_TCM,2, 29.57366943,  3.67811584,end
timer_stats,697599821897274,PAPI_L3_TCM,0, 29.64227295,  3.68849182,end
timer_stats,697599823007675,PAPI_L3_TCM,0, 29.76635742,  3.70347595,end
timer_stats,697599824119105,PAPI_L3_TCM,3, 29.86889648,  3.71891785,end
timer_stats,697599825227484,PAPI_L3_TCM,0, 29.93939209,  3.72880554,end
timer_stats,697599826335978,PAPI_L3_TCM,1, 30.01312256,  3.73930359,end
timer_stats,697599827443805,PAPI_L3_TCM,0, 30.08728027,  3.74937439,end
timer_stats,697599828552445,PAPI_L3_TCM,3, 30.16302490,  3.75944519,end
timer_stats,697599829660705,PAPI_L3_TCM,0, 30.23162842,  3.76933288,end
timer_stats,697599830768421,PAPI_L3_TCM,0, 30.30590820,  3.77943420,end
timer_stats,697599831849749,PAPI_L3_TCM,0, 30.38104248,  3.78974914,end
timer_stats,697599832959275,PAPI_L3_TCM,2, 30.45654297,  3.79963684,end
timer_stats,697599834071818,PAPI_L3_TCM,0, 30.60827637,  3.81469726,end
timer_stats,697599835185691,PAPI_L3_TCM,2, 30.68402100,  3.83001709,end
timer_stats,697599836286218,PAPI_L3_TCM,2, 30.76300049,  3.84149170,end
timer_stats,697599837398288,PAPI_L3_TCM,2, 30.84222412,  3.85202026,end
timer_stats,697599838480161,PAPI_L3_TCM,0, 30.91662597,  3.86184692,end
timer_stats,697599839592038,PAPI_L3_TCM,0, 30.99194336,  3.87191772,end
timer_stats,697599840692781,PAPI_L3_TCM,2, 31.06164551,  3.88229370,end
timer_stats,697599841787824,PAPI_L3_TCM,1, 31.13659668,  3.89236450,end
timer_stats,697599842883335,PAPI_L3_TCM,0, 31.20812988,  3.90267944,end
timer_stats,697599843978451,PAPI_L3_TCM,2, 31.28302002,  3.91273498,end
timer_stats,697599845064798,PAPI_L3_TCM,0, 31.40057373,  3.92845154,end
timer_stats,697599846152887,PAPI_L3_TCM,0, 31.51074219,  3.94410705,end
timer_stats,697599847251745,PAPI_L3_TCM,0, 31.58886719,  3.95442200,end
timer_stats,697599848348124,PAPI_L3_TCM,2, 31.67004394,  3.96540832,end
timer_stats,697599849430487,PAPI_L3_TCM,0, 31.74963379,  3.97639465,end
timer_stats,697599850525300,PAPI_L3_TCM,0, 31.82928467,  3.98667908,end
timer_stats,697599851621108,PAPI_L3_TCM,0, 31.91107178,  3.99647522,end
timer_stats,697599852729594,PAPI_L3_TCM,4, 31.99218750,  4.00654602,end
timer_stats,697599853838555,PAPI_L3_TCM,0, 32.07397461,  4.01679993,end
timer_stats,697599854952784,PAPI_L3_TCM,1, 32.15093994,  4.02714538,end
timer_stats,697599856063091,PAPI_L3_TCM,2, 32.28045654,  4.04209900,end
timer_stats,697599857144631,PAPI_L3_TCM,0, 32.39221191,  4.05784607,end
timer_stats,697599858252911,PAPI_L3_TCM,0, 32.47314453,  4.06791687,end
timer_stats,697599859478678,PAPI_L3_TCM,30, 32.55743408,  4.07820129,end
timer_stats,697599860575048,PAPI_L3_TCM,1, 32.63647461,  4.08830261,end
timer_stats,697599861682964,PAPI_L3_TCM,2, 32.72283935,  4.09834290,end
timer_stats,697599862790808,PAPI_L3_TCM,0, 32.80603027,  4.10820007,end
timer_stats,697599863898905,PAPI_L3_TCM,0, 32.88610840,  4.11882019,end
timer_stats,697599865012071,PAPI_L3_TCM,0, 32.97393799,  4.12886047,end
timer_stats,697599866095927,PAPI_L3_TCM,0, 33.10742187,  4.13917541,end
timer_stats,697599867177915,PAPI_L3_TCM,0, 33.21997070,  4.15977478,end
timer_stats,697599868259891,PAPI_L3_TCM,2, 33.30828857,  4.16978454,end
timer_stats,697599869341354,PAPI_L3_TCM,0, 33.38763428,  4.17964172,end
timer_stats,697599870435938,PAPI_L3_TCM,2, 33.47448730,  4.19013977,end
timer_stats,697599871571361,PAPI_L3_TCM,1, 33.55621338,  4.20045471,end
timer_stats,697599872716018,PAPI_L3_TCM,3, 33.64215088,  4.21098328,end
timer_stats,697599873891918,PAPI_L3_TCM,1, 33.72662353,  4.22200012,end
timer_stats,697599875061052,PAPI_L3_TCM,0, 33.85931396,  4.23699951,end
timer_stats,697599876198862,PAPI_L3_TCM,2, 33.97637939,  4.25224304,end
timer_stats,697599877348192,PAPI_L3_TCM,2, 34.05334473,  4.26237488,end
timer_stats,697599878531855,PAPI_L3_TCM,0, 34.13739014,  4.27244568,end
timer_stats,697599879707132,PAPI_L3_TCM,3, 34.22338867,  4.28269958,end
timer_stats,697599880884939,PAPI_L3_TCM,2, 34.30633545,  4.29301453,end
timer_stats,697599882061500,PAPI_L3_TCM,1, 34.38885498,  4.30335999,end
timer_stats,697599883211609,PAPI_L3_TCM,0, 34.55511474,  4.32347107,end
timer_stats,697599884373407,PAPI_L3_TCM,2, 34.63842773,  4.33354187,end
timer_stats,697599885506596,PAPI_L3_TCM,0, 34.72204590,  4.34429931,end
timer_stats,697599886647964,PAPI_L3_TCM,1, 34.80285644,  4.35461426,end
timer_stats,697599887798110,PAPI_L3_TCM,0, 34.87915039,  4.36471557,end
timer_stats,697599888936526,PAPI_L3_TCM,3, 34.96032715,  4.37454223,end
timer_stats,697599890066434,PAPI_L3_TCM,0, 35.11761474,  4.39543152,end
timer_stats,697599891192291,PAPI_L3_TCM,1, 35.19653320,  4.40531921,end
timer_stats,697599892333850,PAPI_L3_TCM,0, 35.28002930,  4.41542053,end
timer_stats,697599893465001,PAPI_L3_TCM,0, 35.36230469,  4.42594910,end
timer_stats,697599894601157,PAPI_L3_TCM,0, 35.44195557,  4.43443298,end
timer_stats,697599895755105,PAPI_L3_TCM,1, 35.51678467,  4.44322204,end
timer_stats,697599896922794,PAPI_L3_TCM,0, 35.59149170,  4.45274353,end
timer_stats,697599898081380,PAPI_L3_TCM,3, 35.73724365,  4.47169495,end
timer_stats,697599899230046,PAPI_L3_TCM,0, 35.80932617,  4.48051453,end
timer_stats,697599900385325,PAPI_L3_TCM,2, 35.88763428,  4.48899841,end
timer_stats,697599901517476,PAPI_L3_TCM,0, 35.96112060,  4.49937439,end
timer_stats,697599902672965,PAPI_L3_TCM,0, 36.03613281,  4.50772095,end
timer_stats,697599903831799,PAPI_L3_TCM,0, 36.11474609,  4.51626587,end
timer_stats,697599905001122,PAPI_L3_TCM,1, 36.18975830,  4.52487182,end
timer_stats,697599906174248,PAPI_L3_TCM,0, 36.33752441,  4.54376221,end
timer_stats,697599907346819,PAPI_L3_TCM,3, 36.40765381,  4.55232239,end
timer_stats,697599908522115,PAPI_L3_TCM,1, 36.47918701,  4.56111145,end
timer_stats,697599909686716,PAPI_L3_TCM,1, 36.55352783,  4.57144165,end
timer_stats,697599910866839,PAPI_L3_TCM,0, 36.62377930,  4.58004761,end
timer_stats,697599912045510,PAPI_L3_TCM,2, 36.69500732,  4.58883667,end
timer_stats,697599913187588,PAPI_L3_TCM,0, 36.84161377,  4.60748291,end
timer_stats,697599914331481,PAPI_L3_TCM,1, 36.91265869,  4.61608887,end
timer_stats,697599915476438,PAPI_L3_TCM,1, 36.98663330,  4.62463379,end
timer_stats,697599916621273,PAPI_L3_TCM,5, 37.05828857,  4.63317871,end
timer_stats,697599917765094,PAPI_L3_TCM,1, 37.12750244,  4.64202881,end
timer_stats,697599918910963,PAPI_L3_TCM,2, 37.19989014,  4.65081787,end
timer_stats,697599920052964,PAPI_L3_TCM,2, 37.29962158,  4.66299438,end
timer_stats,697599921170152,PAPI_L3_TCM,0, 37.42395020,  4.67643738,end
timer_stats,697599922309267,PAPI_L3_TCM,0, 37.49639893,  4.68522644,end
timer_stats,697599923446180,PAPI_L3_TCM,1, 37.57012939,  4.69357300,end
timer_stats,697599924574017,PAPI_L3_TCM,1, 37.64599609,  4.70277405,end
timer_stats,697599925698792,PAPI_L3_TCM,3, 37.72143555,  4.71287537,end
timer_stats,697599926824796,PAPI_L3_TCM,1, 37.79870605,  4.72196960,end
timer_stats,697599927949278,PAPI_L3_TCM,2, 37.87652588,  4.73094177,end
timer_stats,697599929075041,PAPI_L3_TCM,0, 37.98077393,  4.73994446,end
timer_stats,697599930185646,PAPI_L3_TCM,0, 38.10302734,  4.75831604,end
timer_stats,697599931308837,PAPI_L3_TCM,1, 38.17938232,  4.76710510,end
timer_stats,697599932433691,PAPI_L3_TCM,2, 38.25622559,  4.77607727,end
timer_stats,697599933560980,PAPI_L3_TCM,0, 38.33111572,  4.78489685,end
timer_stats,697599934672475,PAPI_L3_TCM,3, 38.41003418,  4.79338074,end
timer_stats,697599935795729,PAPI_L3_TCM,0, 38.48828125,  4.80216980,end
timer_stats,697599936919566,PAPI_L3_TCM,2, 38.56958008,  4.81071472,end
timer_stats,697599938029177,PAPI_L3_TCM,0, 38.64739990,  4.81925964,end
timer_stats,697599939138003,PAPI_L3_TCM,0, 38.80200195,  4.83665466,end
timer_stats,697599940258062,PAPI_L3_TCM,2, 38.88287354,  4.84498596,end
timer_stats,697599941349599,PAPI_L3_TCM,2, 38.96166992,  4.85382080,end
timer_stats,697599942453227,PAPI_L3_TCM,0, 39.04071045,  4.86260986,end
timer_stats,697599943559225,PAPI_L3_TCM,9, 39.11798096,  4.87165832,end
timer_stats,697599944676357,PAPI_L3_TCM,2, 39.19488525,  4.88044739,end
timer_stats,697599945794488,PAPI_L3_TCM,2, 39.27905273,  4.88970947,end
timer_stats,697599946901621,PAPI_L3_TCM,0, 39.35827637,  4.89984131,end
timer_stats,697599948021055,PAPI_L3_TCM,1, 39.43664551,  4.90867615,end
timer_stats,697599949118406,PAPI_L3_TCM,4, 39.52069092,  4.91798401,end
timer_stats,697599950235919,PAPI_L3_TCM,1, 39.68176269,  4.93733215,end
timer_stats,697599951370169,PAPI_L3_TCM,13, 39.76013184,  4.94631958,end
timer_stats,697599952508814,PAPI_L3_TCM,4, 39.83660889,  4.95581055,end
timer_stats,697599955488689,PAPI_L3_TCM,49, 40.05987549,  4.98336792,end
timer_stats,697599956595953,PAPI_L3_TCM,2, 40.13775635,  4.99366760,end
timer_stats,697599957708154,PAPI_L3_TCM,0, 40.20989990,  5.00379944,end
timer_stats,697599958837737,PAPI_L3_TCM,0, 40.28717041,  5.01252746,end
timer_stats,697599959962217,PAPI_L3_TCM,0, 40.36444092,  5.02204895,end
timer_stats,697599961134596,PAPI_L3_TCM,8, 40.48059082,  5.03773499,end
timer_stats,697599962288252,PAPI_L3_TCM,1, 40.60534668,  5.05335998,end
timer_stats,697599963434542,PAPI_L3_TCM,4, 40.68054199,  5.06370544,end
timer_stats,697599964581128,PAPI_L3_TCM,0, 40.76220703,  5.07402038,end
timer_stats,697599965713656,PAPI_L3_TCM,2, 40.84100342,  5.08457947,end
timer_stats,697599966856440,PAPI_L3_TCM,0, 40.92895508,  5.09507751,end
timer_stats,697599967999394,PAPI_L3_TCM,0, 41.00891113,  5.10537720,end
timer_stats,697599969145384,PAPI_L3_TCM,2, 41.15820312,  5.12454223,end
timer_stats,697599970304900,PAPI_L3_TCM,1, 41.23266601,  5.13177490,end
timer_stats,697599971477426,PAPI_L3_TCM,0, 41.30645752,  5.13926697,end
timer_stats,697599972631589,PAPI_L3_TCM,3, 41.38482666,  5.14695740,end
timer_stats,697599973792523,PAPI_L3_TCM,0, 41.46466064,  5.15776062,end
timer_stats,697599974914803,PAPI_L3_TCM,2, 41.55145264,  5.16700745,end
timer_stats,697599976034707,PAPI_L3_TCM,0, 41.62945557,  5.17686462,end
timer_stats,697599977134291,PAPI_L3_TCM,0, 41.80102539,  5.19773865,end
timer_stats,697599978262194,PAPI_L3_TCM,0, 41.89471435,  5.20845032,end
timer_stats,697599979390522,PAPI_L3_TCM,1, 41.99151611,  5.21865845,end
timer_stats,697599980516724,PAPI_L3_TCM,0, 42.08319092,  5.22918701,end
timer_stats,697599981641430,PAPI_L3_TCM,3, 42.18249512,  5.23428345,end
timer_stats,697599982762477,PAPI_L3_TCM,0, 42.27130127,  5.24504089,end
timer_stats,697599983883683,PAPI_L3_TCM,2, 42.36663818,  5.25578308,end
timer_stats,697599985005502,PAPI_L3_TCM,0, 42.45977783,  5.26652527,end
timer_stats,697599986096727,PAPI_L3_TCM,1, 42.55657959,  5.27702332,end
timer_stats,697599987208435,PAPI_L3_TCM,0, 42.74041748,  5.29226684,end
timer_stats,697599988337559,PAPI_L3_TCM,1, 42.84106445,  5.30320740,end
timer_stats,697599989432643,PAPI_L3_TCM,0, 42.93695068,  5.31419372,end
timer_stats,697599990563422,PAPI_L3_TCM,3, 43.04003906,  5.32464600,end
timer_stats,697599991694922,PAPI_L3_TCM,0, 43.12768555,  5.33447266,end
timer_stats,697599992832032,PAPI_L3_TCM,2, 43.21459961,  5.34399414,end
timer_stats,697599993957750,PAPI_L3_TCM,0, 43.30871582,  5.35447693,end
timer_stats,697599995080320,PAPI_L3_TCM,0, 43.39184570,  5.36402893,end
timer_stats,697599996200468,PAPI_L3_TCM,0, 43.56713867,  5.38255310,end
timer_stats,697599997295506,PAPI_L3_TCM,1, 43.65991211,  5.39256287,end
timer_stats,697599998415748,PAPI_L3_TCM,0, 43.75476074,  5.40257263,end
timer_stats,697599999543344,PAPI_L3_TCM,4, 43.84313965,  5.41304016,end
timer_stats,697600000673214,PAPI_L3_TCM,0, 43.92614746,  5.42355347,end
timer_stats,697600001818709,PAPI_L3_TCM,2, 44.01300049,  5.43447876,end
timer_stats,697600002950108,PAPI_L3_TCM,0, 44.09442138,  5.44226074,end
timer_stats,697600004076221,PAPI_L3_TCM,0, 44.17816162,  5.44950867,end
timer_stats,697600005169911,PAPI_L3_TCM,0, 44.34130859,  5.46911621,end
timer_stats,697600006314052,PAPI_L3_TCM,1, 44.42633057,  5.47637939,end
timer_stats,697600007431292,PAPI_L3_TCM,0, 44.50897217,  5.48539734,end
timer_stats,697600008548006,PAPI_L3_TCM,3, 44.59625244,  5.49436951,end
timer_stats,697600009662361,PAPI_L3_TCM,2, 44.67993164,  5.50492859,end
timer_stats,697600010761573,PAPI_L3_TCM,3, 44.76660156,  5.51371765,end
timer_stats,697600011861792,PAPI_L3_TCM,0, 44.85162354,  5.52401733,end
timer_stats,697600012975557,PAPI_L3_TCM,0, 44.94592285,  5.53317261,end
timer_stats,697600014074103,PAPI_L3_TCM,0, 45.03277588,  5.54325867,end
timer_stats,697600015174454,PAPI_L3_TCM,1, 45.10577393,  5.55191040,end
timer_stats,697600016273146,PAPI_L3_TCM,0, 45.24206543,  5.56040954,end
timer_stats,697600017359737,PAPI_L3_TCM,3, 45.36773682,  5.57994079,end
timer_stats,697600018460033,PAPI_L3_TCM,1, 45.45556640,  5.58891296,end
timer_stats,697600019557431,PAPI_L3_TCM,2, 45.54107666,  5.59791565,end
timer_stats,697600020657491,PAPI_L3_TCM,0, 45.63232422,  5.60682678,end
timer_stats,697600021756476,PAPI_L3_TCM,0, 45.71002197,  5.61546325,end
timer_stats,697600022854509,PAPI_L3_TCM,0, 45.79510498,  5.62423706,end
timer_stats,697600023952133,PAPI_L3_TCM,2, 45.88165283,  5.63327026,end
timer_stats,697600025053661,PAPI_L3_TCM,0, 45.97662353,  5.64297485,end
timer_stats,697600026150063,PAPI_L3_TCM,3, 46.06732178,  5.65196228,end
timer_stats,697600027247817,PAPI_L3_TCM,1, 46.23840332,  5.66979980,end
timer_stats,697600028350415,PAPI_L3_TCM,2, 46.32659912,  5.67861938,end
timer_stats,697600029467160,PAPI_L3_TCM,0, 46.42645264,  5.68731689,end
timer_stats,697600030590498,PAPI_L3_TCM,4, 46.50921631,  5.69592285,end
timer_stats,697600031714489,PAPI_L3_TCM,1, 46.60144043,  5.70492554,end
timer_stats,697600032838301,PAPI_L3_TCM,1, 46.68029785,  5.71395874,end
timer_stats,697600033985247,PAPI_L3_TCM,0, 46.75811767,  5.72256470,end
timer_stats,697600035135926,PAPI_L3_TCM,3, 46.83697510,  5.72981262,end
timer_stats,697600036269050,PAPI_L3_TCM,0, 46.95642090,  5.74276733,end
timer_stats,697600037403609,PAPI_L3_TCM,2, 47.08666992,  5.75169372,end
timer_stats,697600038545812,PAPI_L3_TCM,0, 47.16052246,  5.75924683,end
timer_stats,697600039673115,PAPI_L3_TCM,1, 47.24975586,  5.76641846,end
timer_stats,697600040801553,PAPI_L3_TCM,0, 47.33056640,  5.77388000,end
timer_stats,697600041930857,PAPI_L3_TCM,1, 47.41082764,  5.78135681,end
timer_stats,697600043068751,PAPI_L3_TCM,0, 47.48486328,  5.78874206,end
timer_stats,697600044201425,PAPI_L3_TCM,3, 47.57336426,  5.79698181,end
timer_stats,697600045295806,PAPI_L3_TCM,1, 47.72387695,  5.81340027,end
timer_stats,697600046430832,PAPI_L3_TCM,3, 47.81103515,  5.82057190,end
timer_stats,697600047564284,PAPI_L3_TCM,0, 47.89294434,  5.82804870,end
timer_stats,697600048688382,PAPI_L3_TCM,0, 47.97351074,  5.83573913,end
timer_stats,697600049826435,PAPI_L3_TCM,0, 48.04785156,  5.84306335,end
timer_stats,697600050957613,PAPI_L3_TCM,1, 48.12023926,  5.85047912,end
timer_stats,697600052095169,PAPI_L3_TCM,1, 48.20025635,  5.85749817,end
timer_stats,697600053188013,PAPI_L3_TCM,3, 48.29089355,  5.86640930,end
timer_stats,697600054323805,PAPI_L3_TCM,0, 48.40985107,  5.87734985,end
timer_stats,697600055460718,PAPI_L3_TCM,2, 48.52197265,  5.89111328,end
timer_stats,697600056597030,PAPI_L3_TCM,0, 48.60974121,  5.89825439,end
timer_stats,697600057732835,PAPI_L3_TCM,0, 48.67797851,  5.90570068,end
timer_stats,697600058866249,PAPI_L3_TCM,2, 48.76190185,  5.91342163,end
timer_stats,697600060010115,PAPI_L3_TCM,14, 48.83251953,  5.92095947,end
timer_stats,697600061121306,PAPI_L3_TCM,2, 48.91827392,  5.92919922,end
timer_stats,697600062266016,PAPI_L3_TCM,3, 49.02813721,  5.94259643,end
timer_stats,697600063397539,PAPI_L3_TCM,1, 49.15362549,  5.95086670,end
timer_stats,697600064502608,PAPI_L3_TCM,16, 49.23992920,  5.96435547,end
timer_stats,697600065621831,PAPI_L3_TCM,1, 49.31762695,  5.97488403,end
timer_stats,697600066733640,PAPI_L3_TCM,0, 49.38476562,  5.98353577,end
timer_stats,697600067863417,PAPI_L3_TCM,0, 49.45489502,  5.99082947,end
timer_stats,697600068994639,PAPI_L3_TCM,1, 49.53497314,  5.99803162,end
timer_stats,697600070139698,PAPI_L3_TCM,0, 49.60235596,  6.00820923,end
timer_stats,697600071277832,PAPI_L3_TCM,4, 49.75079346,  6.02578735,end
timer_stats,697600072408070,PAPI_L3_TCM,0, 49.79058838,  6.02941894,end
timer_stats,697600073550578,PAPI_L3_TCM,2, 49.90576172,  6.04260254,end
timer_stats,697600074692966,PAPI_L3_TCM,0, 49.97473145,  6.04991150,end
timer_stats,697600075842326,PAPI_L3_TCM,0, 50.05010986,  6.05870056,end
timer_stats,697600076989006,PAPI_L3_TCM,2, 50.11968994,  6.06779480,end
timer_stats,697600078138307,PAPI_L3_TCM,6, 50.20727539,  6.07797241,end
timer_stats,697600079273359,PAPI_L3_TCM,0, 50.35278320,  6.09667969,end
timer_stats,697600080396869,PAPI_L3_TCM,6, 50.39453125,  6.10186768,end
timer_stats,697600081510164,PAPI_L3_TCM,4, 50.51007080,  6.11758423,end
timer_stats,697600082670629,PAPI_L3_TCM,14, 50.59362793,  6.12731934,end
timer_stats,697600083829271,PAPI_L3_TCM,0, 50.66979980,  6.13739014,end
timer_stats,697600085008004,PAPI_L3_TCM,1, 50.73327637,  6.14733887,end
timer_stats,697600086181298,PAPI_L3_TCM,0, 50.81329346,  6.15713501,end
timer_stats,697600087352376,PAPI_L3_TCM,1, 50.92199707,  6.17266846,end
timer_stats,697600088499661,PAPI_L3_TCM,1, 51.03778076,  6.18856811,end
timer_stats,697600089648158,PAPI_L3_TCM,3, 51.11010742,  6.19863892,end
timer_stats,697600090796491,PAPI_L3_TCM,0, 51.18170166,  6.20877075,end
timer_stats,697600091945785,PAPI_L3_TCM,2, 51.25433349,  6.21908569,end
timer_stats,697600093106115,PAPI_L3_TCM,1, 51.33117676,  6.22865295,end
timer_stats,697600094254834,PAPI_L3_TCM,1, 51.41986084,  6.24116516,end
timer_stats,697600095422263,PAPI_L3_TCM,3, 51.49438476,  6.24629211,end
timer_stats,697600096582394,PAPI_L3_TCM,1, 51.60571289,  6.26042175,end
timer_stats,697600097736275,PAPI_L3_TCM,2, 51.67584229,  6.27070617,end
timer_stats,697600098888900,PAPI_L3_TCM,3, 51.73333740,  6.27934265,end
timer_stats,697600100128030,PAPI_L3_TCM,10, 51.80145264,  6.28788757,end
timer_stats,697600101403718,PAPI_L3_TCM,48, 51.94006348,  6.30892944,end
timer_stats,697600102651065,PAPI_L3_TCM,13, 52.00738525,  6.31878662,end
timer_stats,697600103810760,PAPI_L3_TCM,0, 52.06201172,  6.32769775,end
timer_stats,697600104978328,PAPI_L3_TCM,4, 52.13946533,  6.33636475,end
timer_stats,697600106145621,PAPI_L3_TCM,6, 52.20861816,  6.34515381,end
timer_stats,697600107304524,PAPI_L3_TCM,0, 52.30346680,  6.35760498,end
timer_stats,697600108462898,PAPI_L3_TCM,5, 52.40466309,  6.37115478,end
timer_stats,697600109630526,PAPI_L3_TCM,3, 52.48590088,  6.38136291,end
timer_stats,697600110793252,PAPI_L3_TCM,7, 52.55224609,  6.38993835,end
timer_stats,697600111962033,PAPI_L3_TCM,2, 52.62103271,  6.39871216,end
timer_stats,697600113149004,PAPI_L3_TCM,2, 52.69213867,  6.40722656,end
timer_stats,697600114312278,PAPI_L3_TCM,18, 52.78808594,  6.42013550,end
timer_stats,697600115475128,PAPI_L3_TCM,21, 52.89562988,  6.43446350,end
timer_stats,697600116674733,PAPI_L3_TCM,15, 52.96069336,  6.44171143,end
