timer_stats,696769045064157,PAPI_L3_TCM,106,  0.09735107,  0.01000977,end
timer_stats,696769046156496,PAPI_L3_TCM,22,  0.17974853,  0.02108765,end
timer_stats,696769047232916,PAPI_L3_TCM,0,  0.26538086,  0.03250122,end
timer_stats,696769048329718,PAPI_L3_TCM,1,  0.39855957,  0.04765320,end
timer_stats,696769049581731,PAPI_L3_TCM,10,  0.54052734,  0.06446838,end
timer_stats,696769050676661,PAPI_L3_TCM,8,  0.63647461,  0.07521057,end
timer_stats,696769051770247,PAPI_L3_TCM,0,  0.73114014,  0.08595276,end
timer_stats,696769052902342,PAPI_L3_TCM,5,  0.83221435,  0.09681702,end
timer_stats,696769054025431,PAPI_L3_TCM,7,  0.92144775,  0.10609436,end
timer_stats,696769055179692,PAPI_L3_TCM,2,  1.00982666,  0.11683655,end
timer_stats,696769056390130,PAPI_L3_TCM,17,  1.15899658,  0.13304138,end
timer_stats,696769057525467,PAPI_L3_TCM,5,  1.32025146,  0.15106201,end
timer_stats,696769058643110,PAPI_L3_TCM,14,  1.44531250,  0.16140747,end
timer_stats,696769059936698,PAPI_L3_TCM,39,  1.54840088,  0.17495727,end
timer_stats,696769061221550,PAPI_L3_TCM,23,  1.68164062,  0.18566895,end
timer_stats,696769062332554,PAPI_L3_TCM,19,  1.84460449,  0.20448303,end
timer_stats,696769063434454,PAPI_L3_TCM,15,  2.03033447,  0.22341919,end
timer_stats,696769064537046,PAPI_L3_TCM,2,  2.17004394,  0.23619080,end
timer_stats,696769065744287,PAPI_L3_TCM,2,  2.30450439,  0.24908447,end
timer_stats,696769066857033,PAPI_L3_TCM,224,  2.44720459,  0.26193237,end
timer_stats,696769067966446,PAPI_L3_TCM,115,  2.61047363,  0.27445984,end
timer_stats,696769069078331,PAPI_L3_TCM,11,  2.78277588,  0.28729248,end
timer_stats,696769070180258,PAPI_L3_TCM,1,  2.97247314,  0.30073547,end
timer_stats,696769071280538,PAPI_L3_TCM,2,  3.17523193,  0.31455994,end
timer_stats,696769072376897,PAPI_L3_TCM,2,  3.46649170,  0.33491516,end
timer_stats,696769073465739,PAPI_L3_TCM,4,  3.71862793,  0.35176086,end
timer_stats,696769074552125,PAPI_L3_TCM,1,  3.85583496,  0.36293030,end
timer_stats,696769075641531,PAPI_L3_TCM,6,  4.05072021,  0.37818909,end
timer_stats,696769076732310,PAPI_L3_TCM,8,  4.25012207,  0.39054870,end
timer_stats,696769077820824,PAPI_L3_TCM,6,  4.46063232,  0.40348816,end
timer_stats,696769078905934,PAPI_L3_TCM,1,  4.69537353,  0.41819763,end
timer_stats,696769080058877,PAPI_L3_TCM,9,  4.92468262,  0.43209839,end
timer_stats,696769083922826,PAPI_L3_TCM,37,  5.68170166,  0.49635315,end
timer_stats,696769085008670,PAPI_L3_TCM,33,  5.84600830,  0.51199341,end
timer_stats,696769086090777,PAPI_L3_TCM,6,  6.02807617,  0.52412415,end
timer_stats,696769087171529,PAPI_L3_TCM,10,  6.24816894,  0.53912353,end
timer_stats,696769089312831,PAPI_L3_TCM,8,  6.73846435,  0.56832886,end
timer_stats,696769100056646,PAPI_L3_TCM,320,  9.37677002,  0.73114014,end
timer_stats,696769101151036,PAPI_L3_TCM,123,  9.61218262,  0.74578857,end
timer_stats,696769102230924,PAPI_L3_TCM,14,  9.84448242,  0.76123047,end
timer_stats,696769103307641,PAPI_L3_TCM,1, 10.19854736,  0.77632141,end
timer_stats,696769104394258,PAPI_L3_TCM,16, 10.56097412,  0.80587768,end
timer_stats,696769105477290,PAPI_L3_TCM,6, 10.77935791,  0.82142639,end
timer_stats,696769106560620,PAPI_L3_TCM,11, 11.02056885,  0.83651733,end
timer_stats,696769107641886,PAPI_L3_TCM,9, 11.25903320,  0.85142517,end
timer_stats,696769108722721,PAPI_L3_TCM,10, 11.49963379,  0.86648559,end
timer_stats,696769109804913,PAPI_L3_TCM,6, 11.72607422,  0.88246155,end
timer_stats,696769110885396,PAPI_L3_TCM,7, 11.97320557,  0.89733887,end
timer_stats,696769111964866,PAPI_L3_TCM,4, 12.20642090,  0.91299438,end
timer_stats,696769113049231,PAPI_L3_TCM,4, 12.46441650,  0.92779541,end
timer_stats,696769114129246,PAPI_L3_TCM,6, 12.68743896,  0.94322204,end
timer_stats,696769115210762,PAPI_L3_TCM,5, 12.92620849,  0.95809936,end
timer_stats,696769116290819,PAPI_L3_TCM,4, 13.16510010,  0.97325134,end
timer_stats,696769117370932,PAPI_L3_TCM,5, 13.52337646,  0.99490356,end
timer_stats,696769118452592,PAPI_L3_TCM,6, 13.89099121,  1.01679993,end
timer_stats,696769119532710,PAPI_L3_TCM,12, 14.13085937,  1.03167725,end
timer_stats,696769120616973,PAPI_L3_TCM,15, 14.36444092,  1.04269409,end
timer_stats,696769123845551,PAPI_L3_TCM,33, 14.93847656,  1.08119202,end
timer_stats,696769124935235,PAPI_L3_TCM,13, 15.11462402,  1.09899902,end
timer_stats,696769126019259,PAPI_L3_TCM,3, 15.37060547,  1.11566162,end
timer_stats,696769127102202,PAPI_L3_TCM,7, 15.60351562,  1.13217163,end
timer_stats,696769128188349,PAPI_L3_TCM,13, 15.85467529,  1.14811706,end
timer_stats,696769129269594,PAPI_L3_TCM,7, 16.08807373,  1.16514587,end
timer_stats,696769130351822,PAPI_L3_TCM,5, 16.32751465,  1.18138122,end
timer_stats,696769131432649,PAPI_L3_TCM,6, 16.82116699,  1.21418762,end
timer_stats,696769132514281,PAPI_L3_TCM,4, 17.06878662,  1.23202515,end
timer_stats,696769133595468,PAPI_L3_TCM,4, 17.32244873,  1.25067138,end
timer_stats,696769134674962,PAPI_L3_TCM,4, 17.56561279,  1.26686096,end
timer_stats,696769135755179,PAPI_L3_TCM,5, 17.80249023,  1.28414917,end
timer_stats,696769136834738,PAPI_L3_TCM,8, 18.05059814,  1.30130005,end
timer_stats,696769137913963,PAPI_L3_TCM,4, 18.29718018,  1.31790161,end
timer_stats,696769138994051,PAPI_L3_TCM,3, 18.54571533,  1.33491516,end
timer_stats,696769140072771,PAPI_L3_TCM,4, 18.79010010,  1.35176086,end
timer_stats,696769141154156,PAPI_L3_TCM,5, 19.03411865,  1.36912536,end
timer_stats,696769142234250,PAPI_L3_TCM,15, 19.27716064,  1.38578796,end
timer_stats,696769143314126,PAPI_L3_TCM,4, 19.52813721,  1.40211487,end
timer_stats,696769144392755,PAPI_L3_TCM,6, 19.78253174,  1.41940308,end
timer_stats,696769145473449,PAPI_L3_TCM,7, 20.26739502,  1.45373535,end
timer_stats,696769146553772,PAPI_L3_TCM,4, 20.51513672,  1.47059631,end
timer_stats,696769147634171,PAPI_L3_TCM,5, 20.75927734,  1.48695373,end
timer_stats,696769148713167,PAPI_L3_TCM,8, 21.00378418,  1.50389099,end
timer_stats,696769149793628,PAPI_L3_TCM,9, 21.25164795,  1.52096558,end
timer_stats,696769150874326,PAPI_L3_TCM,6, 21.50183105,  1.53851318,end
timer_stats,696769151955095,PAPI_L3_TCM,7, 21.75592041,  1.55607605,end
timer_stats,696769153035422,PAPI_L3_TCM,9, 21.99078369,  1.57368469,end
timer_stats,696769155750134,PAPI_L3_TCM,42, 22.58288574,  1.61541748,end
timer_stats,696769156846987,PAPI_L3_TCM,7, 22.76580811,  1.63406372,end
timer_stats,696769157928628,PAPI_L3_TCM,8, 23.00598144,  1.65147400,end
timer_stats,696769159009645,PAPI_L3_TCM,6, 23.24151611,  1.66816711,end
timer_stats,696769160088784,PAPI_L3_TCM,2, 23.48114014,  1.68453979,end
timer_stats,696769161168674,PAPI_L3_TCM,6, 23.71893311,  1.70123291,end
timer_stats,696769162252156,PAPI_L3_TCM,5, 23.96099854,  1.71736145,end
timer_stats,696769163336524,PAPI_L3_TCM,7, 24.21093750,  1.73320007,end
timer_stats,696769164415276,PAPI_L3_TCM,3, 24.58660889,  1.75007629,end
timer_stats,696769165495057,PAPI_L3_TCM,5, 24.93927002,  1.78450012,end
timer_stats,696769166578525,PAPI_L3_TCM,4, 25.18005371,  1.80117798,end
timer_stats,696769167657556,PAPI_L3_TCM,23, 25.42370605,  1.81739807,end
timer_stats,696769168729657,PAPI_L3_TCM,19, 25.64105225,  1.83288574,end
timer_stats,696769169796306,PAPI_L3_TCM,4, 25.87109375,  1.84837341,end
timer_stats,696769170860687,PAPI_L3_TCM,4, 26.10290527,  1.86486816,end
timer_stats,696769171928205,PAPI_L3_TCM,6, 26.33441162,  1.88066101,end
timer_stats,696769172996398,PAPI_L3_TCM,7, 26.55615234,  1.89595032,end
timer_stats,696769174063152,PAPI_L3_TCM,4, 26.77319336,  1.91134644,end
timer_stats,696769175130878,PAPI_L3_TCM,6, 26.98712158,  1.92764282,end
timer_stats,696769176197089,PAPI_L3_TCM,9, 27.21508789,  1.94297790,end
timer_stats,696769177275707,PAPI_L3_TCM,10, 27.43170166,  1.95864868,end
timer_stats,696769178349833,PAPI_L3_TCM,0, 27.63781738,  1.97395325,end
timer_stats,696769179420781,PAPI_L3_TCM,1, 27.84942627,  1.98930359,end
timer_stats,696769180491700,PAPI_L3_TCM,1, 28.25024414,  2.01855469,end
timer_stats,696769181560996,PAPI_L3_TCM,2, 28.45745850,  2.03242493,end
timer_stats,696769182629566,PAPI_L3_TCM,2, 28.63580322,  2.04779053,end
timer_stats,696769183700793,PAPI_L3_TCM,2, 28.81378174,  2.06161499,end
timer_stats,696769184771943,PAPI_L3_TCM,4, 29.00067139,  2.07518005,end
timer_stats,696769185880010,PAPI_L3_TCM,6, 29.17352295,  2.08879089,end
timer_stats,696769186982453,PAPI_L3_TCM,4, 29.34204101,  2.09494018,end
timer_stats,696769188086669,PAPI_L3_TCM,7, 29.51043701,  2.10899353,end
timer_stats,696769189205313,PAPI_L3_TCM,68, 29.67742920,  2.12237549,end
timer_stats,696769190358031,PAPI_L3_TCM,31, 29.83325195,  2.13586426,end
timer_stats,696769191474349,PAPI_L3_TCM,12, 30.15454101,  2.16390991,end
timer_stats,696769192612597,PAPI_L3_TCM,11, 30.31823730,  2.17691040,end
timer_stats,696769193766646,PAPI_L3_TCM,0, 30.46392822,  2.19046020,end
timer_stats,696769194926085,PAPI_L3_TCM,4, 30.62060547,  2.20301819,end
timer_stats,696769196061766,PAPI_L3_TCM,4, 30.77142334,  2.21560669,end
timer_stats,696769197181882,PAPI_L3_TCM,3, 30.91638183,  2.22799682,end
timer_stats,696769198341838,PAPI_L3_TCM,1, 31.06860351,  2.24150085,end
timer_stats,696769199499456,PAPI_L3_TCM,3, 31.28442383,  2.26097107,end
timer_stats,696769200615038,PAPI_L3_TCM,10, 31.49963379,  2.28094482,end
timer_stats,696769201780584,PAPI_L3_TCM,27, 31.64129639,  2.29370117,end
timer_stats,696769202944540,PAPI_L3_TCM,3, 31.78216553,  2.30654907,end
timer_stats,696769204060360,PAPI_L3_TCM,2, 31.91912842,  2.31919861,end
timer_stats,696769205182476,PAPI_L3_TCM,0, 32.06359863,  2.32513428,end
timer_stats,696769206356165,PAPI_L3_TCM,1, 32.19653320,  2.33729553,end
timer_stats,696769207526055,PAPI_L3_TCM,0, 32.47119140,  2.36192322,end
timer_stats,696769208685879,PAPI_L3_TCM,3, 32.61450195,  2.37409973,end
timer_stats,696769209849577,PAPI_L3_TCM,0, 32.74615478,  2.38606262,end
timer_stats,696769212132198,PAPI_L3_TCM,38, 33.00677490,  2.41998291,end
timer_stats,696769213280116,PAPI_L3_TCM,0, 33.14080810,  2.43292236,end
timer_stats,696769214424176,PAPI_L3_TCM,1, 33.27606201,  2.44476318,end
timer_stats,696769215581743,PAPI_L3_TCM,0, 33.54443359,  2.46914673,end
timer_stats,696769216748383,PAPI_L3_TCM,1, 33.67517090,  2.48184204,end
timer_stats,696769217923593,PAPI_L3_TCM,0, 33.80883789,  2.49479675,end
timer_stats,696769219082743,PAPI_L3_TCM,2, 33.94152832,  2.50749207,end
timer_stats,696769220224936,PAPI_L3_TCM,0, 34.07946777,  2.51916504,end
timer_stats,696769221356280,PAPI_L3_TCM,2, 34.21960449,  2.53041077,end
timer_stats,696769222518200,PAPI_L3_TCM,0, 34.47174072,  2.55415344,end
timer_stats,696769223690882,PAPI_L3_TCM,2, 34.58905029,  2.56483459,end
timer_stats,696769224857829,PAPI_L3_TCM,4, 34.70312500,  2.57533264,end
timer_stats,696769226033172,PAPI_L3_TCM,1, 34.82318115,  2.58580017,end
timer_stats,696769227211687,PAPI_L3_TCM,0, 34.94451904,  2.59603882,end
timer_stats,696769228387752,PAPI_L3_TCM,2, 35.05480957,  2.60656738,end
timer_stats,696769229567499,PAPI_L3_TCM,0, 35.28857422,  2.62863159,end
timer_stats,696769230726206,PAPI_L3_TCM,3, 35.39581299,  2.63961792,end
timer_stats,696769231898632,PAPI_L3_TCM,0, 35.50549316,  2.65057373,end
timer_stats,696769233073683,PAPI_L3_TCM,1, 35.61016846,  2.66159057,end
timer_stats,696769234240604,PAPI_L3_TCM,2, 35.71752930,  2.67230225,end
timer_stats,696769235386515,PAPI_L3_TCM,9, 35.82666015,  2.68350220,end
timer_stats,696769236538094,PAPI_L3_TCM,2, 36.03857422,  2.70562744,end
timer_stats,696769237718499,PAPI_L3_TCM,2, 36.14935303,  2.71588135,end
timer_stats,696769238887151,PAPI_L3_TCM,0, 36.24835205,  2.72686767,end
timer_stats,696769240074643,PAPI_L3_TCM,3, 36.35675049,  2.73825073,end
