timer_stats,696942560499711,PAPI_L3_TCM,426,  0.09631347,  0.01629639,end
timer_stats,696942561610013,PAPI_L3_TCM,44,  0.18017578,  0.02783203,end
timer_stats,696942562729670,PAPI_L3_TCM,4,  0.27136230,  0.03802490,end
timer_stats,696942563867259,PAPI_L3_TCM,3,  0.36511230,  0.04830933,end
timer_stats,696942565012720,PAPI_L3_TCM,9,  0.46527100,  0.06021118,end
timer_stats,696942566175935,PAPI_L3_TCM,3,  0.55468750,  0.07070923,end
timer_stats,696942567339299,PAPI_L3_TCM,0,  0.73779297,  0.09240722,end
timer_stats,696942568488704,PAPI_L3_TCM,3,  0.82836914,  0.10247803,end
timer_stats,696942569652286,PAPI_L3_TCM,2,  0.91418457,  0.11120605,end
timer_stats,696942570820331,PAPI_L3_TCM,0,  1.01159668,  0.12232971,end
timer_stats,696942571988243,PAPI_L3_TCM,3,  1.10784912,  0.13316345,end
timer_stats,696942573268271,PAPI_L3_TCM,11,  1.27862549,  0.15130615,end
timer_stats,696942574585493,PAPI_L3_TCM,12,  1.44897461,  0.17208862,end
timer_stats,696942575929115,PAPI_L3_TCM,12,  1.55773926,  0.18435669,end
timer_stats,696942577045750,PAPI_L3_TCM,3,  1.67083740,  0.19496155,end
timer_stats,696942578791497,PAPI_L3_TCM,17,  1.91168213,  0.21881103,end
timer_stats,696942579897658,PAPI_L3_TCM,0,  2.02044678,  0.23345947,end
timer_stats,696942581003013,PAPI_L3_TCM,2,  2.14538574,  0.24520874,end
timer_stats,696942582118498,PAPI_L3_TCM,1,  2.27075195,  0.25817871,end
timer_stats,696942583236029,PAPI_L3_TCM,2,  2.40222168,  0.27038574,end
timer_stats,696942584335216,PAPI_L3_TCM,1,  2.68109131,  0.28955078,end
timer_stats,696942585438003,PAPI_L3_TCM,2,  2.85522461,  0.30909729,end
timer_stats,696942586529966,PAPI_L3_TCM,1,  3.04211426,  0.32356262,end
timer_stats,696942587617320,PAPI_L3_TCM,5,  3.23919678,  0.33703613,end
timer_stats,696942588703902,PAPI_L3_TCM,2,  3.43737793,  0.35021973,end
timer_stats,696942589791419,PAPI_L3_TCM,1,  3.65966797,  0.36477661,end
timer_stats,696942590875841,PAPI_L3_TCM,0,  3.87255859,  0.37890625,end
timer_stats,696942591958799,PAPI_L3_TCM,5,  4.08013916,  0.39326477,end
timer_stats,696942595555921,PAPI_L3_TCM,59,  4.72534180,  0.44618225,end
timer_stats,696942596641404,PAPI_L3_TCM,26,  4.89849853,  0.46034241,end
timer_stats,696942597723149,PAPI_L3_TCM,0,  5.12255859,  0.47546387,end
timer_stats,696942598804383,PAPI_L3_TCM,3,  5.36181640,  0.48991394,end
timer_stats,696942599885229,PAPI_L3_TCM,2,  5.60491943,  0.49694824,end
timer_stats,696942600967082,PAPI_L3_TCM,1,  5.82867432,  0.51170349,end
timer_stats,696942602048879,PAPI_L3_TCM,2,  6.06939697,  0.52717590,end
timer_stats,696942603129385,PAPI_L3_TCM,3,  6.29919434,  0.54261780,end
timer_stats,696942604212375,PAPI_L3_TCM,2,  6.54620361,  0.55749512,end
timer_stats,696942605293077,PAPI_L3_TCM,7,  6.74847412,  0.57223511,end
timer_stats,696942606372605,PAPI_L3_TCM,0,  7.09887695,  0.59460449,end
timer_stats,696942607454241,PAPI_L3_TCM,5,  7.48083496,  0.61749268,end
timer_stats,696942608536005,PAPI_L3_TCM,6,  7.71246338,  0.63265991,end
timer_stats,696942609616083,PAPI_L3_TCM,5,  7.94061279,  0.64736938,end
timer_stats,696942610695701,PAPI_L3_TCM,4,  8.18823242,  0.66177368,end
timer_stats,696942611776124,PAPI_L3_TCM,3,  8.43902588,  0.67684936,end
timer_stats,696942612858112,PAPI_L3_TCM,2,  8.67419433,  0.69128418,end
timer_stats,696942613938379,PAPI_L3_TCM,4,  8.91131592,  0.70620728,end
timer_stats,696942615018349,PAPI_L3_TCM,2,  9.14404297,  0.72111511,end
timer_stats,696942616099169,PAPI_L3_TCM,3,  9.38574219,  0.73622131,end
timer_stats,696942617179525,PAPI_L3_TCM,6,  9.64086914,  0.75082397,end
timer_stats,696942618260669,PAPI_L3_TCM,14,  9.86962891,  0.76574707,end
timer_stats,696942619339924,PAPI_L3_TCM,1, 10.23510742,  0.78826904,end
timer_stats,696942620419102,PAPI_L3_TCM,5, 10.60107422,  0.81054687,end
timer_stats,696942621498821,PAPI_L3_TCM,3, 10.85662842,  0.82606506,end
timer_stats,696942622578221,PAPI_L3_TCM,4, 11.10168457,  0.84165954,end
timer_stats,696942623657138,PAPI_L3_TCM,2, 11.33691406,  0.85655212,end
timer_stats,696942624736786,PAPI_L3_TCM,3, 11.58294678,  0.87117004,end
timer_stats,696942625816858,PAPI_L3_TCM,7, 11.83020019,  0.88601684,end
timer_stats,696942626895929,PAPI_L3_TCM,3, 12.07983398,  0.90066528,end
timer_stats,696942627975783,PAPI_L3_TCM,1, 12.31170654,  0.91522217,end
timer_stats,696942629056893,PAPI_L3_TCM,1, 12.55944824,  0.92987060,end
timer_stats,696942630136502,PAPI_L3_TCM,3, 12.79504394,  0.94435120,end
timer_stats,696942631216717,PAPI_L3_TCM,3, 13.04858398,  0.95919800,end
timer_stats,696942634295902,PAPI_L3_TCM,81, 13.68347168,  1.01002502,end
timer_stats,696942635378186,PAPI_L3_TCM,29, 13.94134521,  1.03277588,end
timer_stats,696942636460071,PAPI_L3_TCM,5, 14.30926514,  1.05853271,end
timer_stats,696942637542156,PAPI_L3_TCM,3, 14.56860351,  1.07492065,end
timer_stats,696942638622951,PAPI_L3_TCM,1, 14.82427978,  1.09156799,end
timer_stats,696942639704374,PAPI_L3_TCM,5, 15.06604004,  1.10794067,end
timer_stats,696942640785337,PAPI_L3_TCM,4, 15.31066894,  1.12538147,end
timer_stats,696942641865748,PAPI_L3_TCM,2, 15.56585693,  1.14282226,end
timer_stats,696942642946381,PAPI_L3_TCM,3, 15.81890869,  1.15940857,end
timer_stats,696942644018857,PAPI_L3_TCM,6, 16.05963135,  1.17623901,end
timer_stats,696942645099721,PAPI_L3_TCM,7, 16.31018066,  1.19374084,end
timer_stats,696942646180766,PAPI_L3_TCM,10, 16.56866455,  1.21075439,end
timer_stats,696942647261435,PAPI_L3_TCM,8, 16.81317139,  1.22848511,end
timer_stats,696942648341057,PAPI_L3_TCM,9, 17.06579590,  1.24557495,end
timer_stats,696942649425658,PAPI_L3_TCM,5, 17.42535400,  1.27119446,end
timer_stats,696942650505853,PAPI_L3_TCM,9, 17.81243896,  1.29783630,end
timer_stats,696942651587544,PAPI_L3_TCM,9, 18.06823730,  1.31484985,end
timer_stats,696942652668963,PAPI_L3_TCM,15, 18.31658936,  1.33146667,end
timer_stats,696942653749842,PAPI_L3_TCM,3, 18.56719971,  1.34826660,end
timer_stats,696942654830799,PAPI_L3_TCM,7, 18.80523682,  1.36512756,end
timer_stats,696942655910898,PAPI_L3_TCM,1, 19.06146240,  1.38215637,end
timer_stats,696942656990629,PAPI_L3_TCM,5, 19.30255127,  1.39871216,end
timer_stats,696942658073437,PAPI_L3_TCM,8, 19.56072998,  1.41668701,end
timer_stats,696942659155593,PAPI_L3_TCM,12, 19.79907226,  1.43353271,end
timer_stats,696942660236936,PAPI_L3_TCM,3, 20.05200195,  1.45059204,end
timer_stats,696942661317811,PAPI_L3_TCM,7, 20.29711914,  1.46743774,end
timer_stats,696942662397681,PAPI_L3_TCM,1, 20.79736328,  1.49291992,end
timer_stats,696942665698933,PAPI_L3_TCM,243, 21.41326904,  1.54618835,end
timer_stats,696942666790638,PAPI_L3_TCM,153, 21.61962890,  1.56317139,end
timer_stats,696942667874973,PAPI_L3_TCM,11, 21.87744140,  1.57960510,end
timer_stats,696942668958840,PAPI_L3_TCM,2, 22.12048340,  1.59606933,end
timer_stats,696942670043424,PAPI_L3_TCM,5, 22.35919189,  1.61328125,end
timer_stats,696942671126343,PAPI_L3_TCM,2, 22.61822510,  1.62983703,end
timer_stats,696942672210064,PAPI_L3_TCM,7, 22.86199951,  1.64675903,end
timer_stats,696942673292797,PAPI_L3_TCM,6, 23.11126709,  1.66366577,end
timer_stats,696942674375494,PAPI_L3_TCM,3, 23.36639404,  1.68075561,end
timer_stats,696942675462927,PAPI_L3_TCM,15, 23.73278808,  1.70593262,end
timer_stats,696942677620858,PAPI_L3_TCM,16, 24.35675049,  1.74958801,end
timer_stats,696942678705187,PAPI_L3_TCM,11, 24.59130859,  1.76644897,end
timer_stats,696942679783751,PAPI_L3_TCM,10, 24.82635498,  1.78192138,end
timer_stats,696942680872187,PAPI_L3_TCM,1, 25.07397461,  1.79774475,end
timer_stats,696942681952102,PAPI_L3_TCM,5, 25.28363037,  1.81297302,end
timer_stats,696942683031244,PAPI_L3_TCM,3, 25.50061035,  1.82775879,end
timer_stats,696942684111228,PAPI_L3_TCM,6, 25.70715332,  1.84248352,end
timer_stats,696942685189692,PAPI_L3_TCM,4, 25.91558838,  1.85684204,end
timer_stats,696942686282757,PAPI_L3_TCM,2, 26.10675049,  1.87150574,end
timer_stats,696942687374554,PAPI_L3_TCM,1, 26.38916015,  1.89207458,end
timer_stats,696942688483837,PAPI_L3_TCM,34, 26.67926025,  1.91326904,end
timer_stats,696942689606535,PAPI_L3_TCM,38, 26.85314941,  1.92668152,end
timer_stats,696942690745961,PAPI_L3_TCM,11, 27.02618408,  1.94036865,end
timer_stats,696942691872229,PAPI_L3_TCM,2, 27.19256592,  1.95454407,end
timer_stats,696942692978072,PAPI_L3_TCM,4, 27.36383057,  1.96801758,end
timer_stats,696942694097605,PAPI_L3_TCM,2, 27.52313232,  1.98106384,end
timer_stats,696942695219623,PAPI_L3_TCM,1, 27.68109131,  1.99536133,end
timer_stats,696942696311854,PAPI_L3_TCM,5, 27.82342529,  2.00823975,end
timer_stats,696942697466397,PAPI_L3_TCM,1, 28.11535644,  2.03395080,end
timer_stats,696942698620783,PAPI_L3_TCM,0, 28.25585937,  2.04661560,end
timer_stats,696942699774025,PAPI_L3_TCM,3, 28.40148926,  2.05992126,end
timer_stats,696942700915973,PAPI_L3_TCM,0, 28.54296875,  2.07258606,end
timer_stats,696942702077898,PAPI_L3_TCM,1, 28.68377685,  2.08522034,end
timer_stats,696942703229531,PAPI_L3_TCM,1, 28.82666016,  2.09832763,end
timer_stats,696942704367406,PAPI_L3_TCM,2, 28.96411133,  2.11146545,end
timer_stats,696942705520006,PAPI_L3_TCM,2, 29.25823975,  2.13665771,end
timer_stats,696942706652252,PAPI_L3_TCM,2, 29.39599609,  2.14926147,end
timer_stats,696942707781124,PAPI_L3_TCM,0, 29.54083252,  2.16184997,end
timer_stats,696942708922596,PAPI_L3_TCM,87, 29.68286133,  2.17404175,end
timer_stats,696942710094208,PAPI_L3_TCM,0, 29.82080078,  2.18650818,end
timer_stats,696942711264263,PAPI_L3_TCM,1, 29.95745850,  2.19892883,end
timer_stats,696942712374993,PAPI_L3_TCM,2, 30.09606933,  2.21382141,end
timer_stats,696942713496620,PAPI_L3_TCM,5, 30.38916015,  2.23895264,end
timer_stats,696942714634263,PAPI_L3_TCM,0, 30.53900146,  2.25135803,end
timer_stats,696942715773159,PAPI_L3_TCM,2, 30.67462158,  2.26322937,end
timer_stats,696942716906811,PAPI_L3_TCM,1, 30.82507324,  2.27558899,end
timer_stats,696942718048318,PAPI_L3_TCM,3, 30.95739746,  2.28782654,end
timer_stats,696942719191111,PAPI_L3_TCM,0, 31.08813476,  2.30030823,end
timer_stats,696942722320646,PAPI_L3_TCM,21, 31.47833252,  2.33714294,end
timer_stats,696942723452836,PAPI_L3_TCM,0, 31.67297363,  2.35470581,end
timer_stats,696942724584256,PAPI_L3_TCM,1, 31.88092041,  2.37428284,end
timer_stats,696942725746956,PAPI_L3_TCM,0, 32.02160644,  2.38688660,end
timer_stats,696942726903550,PAPI_L3_TCM,2, 32.15759277,  2.39926147,end
timer_stats,696942728063900,PAPI_L3_TCM,1, 32.29132080,  2.41116333,end
timer_stats,696942729193165,PAPI_L3_TCM,2, 32.42315674,  2.42236328,end
timer_stats,696942730349580,PAPI_L3_TCM,0, 32.53900146,  2.43470764,end
timer_stats,696942731511383,PAPI_L3_TCM,1, 32.77850342,  2.45712280,end
timer_stats,696942732671995,PAPI_L3_TCM,1, 32.90118408,  2.46798706,end
timer_stats,696942733834364,PAPI_L3_TCM,1, 33.03143310,  2.48052978,end
timer_stats,696942734993571,PAPI_L3_TCM,0, 33.15899658,  2.49208069,end
timer_stats,696942736154813,PAPI_L3_TCM,2, 33.28698730,  2.50337219,end
timer_stats,696942737287059,PAPI_L3_TCM,1, 33.41424560,  2.51472473,end
timer_stats,696942738441356,PAPI_L3_TCM,1, 33.59454346,  2.53166199,end
timer_stats,696942739585816,PAPI_L3_TCM,0, 33.79205322,  2.54951477,end
timer_stats,696942740735805,PAPI_L3_TCM,2, 33.91558838,  2.56062317,end
timer_stats,696942741880483,PAPI_L3_TCM,0, 34.04113769,  2.57144165,end
timer_stats,696942743044598,PAPI_L3_TCM,1, 34.16143799,  2.58258057,end
timer_stats,696942744186322,PAPI_L3_TCM,0, 34.27532959,  2.59591675,end
timer_stats,696942745320494,PAPI_L3_TCM,3, 34.39855957,  2.60627746,end
timer_stats,696942746478087,PAPI_L3_TCM,0, 34.57141113,  2.62251282,end
timer_stats,696942747664821,PAPI_L3_TCM,1, 34.74420166,  2.63856506,end
timer_stats,696942748827246,PAPI_L3_TCM,1, 34.85650635,  2.64883423,end
timer_stats,696942749984791,PAPI_L3_TCM,2, 34.96752930,  2.65934753,end
timer_stats,696942751131646,PAPI_L3_TCM,0, 35.08575439,  2.66978455,end
timer_stats,696942752272913,PAPI_L3_TCM,1, 35.19238281,  2.68029785,end
timer_stats,696942753411001,PAPI_L3_TCM,0, 35.35974121,  2.69595337,end
timer_stats,696942754573033,PAPI_L3_TCM,3, 35.52282715,  2.71163940,end
timer_stats,696942755731368,PAPI_L3_TCM,0, 35.63250732,  2.72238159,end
timer_stats,696942756904910,PAPI_L3_TCM,2, 35.74035645,  2.73289490,end
timer_stats,696942758084227,PAPI_L3_TCM,0, 35.84143066,  2.74320984,end
timer_stats,696942759258902,PAPI_L3_TCM,1, 35.94793701,  2.75370788,end
timer_stats,696942760446037,PAPI_L3_TCM,1, 36.10150146,  2.76914978,end
timer_stats,696942761624442,PAPI_L3_TCM,1, 36.25677490,  2.78491211,end
timer_stats,696942762787589,PAPI_L3_TCM,0, 36.35131836,  2.79522705,end
timer_stats,696942763962081,PAPI_L3_TCM,2, 36.45214844,  2.80035400,end
timer_stats,696942765117096,PAPI_L3_TCM,0, 36.55407715,  2.81088257,end
timer_stats,696942766279109,PAPI_L3_TCM,4, 36.64916992,  2.82162475,end
