timer_stats,697287104811766,PAPI_L3_TCM,299,  0.09393311,  0.01589966,end
timer_stats,697287105963080,PAPI_L3_TCM,40,  0.15985107,  0.02590942,end
timer_stats,697287107104641,PAPI_L3_TCM,3,  0.22363281,  0.03729248,end
timer_stats,697287108232880,PAPI_L3_TCM,2,  0.28613281,  0.04602051,end
timer_stats,697287109377794,PAPI_L3_TCM,0,  0.35235596,  0.05532837,end
timer_stats,697287110547339,PAPI_L3_TCM,1,  0.42205811,  0.06562805,end
timer_stats,697287111695000,PAPI_L3_TCM,5,  0.53070068,  0.08152771,end
timer_stats,697287112833078,PAPI_L3_TCM,9,  0.63122559,  0.09718323,end
timer_stats,697287113999963,PAPI_L3_TCM,2,  0.69781494,  0.10789490,end
timer_stats,697287115174341,PAPI_L3_TCM,14,  0.76568603,  0.11817932,end
timer_stats,697287116314109,PAPI_L3_TCM,3,  0.83630371,  0.12892151,end
timer_stats,697287117467841,PAPI_L3_TCM,5,  0.90533447,  0.14036560,end
timer_stats,697287118637499,PAPI_L3_TCM,4,  1.01605225,  0.15736389,end
timer_stats,697287119808400,PAPI_L3_TCM,0,  1.11114502,  0.17291260,end
timer_stats,697287120977282,PAPI_L3_TCM,0,  1.18457031,  0.18318176,end
timer_stats,697287122138143,PAPI_L3_TCM,1,  1.25384521,  0.19218445,end
timer_stats,697287123308918,PAPI_L3_TCM,0,  1.33050537,  0.20314026,end
timer_stats,697287124464420,PAPI_L3_TCM,3,  1.40338135,  0.21342468,end
timer_stats,697287125633388,PAPI_L3_TCM,1,  1.47723389,  0.22264099,end
timer_stats,697287126791672,PAPI_L3_TCM,0,  1.61352539,  0.24073791,end
timer_stats,697287127961997,PAPI_L3_TCM,0,  1.68627930,  0.24995422,end
timer_stats,697287129143882,PAPI_L3_TCM,1,  1.75708008,  0.25877380,end
timer_stats,697287130313824,PAPI_L3_TCM,0,  1.83135986,  0.26976013,end
timer_stats,697287131485292,PAPI_L3_TCM,0,  1.90551758,  0.27984619,end
timer_stats,697287132654134,PAPI_L3_TCM,1,  2.02044678,  0.29377747,end
timer_stats,697287133824632,PAPI_L3_TCM,1,  2.12695312,  0.30618286,end
timer_stats,697287134993493,PAPI_L3_TCM,2,  2.20367432,  0.31520080,end
timer_stats,697287136133051,PAPI_L3_TCM,1,  2.28485107,  0.32392883,end
timer_stats,697287137277760,PAPI_L3_TCM,0,  2.36718750,  0.33268738,end
timer_stats,697287138445440,PAPI_L3_TCM,0,  2.44409180,  0.34225464,end
timer_stats,697287139615312,PAPI_L3_TCM,0,  2.52392578,  0.35229492,end
timer_stats,697287140787957,PAPI_L3_TCM,6,  2.68341064,  0.37207031,end
timer_stats,697287141960179,PAPI_L3_TCM,1,  2.76263428,  0.38153076,end
timer_stats,697287143103563,PAPI_L3_TCM,3,  2.84606934,  0.39004517,end
timer_stats,697287144278334,PAPI_L3_TCM,1,  2.92169189,  0.40130615,end
timer_stats,697287145426126,PAPI_L3_TCM,0,  3.00567627,  0.41162109,end
timer_stats,697287146568321,PAPI_L3_TCM,1,  3.08795166,  0.42041016,end
timer_stats,697287147744256,PAPI_L3_TCM,0,  3.23937988,  0.43777466,end
timer_stats,697287148919621,PAPI_L3_TCM,1,  3.31250000,  0.44677734,end
timer_stats,697287150059472,PAPI_L3_TCM,3,  3.38275146,  0.45504761,end
timer_stats,697287151225140,PAPI_L3_TCM,3,  3.45605469,  0.46408081,end
timer_stats,697287152385205,PAPI_L3_TCM,2,  3.52673340,  0.47338867,end
timer_stats,697287153559967,PAPI_L3_TCM,0,  3.59875488,  0.48260498,end
timer_stats,697287154728555,PAPI_L3_TCM,0,  3.73535156,  0.49853516,end
timer_stats,697287155906413,PAPI_L3_TCM,0,  3.80303955,  0.50949097,end
timer_stats,697287157090451,PAPI_L3_TCM,1,  3.87805176,  0.51849365,end
timer_stats,697287158260372,PAPI_L3_TCM,0,  3.94738769,  0.52705383,end
timer_stats,697287159425834,PAPI_L3_TCM,0,  4.01348877,  0.53614807,end
timer_stats,697287160603776,PAPI_L3_TCM,1,  4.08441162,  0.54493713,end
timer_stats,697287161779904,PAPI_L3_TCM,1,  4.23034668,  0.56208801,end
timer_stats,697287162939072,PAPI_L3_TCM,0,  4.30340576,  0.57086182,end
timer_stats,697287164099591,PAPI_L3_TCM,1,  4.37915039,  0.58041382,end
timer_stats,697287165255358,PAPI_L3_TCM,0,  4.44683838,  0.58926391,end
timer_stats,697287166432133,PAPI_L3_TCM,0,  4.52081299,  0.59780884,end
timer_stats,697287167607875,PAPI_L3_TCM,0,  4.59027100,  0.60659790,end
timer_stats,697287168785879,PAPI_L3_TCM,2,  4.73394775,  0.62371826,end
timer_stats,697287169961897,PAPI_L3_TCM,0,  4.80609131,  0.63252258,end
timer_stats,697287171133969,PAPI_L3_TCM,1,  4.87915039,  0.64129639,end
timer_stats,697287172307420,PAPI_L3_TCM,1,  4.95129394,  0.65011597,end
timer_stats,697287173465559,PAPI_L3_TCM,1,  5.02612305,  0.65890503,end
timer_stats,697287174628237,PAPI_L3_TCM,0,  5.10198975,  0.66882324,end
timer_stats,697287175807145,PAPI_L3_TCM,0,  5.24304199,  0.68685913,end
timer_stats,697287176982923,PAPI_L3_TCM,1,  5.31695556,  0.69583130,end
timer_stats,697287178153298,PAPI_L3_TCM,1,  5.38989258,  0.70486450,end
timer_stats,697287179316956,PAPI_L3_TCM,0,  5.46209717,  0.71385193,end
timer_stats,697287180487508,PAPI_L3_TCM,1,  5.53302002,  0.72288513,end
timer_stats,697287181664363,PAPI_L3_TCM,0,  5.60876465,  0.73164368,end
timer_stats,697287182831434,PAPI_L3_TCM,0,  5.75421143,  0.74919128,end
timer_stats,697287183990273,PAPI_L3_TCM,0,  5.82861328,  0.75794983,end
timer_stats,697287185176400,PAPI_L3_TCM,1,  5.90106201,  0.76695251,end
timer_stats,697287186354685,PAPI_L3_TCM,0,  5.97137451,  0.77578735,end
timer_stats,697287187534293,PAPI_L3_TCM,1,  6.04547119,  0.78477478,end
timer_stats,697287188710158,PAPI_L3_TCM,1,  6.18792725,  0.80290222,end
timer_stats,697287189886283,PAPI_L3_TCM,1,  6.26202393,  0.81190491,end
timer_stats,697287191051722,PAPI_L3_TCM,0,  6.33404541,  0.82048034,end
timer_stats,697287192228233,PAPI_L3_TCM,1,  6.40887451,  0.82925415,end
timer_stats,697287193377854,PAPI_L3_TCM,0,  6.48101807,  0.83761597,end
timer_stats,697287194543062,PAPI_L3_TCM,0,  6.55352783,  0.84617615,end
timer_stats,697287195706861,PAPI_L3_TCM,0,  6.67523193,  0.85499573,end
timer_stats,697287196881789,PAPI_L3_TCM,2,  6.76806641,  0.87260437,end
timer_stats,697287202189614,PAPI_L3_TCM,7,  7.10992431,  0.91465759,end
timer_stats,697287203350255,PAPI_L3_TCM,1,  7.18249512,  0.92408752,end
timer_stats,697287204521743,PAPI_L3_TCM,1,  7.24969482,  0.93312073,end
timer_stats,697287205692125,PAPI_L3_TCM,1,  7.32312012,  0.94190979,end
timer_stats,697287206865370,PAPI_L3_TCM,0,  7.46838379,  0.95945740,end
timer_stats,697287208046718,PAPI_L3_TCM,0,  7.54376221,  0.96844482,end
timer_stats,697287209196103,PAPI_L3_TCM,1,  7.61614990,  0.97726440,end
timer_stats,697287210366504,PAPI_L3_TCM,1,  7.68927002,  0.98603821,end
timer_stats,697287211536502,PAPI_L3_TCM,0,  7.76062012,  0.99464416,end
timer_stats,697287212714564,PAPI_L3_TCM,2,  7.87963867,  1.00843811,end
timer_stats,697287213878836,PAPI_L3_TCM,0,  7.97796631,  1.02058410,end
timer_stats,697287215041584,PAPI_L3_TCM,0,  8.05267334,  1.02935791,end
timer_stats,697287216202422,PAPI_L3_TCM,1,  8.12207031,  1.03820801,end
timer_stats,697287217349453,PAPI_L3_TCM,0,  8.19458008,  1.04678345,end
timer_stats,697287218515135,PAPI_L3_TCM,0,  8.26696777,  1.05197143,end
timer_stats,697287219677973,PAPI_L3_TCM,1,  8.38635254,  1.06619263,end
timer_stats,697287220857008,PAPI_L3_TCM,1,  8.48339844,  1.07861328,end
timer_stats,697287222031733,PAPI_L3_TCM,0,  8.55944824,  1.08758545,end
timer_stats,697287223213160,PAPI_L3_TCM,0,  8.62725830,  1.09664917,end
timer_stats,697287224384092,PAPI_L3_TCM,1,  8.70288086,  1.10517883,end
timer_stats,697287225562580,PAPI_L3_TCM,0,  8.77209473,  1.11399841,end
timer_stats,697287226740805,PAPI_L3_TCM,0,  8.89575195,  1.12797546,end
timer_stats,697287227907677,PAPI_L3_TCM,0,  8.98950195,  1.14039612,end
timer_stats,697287229071358,PAPI_L3_TCM,1,  9.06555176,  1.14916992,end
timer_stats,697287230251476,PAPI_L3_TCM,0,  9.13598633,  1.15821838,end
timer_stats,697287231430071,PAPI_L3_TCM,1,  9.20855713,  1.16725159,end
timer_stats,697287232604726,PAPI_L3_TCM,1,  9.27783203,  1.17608643,end
timer_stats,697287233780764,PAPI_L3_TCM,0,  9.40118408,  1.18957519,end
timer_stats,697287234956103,PAPI_L3_TCM,0,  9.49578857,  1.20199585,end
timer_stats,697287236128911,PAPI_L3_TCM,1,  9.57183838,  1.21075439,end
timer_stats,697287237278769,PAPI_L3_TCM,0,  9.64410400,  1.21440124,end
timer_stats,697287238454720,PAPI_L3_TCM,1,  9.71337891,  1.22300720,end
timer_stats,697287239629922,PAPI_L3_TCM,0,  9.78442383,  1.23181152,end
timer_stats,697287240805617,PAPI_L3_TCM,1,  9.92968750,  1.24897766,end
timer_stats,697287241979655,PAPI_L3_TCM,0, 10.00085449,  1.25779724,end
timer_stats,697287243161673,PAPI_L3_TCM,0, 10.07403564,  1.26637268,end
timer_stats,697287244330975,PAPI_L3_TCM,1, 10.14764404,  1.27516174,end
timer_stats,697287245487530,PAPI_L3_TCM,0, 10.22155762,  1.28349304,end
timer_stats,697287246666408,PAPI_L3_TCM,0, 10.29272461,  1.29255676,end
timer_stats,697287247844939,PAPI_L3_TCM,0, 10.43383789,  1.31037903,end
timer_stats,697287249022051,PAPI_L3_TCM,1, 10.50726318,  1.31892395,end
timer_stats,697287250197542,PAPI_L3_TCM,1, 10.57788086,  1.32774353,end
timer_stats,697287251372661,PAPI_L3_TCM,0, 10.65423584,  1.33158874,end
timer_stats,697287252545961,PAPI_L3_TCM,1, 10.72717285,  1.34281921,end
timer_stats,697287253720396,PAPI_L3_TCM,0, 10.80700683,  1.34642029,end
timer_stats,697287254887028,PAPI_L3_TCM,0, 10.95367432,  1.36425781,end
timer_stats,697287256068010,PAPI_L3_TCM,1, 11.02343750,  1.37307739,end
timer_stats,697287257238235,PAPI_L3_TCM,16, 11.09985351,  1.38159180,end
timer_stats,697287258416000,PAPI_L3_TCM,0, 11.17492676,  1.39035034,end
timer_stats,697287259594468,PAPI_L3_TCM,1, 11.24914551,  1.39888000,end
timer_stats,697287260774042,PAPI_L3_TCM,0, 11.39373779,  1.41648865,end
timer_stats,697287261949647,PAPI_L3_TCM,0, 11.46697998,  1.42549133,end
timer_stats,697287263132029,PAPI_L3_TCM,0, 11.54223633,  1.43400574,end
timer_stats,697287264304267,PAPI_L3_TCM,1, 11.61474609,  1.44303894,end
timer_stats,697287265454772,PAPI_L3_TCM,0, 11.68774414,  1.45204162,end
timer_stats,697287266629617,PAPI_L3_TCM,1, 11.76379394,  1.46105957,end
timer_stats,697287267804962,PAPI_L3_TCM,0, 11.91290283,  1.47814941,end
timer_stats,697287268982737,PAPI_L3_TCM,2, 11.99163818,  1.48687744,end
timer_stats,697287270165128,PAPI_L3_TCM,0, 12.05755615,  1.49548340,end
timer_stats,697287271341436,PAPI_L3_TCM,0, 12.13415527,  1.50399780,end
timer_stats,697287272520374,PAPI_L3_TCM,1, 12.20947266,  1.51298523,end
timer_stats,697287273696923,PAPI_L3_TCM,0, 12.28375244,  1.52154541,end
timer_stats,697287274861998,PAPI_L3_TCM,0, 12.43792724,  1.53958130,end
timer_stats,697287276048569,PAPI_L3_TCM,7, 12.51770019,  1.54830933,end
timer_stats,697287277203763,PAPI_L3_TCM,0, 12.59149170,  1.55758667,end
timer_stats,697287278378712,PAPI_L3_TCM,1, 12.66772461,  1.56687927,end
timer_stats,697287279557600,PAPI_L3_TCM,0, 12.74468994,  1.57542419,end
timer_stats,697287280734765,PAPI_L3_TCM,1, 12.82525635,  1.58438110,end
timer_stats,697287281908720,PAPI_L3_TCM,2, 12.97937012,  1.60290527,end
timer_stats,697287283091118,PAPI_L3_TCM,0, 13.05438232,  1.61193848,end
timer_stats,697287284263156,PAPI_L3_TCM,1, 13.13201904,  1.62072754,end
timer_stats,697287285413451,PAPI_L3_TCM,1, 13.21185303,  1.62948608,end
timer_stats,697287286577732,PAPI_L3_TCM,0, 13.29119873,  1.63803100,end
timer_stats,697287287753064,PAPI_L3_TCM,1, 13.36810303,  1.64651489,end
timer_stats,697287288928459,PAPI_L3_TCM,2, 13.52136230,  1.66430664,end
timer_stats,697287290114007,PAPI_L3_TCM,6, 13.60028076,  1.67350769,end
timer_stats,697287291294049,PAPI_L3_TCM,0, 13.67810058,  1.68321228,end
timer_stats,697287292466013,PAPI_L3_TCM,0, 13.75115967,  1.69197082,end
timer_stats,697287293606021,PAPI_L3_TCM,1, 13.83166504,  1.70097351,end
timer_stats,697287294779330,PAPI_L3_TCM,1, 13.95953369,  1.71495056,end
timer_stats,697287295957895,PAPI_L3_TCM,0, 14.05578613,  1.72740173,end
timer_stats,697287297154683,PAPI_L3_TCM,2, 14.13537598,  1.73638916,end
timer_stats,697287298323785,PAPI_L3_TCM,0, 14.21258545,  1.74516296,end
timer_stats,697287299499753,PAPI_L3_TCM,0, 14.28369141,  1.75425720,end
timer_stats,697287300678067,PAPI_L3_TCM,1, 14.35864258,  1.76325989,end
timer_stats,697287301857679,PAPI_L3_TCM,0, 14.51721191,  1.78321838,end
timer_stats,697287303024720,PAPI_L3_TCM,0, 14.58886719,  1.79200745,end
timer_stats,697287304199485,PAPI_L3_TCM,4, 14.66748047,  1.80146789,end
timer_stats,697287305347617,PAPI_L3_TCM,1, 14.74755859,  1.81042480,end
timer_stats,697287306511484,PAPI_L3_TCM,1, 14.82360840,  1.81939697,end
timer_stats,697287307687903,PAPI_L3_TCM,0, 14.90008545,  1.82864380,end
timer_stats,697287308864641,PAPI_L3_TCM,1, 15.04998779,  1.84570312,end
timer_stats,697287310039376,PAPI_L3_TCM,0, 15.12872314,  1.85470581,end
timer_stats,697287311209028,PAPI_L3_TCM,0, 15.20562744,  1.86349487,end
timer_stats,697287312385469,PAPI_L3_TCM,1, 15.28308105,  1.87203979,end
timer_stats,697287313560247,PAPI_L3_TCM,1, 15.35693359,  1.88041687,end
timer_stats,697287314726692,PAPI_L3_TCM,0, 15.43194580,  1.88899231,end
timer_stats,697287315904880,PAPI_L3_TCM,1, 15.58276367,  1.90583801,end
timer_stats,697287317077372,PAPI_L3_TCM,1, 15.66162109,  1.91462707,end
timer_stats,697287318234563,PAPI_L3_TCM,0, 15.73937988,  1.92340088,end
timer_stats,697287319400008,PAPI_L3_TCM,0, 15.81201172,  1.93310547,end
timer_stats,697287320575009,PAPI_L3_TCM,1, 15.89013672,  1.94557190,end
timer_stats,697287321754514,PAPI_L3_TCM,0, 15.97167969,  1.95680237,end
timer_stats,697287322919739,PAPI_L3_TCM,2, 16.12243652,  1.97407532,end
timer_stats,697287324097994,PAPI_L3_TCM,1, 16.19873047,  1.98359680,end
timer_stats,697287325253722,PAPI_L3_TCM,1, 16.27453613,  1.99240112,end
timer_stats,697287326428804,PAPI_L3_TCM,0, 16.35339355,  2.00115967,end
timer_stats,697287327603706,PAPI_L3_TCM,0, 16.43206787,  2.00970459,end
timer_stats,697287328779130,PAPI_L3_TCM,1, 16.56536865,  2.01831055,end
timer_stats,697287329919295,PAPI_L3_TCM,1, 16.66918945,  2.03591919,end
timer_stats,697287331058533,PAPI_L3_TCM,1, 16.75231933,  2.04469299,end
timer_stats,697287332232911,PAPI_L3_TCM,3, 16.83172607,  2.05528259,end
timer_stats,697287333385965,PAPI_L3_TCM,0, 16.91149902,  2.06407165,end
timer_stats,697287334561557,PAPI_L3_TCM,0, 16.98980713,  2.07304382,end
timer_stats,697287335736585,PAPI_L3_TCM,0, 17.06970215,  2.08154297,end
timer_stats,697287336915240,PAPI_L3_TCM,1, 17.22296142,  2.09999084,end
timer_stats,697287338094062,PAPI_L3_TCM,0, 17.30694580,  2.10511780,end
timer_stats,697287339272470,PAPI_L3_TCM,0, 17.37841797,  2.11375427,end
timer_stats,697287340444641,PAPI_L3_TCM,1, 17.45806885,  2.12251282,end
timer_stats,697287341622576,PAPI_L3_TCM,1, 17.54125976,  2.13105774,end
timer_stats,697287342800611,PAPI_L3_TCM,0, 17.61694336,  2.14012146,end
timer_stats,697287343959869,PAPI_L3_TCM,2, 17.78027344,  2.15879822,end
timer_stats,697287345143478,PAPI_L3_TCM,2, 17.85687256,  2.16763306,end
timer_stats,697287346303916,PAPI_L3_TCM,0, 17.93444824,  2.17640686,end
timer_stats,697287347462410,PAPI_L3_TCM,0, 18.01153564,  2.18522644,end
timer_stats,697287348634588,PAPI_L3_TCM,1, 18.09014893,  2.19374084,end
timer_stats,697287349805887,PAPI_L3_TCM,0, 18.21734619,  2.20228577,end
timer_stats,697287355693308,PAPI_L3_TCM,2, 18.61688232,  2.26281738,end
timer_stats,697287356867903,PAPI_L3_TCM,1, 18.69458008,  2.27331543,end
timer_stats,697287358014754,PAPI_L3_TCM,0, 18.84863281,  2.29397583,end
timer_stats,697287359164739,PAPI_L3_TCM,0, 18.92089844,  2.30398559,end
timer_stats,697287360309604,PAPI_L3_TCM,1, 18.99969482,  2.31344604,end
timer_stats,697287361455981,PAPI_L3_TCM,0, 19.07495117,  2.32536316,end
timer_stats,697287362599830,PAPI_L3_TCM,0, 19.15484619,  2.33433533,end
timer_stats,697287363745504,PAPI_L3_TCM,0, 19.22796631,  2.34342957,end
timer_stats,697287364890162,PAPI_L3_TCM,3, 19.37683105,  2.36154175,end
timer_stats,697287366035684,PAPI_L3_TCM,0, 19.45550537,  2.37051392,end
timer_stats,697287367183689,PAPI_L3_TCM,0, 19.52618408,  2.37957764,end
timer_stats,697287368328696,PAPI_L3_TCM,1, 19.60131836,  2.38836670,end
timer_stats,697287369472508,PAPI_L3_TCM,1, 19.67950439,  2.39735413,end
timer_stats,697287370617099,PAPI_L3_TCM,0, 19.75506592,  2.40568542,end
timer_stats,697287371762488,PAPI_L3_TCM,0, 19.83172607,  2.41426086,end
timer_stats,697287372906445,PAPI_L3_TCM,1, 19.95520019,  2.42800903,end
timer_stats,697287374024727,PAPI_L3_TCM,3, 20.06237793,  2.44067383,end
timer_stats,697287375167902,PAPI_L3_TCM,0, 20.15002441,  2.44982910,end
timer_stats,697287376309143,PAPI_L3_TCM,1, 20.22570801,  2.45861816,end
timer_stats,697287377450691,PAPI_L3_TCM,0, 20.29864502,  2.46765137,end
timer_stats,697287378594492,PAPI_L3_TCM,0, 20.37310791,  2.47665405,end
timer_stats,697287379747281,PAPI_L3_TCM,0, 20.44812012,  2.48565674,end
timer_stats,697287380889886,PAPI_L3_TCM,1, 20.52490234,  2.49420166,end
timer_stats,697287382032690,PAPI_L3_TCM,1, 20.67736816,  2.51348877,end
timer_stats,697287383181108,PAPI_L3_TCM,1, 20.75427246,  2.52380371,end
timer_stats,697287384323106,PAPI_L3_TCM,0, 20.82763672,  2.53280640,end
timer_stats,697287385473045,PAPI_L3_TCM,0, 20.90081787,  2.54165649,end
timer_stats,697287386614062,PAPI_L3_TCM,0, 20.98132324,  2.55168152,end
timer_stats,697287387755904,PAPI_L3_TCM,0, 21.05303955,  2.56025696,end
timer_stats,697287388897282,PAPI_L3_TCM,1, 21.15045166,  2.57272339,end
timer_stats,697287390038503,PAPI_L3_TCM,0, 21.27166748,  2.58645630,end
timer_stats,697287391180934,PAPI_L3_TCM,0, 21.34790039,  2.59500122,end
timer_stats,697287392322538,PAPI_L3_TCM,2, 21.42163086,  2.60379028,end
timer_stats,697287393463083,PAPI_L3_TCM,0, 21.49218750,  2.61238098,end
timer_stats,697287394604395,PAPI_L3_TCM,0, 21.56707764,  2.62095642,end
timer_stats,697287395743797,PAPI_L3_TCM,0, 21.64135742,  2.62950134,end
timer_stats,697287396884804,PAPI_L3_TCM,1, 21.71551514,  2.63829040,end
timer_stats,697287398024086,PAPI_L3_TCM,0, 21.86395264,  2.65565491,end
timer_stats,697287399166887,PAPI_L3_TCM,1, 21.93560791,  2.66423035,end
timer_stats,697287400314392,PAPI_L3_TCM,1, 22.00799561,  2.67280578,end
timer_stats,697287401459046,PAPI_L3_TCM,1, 22.08428955,  2.68157959,end
timer_stats,697287402599835,PAPI_L3_TCM,0, 22.15545654,  2.69018555,end
timer_stats,697287403737840,PAPI_L3_TCM,0, 22.22845459,  2.69876099,end
timer_stats,697287404877091,PAPI_L3_TCM,1, 22.30615234,  2.70751953,end
timer_stats,697287406016529,PAPI_L3_TCM,0, 22.45513916,  2.72486877,end
timer_stats,697287407155940,PAPI_L3_TCM,0, 22.53002930,  2.73344421,end
timer_stats,697287408297732,PAPI_L3_TCM,1, 22.60565185,  2.74220276,end
timer_stats,697287409444516,PAPI_L3_TCM,0, 22.67687988,  2.75080871,end
timer_stats,697287410962116,PAPI_L3_TCM,1128, 22.82354736,  2.76841736,end
timer_stats,697287412077784,PAPI_L3_TCM,27, 22.89886475,  2.77719116,end
timer_stats,697287413232565,PAPI_L3_TCM,1, 22.97399902,  2.78598022,end
timer_stats,697287414369067,PAPI_L3_TCM,0, 23.05548096,  2.79469299,end
timer_stats,697287415505569,PAPI_L3_TCM,1, 23.12359619,  2.80363464,end
timer_stats,697287416640379,PAPI_L3_TCM,1, 23.19775391,  2.81221008,end
timer_stats,697287417774814,PAPI_L3_TCM,0, 23.27056885,  2.82106018,end
timer_stats,697287418911282,PAPI_L3_TCM,0, 23.39331055,  2.82960510,end
timer_stats,697287420057683,PAPI_L3_TCM,1, 23.46643066,  2.84336853,end
timer_stats,697287421196362,PAPI_L3_TCM,0, 23.57238769,  2.85578918,end
timer_stats,697287422332526,PAPI_L3_TCM,0, 23.64514160,  2.86460876,end
timer_stats,697287423468074,PAPI_L3_TCM,0, 23.72363281,  2.87312317,end
timer_stats,697287424860690,PAPI_L3_TCM,73, 23.84783936,  2.88746643,end
timer_stats,697287426140142,PAPI_L3_TCM,34, 23.91577148,  2.89656067,end
timer_stats,697287427277767,PAPI_L3_TCM,11, 24.02215576,  2.90943908,end
timer_stats,697287428415185,PAPI_L3_TCM,5, 24.10089111,  2.91821289,end
timer_stats,697287429550946,PAPI_L3_TCM,2, 24.16992187,  2.92694092,end
timer_stats,697287430687771,PAPI_L3_TCM,8, 24.24548340,  2.93551636,end
timer_stats,697287431824786,PAPI_L3_TCM,5, 24.32080078,  2.94432068,end
timer_stats,697287432963350,PAPI_L3_TCM,1, 24.47174072,  2.95785522,end
timer_stats,697287434101825,PAPI_L3_TCM,1, 24.54766846,  2.97030640,end
timer_stats,697287435239410,PAPI_L3_TCM,0, 24.62524414,  2.97909546,end
timer_stats,697287436375165,PAPI_L3_TCM,1, 24.70300293,  2.98767090,end
timer_stats,697287437509975,PAPI_L3_TCM,5, 24.77789307,  2.99649048,end
timer_stats,697287438645004,PAPI_L3_TCM,3, 24.85943603,  3.00521851,end
timer_stats,697287439780725,PAPI_L3_TCM,2, 24.92883301,  3.01394653,end
timer_stats,697287440917276,PAPI_L3_TCM,3, 25.01428222,  3.02261352,end
timer_stats,697287442054048,PAPI_L3_TCM,1, 25.16076660,  3.04389953,end
timer_stats,697287443198873,PAPI_L3_TCM,2, 25.23944092,  3.05487061,end
timer_stats,697287444348548,PAPI_L3_TCM,2, 25.31530762,  3.06384277,end
timer_stats,697287445504872,PAPI_L3_TCM,1, 25.39343262,  3.07290649,end
timer_stats,697287446644963,PAPI_L3_TCM,2, 25.46984863,  3.08143616,end
timer_stats,697287447810258,PAPI_L3_TCM,8, 25.55224609,  3.09162903,end
timer_stats,697287451486473,PAPI_L3_TCM,7, 25.83404541,  3.12773132,end
timer_stats,697287452624678,PAPI_L3_TCM,8, 25.91528320,  3.13488770,end
timer_stats,697287453759972,PAPI_L3_TCM,0, 25.98870850,  3.14355469,end
timer_stats,697287454894181,PAPI_L3_TCM,3, 26.06762695,  3.15234375,end
timer_stats,697287456046612,PAPI_L3_TCM,1, 26.21838379,  3.16946411,end
timer_stats,697287457186130,PAPI_L3_TCM,3, 26.29644775,  3.17803955,end
timer_stats,697287458347198,PAPI_L3_TCM,0, 26.37219238,  3.18685913,end
timer_stats,697287459510120,PAPI_L3_TCM,1, 26.45312500,  3.19668579,end
timer_stats,697287460660415,PAPI_L3_TCM,3, 26.53112793,  3.20669556,end
timer_stats,697287461820700,PAPI_L3_TCM,1, 26.61059570,  3.21537781,end
timer_stats,697287462988301,PAPI_L3_TCM,1, 26.73803711,  3.22929382,end
timer_stats,697287464153045,PAPI_L3_TCM,6, 26.81878662,  3.23802185,end
timer_stats,697287465293897,PAPI_L3_TCM,0, 26.91540527,  3.25035095,end
timer_stats,697287466454505,PAPI_L3_TCM,0, 26.99316406,  3.25917053,end
timer_stats,697287467616307,PAPI_L3_TCM,0, 27.07196045,  3.26774597,end
timer_stats,697287468767101,PAPI_L3_TCM,2, 27.14971924,  3.27627563,end
timer_stats,697287469929966,PAPI_L3_TCM,0, 27.22698975,  3.28485107,end
timer_stats,697287471091611,PAPI_L3_TCM,0, 27.37750244,  3.30226135,end
timer_stats,697287472246553,PAPI_L3_TCM,1, 27.43170166,  3.30714416,end
timer_stats,697287473388140,PAPI_L3_TCM,1, 27.53997803,  3.31929016,end
timer_stats,697287474550555,PAPI_L3_TCM,0, 27.61004639,  3.32823181,end
timer_stats,697287475713870,PAPI_L3_TCM,1, 27.69445801,  3.33692932,end
timer_stats,697287476865691,PAPI_L3_TCM,1, 27.77087402,  3.34573364,end
timer_stats,697287478028902,PAPI_L3_TCM,1, 27.89715576,  3.35989380,end
timer_stats,697287479193627,PAPI_L3_TCM,0, 27.99584961,  3.36872864,end
timer_stats,697287480346526,PAPI_L3_TCM,2, 28.06903076,  3.38102722,end
timer_stats,697287481509284,PAPI_L3_TCM,0, 28.14691162,  3.38981628,end
timer_stats,697287482671759,PAPI_L3_TCM,1, 28.22003174,  3.39843750,end
timer_stats,697287483834743,PAPI_L3_TCM,3, 28.29815674,  3.40744019,end
timer_stats,697287484988008,PAPI_L3_TCM,1, 28.42858887,  3.42132568,end
timer_stats,697287486155343,PAPI_L3_TCM,1, 28.50439453,  3.43011475,end
timer_stats,697287487323775,PAPI_L3_TCM,1, 28.60198975,  3.44287109,end
timer_stats,697287488486343,PAPI_L3_TCM,1, 28.68103027,  3.45159912,end
timer_stats,697287489673605,PAPI_L3_TCM,7, 28.75671387,  3.46017456,end
timer_stats,697287490838829,PAPI_L3_TCM,0, 28.83422851,  3.46893310,end
timer_stats,697287492017034,PAPI_L3_TCM,1, 28.95239258,  3.48260498,end
timer_stats,697287493165989,PAPI_L3_TCM,3, 29.03436279,  3.49108887,end
timer_stats,697287494332644,PAPI_L3_TCM,1, 29.13482666,  3.50329590,end
timer_stats,697287495497285,PAPI_L3_TCM,0, 29.21240234,  3.51205444,end
timer_stats,697287496662587,PAPI_L3_TCM,2, 29.28350830,  3.52066040,end
timer_stats,697287497829628,PAPI_L3_TCM,0, 29.35308838,  3.52938843,end
timer_stats,697287498992863,PAPI_L3_TCM,4, 29.50372314,  3.54684448,end
timer_stats,697287500159101,PAPI_L3_TCM,1, 29.58386230,  3.55178833,end
timer_stats,697287501299323,PAPI_L3_TCM,1, 29.65936279,  3.56417847,end
timer_stats,697287502465367,PAPI_L3_TCM,0, 29.73602295,  3.57296753,end
timer_stats,697287503630905,PAPI_L3_TCM,1, 29.80401611,  3.58193970,end
timer_stats,697287504796670,PAPI_L3_TCM,1, 29.88720703,  3.59042358,end
timer_stats,697287505964482,PAPI_L3_TCM,3, 29.96221924,  3.59945679,end
timer_stats,697287507105742,PAPI_L3_TCM,1, 30.08618164,  3.61390686,end
timer_stats,697287508245804,PAPI_L3_TCM,4, 30.18682861,  3.62632751,end
timer_stats,697287509385382,PAPI_L3_TCM,1, 30.26574707,  3.63508606,end
timer_stats,697287510525994,PAPI_L3_TCM,2, 30.34179687,  3.63874817,end
timer_stats,697287511666108,PAPI_L3_TCM,0, 30.41680908,  3.64707947,end
timer_stats,697287512805203,PAPI_L3_TCM,4, 30.49267578,  3.65562439,end
timer_stats,697287513945551,PAPI_L3_TCM,3, 30.56756592,  3.66442871,end
timer_stats,697287515088609,PAPI_L3_TCM,3, 30.68975830,  3.67846680,end
timer_stats,697287516232290,PAPI_L3_TCM,1, 30.78741455,  3.69122314,end
timer_stats,697287517374925,PAPI_L3_TCM,3, 30.87384033,  3.69964600,end
timer_stats,697287518515764,PAPI_L3_TCM,0, 30.94006347,  3.70837402,end
timer_stats,697287519654551,PAPI_L3_TCM,1, 31.02288818,  3.71710205,end
timer_stats,697287520794516,PAPI_L3_TCM,1, 31.10052490,  3.72543335,end
timer_stats,697287521933678,PAPI_L3_TCM,0, 31.17767334,  3.73478699,end
timer_stats,697287523043369,PAPI_L3_TCM,0, 31.30340576,  3.74876404,end
timer_stats,697287524160347,PAPI_L3_TCM,5, 31.40563965,  3.76139831,end
timer_stats,697287525303262,PAPI_L3_TCM,0, 31.47833252,  3.77000427,end
timer_stats,697287526469293,PAPI_L3_TCM,1, 31.55572510,  3.77897644,end
timer_stats,697287527635258,PAPI_L3_TCM,0, 31.63067627,  3.78721619,end
timer_stats,697287528816992,PAPI_L3_TCM,9, 31.70440674,  3.79621887,end
timer_stats,697287529959927,PAPI_L3_TCM,2, 31.78106689,  3.80549621,end
timer_stats,697287531104626,PAPI_L3_TCM,1, 31.90765381,  3.82060242,end
timer_stats,697287532244513,PAPI_L3_TCM,2, 32.00646973,  3.83334351,end
timer_stats,697287533382745,PAPI_L3_TCM,3, 32.09338379,  3.84202576,end
timer_stats,697287534492812,PAPI_L3_TCM,0, 32.17303467,  3.85081482,end
timer_stats,697287535632507,PAPI_L3_TCM,1, 32.24700928,  3.85990906,end
timer_stats,697287536772702,PAPI_L3_TCM,4, 32.32263184,  3.86848450,end
timer_stats,697287539454830,PAPI_L3_TCM,1, 32.54095459,  3.89329529,end
timer_stats,697287540612708,PAPI_L3_TCM,3, 32.61627197,  3.90072632,end
timer_stats,697287541779673,PAPI_L3_TCM,2, 32.68859863,  3.90954590,end
timer_stats,697287542946985,PAPI_L3_TCM,0, 32.76013184,  3.91836548,end
timer_stats,697287544104655,PAPI_L3_TCM,2, 32.88909912,  3.93206787,end
timer_stats,697287545248094,PAPI_L3_TCM,0, 32.98895264,  3.94430542,end
timer_stats,697287546409455,PAPI_L3_TCM,0, 33.06445312,  3.95288086,end
timer_stats,697287547570020,PAPI_L3_TCM,0, 33.14056396,  3.96148682,end
timer_stats,697287548724868,PAPI_L3_TCM,1, 33.21655273,  3.97003174,end
timer_stats,697287549892703,PAPI_L3_TCM,1, 33.28833008,  3.97863769,end
timer_stats,697287551037371,PAPI_L3_TCM,0, 33.41528320,  3.99253845,end
timer_stats,697287552194413,PAPI_L3_TCM,0, 33.51422119,  4.00476074,end
timer_stats,697287553339181,PAPI_L3_TCM,1, 33.58923340,  4.01527405,end
timer_stats,697287554504796,PAPI_L3_TCM,0, 33.66662598,  4.02403259,end
timer_stats,697287555660773,PAPI_L3_TCM,0, 33.73748779,  4.03289795,end
timer_stats,697287556806938,PAPI_L3_TCM,3, 33.81829834,  4.04141235,end
timer_stats,697287557956540,PAPI_L3_TCM,0, 33.89611816,  4.05020142,end
timer_stats,697287559134664,PAPI_L3_TCM,0, 34.01440429,  4.06396484,end
timer_stats,697287560296529,PAPI_L3_TCM,1, 34.11663818,  4.07632446,end
timer_stats,697287561471951,PAPI_L3_TCM,0, 34.18737793,  4.08493042,end
timer_stats,697287562644729,PAPI_L3_TCM,1, 34.26086426,  4.09371948,end
timer_stats,697287563818431,PAPI_L3_TCM,0, 34.33142090,  4.10231018,end
timer_stats,697287564981528,PAPI_L3_TCM,6, 34.40539551,  4.11109924,end
timer_stats,697287566162466,PAPI_L3_TCM,0, 34.52911377,  4.12483215,end
timer_stats,697287567333678,PAPI_L3_TCM,3, 34.62713623,  4.13877869,end
timer_stats,697287568475970,PAPI_L3_TCM,2, 34.69799805,  4.14762878,end
timer_stats,697287569649398,PAPI_L3_TCM,7, 34.77258301,  4.15620422,end
timer_stats,697287570794083,PAPI_L3_TCM,1, 34.84759521,  4.16548157,end
timer_stats,697287571936697,PAPI_L3_TCM,2, 34.92010498,  4.17405701,end
timer_stats,697287573082849,PAPI_L3_TCM,3, 35.04620361,  4.18774414,end
timer_stats,697287574227197,PAPI_L3_TCM,5, 35.11785889,  4.19734192,end
timer_stats,697287575340988,PAPI_L3_TCM,1, 35.22131348,  4.20970154,end
timer_stats,697287576483879,PAPI_L3_TCM,1, 35.29602051,  4.21867370,end
timer_stats,697287577626958,PAPI_L3_TCM,0, 35.36077881,  4.22752380,end
timer_stats,697287578770533,PAPI_L3_TCM,0, 35.43395996,  4.23628235,end
timer_stats,697287579912860,PAPI_L3_TCM,0, 35.50592041,  4.24485779,end
timer_stats,697287581056392,PAPI_L3_TCM,1, 35.57843018,  4.25340271,end
timer_stats,697287582200273,PAPI_L3_TCM,0, 35.71435547,  4.27061462,end
timer_stats,697287583312788,PAPI_L3_TCM,2, 35.78717041,  4.27937317,end
timer_stats,697287584460382,PAPI_L3_TCM,5, 35.86529541,  4.28808594,end
timer_stats,697287585628077,PAPI_L3_TCM,0, 35.93176269,  4.29693603,end
timer_stats,697287586768111,PAPI_L3_TCM,4, 36.00354004,  4.30554199,end
timer_stats,697287587947210,PAPI_L3_TCM,5, 36.08123779,  4.31427002,end
timer_stats,697287589116278,PAPI_L3_TCM,1, 36.19622803,  4.32801819,end
timer_stats,697287590294296,PAPI_L3_TCM,1, 36.28601074,  4.34049988,end
timer_stats,697287591469825,PAPI_L3_TCM,0, 36.35235596,  4.34931946,end
timer_stats,697287592635120,PAPI_L3_TCM,1, 36.42266846,  4.35786438,end
timer_stats,697287593808034,PAPI_L3_TCM,0, 36.48944092,  4.36665344,end
timer_stats,697287594976795,PAPI_L3_TCM,0, 36.55999756,  4.37519836,end
timer_stats,697287596142817,PAPI_L3_TCM,4, 36.69653320,  4.39285278,end
timer_stats,697287597294829,PAPI_L3_TCM,3, 36.76910400,  4.40142822,end
timer_stats,697287598471404,PAPI_L3_TCM,0, 36.84106445,  4.41021728,end
timer_stats,697287599633952,PAPI_L3_TCM,1, 36.91149902,  4.41902161,end
timer_stats,697287600795899,PAPI_L3_TCM,5, 36.98114014,  4.42781067,end
timer_stats,697287601975294,PAPI_L3_TCM,6, 37.05664062,  4.43727112,end
timer_stats,697287603120476,PAPI_L3_TCM,1, 37.18054199,  4.45246887,end
timer_stats,697287604266864,PAPI_L3_TCM,0, 37.27264404,  4.46493530,end
timer_stats,697287605409853,PAPI_L3_TCM,0, 37.34252930,  4.47354126,end
timer_stats,697287606552730,PAPI_L3_TCM,0, 37.41870117,  4.48205566,end
timer_stats,697287607694795,PAPI_L3_TCM,2, 37.49127197,  4.49118042,end
timer_stats,697287608839683,PAPI_L3_TCM,2, 37.56506348,  4.49972534,end
timer_stats,697287609983112,PAPI_L3_TCM,0, 37.63470459,  4.50857544,end
timer_stats,697287611138459,PAPI_L3_TCM,1, 37.75952148,  4.52203369,end
timer_stats,697287612301074,PAPI_L3_TCM,1, 37.85668945,  4.53466797,end
timer_stats,697287613486149,PAPI_L3_TCM,0, 37.92413330,  4.54376221,end
timer_stats,697287614662677,PAPI_L3_TCM,0, 37.99700928,  4.55258179,end
timer_stats,697287615837361,PAPI_L3_TCM,0, 38.07104492,  4.56137085,end
timer_stats,697287617002596,PAPI_L3_TCM,1, 38.14605713,  4.56991577,end
timer_stats,697287618192491,PAPI_L3_TCM,0, 38.28979492,  4.58709717,end
timer_stats,697287619361176,PAPI_L3_TCM,0, 38.36505127,  4.59588623,end
timer_stats,697287620523685,PAPI_L3_TCM,2, 38.44030762,  4.60466003,end
timer_stats,697287621697843,PAPI_L3_TCM,0, 38.51123047,  4.61326599,end
timer_stats,697287622871671,PAPI_L3_TCM,0, 38.58642578,  4.62181091,end
timer_stats,697287624047805,PAPI_L3_TCM,1, 38.65887451,  4.63084412,end
timer_stats,697287625207120,PAPI_L3_TCM,0, 38.80670166,  4.64460754,end
timer_stats,697287626381925,PAPI_L3_TCM,0, 38.88061523,  4.65678406,end
timer_stats,697287627550447,PAPI_L3_TCM,0, 38.95245361,  4.66606140,end
timer_stats,697287628722452,PAPI_L3_TCM,6, 39.02844238,  4.67639160,end
timer_stats,697287629892344,PAPI_L3_TCM,1, 39.10479736,  4.68539429,end
timer_stats,697287632305870,PAPI_L3_TCM,3, 39.32098389,  4.71475220,end
timer_stats,697287633453498,PAPI_L3_TCM,1, 39.39349365,  4.72506714,end
timer_stats,697287634760440,PAPI_L3_TCM,2, 39.46240234,  4.73437500,end
timer_stats,697287636094332,PAPI_L3_TCM,20, 39.53302002,  4.74310303,end
timer_stats,697287637238654,PAPI_L3_TCM,0, 39.63494873,  4.76171875,end
timer_stats,697287638414412,PAPI_L3_TCM,0, 39.72796631,  4.77073669,end
timer_stats,697287639588074,PAPI_L3_TCM,0, 39.79455566,  4.77929687,end
timer_stats,697287640758609,PAPI_L3_TCM,1, 39.86065674,  4.78805542,end
timer_stats,697287641923416,PAPI_L3_TCM,1, 39.93127441,  4.79858398,end
timer_stats,697287643093664,PAPI_L3_TCM,0, 40.00390625,  4.80731201,end
timer_stats,697287644263409,PAPI_L3_TCM,0, 40.14715576,  4.82846069,end
timer_stats,697287645378450,PAPI_L3_TCM,0, 40.21826172,  4.83880615,end
timer_stats,697287646539778,PAPI_L3_TCM,0, 40.29235840,  4.84753418,end
timer_stats,697287647702750,PAPI_L3_TCM,0, 40.36083984,  4.85635376,end
timer_stats,697287648880125,PAPI_L3_TCM,0, 40.43145752,  4.86511230,end
timer_stats,697287650069190,PAPI_L3_TCM,1, 40.49987793,  4.87564087,end
timer_stats,697287651259558,PAPI_L3_TCM,0, 40.63873291,  4.89294434,end
timer_stats,697287652437100,PAPI_L3_TCM,0, 40.70465088,  4.90023804,end
timer_stats,697287653628375,PAPI_L3_TCM,0, 40.77203369,  4.91035461,end
timer_stats,697287654821246,PAPI_L3_TCM,0, 40.84509277,  4.91792297,end
timer_stats,697287655988807,PAPI_L3_TCM,0, 40.91424560,  4.92521667,end
timer_stats,697287657160222,PAPI_L3_TCM,0, 41.02496338,  4.93714905,end
timer_stats,697287658317244,PAPI_L3_TCM,0, 41.13122559,  4.94952393,end
timer_stats,697287659482212,PAPI_L3_TCM,1, 41.20001221,  4.95678711,end
timer_stats,697287660639827,PAPI_L3_TCM,0, 41.27117920,  4.96382141,end
timer_stats,697287661795545,PAPI_L3_TCM,0, 41.34167480,  4.97288513,end
timer_stats,697287662949280,PAPI_L3_TCM,0, 41.41772461,  4.98033142,end
timer_stats,697287664104975,PAPI_L3_TCM,0, 41.49078369,  4.98762512,end
timer_stats,697287665263386,PAPI_L3_TCM,0, 41.63903809,  5.00526428,end
timer_stats,697287666419574,PAPI_L3_TCM,0, 41.71356201,  5.01304626,end
timer_stats,697287667573489,PAPI_L3_TCM,0, 41.78741455,  5.02029419,end
timer_stats,697287668735414,PAPI_L3_TCM,2, 41.86004639,  5.02828979,end
timer_stats,697287669900558,PAPI_L3_TCM,0, 41.93707275,  5.03857422,end
timer_stats,697287671064189,PAPI_L3_TCM,0, 42.01727295,  5.04730225,end
timer_stats,697287672228168,PAPI_L3_TCM,0, 42.13208008,  5.06108093,end
timer_stats,697287673389513,PAPI_L3_TCM,0, 42.24383545,  5.07568359,end
timer_stats,697287674552241,PAPI_L3_TCM,0, 42.31933594,  5.08471680,end
timer_stats,697287675712749,PAPI_L3_TCM,1, 42.39770508,  5.09346008,end
timer_stats,697287676867070,PAPI_L3_TCM,0, 42.47735596,  5.10244751,end
timer_stats,697287678025412,PAPI_L3_TCM,1, 42.55743408,  5.11253357,end
timer_stats,697287679187130,PAPI_L3_TCM,0, 42.67193603,  5.12702942,end
timer_stats,697287680319522,PAPI_L3_TCM,0, 42.78485107,  5.13972473,end
timer_stats,697287681478153,PAPI_L3_TCM,0, 42.86291504,  5.14901733,end
timer_stats,697287682640961,PAPI_L3_TCM,0, 42.94152832,  5.15830994,end
timer_stats,697287683799969,PAPI_L3_TCM,0, 43.01831055,  5.16712952,end
timer_stats,697287684957461,PAPI_L3_TCM,0, 43.09741211,  5.17613220,end
timer_stats,697287686125842,PAPI_L3_TCM,0, 43.18029785,  5.18545532,end
timer_stats,697287687288081,PAPI_L3_TCM,1, 43.34674072,  5.20368957,end
timer_stats,697287688450578,PAPI_L3_TCM,0, 43.43444824,  5.21244812,end
timer_stats,697287689612233,PAPI_L3_TCM,0, 43.52148437,  5.22120666,end
timer_stats,697287690775118,PAPI_L3_TCM,0, 43.60449219,  5.22978210,end
timer_stats,697287691914186,PAPI_L3_TCM,0, 43.69079590,  5.23854065,end
timer_stats,697287693034497,PAPI_L3_TCM,0, 43.77459717,  5.24784851,end
timer_stats,697287694199275,PAPI_L3_TCM,1, 43.91387939,  5.26155090,end
timer_stats,697287695359527,PAPI_L3_TCM,1, 44.03277588,  5.27595520,end
timer_stats,697287696524081,PAPI_L3_TCM,1, 44.11578369,  5.28495788,end
timer_stats,697287697661379,PAPI_L3_TCM,1, 44.20172119,  5.29396057,end
timer_stats,697287698825794,PAPI_L3_TCM,0, 44.28485107,  5.30323791,end
timer_stats,697287700012689,PAPI_L3_TCM,0, 44.36395264,  5.31230163,end
timer_stats,697287701175788,PAPI_L3_TCM,0, 44.44476318,  5.32151794,end
timer_stats,697287702362959,PAPI_L3_TCM,0, 44.61151123,  5.34060669,end
timer_stats,697287703526470,PAPI_L3_TCM,2, 44.69854736,  5.34936523,end
timer_stats,697287704688272,PAPI_L3_TCM,0, 44.78381348,  5.35839844,end
timer_stats,697287705870207,PAPI_L3_TCM,1, 44.86547851,  5.36697388,end
timer_stats,697287707050608,PAPI_L3_TCM,0, 44.95080566,  5.37600708,end
timer_stats,697287708226577,PAPI_L3_TCM,0, 45.08026123,  5.39022827,end
timer_stats,697287709387692,PAPI_L3_TCM,0, 45.19995117,  5.40237427,end
timer_stats,697287710568167,PAPI_L3_TCM,0, 45.28082275,  5.41094971,end
timer_stats,697287711750232,PAPI_L3_TCM,0, 45.36669922,  5.41972351,end
timer_stats,697287712927859,PAPI_L3_TCM,2, 45.44873047,  5.42906189,end
timer_stats,697287714115097,PAPI_L3_TCM,0, 45.53521729,  5.43782043,end
timer_stats,697287715298099,PAPI_L3_TCM,1, 45.70068359,  5.45538330,end
timer_stats,697287716473474,PAPI_L3_TCM,1, 45.78704834,  5.46414185,end
timer_stats,697287717657299,PAPI_L3_TCM,0, 45.86383057,  5.47293091,end
timer_stats,697287718806487,PAPI_L3_TCM,0, 45.93884277,  5.48071289,end
timer_stats,697287719967746,PAPI_L3_TCM,0, 46.02136230,  5.49171448,end
timer_stats,697287721138420,PAPI_L3_TCM,0, 46.10906982,  5.50044250,end
timer_stats,697287722299381,PAPI_L3_TCM,1, 46.24444580,  5.51490784,end
timer_stats,697287723474543,PAPI_L3_TCM,0, 46.35791015,  5.52732849,end
timer_stats,697287724649398,PAPI_L3_TCM,1, 46.43640137,  5.53590393,end
timer_stats,697287725835165,PAPI_L3_TCM,0, 46.51983643,  5.54487610,end
timer_stats,697287727023984,PAPI_L3_TCM,0, 46.60168457,  5.55366516,end
timer_stats,697287728201565,PAPI_L3_TCM,0, 46.73278809,  5.56784058,end
timer_stats,697287729362904,PAPI_L3_TCM,0, 46.85131836,  5.58044434,end
timer_stats,697287730548095,PAPI_L3_TCM,0, 46.92590332,  5.58929443,end
timer_stats,697287731752704,PAPI_L3_TCM,0, 47.00921631,  5.59786987,end
timer_stats,697287732926619,PAPI_L3_TCM,5, 47.09478760,  5.60641479,end
timer_stats,697287734111780,PAPI_L3_TCM,1, 47.18096924,  5.61468506,end
timer_stats,697287735298309,PAPI_L3_TCM,0, 47.30975342,  5.62844849,end
timer_stats,697287736471754,PAPI_L3_TCM,0, 47.42565918,  5.64106750,end
timer_stats,697287737659338,PAPI_L3_TCM,0, 47.50366211,  5.64967346,end
timer_stats,697287738847299,PAPI_L3_TCM,0, 47.58801269,  5.65821838,end
timer_stats,697287740037058,PAPI_L3_TCM,0, 47.66857910,  5.66703796,end
timer_stats,697287741199886,PAPI_L3_TCM,1, 47.80499268,  5.68119812,end
timer_stats,697287742396014,PAPI_L3_TCM,0, 47.92004394,  5.69438171,end
timer_stats,697287743572016,PAPI_L3_TCM,1, 48.00494385,  5.70442200,end
timer_stats,697287744747281,PAPI_L3_TCM,1, 48.08831787,  5.71372986,end
timer_stats,697287746121114,PAPI_L3_TCM,5, 48.16857910,  5.72306824,end
timer_stats,697287747294978,PAPI_L3_TCM,6, 48.30877685,  5.73942566,end
timer_stats,697287748452059,PAPI_L3_TCM,1, 48.41766357,  5.75210571,end
timer_stats,697287749608871,PAPI_L3_TCM,0, 48.49731445,  5.76066589,end
timer_stats,697287750764229,PAPI_L3_TCM,0, 48.57421875,  5.76945495,end
timer_stats,697287751953290,PAPI_L3_TCM,1, 48.64959717,  5.77778625,end
timer_stats,697287753177095,PAPI_L3_TCM,4, 48.72363281,  5.78588867,end
timer_stats,697287754376927,PAPI_L3_TCM,0, 48.80999756,  5.79566955,end
timer_stats,697287755575225,PAPI_L3_TCM,0, 48.89990234,  5.80601501,end
timer_stats,697287756763517,PAPI_L3_TCM,0, 48.96533203,  5.81327820,end
timer_stats,697287757962325,PAPI_L3_TCM,0, 49.02362060,  5.81623840,end
timer_stats,697287759167250,PAPI_L3_TCM,0, 49.04998779,  5.81745911,end
timer_stats,697287760361778,PAPI_L3_TCM,1, 49.12823486,  5.82543945,end
timer_stats,697287761554780,PAPI_L3_TCM,4, 49.19409180,  5.83425903,end
timer_stats,697287762737892,PAPI_L3_TCM,1, 49.25927734,  5.84259033,end
timer_stats,697287763917893,PAPI_L3_TCM,0, 49.32421875,  5.84962463,end
timer_stats,697287765087868,PAPI_L3_TCM,0, 49.38861084,  5.85696411,end
timer_stats,697287766283263,PAPI_L3_TCM,0, 49.51977539,  5.87170410,end
timer_stats,697287767474982,PAPI_L3_TCM,0, 49.58233643,  5.87759399,end
timer_stats,697287768667707,PAPI_L3_TCM,1, 49.64672851,  5.88420105,end
timer_stats,697287769853891,PAPI_L3_TCM,8, 49.71099853,  5.89305115,end
timer_stats,697287771024152,PAPI_L3_TCM,3, 49.77960205,  5.90257263,end
timer_stats,697287772198137,PAPI_L3_TCM,2, 49.91339111,  5.92012024,end
timer_stats,697287773365102,PAPI_L3_TCM,0, 49.97644043,  5.92872620,end
timer_stats,697287774529307,PAPI_L3_TCM,0, 50.04626465,  5.93746948,end
timer_stats,697287775670986,PAPI_L3_TCM,0, 50.11907959,  5.94778442,end
timer_stats,697287776822383,PAPI_L3_TCM,2, 50.19268799,  5.95678711,end
timer_stats,697287777973628,PAPI_L3_TCM,1, 50.25836182,  5.96737671,end
timer_stats,697287779135206,PAPI_L3_TCM,0, 50.32641601,  5.97747803,end
timer_stats,697287780292930,PAPI_L3_TCM,1, 50.43524170,  5.99118042,end
timer_stats,697287781448929,PAPI_L3_TCM,1, 50.53118896,  6.00405884,end
timer_stats,697287782618434,PAPI_L3_TCM,0, 50.60253906,  6.01284790,end
timer_stats,697287783785199,PAPI_L3_TCM,0, 50.67175293,  6.02185059,end
timer_stats,697287784955634,PAPI_L3_TCM,1, 50.74505615,  6.03060913,end
timer_stats,697287786128105,PAPI_L3_TCM,0, 50.82012939,  6.04090881,end
timer_stats,697287787296473,PAPI_L3_TCM,0, 50.95843506,  6.05873108,end
timer_stats,697287788469378,PAPI_L3_TCM,1, 51.03082275,  6.06773376,end
timer_stats,697287789637543,PAPI_L3_TCM,0, 51.10272217,  6.07852173,end
timer_stats,697287790800864,PAPI_L3_TCM,1, 51.16937256,  6.08752441,end
timer_stats,697287791966806,PAPI_L3_TCM,0, 51.24249268,  6.09645080,end
