timer_stats,698583511791856,PAPI_L3_TCM,479,  0.09429932,  0.01025391,end
timer_stats,698583512927298,PAPI_L3_TCM,48,  0.18902588,  0.02096558,end
timer_stats,698583514069817,PAPI_L3_TCM,20,  0.32226562,  0.03826904,end
timer_stats,698583515219061,PAPI_L3_TCM,20,  0.45416260,  0.05479431,end
timer_stats,698583516320392,PAPI_L3_TCM,4,  0.55615234,  0.06642151,end
timer_stats,698583517423718,PAPI_L3_TCM,15,  0.65893555,  0.07711792,end
timer_stats,698583518575218,PAPI_L3_TCM,24,  0.74768066,  0.08810425,end
timer_stats,698583519737009,PAPI_L3_TCM,6,  0.82873535,  0.09707641,end
timer_stats,698583520900934,PAPI_L3_TCM,7,  0.91699219,  0.10675049,end
timer_stats,698583522065879,PAPI_L3_TCM,7,  1.00524902,  0.11703491,end
timer_stats,698583523193609,PAPI_L3_TCM,4,  1.18725586,  0.14033508,end
timer_stats,698583524306485,PAPI_L3_TCM,6,  1.28900146,  0.15113830,end
timer_stats,698583525426792,PAPI_L3_TCM,0,  1.38116455,  0.16329956,end
timer_stats,698583526564287,PAPI_L3_TCM,5,  1.47833252,  0.17422485,end
timer_stats,698583527700082,PAPI_L3_TCM,3,  1.56549072,  0.18472290,end
timer_stats,698583528846999,PAPI_L3_TCM,6,  1.66528320,  0.19546509,end
timer_stats,698583529998254,PAPI_L3_TCM,1,  1.80395508,  0.21133423,end
timer_stats,698583531159412,PAPI_L3_TCM,3,  1.89916992,  0.22134399,end
timer_stats,698583532289673,PAPI_L3_TCM,1,  2.03613281,  0.23745727,end
timer_stats,698583533445108,PAPI_L3_TCM,2,  2.12225342,  0.24777222,end
timer_stats,698583534606062,PAPI_L3_TCM,0,  2.21838379,  0.25805664,end
timer_stats,698583535768590,PAPI_L3_TCM,3,  2.30761719,  0.26858520,end
timer_stats,698583536929346,PAPI_L3_TCM,3,  2.39385986,  0.27914429,end
timer_stats,698583538082850,PAPI_L3_TCM,3,  2.53076172,  0.29460144,end
timer_stats,698583539255120,PAPI_L3_TCM,6,  2.65936279,  0.31028747,end
timer_stats,698583540407097,PAPI_L3_TCM,6,  2.74847412,  0.31884766,end
timer_stats,698583541569517,PAPI_L3_TCM,2,  2.83740234,  0.32916260,end
timer_stats,698583542729289,PAPI_L3_TCM,5,  2.92596436,  0.33843994,end
timer_stats,698583543886548,PAPI_L3_TCM,4,  3.01312256,  0.34696960,end
timer_stats,698583545046760,PAPI_L3_TCM,2,  3.10180664,  0.35597229,end
timer_stats,698583546164505,PAPI_L3_TCM,0,  3.24566650,  0.37185669,end
timer_stats,698583547325040,PAPI_L3_TCM,3,  3.37121582,  0.38784790,end
timer_stats,698583548465688,PAPI_L3_TCM,7,  3.47161865,  0.39657593,end
timer_stats,698583549635522,PAPI_L3_TCM,2,  3.57678223,  0.40774536,end
timer_stats,698583550784028,PAPI_L3_TCM,3,  3.68884277,  0.42007446,end
timer_stats,698583551887036,PAPI_L3_TCM,4,  3.81219482,  0.43412781,end
timer_stats,698583553009325,PAPI_L3_TCM,4,  3.94134521,  0.44644165,end
timer_stats,698583554114511,PAPI_L3_TCM,3,  4.07000732,  0.45832825,end
timer_stats,698583555232401,PAPI_L3_TCM,1,  4.32232666,  0.48205566,end
timer_stats,698583556365407,PAPI_L3_TCM,1,  4.44451904,  0.49388122,end
timer_stats,698583557566328,PAPI_L3_TCM,1,  4.57202148,  0.50569153,end
timer_stats,698583558728419,PAPI_L3_TCM,3,  4.70251465,  0.51742554,end
timer_stats,698583559900163,PAPI_L3_TCM,0,  4.83477783,  0.52825928,end
timer_stats,698583561033774,PAPI_L3_TCM,5,  4.96862793,  0.54029846,end
timer_stats,698583562153165,PAPI_L3_TCM,0,  5.18267822,  0.56201172,end
timer_stats,698583563284073,PAPI_L3_TCM,5,  5.39099121,  0.58416748,end
timer_stats,698583564389965,PAPI_L3_TCM,1,  5.54571533,  0.59710693,end
timer_stats,698583565490514,PAPI_L3_TCM,3,  5.72222900,  0.61085510,end
timer_stats,698583566965696,PAPI_L3_TCM,1,  5.89941406,  0.62535095,end
timer_stats,698583568052730,PAPI_L3_TCM,7,  6.08874512,  0.64012146,end
timer_stats,698583569140568,PAPI_L3_TCM,3,  6.37310791,  0.66229248,end
timer_stats,698583570225876,PAPI_L3_TCM,5,  6.65411377,  0.68495178,end
timer_stats,698583571301818,PAPI_L3_TCM,0,  6.83288574,  0.69752502,end
timer_stats,698583572393049,PAPI_L3_TCM,20,  7.01330566,  0.71162414,end
timer_stats,698583573479449,PAPI_L3_TCM,2,  7.18670654,  0.72267151,end
timer_stats,698583574584942,PAPI_L3_TCM,2,  7.36126709,  0.73773193,end
timer_stats,698583575667787,PAPI_L3_TCM,1,  7.54278564,  0.75277710,end
timer_stats,698583576747221,PAPI_L3_TCM,5,  7.73590088,  0.76576233,end
timer_stats,698583577823323,PAPI_L3_TCM,2,  7.91864014,  0.78120422,end
timer_stats,698583578905216,PAPI_L3_TCM,5,  8.13006592,  0.79631042,end
timer_stats,698583579997646,PAPI_L3_TCM,6,  8.33074951,  0.81201172,end
timer_stats,698583581097546,PAPI_L3_TCM,2,  8.53186035,  0.82868957,end
timer_stats,698583582193150,PAPI_L3_TCM,3,  8.83782959,  0.85063171,end
timer_stats,698583583281484,PAPI_L3_TCM,1,  9.12200928,  0.87397766,end
timer_stats,698583584370716,PAPI_L3_TCM,0,  9.31024170,  0.88893127,end
timer_stats,698583585466946,PAPI_L3_TCM,1,  9.49157715,  0.90492248,end
timer_stats,698583586561372,PAPI_L3_TCM,1,  9.67706299,  0.92079163,end
timer_stats,698583587699653,PAPI_L3_TCM,6,  9.85491943,  0.93650818,end
timer_stats,698583588793100,PAPI_L3_TCM,2, 10.03692627,  0.95283508,end
timer_stats,698583589885053,PAPI_L3_TCM,8, 10.22497558,  0.96835327,end
timer_stats,698583590989271,PAPI_L3_TCM,1, 10.41613769,  0.98396301,end
timer_stats,698583592040263,PAPI_L3_TCM,5, 10.59979248,  0.99897766,end
timer_stats,698583593124558,PAPI_L3_TCM,2, 10.79058838,  1.01455688,end
timer_stats,698583594222704,PAPI_L3_TCM,1, 11.08697510,  1.03819275,end
timer_stats,698583595316081,PAPI_L3_TCM,1, 11.35992432,  1.06170654,end
timer_stats,698583596395712,PAPI_L3_TCM,8, 11.54156494,  1.07257080,end
timer_stats,698583597508671,PAPI_L3_TCM,1, 11.71716308,  1.08784485,end
timer_stats,698583598599120,PAPI_L3_TCM,4, 11.89526367,  1.10295105,end
timer_stats,698583599680380,PAPI_L3_TCM,1, 12.07769775,  1.11869812,end
timer_stats,698583600781176,PAPI_L3_TCM,2, 12.25775146,  1.13372803,end
timer_stats,698583601865322,PAPI_L3_TCM,0, 12.44299316,  1.14852905,end
timer_stats,698583602957974,PAPI_L3_TCM,17, 12.62957764,  1.16357422,end
timer_stats,698583604051331,PAPI_L3_TCM,5, 12.79467773,  1.17982483,end
timer_stats,698583605214899,PAPI_L3_TCM,22, 13.06811523,  1.21046448,end
timer_stats,698583606362701,PAPI_L3_TCM,4, 13.32244873,  1.22515869,end
timer_stats,698583607452426,PAPI_L3_TCM,5, 13.49298096,  1.23977661,end
timer_stats,698583608540669,PAPI_L3_TCM,2, 13.66571045,  1.25473022,end
timer_stats,698583609634949,PAPI_L3_TCM,4, 13.83306885,  1.26977539,end
timer_stats,698583610754790,PAPI_L3_TCM,4, 14.00061035,  1.28483582,end
timer_stats,698583611853502,PAPI_L3_TCM,3, 14.16986084,  1.29969787,end
timer_stats,698583612956403,PAPI_L3_TCM,3, 14.34698486,  1.31568909,end
timer_stats,698583614053905,PAPI_L3_TCM,5, 14.52099609,  1.33135986,end
timer_stats,698583615141406,PAPI_L3_TCM,11, 14.69567871,  1.34689331,end
timer_stats,698583616239126,PAPI_L3_TCM,7, 14.95629883,  1.36811828,end
timer_stats,698583617335547,PAPI_L3_TCM,0, 15.20129394,  1.39080811,end
timer_stats,698583618470865,PAPI_L3_TCM,5, 15.36804199,  1.40643310,end
timer_stats,698583619578153,PAPI_L3_TCM,4, 15.53802490,  1.42150879,end
timer_stats,698583620706790,PAPI_L3_TCM,1, 15.71685791,  1.43600464,end
timer_stats,698583621818678,PAPI_L3_TCM,0, 15.88165283,  1.45161438,end
timer_stats,698583622917111,PAPI_L3_TCM,2, 16.05743408,  1.46685791,end
timer_stats,698583624017519,PAPI_L3_TCM,0, 16.22851562,  1.48252868,end
timer_stats,698583625105840,PAPI_L3_TCM,2, 16.48547363,  1.50579834,end
timer_stats,698583626196256,PAPI_L3_TCM,1, 16.67114258,  1.52149963,end
timer_stats,698583627297173,PAPI_L3_TCM,3, 16.92822265,  1.54534912,end
timer_stats,698583628394348,PAPI_L3_TCM,3, 17.09527588,  1.56054687,end
timer_stats,698583629484257,PAPI_L3_TCM,1, 17.27117920,  1.57566833,end
timer_stats,698583630579120,PAPI_L3_TCM,0, 17.43591308,  1.59025574,end
timer_stats,698583631666185,PAPI_L3_TCM,7, 17.60681152,  1.60609436,end
timer_stats,698583632759094,PAPI_L3_TCM,2, 17.77795410,  1.62158203,end
timer_stats,698583633880291,PAPI_L3_TCM,15, 17.95770264,  1.63630676,end
timer_stats,698583638308798,PAPI_L3_TCM,178, 18.81604004,  1.70903015,end
timer_stats,698583639426594,PAPI_L3_TCM,92, 18.98248291,  1.72476196,end
timer_stats,698583640535141,PAPI_L3_TCM,28, 19.16351318,  1.74079895,end
timer_stats,698583641626371,PAPI_L3_TCM,4, 19.33367920,  1.75880432,end
timer_stats,698583642719076,PAPI_L3_TCM,8, 19.50860596,  1.77467346,end
timer_stats,698583643821755,PAPI_L3_TCM,6, 19.69549561,  1.78929138,end
timer_stats,698583644922655,PAPI_L3_TCM,4, 19.85522461,  1.80456543,end
timer_stats,698583646017725,PAPI_L3_TCM,2, 20.02655029,  1.81906128,end
timer_stats,698583647107493,PAPI_L3_TCM,9, 20.18902588,  1.83386230,end
timer_stats,698583648197887,PAPI_L3_TCM,3, 20.44079590,  1.85513306,end
timer_stats,698583649283165,PAPI_L3_TCM,1, 20.60876465,  1.87107849,end
timer_stats,698583650407014,PAPI_L3_TCM,8, 20.86199951,  1.89447021,end
timer_stats,698583651490763,PAPI_L3_TCM,0, 21.02728271,  1.90905762,end
timer_stats,698583652593868,PAPI_L3_TCM,3, 21.19390869,  1.92404175,end
timer_stats,698583653700418,PAPI_L3_TCM,4, 21.34936523,  1.93814087,end
timer_stats,698583654789560,PAPI_L3_TCM,2, 21.49560547,  1.95280456,end
timer_stats,698583655892547,PAPI_L3_TCM,1, 21.65057373,  1.96849060,end
timer_stats,698583656998414,PAPI_L3_TCM,12, 21.82098389,  1.98405456,end
timer_stats,698583658107572,PAPI_L3_TCM,2, 21.97583008,  1.99919128,end
timer_stats,698583659202509,PAPI_L3_TCM,4, 22.21466064,  2.01261902,end
timer_stats,698583660286251,PAPI_L3_TCM,0, 22.44781494,  2.04121399,end
timer_stats,698583661380737,PAPI_L3_TCM,3, 22.60876465,  2.05455017,end
timer_stats,698583662482660,PAPI_L3_TCM,2, 22.76269531,  2.06921387,end
timer_stats,698583663607444,PAPI_L3_TCM,10, 22.92053223,  2.08386230,end
timer_stats,698583664714760,PAPI_L3_TCM,11, 23.09033203,  2.09785461,end
timer_stats,698583665836867,PAPI_L3_TCM,4, 23.23797607,  2.11042786,end
timer_stats,698583666967183,PAPI_L3_TCM,0, 23.37725830,  2.12265015,end
timer_stats,698583668051478,PAPI_L3_TCM,3, 23.52642822,  2.13400269,end
timer_stats,698583669149010,PAPI_L3_TCM,5, 23.74163818,  2.15194702,end
timer_stats,698583670266406,PAPI_L3_TCM,5, 23.88586426,  2.16320801,end
timer_stats,698583671388387,PAPI_L3_TCM,3, 24.02148437,  2.17478943,end
timer_stats,698583672509502,PAPI_L3_TCM,3, 24.24237060,  2.19351196,end
timer_stats,698583673659060,PAPI_L3_TCM,3, 24.39178467,  2.20562744,end
timer_stats,698583674780468,PAPI_L3_TCM,3, 24.54156494,  2.21713257,end
timer_stats,698583675909040,PAPI_L3_TCM,1, 24.66986084,  2.22982788,end
timer_stats,698583677051236,PAPI_L3_TCM,4, 24.82647705,  2.24313354,end
timer_stats,698583678199459,PAPI_L3_TCM,0, 25.03637695,  2.26409912,end
timer_stats,698583679349146,PAPI_L3_TCM,3, 25.25482178,  2.28570557,end
timer_stats,698583680470430,PAPI_L3_TCM,2, 25.33087158,  2.29281616,end
timer_stats,698583681634391,PAPI_L3_TCM,4, 25.57305908,  2.31430054,end
timer_stats,698583682796828,PAPI_L3_TCM,2, 25.70355225,  2.32969665,end
timer_stats,698583683945563,PAPI_L3_TCM,6, 25.86248779,  2.34529114,end
timer_stats,698583685080394,PAPI_L3_TCM,1, 26.03277588,  2.36039734,end
timer_stats,698583686231892,PAPI_L3_TCM,3, 26.25372314,  2.38241577,end
timer_stats,698583687353713,PAPI_L3_TCM,4, 26.47589111,  2.40483093,end
timer_stats,698583688479034,PAPI_L3_TCM,3, 26.63348389,  2.42027283,end
timer_stats,698583689602608,PAPI_L3_TCM,2, 26.78466797,  2.43437195,end
timer_stats,698583690713739,PAPI_L3_TCM,3, 26.94567871,  2.44975281,end
timer_stats,698583691848147,PAPI_L3_TCM,16, 27.12042236,  2.46563721,end
timer_stats,698583692949511,PAPI_L3_TCM,11, 27.25860596,  2.48025513,end
timer_stats,698583694078375,PAPI_L3_TCM,9, 27.41821289,  2.49736023,end
timer_stats,698583695200173,PAPI_L3_TCM,13, 27.57501221,  2.51133728,end
timer_stats,698583696318817,PAPI_L3_TCM,6, 27.83575439,  2.53332520,end
timer_stats,698583697452014,PAPI_L3_TCM,3, 28.05548096,  2.55543518,end
timer_stats,698583698557282,PAPI_L3_TCM,5, 28.22406006,  2.57434082,end
timer_stats,698583699695687,PAPI_L3_TCM,8, 28.36590576,  2.58818054,end
timer_stats,698583700842371,PAPI_L3_TCM,7, 28.54339600,  2.60296631,end
timer_stats,698583702003345,PAPI_L3_TCM,6, 28.69384765,  2.61773682,end
timer_stats,698583703147269,PAPI_L3_TCM,13, 28.84442139,  2.63140869,end
timer_stats,698583704263007,PAPI_L3_TCM,6, 29.10601807,  2.65193176,end
timer_stats,698583705364994,PAPI_L3_TCM,7, 29.32989502,  2.67306519,end
timer_stats,698583706477112,PAPI_L3_TCM,4, 29.41656494,  2.67918396,end
timer_stats,698583707619433,PAPI_L3_TCM,4, 29.64678955,  2.70120239,end
timer_stats,698583708754157,PAPI_L3_TCM,5, 29.81567383,  2.71495056,end
timer_stats,698583709890995,PAPI_L3_TCM,0, 29.96026611,  2.72760010,end
timer_stats,698583711035336,PAPI_L3_TCM,2, 30.13336182,  2.74142456,end
timer_stats,698583712157484,PAPI_L3_TCM,0, 30.28063965,  2.75498962,end
timer_stats,698583713256274,PAPI_L3_TCM,10, 30.51159668,  2.77595520,end
timer_stats,698583714393402,PAPI_L3_TCM,8, 30.74182129,  2.79734802,end
timer_stats,698583715515179,PAPI_L3_TCM,12, 30.89239502,  2.81163025,end
timer_stats,698583726943074,PAPI_L3_TCM,328, 32.70263672,  2.97340393,end
timer_stats,698583728038160,PAPI_L3_TCM,133, 32.84411621,  2.99078369,end
timer_stats,698583729144505,PAPI_L3_TCM,32, 32.98657226,  3.00694275,end
timer_stats,698583730227812,PAPI_L3_TCM,10, 33.22387695,  3.02975464,end
timer_stats,698583731335675,PAPI_L3_TCM,7, 33.40179443,  3.04487610,end
timer_stats,698583732479171,PAPI_L3_TCM,7, 33.54913330,  3.06253052,end
timer_stats,698583733593498,PAPI_L3_TCM,4, 33.79382324,  3.07716369,end
timer_stats,698583734705504,PAPI_L3_TCM,6, 33.96588135,  3.09295654,end
timer_stats,698583735829626,PAPI_L3_TCM,7, 34.10821533,  3.10787964,end
timer_stats,698583736962570,PAPI_L3_TCM,13, 34.27038574,  3.12165832,end
timer_stats,698583738066984,PAPI_L3_TCM,12, 34.43084717,  3.13577270,end
timer_stats,698583739170801,PAPI_L3_TCM,3, 34.59460449,  3.14974976,end
timer_stats,698583740265110,PAPI_L3_TCM,7, 34.82995605,  3.16995239,end
timer_stats,698583741371453,PAPI_L3_TCM,9, 34.99749756,  3.18478394,end
timer_stats,698583742479557,PAPI_L3_TCM,0, 35.22106934,  3.20988464,end
timer_stats,698583743570955,PAPI_L3_TCM,3, 35.39361572,  3.22441101,end
timer_stats,698583744667634,PAPI_L3_TCM,2, 35.58758545,  3.23837280,end
timer_stats,698583745765612,PAPI_L3_TCM,12, 35.75079346,  3.25357056,end
timer_stats,698583746891515,PAPI_L3_TCM,6, 35.89813232,  3.26863098,end
timer_stats,698583748010573,PAPI_L3_TCM,4, 36.05084228,  3.28503418,end
timer_stats,698583749110147,PAPI_L3_TCM,3, 36.20068359,  3.29957580,end
timer_stats,698583750251025,PAPI_L3_TCM,3, 36.36053467,  3.31431580,end
timer_stats,698583751378594,PAPI_L3_TCM,3, 36.64428711,  3.34405517,end
timer_stats,698583752517043,PAPI_L3_TCM,8, 36.79699707,  3.35848999,end
timer_stats,698583753640930,PAPI_L3_TCM,4, 36.96716309,  3.37258911,end
timer_stats,698583754761911,PAPI_L3_TCM,12, 37.11419678,  3.38706970,end
timer_stats,698583755880279,PAPI_L3_TCM,3, 37.29376221,  3.40209961,end
timer_stats,698583757017996,PAPI_L3_TCM,1, 37.46252441,  3.41453552,end
timer_stats,698583758143498,PAPI_L3_TCM,12, 37.60894775,  3.42929077,end
timer_stats,698583759236328,PAPI_L3_TCM,12, 37.85791015,  3.44348145,end
timer_stats,698583760352417,PAPI_L3_TCM,10, 38.01654053,  3.46273804,end
timer_stats,698583761481407,PAPI_L3_TCM,8, 38.17767334,  3.47673034,end
timer_stats,698583762612946,PAPI_L3_TCM,4, 38.39416504,  3.49948120,end
timer_stats,698583763730473,PAPI_L3_TCM,9, 38.56683350,  3.51628113,end
timer_stats,698583764869653,PAPI_L3_TCM,3, 38.73681641,  3.53150940,end
timer_stats,698583765998914,PAPI_L3_TCM,6, 38.88195801,  3.54692077,end
timer_stats,698583767139216,PAPI_L3_TCM,26, 39.05053711,  3.56069946,end
timer_stats,698583768248112,PAPI_L3_TCM,12, 39.21813965,  3.56858826,end
timer_stats,698583769370550,PAPI_L3_TCM,3, 39.45324707,  3.58999634,end
timer_stats,698583770519564,PAPI_L3_TCM,5, 39.60748291,  3.60366821,end
timer_stats,698583771654241,PAPI_L3_TCM,1, 39.84161377,  3.62420654,end
timer_stats,698583772778699,PAPI_L3_TCM,2, 39.99945068,  3.63880920,end
timer_stats,698583773878324,PAPI_L3_TCM,6, 40.13708496,  3.65380859,end
timer_stats,698583775009086,PAPI_L3_TCM,4, 40.31158447,  3.66760254,end
timer_stats,698583776132237,PAPI_L3_TCM,4, 40.47546387,  3.68174744,end
timer_stats,698583777222458,PAPI_L3_TCM,8, 40.63385010,  3.69677734,end
timer_stats,698583778346217,PAPI_L3_TCM,16, 40.87493896,  3.71797180,end
timer_stats,698583779501707,PAPI_L3_TCM,4, 41.04028320,  3.73313904,end
timer_stats,698583780659913,PAPI_L3_TCM,3, 41.26422119,  3.75599670,end
timer_stats,698583781808141,PAPI_L3_TCM,5, 41.42852783,  3.76943970,end
timer_stats,698583782942062,PAPI_L3_TCM,7, 41.58380127,  3.78430176,end
timer_stats,698583784069559,PAPI_L3_TCM,1, 41.74505615,  3.79930115,end
timer_stats,698583785220897,PAPI_L3_TCM,9, 41.89971924,  3.81523132,end
timer_stats,698583786361648,PAPI_L3_TCM,1, 42.14440918,  3.83537292,end
timer_stats,698583787499459,PAPI_L3_TCM,2, 42.29949951,  3.85038757,end
timer_stats,698583788632856,PAPI_L3_TCM,2, 42.54077148,  3.87205505,end
timer_stats,698583789757851,PAPI_L3_TCM,10, 42.69952393,  3.88693237,end
timer_stats,698583790883087,PAPI_L3_TCM,3, 42.84832763,  3.90068054,end
timer_stats,698583792022940,PAPI_L3_TCM,6, 42.99761963,  3.91577148,end
timer_stats,698583793154211,PAPI_L3_TCM,1, 43.15820312,  3.93136596,end
timer_stats,698583794274459,PAPI_L3_TCM,0, 43.31597900,  3.94602966,end
timer_stats,698583795391205,PAPI_L3_TCM,2, 43.54925537,  3.96824646,end
timer_stats,698583796527093,PAPI_L3_TCM,0, 43.69866943,  3.98262024,end
timer_stats,698583797645727,PAPI_L3_TCM,4, 43.92449951,  4.00421143,end
timer_stats,698583798782288,PAPI_L3_TCM,0, 44.07910156,  4.01780701,end
timer_stats,698583805369487,PAPI_L3_TCM,283, 45.14489746,  4.12438965,end
timer_stats,698583806533847,PAPI_L3_TCM,109, 45.28533935,  4.14356995,end
timer_stats,698583807681312,PAPI_L3_TCM,5, 45.51837158,  4.16606140,end
timer_stats,698583808819352,PAPI_L3_TCM,9, 45.67919922,  4.18241882,end
timer_stats,698583809973542,PAPI_L3_TCM,8, 45.82427978,  4.19865417,end
timer_stats,698583811128486,PAPI_L3_TCM,1, 45.98071289,  4.21305847,end
timer_stats,698583812265235,PAPI_L3_TCM,13, 46.13018799,  4.22811890,end
timer_stats,698583813392681,PAPI_L3_TCM,3, 46.35668945,  4.25158691,end
timer_stats,698583814500477,PAPI_L3_TCM,6, 46.49786377,  4.26683044,end
timer_stats,698583815608077,PAPI_L3_TCM,7, 46.64996338,  4.28085327,end
timer_stats,698583817113594,PAPI_L3_TCM,2717, 46.88354492,  4.30329895,end
timer_stats,698583818220691,PAPI_L3_TCM,33, 47.03424072,  4.31858826,end
timer_stats,698583819329598,PAPI_L3_TCM,11, 47.25384521,  4.33433533,end
timer_stats,698583820404515,PAPI_L3_TCM,1, 47.40899658,  4.35552978,end
timer_stats,698583821496296,PAPI_L3_TCM,10, 47.56152344,  4.36965942,end
timer_stats,698583822612298,PAPI_L3_TCM,3, 47.72265625,  4.38325500,end
timer_stats,698583823726782,PAPI_L3_TCM,4, 47.92993164,  4.40411377,end
timer_stats,698583824847825,PAPI_L3_TCM,0, 48.09552002,  4.41065979,end
timer_stats,698583825977084,PAPI_L3_TCM,1, 48.24273682,  4.42378235,end
timer_stats,698583827117999,PAPI_L3_TCM,2, 48.39111328,  4.43946838,end
timer_stats,698583828224360,PAPI_L3_TCM,13, 48.55114746,  4.45675659,end
timer_stats,698583829344287,PAPI_L3_TCM,3, 48.77825928,  4.47825622,end
timer_stats,698583830480391,PAPI_L3_TCM,2, 48.92816162,  4.48469543,end
timer_stats,698583831589752,PAPI_L3_TCM,2, 49.15362549,  4.50552368,end
timer_stats,698583832723472,PAPI_L3_TCM,5, 49.30798340,  4.51930237,end
timer_stats,698583833834249,PAPI_L3_TCM,2, 49.45300293,  4.53366089,end
timer_stats,698583834953819,PAPI_L3_TCM,1, 49.60784912,  4.54643250,end
timer_stats,698583836060895,PAPI_L3_TCM,5, 49.74029541,  4.56083679,end
timer_stats,698583837204677,PAPI_L3_TCM,2, 49.89569092,  4.57608032,end
timer_stats,698583838330475,PAPI_L3_TCM,0, 50.11419678,  4.59638977,end
timer_stats,698583839463407,PAPI_L3_TCM,5, 50.26635742,  4.61122131,end
timer_stats,698583840579931,PAPI_L3_TCM,6, 50.42181396,  4.62367248,end
timer_stats,698583841684253,PAPI_L3_TCM,8, 50.64489746,  4.64408874,end
timer_stats,698583842813674,PAPI_L3_TCM,12, 50.79986572,  4.66152954,end
timer_stats,698583843948531,PAPI_L3_TCM,13, 50.94750976,  4.67651367,end
timer_stats,698583845072649,PAPI_L3_TCM,6, 51.10760498,  4.69071960,end
timer_stats,698583846192204,PAPI_L3_TCM,7, 51.25378418,  4.70671082,end
timer_stats,698583847322172,PAPI_L3_TCM,6, 51.39556885,  4.72241211,end
timer_stats,698583848438473,PAPI_L3_TCM,14, 51.62860107,  4.74748230,end
timer_stats,698583849529592,PAPI_L3_TCM,29, 51.84051514,  4.77047729,end
timer_stats,698583850620205,PAPI_L3_TCM,5, 51.99096680,  4.78880310,end
timer_stats,698583851722673,PAPI_L3_TCM,7, 52.13500976,  4.80532837,end
timer_stats,698583852810404,PAPI_L3_TCM,5, 52.29412842,  4.81872559,end
timer_stats,698583853942508,PAPI_L3_TCM,33, 52.43682861,  4.83236694,end
timer_stats,698583855063605,PAPI_L3_TCM,20, 52.57769775,  4.84611511,end
timer_stats,698583856163259,PAPI_L3_TCM,29, 52.72644043,  4.85958862,end
timer_stats,698583857282725,PAPI_L3_TCM,4, 52.85858154,  4.87301636,end
timer_stats,698583858404999,PAPI_L3_TCM,10, 53.00500488,  4.88751221,end
timer_stats,698583859502292,PAPI_L3_TCM,13, 53.21533203,  4.90870666,end
timer_stats,698583860593867,PAPI_L3_TCM,18, 53.35949707,  4.92326355,end
timer_stats,698583861712619,PAPI_L3_TCM,13, 53.58709717,  4.94580078,end
timer_stats,698583862824181,PAPI_L3_TCM,0, 53.73217773,  4.96191406,end
timer_stats,698583863952521,PAPI_L3_TCM,4, 53.87255859,  4.97398376,end
timer_stats,698583865083726,PAPI_L3_TCM,0, 54.01525879,  4.98960876,end
timer_stats,698583866196432,PAPI_L3_TCM,3, 54.16705322,  5.00126648,end
timer_stats,698583867322518,PAPI_L3_TCM,0, 54.31176758,  5.01451111,end
timer_stats,698583868450430,PAPI_L3_TCM,2, 54.52746582,  5.03349304,end
timer_stats,698583869604656,PAPI_L3_TCM,0, 54.75018310,  5.05242920,end
timer_stats,698583870731517,PAPI_L3_TCM,1, 54.90069580,  5.06510925,end
timer_stats,698583871862231,PAPI_L3_TCM,0, 55.04364014,  5.07855225,end
timer_stats,698583872996725,PAPI_L3_TCM,2, 55.19055176,  5.09152222,end
timer_stats,698583874132281,PAPI_L3_TCM,0, 55.33380127,  5.10472107,end
timer_stats,698583875379894,PAPI_L3_TCM,21, 55.47808838,  5.11784363,end
timer_stats,698583876501970,PAPI_L3_TCM,4, 55.70959473,  5.13146973,end
timer_stats,698583877645837,PAPI_L3_TCM,2, 55.86181640,  5.14451599,end
timer_stats,698583878780181,PAPI_L3_TCM,2, 56.06793213,  5.16448975,end
timer_stats,698583879917629,PAPI_L3_TCM,1, 56.21783447,  5.17810058,end
timer_stats,698583881037288,PAPI_L3_TCM,0, 56.36169434,  5.19430542,end
timer_stats,698583882172847,PAPI_L3_TCM,2, 56.51605224,  5.20831299,end
timer_stats,698583883307694,PAPI_L3_TCM,1, 56.66577148,  5.22309875,end
timer_stats,698583884468269,PAPI_L3_TCM,2, 56.87817383,  5.24296570,end
timer_stats,698583885595031,PAPI_L3_TCM,9, 57.02130127,  5.25573730,end
timer_stats,698583886736101,PAPI_L3_TCM,2, 57.24493408,  5.27497864,end
timer_stats,698583887878975,PAPI_L3_TCM,1, 57.38543701,  5.28790283,end
timer_stats,698583888989700,PAPI_L3_TCM,11, 57.54016113,  5.30174255,end
timer_stats,698583890098351,PAPI_L3_TCM,14, 57.68780518,  5.31587219,end
timer_stats,698583891224153,PAPI_L3_TCM,6, 57.83746338,  5.32955932,end
timer_stats,698583892356587,PAPI_L3_TCM,4, 57.97949219,  5.34327698,end
timer_stats,698583893505464,PAPI_L3_TCM,2, 58.19921875,  5.36369324,end
timer_stats,698583894635551,PAPI_L3_TCM,1, 58.41644287,  5.38482666,end
timer_stats,698583895791999,PAPI_L3_TCM,7, 58.55883789,  5.39862060,end
timer_stats,698583896939171,PAPI_L3_TCM,2, 58.70556640,  5.41146851,end
timer_stats,698583898083508,PAPI_L3_TCM,2, 58.84564209,  5.42498779,end
timer_stats,698583899200024,PAPI_L3_TCM,1, 58.99432373,  5.43818665,end
timer_stats,698583900332726,PAPI_L3_TCM,5, 59.13537598,  5.45030212,end
timer_stats,698583901466875,PAPI_L3_TCM,0, 59.36199951,  5.46893310,end
timer_stats,698583902597292,PAPI_L3_TCM,2, 59.50238037,  5.48165893,end
timer_stats,698583903742489,PAPI_L3_TCM,0, 59.72583008,  5.50106811,end
timer_stats,698583904872985,PAPI_L3_TCM,3, 59.87109375,  5.51408386,end
timer_stats,698583906206336,PAPI_L3_TCM,13, 60.02056885,  5.52787781,end
timer_stats,698583907334703,PAPI_L3_TCM,1, 60.17163086,  5.54139709,end
timer_stats,698583908452733,PAPI_L3_TCM,12, 60.38629150,  5.56390381,end
timer_stats,698583909593332,PAPI_L3_TCM,2, 60.54833984,  5.57000732,end
timer_stats,698583910942717,PAPI_L3_TCM,11, 60.76354980,  5.58969116,end
timer_stats,698583912082274,PAPI_L3_TCM,5, 60.91680908,  5.60343933,end
timer_stats,698583913216529,PAPI_L3_TCM,2, 61.06134033,  5.61656189,end
timer_stats,698583914353940,PAPI_L3_TCM,2, 61.21502685,  5.63211060,end
timer_stats,698583915504894,PAPI_L3_TCM,0, 61.43127441,  5.65190124,end
timer_stats,698583916655038,PAPI_L3_TCM,6, 61.57830810,  5.66484070,end
timer_stats,698583917818856,PAPI_L3_TCM,0, 61.79870605,  5.68385315,end
timer_stats,698583918952470,PAPI_L3_TCM,7, 61.95068359,  5.69598389,end
timer_stats,698583920100771,PAPI_L3_TCM,3, 62.09674072,  5.70999145,end
timer_stats,698583921235346,PAPI_L3_TCM,2, 62.24401855,  5.71707153,end
timer_stats,698583922368426,PAPI_L3_TCM,1, 62.39227295,  5.73098755,end
timer_stats,698583923517748,PAPI_L3_TCM,2, 62.61218262,  5.75016784,end
timer_stats,698583924668915,PAPI_L3_TCM,0, 62.75018310,  5.76362610,end
timer_stats,698583925803856,PAPI_L3_TCM,1, 62.96917724,  5.78454590,end
timer_stats,698583926967250,PAPI_L3_TCM,4, 63.11926269,  5.79678345,end
timer_stats,698583928117015,PAPI_L3_TCM,1, 63.26885986,  5.80963135,end
timer_stats,698583929251562,PAPI_L3_TCM,0, 63.40759277,  5.82353210,end
timer_stats,698583930412950,PAPI_L3_TCM,3, 63.55621338,  5.83651733,end
timer_stats,698583931577888,PAPI_L3_TCM,4, 63.78186035,  5.85830688,end
timer_stats,698583932874566,PAPI_L3_TCM,16, 64.00549316,  5.88031006,end
timer_stats,698583933981710,PAPI_L3_TCM,10, 64.15545654,  5.89450073,end
timer_stats,698583935113698,PAPI_L3_TCM,8, 64.30682373,  5.90803528,end
timer_stats,698583936521087,PAPI_L3_TCM,2, 64.53118896,  5.92370605,end
timer_stats,698583937656844,PAPI_L3_TCM,10, 64.67437744,  5.94627380,end
timer_stats,698583938791285,PAPI_L3_TCM,1, 64.90008545,  5.96821594,end
timer_stats,698583939893476,PAPI_L3_TCM,15, 65.04840088,  5.98532104,end
timer_stats,698583945366673,PAPI_L3_TCM,218, 65.78643799,  6.05593872,end
timer_stats,698583946518398,PAPI_L3_TCM,89, 65.99267578,  6.07550049,end
timer_stats,698583947687212,PAPI_L3_TCM,9, 66.13586426,  6.08909607,end
timer_stats,698583948810796,PAPI_L3_TCM,13, 66.35894775,  6.11149597,end
timer_stats,698583949971335,PAPI_L3_TCM,10, 66.49945068,  6.12666321,end
timer_stats,698583951132782,PAPI_L3_TCM,5, 66.64984131,  6.13876343,end
timer_stats,698583952301843,PAPI_L3_TCM,5, 66.78564453,  6.15115356,end
timer_stats,698583953437581,PAPI_L3_TCM,5, 66.94189453,  6.16406250,end
timer_stats,698583954599395,PAPI_L3_TCM,1, 67.16119385,  6.18328857,end
timer_stats,698583955765760,PAPI_L3_TCM,4, 67.37719727,  6.20335388,end
timer_stats,698583956920314,PAPI_L3_TCM,8, 67.52807617,  6.21669006,end
timer_stats,698583958053855,PAPI_L3_TCM,19, 67.67065430,  6.22981262,end
timer_stats,698583959215853,PAPI_L3_TCM,1, 67.81811523,  6.24278259,end
timer_stats,698583960344667,PAPI_L3_TCM,3, 67.95843506,  6.25509643,end
timer_stats,698583961511074,PAPI_L3_TCM,3, 68.18389892,  6.26623535,end
timer_stats,698583962673089,PAPI_L3_TCM,2, 68.32574463,  6.28462219,end
timer_stats,698583963833160,PAPI_L3_TCM,8, 68.54772949,  6.30390930,end
timer_stats,698583964980731,PAPI_L3_TCM,5, 68.69287109,  6.31666565,end
timer_stats,698583966142329,PAPI_L3_TCM,0, 68.84088135,  6.33033752,end
timer_stats,698583967307226,PAPI_L3_TCM,2, 68.97790527,  6.34365845,end
timer_stats,698583968415361,PAPI_L3_TCM,9, 69.13110352,  6.35881042,end
timer_stats,698583969583215,PAPI_L3_TCM,5, 69.35089111,  6.37777710,end
timer_stats,698583970747763,PAPI_L3_TCM,3, 69.48944092,  6.39500427,end
timer_stats,698583971908844,PAPI_L3_TCM,6, 69.70544433,  6.40737915,end
timer_stats,698583973061038,PAPI_L3_TCM,2, 69.85412598,  6.42115783,end
timer_stats,698583974222550,PAPI_L3_TCM,2, 70.00323486,  6.43371582,end
timer_stats,698583975390914,PAPI_L3_TCM,2, 70.14489746,  6.44717407,end
timer_stats,698583976510948,PAPI_L3_TCM,4, 70.36486816,  6.46496582,end
timer_stats,698583977672226,PAPI_L3_TCM,1, 70.51629639,  6.47763061,end
timer_stats,698583978813674,PAPI_L3_TCM,11, 70.73461914,  6.50007629,end
timer_stats,698583979960281,PAPI_L3_TCM,7, 70.88647461,  6.51519775,end
timer_stats,698583981108966,PAPI_L3_TCM,14, 71.03027344,  6.53283691,end
timer_stats,698583982258423,PAPI_L3_TCM,4, 71.18420410,  6.55075073,end
timer_stats,698583983407217,PAPI_L3_TCM,5, 71.33270264,  6.56488037,end
timer_stats,698583984557925,PAPI_L3_TCM,2, 71.55090332,  6.58796692,end
timer_stats,698583985720340,PAPI_L3_TCM,5, 71.77209473,  6.61097717,end
timer_stats,698583986858144,PAPI_L3_TCM,3, 71.92327881,  6.62721252,end
timer_stats,698583988032362,PAPI_L3_TCM,8, 72.06622314,  6.64108276,end
timer_stats,698583989142359,PAPI_L3_TCM,2, 72.21472168,  6.65530395,end
timer_stats,698583990304457,PAPI_L3_TCM,6, 72.36468506,  6.67008972,end
timer_stats,698583991466108,PAPI_L3_TCM,6, 72.50799561,  6.68373108,end
timer_stats,698583992628962,PAPI_L3_TCM,9, 72.72656250,  6.70628357,end
timer_stats,698583993794000,PAPI_L3_TCM,0, 72.94879150,  6.72644043,end
timer_stats,698583994958098,PAPI_L3_TCM,4, 73.08911133,  6.74092102,end
timer_stats,698583996120592,PAPI_L3_TCM,3, 73.22796631,  6.75633240,end
timer_stats,698583997261794,PAPI_L3_TCM,7, 73.37976074,  6.77239990,end
timer_stats,698583998429554,PAPI_L3_TCM,4, 73.53125000,  6.78839111,end
timer_stats,698583999568693,PAPI_L3_TCM,3, 73.74121094,  6.80889893,end
timer_stats,698584000711623,PAPI_L3_TCM,6, 73.88989258,  6.82258606,end
timer_stats,698584001876807,PAPI_L3_TCM,4, 74.11145019,  6.84367370,end
timer_stats,698584003039679,PAPI_L3_TCM,0, 74.25512695,  6.85752869,end
timer_stats,698584004204313,PAPI_L3_TCM,2, 74.40179443,  6.87026977,end
timer_stats,698584005366127,PAPI_L3_TCM,3, 74.54583740,  6.88233948,end
timer_stats,698584006500372,PAPI_L3_TCM,7, 74.70251465,  6.89520264,end
timer_stats,698584007666416,PAPI_L3_TCM,2, 74.91735840,  6.91665649,end
timer_stats,698584008813581,PAPI_L3_TCM,7, 75.13519287,  6.93615723,end
timer_stats,698584009924355,PAPI_L3_TCM,3, 75.28167724,  6.95050049,end
timer_stats,698584011051146,PAPI_L3_TCM,14, 75.43035889,  6.96449280,end
timer_stats,698584012209636,PAPI_L3_TCM,12, 75.57446289,  6.97998047,end
timer_stats,698584013372351,PAPI_L3_TCM,10, 75.72814941,  6.99723816,end
timer_stats,698584014537692,PAPI_L3_TCM,5, 75.95190430,  7.02171326,end
timer_stats,698584015672039,PAPI_L3_TCM,15, 76.10260010,  7.03871155,end
timer_stats,698584016836641,PAPI_L3_TCM,12, 76.32916260,  7.06326294,end
timer_stats,698584017976238,PAPI_L3_TCM,9, 76.47839355,  7.07592773,end
timer_stats,698584019118880,PAPI_L3_TCM,0, 76.62640381,  7.09054565,end
timer_stats,698584020252344,PAPI_L3_TCM,4, 76.78045654,  7.10537720,end
timer_stats,698584021414018,PAPI_L3_TCM,5, 76.92651367,  7.12086487,end
timer_stats,698584022575560,PAPI_L3_TCM,1, 77.15197754,  7.14268494,end
timer_stats,698584023711674,PAPI_L3_TCM,0, 77.30596924,  7.15733337,end
timer_stats,698584024849268,PAPI_L3_TCM,1, 77.52813721,  7.17889404,end
timer_stats,698584025991245,PAPI_L3_TCM,0, 77.67071533,  7.19227600,end
timer_stats,698584027128650,PAPI_L3_TCM,2, 77.82598877,  7.20555115,end
timer_stats,698584028257944,PAPI_L3_TCM,9, 77.96868896,  7.21803284,end
timer_stats,698584029419242,PAPI_L3_TCM,6, 78.12561035,  7.23387146,end
timer_stats,698584030557590,PAPI_L3_TCM,4, 78.34759521,  7.25634765,end
timer_stats,698584031700850,PAPI_L3_TCM,4, 78.50213623,  7.27018738,end
timer_stats,698584032833795,PAPI_L3_TCM,10, 78.72210693,  7.29450989,end
timer_stats,698584033972709,PAPI_L3_TCM,15, 78.87042236,  7.30899048,end
timer_stats,698584035114377,PAPI_L3_TCM,3, 79.02008057,  7.32388306,end
timer_stats,698584036255761,PAPI_L3_TCM,9, 79.16589355,  7.33593750,end
timer_stats,698584037423576,PAPI_L3_TCM,6, 79.30938721,  7.35336304,end
timer_stats,698584038585846,PAPI_L3_TCM,3, 79.46325683,  7.36686707,end
timer_stats,698584039734027,PAPI_L3_TCM,3, 79.67730713,  7.38652038,end
timer_stats,698584040870369,PAPI_L3_TCM,4, 79.90539551,  7.40611267,end
timer_stats,698584041976176,PAPI_L3_TCM,1, 80.05957031,  7.41928101,end
timer_stats,698584043110847,PAPI_L3_TCM,4, 80.19934082,  7.43196106,end
timer_stats,698584044210352,PAPI_L3_TCM,3, 80.35546875,  7.44580078,end
timer_stats,698584045321122,PAPI_L3_TCM,5, 80.50903320,  7.45880127,end
timer_stats,698584046464303,PAPI_L3_TCM,0, 80.66430664,  7.47286987,end
timer_stats,698584047573940,PAPI_L3_TCM,7, 80.88232422,  7.49647522,end
timer_stats,698584048708152,PAPI_L3_TCM,6, 81.03802490,  7.50979614,end
timer_stats,698584049819226,PAPI_L3_TCM,1, 81.25616455,  7.52824402,end
timer_stats,698584050962473,PAPI_L3_TCM,0, 81.40350342,  7.54057312,end
timer_stats,698584052116612,PAPI_L3_TCM,1, 81.55578613,  7.55386352,end
timer_stats,698584053250786,PAPI_L3_TCM,0, 81.70056152,  7.56604004,end
timer_stats,698584054394086,PAPI_L3_TCM,3, 81.84564209,  7.57817078,end
timer_stats,698584055551161,PAPI_L3_TCM,0, 81.99407959,  7.59027100,end
timer_stats,698584056676185,PAPI_L3_TCM,6, 82.21710205,  7.61009216,end
timer_stats,698584057833146,PAPI_L3_TCM,1, 82.45141602,  7.63177490,end
timer_stats,698584058989320,PAPI_L3_TCM,1, 82.60192871,  7.64532471,end
timer_stats,698584060124108,PAPI_L3_TCM,0, 82.75225830,  7.65837097,end
timer_stats,698584061259899,PAPI_L3_TCM,4, 82.90759277,  7.67134094,end
timer_stats,698584062412021,PAPI_L3_TCM,0, 83.05859375,  7.68470764,end
timer_stats,698584063567871,PAPI_L3_TCM,3, 83.21331787,  7.69825745,end
timer_stats,698584064708259,PAPI_L3_TCM,0, 83.43945312,  7.72277832,end
timer_stats,698584065847040,PAPI_L3_TCM,2, 83.66650390,  7.73573303,end
timer_stats,698584066951788,PAPI_L3_TCM,1, 83.82574463,  7.75759888,end
timer_stats,698584068099252,PAPI_L3_TCM,1, 83.96826172,  7.77259827,end
timer_stats,698584069212212,PAPI_L3_TCM,1, 84.11901855,  7.78477478,end
timer_stats,698584070353620,PAPI_L3_TCM,5, 84.26916504,  7.79890442,end
timer_stats,698584071460695,PAPI_L3_TCM,0, 84.41076660,  7.81190491,end
timer_stats,698584072600235,PAPI_L3_TCM,2, 84.55499267,  7.82487488,end
timer_stats,698584073738056,PAPI_L3_TCM,0, 84.77392578,  7.84500122,end
timer_stats,698584074906561,PAPI_L3_TCM,3, 84.99835205,  7.86422729,end
timer_stats,698584076078028,PAPI_L3_TCM,1, 85.13916016,  7.87849426,end
timer_stats,698584077215827,PAPI_L3_TCM,1, 85.28387451,  7.89114380,end
timer_stats,698584078354014,PAPI_L3_TCM,2, 85.42663574,  7.90519714,end
timer_stats,698584079487261,PAPI_L3_TCM,7, 85.56939697,  7.91950989,end
timer_stats,698584080623502,PAPI_L3_TCM,8, 85.72802734,  7.93373108,end
timer_stats,698584081761430,PAPI_L3_TCM,25, 85.95495605,  7.95877075,end
timer_stats,698584082864321,PAPI_L3_TCM,4, 86.17590332,  7.98205566,end
timer_stats,698584083968388,PAPI_L3_TCM,10, 86.33142090,  7.98956299,end
timer_stats,698584085080643,PAPI_L3_TCM,16, 86.48260498,  8.00358581,end
timer_stats,698584086211327,PAPI_L3_TCM,37, 86.63049316,  8.01841736,end
timer_stats,698584087317821,PAPI_L3_TCM,43, 86.77569580,  8.03276062,end
timer_stats,698584088431282,PAPI_L3_TCM,6, 86.91998291,  8.04776001,end
timer_stats,698584089552943,PAPI_L3_TCM,9, 87.08038330,  8.06333923,end
timer_stats,698584090680311,PAPI_L3_TCM,11, 87.30163574,  8.08544922,end
timer_stats,698584091783712,PAPI_L3_TCM,3, 87.45104980,  8.09922790,end
timer_stats,698584092887682,PAPI_L3_TCM,8, 87.67156982,  8.11961365,end
timer_stats,698584093997516,PAPI_L3_TCM,4, 87.81634521,  8.13381958,end
timer_stats,698584095097864,PAPI_L3_TCM,5, 87.95672607,  8.14721680,end
timer_stats,698584096218972,PAPI_L3_TCM,5, 88.08972168,  8.15899658,end
timer_stats,698584097321099,PAPI_L3_TCM,1, 88.22753906,  8.17155456,end
timer_stats,698584098454483,PAPI_L3_TCM,2, 88.36315918,  8.18739319,end
timer_stats,698584099570524,PAPI_L3_TCM,2, 88.51306152,  8.20082092,end
timer_stats,698584100696329,PAPI_L3_TCM,1, 88.72991943,  8.22314453,end
timer_stats,698584101806350,PAPI_L3_TCM,7, 88.86621094,  8.23855591,end
timer_stats,698584102924067,PAPI_L3_TCM,42, 89.08477783,  8.25776672,end
timer_stats,698584104062458,PAPI_L3_TCM,32, 89.23028564,  8.27172851,end
timer_stats,698584105156178,PAPI_L3_TCM,13, 89.38385010,  8.28523254,end
timer_stats,698584106286747,PAPI_L3_TCM,3, 89.52429199,  8.29786682,end
timer_stats,698584107422104,PAPI_L3_TCM,9, 89.66656494,  8.31045532,end
timer_stats,698584108546991,PAPI_L3_TCM,7, 89.81109619,  8.32301330,end
timer_stats,698584109656070,PAPI_L3_TCM,2, 90.02764892,  8.34196472,end
timer_stats,698584110764267,PAPI_L3_TCM,3, 90.16766357,  8.35472107,end
timer_stats,698584111887008,PAPI_L3_TCM,2, 90.39428711,  8.37553406,end
timer_stats,698584113019305,PAPI_L3_TCM,4, 90.52972412,  8.38958740,end
timer_stats,698584114157927,PAPI_L3_TCM,2, 90.67419433,  8.40209961,end
timer_stats,698584115310657,PAPI_L3_TCM,15, 90.81787109,  8.41577148,end
timer_stats,698584116439168,PAPI_L3_TCM,41, 90.98364258,  8.42778015,end
timer_stats,698584117594053,PAPI_L3_TCM,10, 91.10791015,  8.44010925,end
timer_stats,698584118749764,PAPI_L3_TCM,2, 91.31866455,  8.45878601,end
timer_stats,698584119906868,PAPI_L3_TCM,3, 91.53436279,  8.47625732,end
timer_stats,698584121042909,PAPI_L3_TCM,4, 91.67810058,  8.48854065,end
timer_stats,698584122166083,PAPI_L3_TCM,4, 91.82617187,  8.50030517,end
timer_stats,698584123307184,PAPI_L3_TCM,1, 91.96368408,  8.51333618,end
timer_stats,698584124442778,PAPI_L3_TCM,3, 92.12298584,  8.52555847,end
timer_stats,698584125576110,PAPI_L3_TCM,6, 92.25628662,  8.53715515,end
timer_stats,698584126697689,PAPI_L3_TCM,5, 92.39508057,  8.54866028,end
timer_stats,698584127799784,PAPI_L3_TCM,0, 92.60998535,  8.56687927,end
timer_stats,698584128914175,PAPI_L3_TCM,3, 92.82843017,  8.58775330,end
timer_stats,698584130051086,PAPI_L3_TCM,12, 92.99322510,  8.60025024,end
timer_stats,698584131173609,PAPI_L3_TCM,9, 93.12152099,  8.61337280,end
timer_stats,698584132297953,PAPI_L3_TCM,1, 93.26013183,  8.62498474,end
timer_stats,698584133445450,PAPI_L3_TCM,2, 93.41021728,  8.63854980,end
timer_stats,698584134596007,PAPI_L3_TCM,5, 93.57385254,  8.65089416,end
timer_stats,698584135752419,PAPI_L3_TCM,2, 93.76757812,  8.67054748,end
timer_stats,698584136901786,PAPI_L3_TCM,4, 93.91583252,  8.68403625,end
timer_stats,698584138030395,PAPI_L3_TCM,5, 94.12780762,  8.70323181,end
timer_stats,698584139137467,PAPI_L3_TCM,7, 94.26751709,  8.71720886,end
timer_stats,698584140298725,PAPI_L3_TCM,1, 94.41198730,  8.72962951,end
timer_stats,698584141429536,PAPI_L3_TCM,0, 94.57116699,  8.74176025,end
timer_stats,698584142559244,PAPI_L3_TCM,11, 94.70458984,  8.75445557,end
timer_stats,698584143718140,PAPI_L3_TCM,2, 94.87109375,  8.76663208,end
timer_stats,698584144853860,PAPI_L3_TCM,3, 95.06500244,  8.78715515,end
timer_stats,698584145984009,PAPI_L3_TCM,10, 95.28234863,  8.80744934,end
timer_stats,698584147134144,PAPI_L3_TCM,8, 95.43322754,  8.81977844,end
timer_stats,698584148263579,PAPI_L3_TCM,1, 95.57415771,  8.83262634,end
timer_stats,698584149407302,PAPI_L3_TCM,2, 95.73712158,  8.84687805,end
timer_stats,698584150528680,PAPI_L3_TCM,1, 95.86877441,  8.86235046,end
timer_stats,698584151651226,PAPI_L3_TCM,7, 96.09161377,  8.88244629,end
timer_stats,698584152796596,PAPI_L3_TCM,2, 96.16320801,  8.88900757,end
timer_stats,698584153928770,PAPI_L3_TCM,6, 96.47760010,  8.91433716,end
timer_stats,698584155064291,PAPI_L3_TCM,1, 96.60809326,  8.92649841,end
timer_stats,698584156212862,PAPI_L3_TCM,2, 96.75048828,  8.93978882,end
timer_stats,698584157349396,PAPI_L3_TCM,2, 96.89416504,  8.95210266,end
timer_stats,698584158487865,PAPI_L3_TCM,6, 97.04876709,  8.96467590,end
timer_stats,698584159594689,PAPI_L3_TCM,3, 97.19781494,  8.97882080,end
timer_stats,698584160743386,PAPI_L3_TCM,4, 97.33551025,  8.99124145,end
timer_stats,698584161896551,PAPI_L3_TCM,0, 97.60687256,  9.01374817,end
timer_stats,698584163026928,PAPI_L3_TCM,13, 97.76416016,  9.02644348,end
timer_stats,698584164182396,PAPI_L3_TCM,1, 97.89556885,  9.03962707,end
timer_stats,698584165330986,PAPI_L3_TCM,2, 98.03399658,  9.05136108,end
timer_stats,698584166450764,PAPI_L3_TCM,4, 98.19732666,  9.06343078,end
timer_stats,698584167603792,PAPI_L3_TCM,3, 98.33557129,  9.07633972,end
timer_stats,698584168746103,PAPI_L3_TCM,1, 98.53277588,  9.09487915,end
timer_stats,698584169857884,PAPI_L3_TCM,1, 98.67889404,  9.10917664,end
timer_stats,698584171006802,PAPI_L3_TCM,1, 98.90380859,  9.12927246,end
timer_stats,698584172127442,PAPI_L3_TCM,2, 99.05108642,  9.14276123,end
timer_stats,698584173276107,PAPI_L3_TCM,0, 99.19677734,  9.15710449,end
timer_stats,698584174410061,PAPI_L3_TCM,11, 99.34167480,  9.17102051,end
timer_stats,698584175575799,PAPI_L3_TCM,1, 99.48730469,  9.18417358,end
timer_stats,698584176737253,PAPI_L3_TCM,2, 99.62585449,  9.19905090,end
timer_stats,698584177871951,PAPI_L3_TCM,1, 99.82843017,  9.21884155,end
timer_stats,698584178996112,PAPI_L3_TCM,4,100.05816650,  9.23722839,end
timer_stats,698584180142616,PAPI_L3_TCM,4,100.18750000,  9.25094604,end
timer_stats,698584181289387,PAPI_L3_TCM,10,100.32702637,  9.26588440,end
timer_stats,698584182392181,PAPI_L3_TCM,21,100.49066162,  9.27694702,end
timer_stats,698584183542582,PAPI_L3_TCM,3,100.62774658,  9.28849792,end
timer_stats,698584184657630,PAPI_L3_TCM,0,100.77172852,  9.30068970,end
timer_stats,698584185821484,PAPI_L3_TCM,2,100.97430420,  9.31748962,end
timer_stats,698584186974085,PAPI_L3_TCM,0,101.20446777,  9.33537292,end
timer_stats,698584188136553,PAPI_L3_TCM,3,101.35101318,  9.34957886,end
timer_stats,698584189286534,PAPI_L3_TCM,2,101.49127197,  9.36224365,end
timer_stats,698584190441182,PAPI_L3_TCM,3,101.64624023,  9.37390137,end
timer_stats,698584191608600,PAPI_L3_TCM,9,101.76611328,  9.38523865,end
timer_stats,698584192746600,PAPI_L3_TCM,13,101.92053223,  9.39671326,end
timer_stats,698584193917859,PAPI_L3_TCM,4,102.12506103,  9.41386414,end
timer_stats,698584195054286,PAPI_L3_TCM,1,102.35101318,  9.43139648,end
timer_stats,698584196169180,PAPI_L3_TCM,0,102.48712158,  9.44270325,end
timer_stats,698584197286797,PAPI_L3_TCM,3,102.62200928,  9.45674133,end
timer_stats,698584198405946,PAPI_L3_TCM,3,102.76147461,  9.46887207,end
timer_stats,698584199523036,PAPI_L3_TCM,6,102.89520264,  9.48019409,end
timer_stats,698584200644300,PAPI_L3_TCM,2,103.03784180,  9.48526001,end
timer_stats,698584201791915,PAPI_L3_TCM,3,103.17010498,  9.49652100,end
timer_stats,698584202946319,PAPI_L3_TCM,5,103.43597412,  9.52423096,end
timer_stats,698584204068890,PAPI_L3_TCM,3,103.58148193,  9.53843689,end
timer_stats,698584205194425,PAPI_L3_TCM,14,103.72302246,  9.55400085,end
timer_stats,698584206320746,PAPI_L3_TCM,17,103.86706543,  9.56773376,end
timer_stats,698584207470410,PAPI_L3_TCM,9,104.00872803,  9.58415222,end
timer_stats,698584208618034,PAPI_L3_TCM,5,104.14477539,  9.60153198,end
timer_stats,698584209759179,PAPI_L3_TCM,4,104.29541015,  9.61669922,end
timer_stats,698584210903662,PAPI_L3_TCM,4,104.42260742,  9.62916565,end
timer_stats,698584212026832,PAPI_L3_TCM,0,104.71850586,  9.65805054,end
timer_stats,698584213167070,PAPI_L3_TCM,5,104.86376953,  9.67219543,end
timer_stats,698584214304882,PAPI_L3_TCM,0,105.00561523,  9.68705749,end
timer_stats,698584215448051,PAPI_L3_TCM,5,105.14434814,  9.70346069,end
timer_stats,698584216590649,PAPI_L3_TCM,0,105.28228760,  9.71833801,end
timer_stats,698584217720434,PAPI_L3_TCM,2,105.42218017,  9.73303223,end
timer_stats,698584218870259,PAPI_L3_TCM,1,105.57470703,  9.74745178,end
timer_stats,698584220016452,PAPI_L3_TCM,4,105.85443115,  9.77458191,end
timer_stats,698584221173970,PAPI_L3_TCM,0,106.00366211,  9.78822327,end
timer_stats,698584222280538,PAPI_L3_TCM,6,106.13818359,  9.80305481,end
timer_stats,698584223414350,PAPI_L3_TCM,3,106.29229736,  9.81500244,end
timer_stats,698584224551575,PAPI_L3_TCM,2,106.43621826,  9.82785034,end
timer_stats,698584225690081,PAPI_L3_TCM,5,106.58306885,  9.84089661,end
timer_stats,698584226810149,PAPI_L3_TCM,10,106.73181152,  9.85401916,end
timer_stats,698584227959784,PAPI_L3_TCM,3,106.95013428,  9.87260437,end
timer_stats,698584229081245,PAPI_L3_TCM,4,107.17547607,  9.89161682,end
timer_stats,698584230215676,PAPI_L3_TCM,0,107.32708740,  9.90483093,end
timer_stats,698584231329403,PAPI_L3_TCM,1,107.46514892,  9.91676330,end
timer_stats,698584232493888,PAPI_L3_TCM,0,107.60803223,  9.92822266,end
timer_stats,698584233635429,PAPI_L3_TCM,1,107.76281738,  9.94088745,end
timer_stats,698584234757256,PAPI_L3_TCM,0,107.90417480,  9.95280456,end
timer_stats,698584235924564,PAPI_L3_TCM,3,108.13610840,  9.96998596,end
timer_stats,698584237034868,PAPI_L3_TCM,0,108.34875488,  9.98725891,end
timer_stats,698584238145029,PAPI_L3_TCM,5,108.50250244,  9.99897766,end
timer_stats,698584239285347,PAPI_L3_TCM,1,108.64630127, 10.01138306,end
timer_stats,698584240422858,PAPI_L3_TCM,2,108.80957031, 10.02252197,end
timer_stats,698584241535529,PAPI_L3_TCM,1,108.96063232, 10.03477478,end
timer_stats,698584242649359,PAPI_L3_TCM,1,109.12103271, 10.04875183,end
timer_stats,698584243795513,PAPI_L3_TCM,5,109.27624512, 10.06317139,end
timer_stats,698584244960358,PAPI_L3_TCM,11,109.43145752, 10.07568359,end
timer_stats,698584246067212,PAPI_L3_TCM,5,109.73126221, 10.10105896,end
timer_stats,698584247205167,PAPI_L3_TCM,6,109.88024902, 10.11351013,end
timer_stats,698584248373145,PAPI_L3_TCM,3,110.02355957, 10.12608337,end
timer_stats,698584249519775,PAPI_L3_TCM,1,110.17687988, 10.13821411,end
timer_stats,698584250662824,PAPI_L3_TCM,1,110.31457519, 10.15188598,end
timer_stats,698584251818218,PAPI_L3_TCM,1,110.47869873, 10.16409302,end
timer_stats,698584252915045,PAPI_L3_TCM,4,110.62615967, 10.17553711,end
timer_stats,698584254029376,PAPI_L3_TCM,6,110.92449951, 10.20411682,end
timer_stats,698584255142867,PAPI_L3_TCM,1,111.06726074, 10.21656799,end
timer_stats,698584256297768,PAPI_L3_TCM,4,111.21997070, 10.22984314,end
timer_stats,698584257435159,PAPI_L3_TCM,1,111.35803223, 10.24281311,end
timer_stats,698584258568537,PAPI_L3_TCM,3,111.51306152, 10.25582886,end
timer_stats,698584259717924,PAPI_L3_TCM,0,111.66052246, 10.26828003,end
timer_stats,698584260861058,PAPI_L3_TCM,3,111.81451416, 10.28202820,end
timer_stats,698584261995467,PAPI_L3_TCM,5,112.02667236, 10.30068970,end
timer_stats,698584263121604,PAPI_L3_TCM,3,112.23858642, 10.31787109,end
timer_stats,698584264266599,PAPI_L3_TCM,4,112.37762451, 10.33413696,end
timer_stats,698584265395922,PAPI_L3_TCM,9,112.53100586, 10.34924316,end
timer_stats,698584266516189,PAPI_L3_TCM,7,112.67272949, 10.36203003,end
timer_stats,698584267661734,PAPI_L3_TCM,8,112.81414795, 10.37986755,end
timer_stats,698584268806638,PAPI_L3_TCM,5,112.96130371, 10.39282226,end
timer_stats,698584269936270,PAPI_L3_TCM,1,113.10296631, 10.40594482,end
timer_stats,698584271064574,PAPI_L3_TCM,0,113.39190674, 10.43199158,end
timer_stats,698584272172783,PAPI_L3_TCM,8,113.53320312, 10.44462585,end
timer_stats,698584273317448,PAPI_L3_TCM,3,113.67700195, 10.45903015,end
timer_stats,698584274473760,PAPI_L3_TCM,4,113.81463623, 10.47184753,end
timer_stats,698584275615891,PAPI_L3_TCM,0,113.95983887, 10.48417663,end
timer_stats,698584276722978,PAPI_L3_TCM,4,114.10101318, 10.49787903,end
timer_stats,698584277850080,PAPI_L3_TCM,2,114.23999023, 10.51077270,end
timer_stats,698584278989141,PAPI_L3_TCM,1,114.45513916, 10.53601074,end
timer_stats,698584280119608,PAPI_L3_TCM,1,114.66320801, 10.54745483,end
timer_stats,698584281258076,PAPI_L3_TCM,3,114.80468750, 10.55850220,end
timer_stats,698584282392610,PAPI_L3_TCM,0,114.94873047, 10.56961060,end
timer_stats,698584283542931,PAPI_L3_TCM,4,115.09191895, 10.58242798,end
timer_stats,698584284685699,PAPI_L3_TCM,2,115.24078369, 10.59417724,end
timer_stats,698584285793553,PAPI_L3_TCM,3,115.37725830, 10.60556030,end
timer_stats,698584286900554,PAPI_L3_TCM,4,115.52453613, 10.61654663,end
timer_stats,698584288038095,PAPI_L3_TCM,7,115.73168945, 10.63433838,end
timer_stats,698584289194206,PAPI_L3_TCM,1,115.94390869, 10.65341186,end
timer_stats,698584290334994,PAPI_L3_TCM,2,116.08135986, 10.66430664,end
timer_stats,698584291486368,PAPI_L3_TCM,1,116.21392822, 10.67492676,end
timer_stats,698584292630266,PAPI_L3_TCM,2,116.35607910, 10.68557739,end
timer_stats,698584293767817,PAPI_L3_TCM,0,116.48541260, 10.69607544,end
timer_stats,698584294878014,PAPI_L3_TCM,1,116.61785889, 10.70652771,end
timer_stats,698584295994155,PAPI_L3_TCM,0,116.81298828, 10.72320557,end
timer_stats,698584297121933,PAPI_L3_TCM,4,117.02404785, 10.74031067,end
timer_stats,698584298283587,PAPI_L3_TCM,1,117.14709473, 10.75166321,end
timer_stats,698584299428609,PAPI_L3_TCM,2,117.27722168, 10.76301575,end
timer_stats,698584300561223,PAPI_L3_TCM,3,117.40588379, 10.77449035,end
timer_stats,698584301734370,PAPI_L3_TCM,2,117.53143310, 10.78576660,end
timer_stats,698584302842751,PAPI_L3_TCM,12,117.65686035, 10.79907226,end
timer_stats,698584303961186,PAPI_L3_TCM,3,117.78765869, 10.80482483,end
timer_stats,698584305066610,PAPI_L3_TCM,1,118.03369140, 10.82742310,end
timer_stats,698584306185187,PAPI_L3_TCM,2,118.16101074, 10.83831787,end
timer_stats,698584307318028,PAPI_L3_TCM,1,118.28955078, 10.85110473,end
timer_stats,698584308441630,PAPI_L3_TCM,5,118.41589355, 10.86289978,end
timer_stats,698584309535261,PAPI_L3_TCM,1,118.53485107, 10.87527466,end
timer_stats,698584310648412,PAPI_L3_TCM,6,118.66503906, 10.88674927,end
timer_stats,698584311788287,PAPI_L3_TCM,0,118.78649902, 10.89768982,end
timer_stats,698584312936152,PAPI_L3_TCM,1,118.97106933, 10.90910339,end
timer_stats,698584314054820,PAPI_L3_TCM,1,119.10620117, 10.92051697,end
timer_stats,698584315153964,PAPI_L3_TCM,3,119.28710937, 10.93716431,end
timer_stats,698584316251923,PAPI_L3_TCM,3,119.40447998, 10.94874573,end
timer_stats,698584317360039,PAPI_L3_TCM,4,119.53564453, 10.96138000,end
timer_stats,698584318466484,PAPI_L3_TCM,3,119.65753174, 10.97630310,end
timer_stats,698584319603286,PAPI_L3_TCM,7,119.78381348, 10.99060058,end
timer_stats,698584320710739,PAPI_L3_TCM,9,119.90930176, 11.00187683,end
timer_stats,698584321848422,PAPI_L3_TCM,8,120.03125000, 11.01412964,end
timer_stats,698584322956223,PAPI_L3_TCM,4,120.15832519, 11.02925110,end
timer_stats,698584324085005,PAPI_L3_TCM,1,120.39898682, 11.05502319,end
timer_stats,698584325221297,PAPI_L3_TCM,1,120.52795410, 11.06826782,end
timer_stats,698584326359666,PAPI_L3_TCM,3,120.64825439, 11.08174133,end
timer_stats,698584327498998,PAPI_L3_TCM,1,120.76947021, 11.09246826,end
timer_stats,698584328609114,PAPI_L3_TCM,8,120.89624023, 11.09777832,end
timer_stats,698584329747094,PAPI_L3_TCM,2,121.01654053, 11.10893249,end
timer_stats,698584330883038,PAPI_L3_TCM,1,121.13513183, 11.11982727,end
timer_stats,698584332028266,PAPI_L3_TCM,3,121.32440186, 11.13073730,end
timer_stats,698584333160184,PAPI_L3_TCM,4,121.50720215, 11.15415954,end
timer_stats,698584334328524,PAPI_L3_TCM,3,121.62841797, 11.16510010,end
timer_stats,698584335436613,PAPI_L3_TCM,2,121.75122070, 11.17559814,end
timer_stats,698584336547302,PAPI_L3_TCM,3,121.86944580, 11.18682861,end
timer_stats,698584337679863,PAPI_L3_TCM,16,121.99591064, 11.19879150,end
timer_stats,698584338830985,PAPI_L3_TCM,7,122.11450195, 11.20986938,end
timer_stats,698584339999154,PAPI_L3_TCM,1,122.29949951, 11.22587585,end
timer_stats,698584341127586,PAPI_L3_TCM,1,122.48449707, 11.24272156,end
timer_stats,698584342247537,PAPI_L3_TCM,1,122.60217285, 11.25540161,end
timer_stats,698584343358004,PAPI_L3_TCM,0,122.72540283, 11.26777649,end
timer_stats,698584344482813,PAPI_L3_TCM,6,122.84680176, 11.27906799,end
timer_stats,698584345587735,PAPI_L3_TCM,8,122.96148682, 11.28955078,end
timer_stats,698584346724237,PAPI_L3_TCM,5,123.07958984, 11.30038452,end
timer_stats,698584347829821,PAPI_L3_TCM,3,123.19793701, 11.31105041,end
timer_stats,698584348936275,PAPI_L3_TCM,1,123.31805420, 11.32263183,end
timer_stats,698584350077786,PAPI_L3_TCM,0,123.49029541, 11.34011841,end
timer_stats,698584351246137,PAPI_L3_TCM,7,123.66430664, 11.35725403,end
timer_stats,698584352405095,PAPI_L3_TCM,3,123.78125000, 11.36955261,end
timer_stats,698584353550344,PAPI_L3_TCM,4,123.89849853, 11.38066101,end
timer_stats,698584354693226,PAPI_L3_TCM,0,124.01165771, 11.39201355,end
timer_stats,698584355859395,PAPI_L3_TCM,2,124.12329102, 11.40339661,end
timer_stats,698584357000120,PAPI_L3_TCM,2,124.28125000, 11.41915893,end
timer_stats,698584358106854,PAPI_L3_TCM,2,124.44897461, 11.43585205,end
timer_stats,698584359241234,PAPI_L3_TCM,0,124.55999756, 11.44659424,end
timer_stats,698584360388812,PAPI_L3_TCM,8,124.67523193, 11.45768738,end
timer_stats,698584361527724,PAPI_L3_TCM,0,124.78350830, 11.46928406,end
timer_stats,698584362700029,PAPI_L3_TCM,3,124.89044189, 11.48048401,end
timer_stats,698584363834878,PAPI_L3_TCM,8,125.00213623, 11.49137878,end
timer_stats,698584364979373,PAPI_L3_TCM,22,125.11328125, 11.50247192,end
timer_stats,698584366106085,PAPI_L3_TCM,6,125.27349853, 11.51895142,end
timer_stats,698584367211828,PAPI_L3_TCM,2,125.44354248, 11.53500366,end
timer_stats,698584368309970,PAPI_L3_TCM,1,125.55523682, 11.54574585,end
timer_stats,698584369413826,PAPI_L3_TCM,1,125.66857910, 11.55685425,end
timer_stats,698584370528376,PAPI_L3_TCM,0,125.78094482, 11.56945801,end
timer_stats,698584371657277,PAPI_L3_TCM,5,125.89782715, 11.58131409,end
timer_stats,698584372759382,PAPI_L3_TCM,0,126.01171875, 11.59262085,end
timer_stats,698584373870466,PAPI_L3_TCM,3,126.11981201, 11.60382080,end
timer_stats,698584374987504,PAPI_L3_TCM,3,126.23101807, 11.61575317,end
timer_stats,698584376084502,PAPI_L3_TCM,4,126.39245605, 11.63308716,end
timer_stats,698584377193237,PAPI_L3_TCM,1,126.56384277, 11.64906311,end
timer_stats,698584378315568,PAPI_L3_TCM,1,126.66949463, 11.66003418,end
timer_stats,698584379409166,PAPI_L3_TCM,1,126.77905273, 11.67092896,end
timer_stats,698584380506256,PAPI_L3_TCM,8,126.88708496, 11.68115234,end
timer_stats,698584381637612,PAPI_L3_TCM,4,126.99127197, 11.69192505,end
timer_stats,698584382772318,PAPI_L3_TCM,3,127.10516357, 11.70326233,end
timer_stats,698584383866941,PAPI_L3_TCM,2,127.21539307, 11.71354675,end
timer_stats,698584384958775,PAPI_L3_TCM,5,127.32598877, 11.72499084,end
timer_stats,698584386086060,PAPI_L3_TCM,0,127.48785400, 11.74082947,end
timer_stats,698584387347431,PAPI_L3_TCM,3,127.66369629, 11.75688171,end
timer_stats,698584388446732,PAPI_L3_TCM,1,127.77362061, 11.76782226,end
timer_stats,698584389542866,PAPI_L3_TCM,2,127.87786865, 11.77874756,end
timer_stats,698584390640668,PAPI_L3_TCM,3,127.98352051, 11.78927612,end
timer_stats,698584391736532,PAPI_L3_TCM,3,128.08819580, 11.80023193,end
timer_stats,698584392834936,PAPI_L3_TCM,0,128.20001221, 11.81069946,end
timer_stats,698584393936710,PAPI_L3_TCM,1,128.30242920, 11.82144165,end
timer_stats,698584395030197,PAPI_L3_TCM,3,128.40972900, 11.83215332,end
timer_stats,698584396129684,PAPI_L3_TCM,1,128.57086182, 11.84774780,end
timer_stats,698584397227775,PAPI_L3_TCM,1,128.73236084, 11.86314392,end
timer_stats,698584398330597,PAPI_L3_TCM,3,128.83837891, 11.87364197,end
timer_stats,698584399421860,PAPI_L3_TCM,1,128.94598389, 11.88435364,end
timer_stats,698584400513811,PAPI_L3_TCM,3,129.04644775, 11.89463806,end
timer_stats,698584401675002,PAPI_L3_TCM,3,129.14739990, 11.90513611,end
timer_stats,698584402765494,PAPI_L3_TCM,1,129.25207519, 11.91584778,end
timer_stats,698584403875770,PAPI_L3_TCM,0,129.35260010, 11.92634582,end
timer_stats,698584404982958,PAPI_L3_TCM,1,129.45257568, 11.93659973,end
timer_stats,698584406086345,PAPI_L3_TCM,3,129.60137939, 11.94689941,end
timer_stats,698584407186440,PAPI_L3_TCM,11,129.73809814, 11.96751404,end
timer_stats,698584408292868,PAPI_L3_TCM,1,129.83142090, 11.97805786,end
timer_stats,698584409389314,PAPI_L3_TCM,2,129.92657471, 11.98834228,end
timer_stats,698584410516605,PAPI_L3_TCM,1,130.02343750, 11.99884033,end
timer_stats,698584411646162,PAPI_L3_TCM,2,130.11480713, 12.00936890,end
timer_stats,698584412746755,PAPI_L3_TCM,3,130.20971680, 12.01968384,end
timer_stats,698584413856341,PAPI_L3_TCM,1,130.30694580, 12.03018188,end
timer_stats,698584414965145,PAPI_L3_TCM,0,130.40173340, 12.04046631,end
timer_stats,698584416069536,PAPI_L3_TCM,3,130.54840088, 12.05050659,end
timer_stats,698584417157776,PAPI_L3_TCM,2,130.64813232, 12.06576538,end
timer_stats,698584418288915,PAPI_L3_TCM,4,130.78857422, 12.08097839,end
timer_stats,698584419422262,PAPI_L3_TCM,0,130.88177490, 12.09129333,end
timer_stats,698584420569691,PAPI_L3_TCM,2,130.97790527, 12.09645080,end
timer_stats,698584421683698,PAPI_L3_TCM,0,131.06738281, 12.10679626,end
timer_stats,698584422820053,PAPI_L3_TCM,1,131.16497803, 12.11683655,end
timer_stats,698584423957811,PAPI_L3_TCM,0,131.25653076, 12.12718201,end
timer_stats,698584425069013,PAPI_L3_TCM,3,131.39587402, 12.14292908,end
timer_stats,698584426183860,PAPI_L3_TCM,0,131.48956299, 12.15325928,end
timer_stats,698584427321308,PAPI_L3_TCM,2,131.62268066, 12.16851807,end
timer_stats,698584428442437,PAPI_L3_TCM,8,131.71411133, 12.17886352,end
timer_stats,698584429553659,PAPI_L3_TCM,2,131.80841064, 12.18917847,end
timer_stats,698584430674171,PAPI_L3_TCM,0,131.90057373, 12.19950867,end
timer_stats,698584431799136,PAPI_L3_TCM,1,131.99072266, 12.20982361,end
timer_stats,698584432946495,PAPI_L3_TCM,1,132.08618164, 12.22010803,end
timer_stats,698584434067174,PAPI_L3_TCM,3,132.17590332, 12.23020935,end
timer_stats,698584435206263,PAPI_L3_TCM,0,132.35504150, 12.25065613,end
timer_stats,698584436317332,PAPI_L3_TCM,2,132.44781494, 12.26094055,end
timer_stats,698584437427937,PAPI_L3_TCM,1,132.53747559, 12.27128601,end
timer_stats,698584438539341,PAPI_L3_TCM,1,132.63269043, 12.28108215,end
timer_stats,698584439656616,PAPI_L3_TCM,0,132.71862793, 12.29121399,end
timer_stats,698584440777147,PAPI_L3_TCM,1,132.81085205, 12.30194092,end
timer_stats,698584441889084,PAPI_L3_TCM,0,132.90502930, 12.31246948,end
timer_stats,698584443002312,PAPI_L3_TCM,2,132.99780273, 12.32250976,end
timer_stats,698584444115983,PAPI_L3_TCM,0,133.08984375, 12.33398437,end
timer_stats,698584445227667,PAPI_L3_TCM,2,133.27276611, 12.35479736,end
timer_stats,698584446345397,PAPI_L3_TCM,1,133.36614990, 12.36532593,end
timer_stats,698584447460299,PAPI_L3_TCM,1,133.46405029, 12.37585449,end
timer_stats,698584448576198,PAPI_L3_TCM,0,133.55633545, 12.38635254,end
timer_stats,698584449694840,PAPI_L3_TCM,1,133.64678955, 12.39758301,end
timer_stats,698584450803964,PAPI_L3_TCM,0,133.74737549, 12.40783691,end
timer_stats,698584451888828,PAPI_L3_TCM,2,133.84497070, 12.41851807,end
timer_stats,698584452985891,PAPI_L3_TCM,0,133.94903564, 12.42919922,end
timer_stats,698584454068751,PAPI_L3_TCM,2,134.04888916, 12.44064331,end
timer_stats,698584455170223,PAPI_L3_TCM,0,134.20275879, 12.45114136,end
timer_stats,698584456269841,PAPI_L3_TCM,1,134.33355713, 12.47128296,end
timer_stats,698584457354666,PAPI_L3_TCM,0,134.42907715, 12.48178101,end
timer_stats,698584458449552,PAPI_L3_TCM,1,134.51861572, 12.49212646,end
timer_stats,698584459550221,PAPI_L3_TCM,0,134.60900879, 12.50244141,end
timer_stats,698584460666143,PAPI_L3_TCM,2,134.70465088, 12.51226807,end
timer_stats,698584461768937,PAPI_L3_TCM,0,134.80407715, 12.52301025,end
timer_stats,698584462874193,PAPI_L3_TCM,2,134.90100097, 12.53329468,end
timer_stats,698584463977903,PAPI_L3_TCM,0,134.99780273, 12.54382324,end
timer_stats,698584465100518,PAPI_L3_TCM,2,135.09747314, 12.55525208,end
timer_stats,698584466225480,PAPI_L3_TCM,5,135.22924805, 12.56913757,end
timer_stats,698584467348105,PAPI_L3_TCM,1,135.37432861, 12.58372497,end
timer_stats,698584468467259,PAPI_L3_TCM,0,135.47290039, 12.59297180,end
timer_stats,698584469569217,PAPI_L3_TCM,3,135.56323242, 12.60307312,end
timer_stats,698584470669515,PAPI_L3_TCM,0,135.65789795, 12.61180115,end
timer_stats,698584471768521,PAPI_L3_TCM,2,135.74322510, 12.62060547,end
timer_stats,698584472871012,PAPI_L3_TCM,0,135.83575439, 12.62960815,end
timer_stats,698584473971425,PAPI_L3_TCM,2,135.92828369, 12.64013672,end
timer_stats,698584475090290,PAPI_L3_TCM,5,136.01129150, 12.64871216,end
timer_stats,698584476185518,PAPI_L3_TCM,1,136.15618896, 12.66477966,end
timer_stats,698584477268644,PAPI_L3_TCM,2,136.25952148, 12.67500305,end
timer_stats,698584478365363,PAPI_L3_TCM,2,136.39898682, 12.69047546,end
timer_stats,698584479464877,PAPI_L3_TCM,0,136.48742676, 12.70059204,end
timer_stats,698584480564324,PAPI_L3_TCM,2,136.58056641, 12.71093750,end
timer_stats,698584481670466,PAPI_L3_TCM,0,136.67236328, 12.72100830,end
timer_stats,698584482775373,PAPI_L3_TCM,1,136.75610352, 12.72958374,end
timer_stats,698584483878377,PAPI_L3_TCM,0,136.84472656, 12.73811340,end
timer_stats,698584485022409,PAPI_L3_TCM,1,136.93542480, 12.74687195,end
timer_stats,698584486179938,PAPI_L3_TCM,0,137.06024170, 12.76084900,end
timer_stats,698584487338522,PAPI_L3_TCM,2,137.19232178, 12.77632141,end
timer_stats,698584488492178,PAPI_L3_TCM,0,137.27728271, 12.78514099,end
timer_stats,698584489652611,PAPI_L3_TCM,2,137.36169434, 12.79031372,end
timer_stats,698584490808640,PAPI_L3_TCM,0,137.44537353, 12.79911804,end
timer_stats,698584491963940,PAPI_L3_TCM,1,137.52844238, 12.80792236,end
timer_stats,698584493120245,PAPI_L3_TCM,0,137.61444092, 12.81692505,end
timer_stats,698584494279784,PAPI_L3_TCM,1,137.78125000, 12.83738708,end
timer_stats,698584495438922,PAPI_L3_TCM,1,137.86358642, 12.84619141,end
timer_stats,698584496602304,PAPI_L3_TCM,2,137.94573974, 12.85525513,end
timer_stats,698584497766966,PAPI_L3_TCM,0,138.03051758, 12.86581421,end
timer_stats,698584498929814,PAPI_L3_TCM,2,138.11047363, 12.87460327,end
timer_stats,698584500071388,PAPI_L3_TCM,0,138.19409180, 12.88339233,end
timer_stats,698584501214993,PAPI_L3_TCM,1,138.31719971, 12.89709473,end
timer_stats,698584502380121,PAPI_L3_TCM,0,138.44091797, 12.91239929,end
timer_stats,698584503547767,PAPI_L3_TCM,1,138.52722168, 12.92115784,end
timer_stats,698584504694180,PAPI_L3_TCM,0,138.61169434, 12.93171692,end
timer_stats,698584505866521,PAPI_L3_TCM,2,138.68939209, 12.94032287,end
timer_stats,698584507027468,PAPI_L3_TCM,0,138.77148437, 12.94911194,end
timer_stats,698584508186960,PAPI_L3_TCM,2,138.89129639, 12.96305847,end
timer_stats,698584509347827,PAPI_L3_TCM,0,139.01647949, 12.97831726,end
timer_stats,698584510510951,PAPI_L3_TCM,1,139.09881592, 12.98710632,end
timer_stats,698584511675543,PAPI_L3_TCM,0,139.17803955, 12.99591064,end
timer_stats,698584512842385,PAPI_L3_TCM,1,139.25952148, 13.00447082,end
timer_stats,698584514007922,PAPI_L3_TCM,0,139.33929443, 13.01304626,end
timer_stats,698584515168167,PAPI_L3_TCM,2,139.42010498, 13.02182007,end
timer_stats,698584516330073,PAPI_L3_TCM,0,139.57281494, 13.04100037,end
timer_stats,698584517488921,PAPI_L3_TCM,2,139.65484619, 13.05128479,end
timer_stats,698584518651302,PAPI_L3_TCM,0,139.73107910, 13.06010437,end
timer_stats,698584519811977,PAPI_L3_TCM,1,139.81140137, 13.06889343,end
timer_stats,698584520985993,PAPI_L3_TCM,0,139.88745117, 13.07774353,end
timer_stats,698584522152795,PAPI_L3_TCM,1,139.96771240, 13.08648682,end
timer_stats,698584523318725,PAPI_L3_TCM,0,140.12554932, 13.10560608,end
timer_stats,698584524486924,PAPI_L3_TCM,2,140.19964599, 13.11444092,end
timer_stats,698584525652908,PAPI_L3_TCM,0,140.27606201, 13.12301636,end
timer_stats,698584526822373,PAPI_L3_TCM,2,140.35479736, 13.13156128,end
timer_stats,698584527967817,PAPI_L3_TCM,0,140.42926025, 13.14192200,end
timer_stats,698584529147839,PAPI_L3_TCM,1,140.54034424, 13.15609741,end
timer_stats,698584530327749,PAPI_L3_TCM,0,140.62176514, 13.16638183,end
timer_stats,698584531508844,PAPI_L3_TCM,1,140.73822021, 13.18014526,end
timer_stats,698584532673798,PAPI_L3_TCM,0,140.81512451, 13.18872070,end
timer_stats,698584533841842,PAPI_L3_TCM,2,140.89288330, 13.19750976,end
timer_stats,698584535009527,PAPI_L3_TCM,0,140.97155762, 13.20623779,end
timer_stats,698584536175406,PAPI_L3_TCM,2,141.04943848, 13.21524048,end
timer_stats,698584537341723,PAPI_L3_TCM,0,141.19842529, 13.23416138,end
timer_stats,698584538501700,PAPI_L3_TCM,1,141.27282715, 13.24299621,end
timer_stats,698584539651627,PAPI_L3_TCM,0,141.34985352, 13.25157165,end
timer_stats,698584540798066,PAPI_L3_TCM,1,141.42718506, 13.26214599,end
timer_stats,698584541966643,PAPI_L3_TCM,0,141.50744629, 13.27221680,end
timer_stats,698584543131714,PAPI_L3_TCM,2,141.58270264, 13.28128052,end
timer_stats,698584544303332,PAPI_L3_TCM,0,141.69177246, 13.29577637,end
timer_stats,698584545469876,PAPI_L3_TCM,2,141.81359863, 13.31072998,end
timer_stats,698584546646576,PAPI_L3_TCM,0,141.88684082, 13.31977844,end
timer_stats,698584547813250,PAPI_L3_TCM,1,141.96374512, 13.32929993,end
timer_stats,698584548977950,PAPI_L3_TCM,0,142.03790283, 13.33808899,end
timer_stats,698584550143619,PAPI_L3_TCM,1,142.14514160, 13.34687805,end
timer_stats,698584551315226,PAPI_L3_TCM,0,142.22125244, 13.36079407,end
timer_stats,698584552486007,PAPI_L3_TCM,2,142.33776855, 13.37477112,end
timer_stats,698584553652834,PAPI_L3_TCM,0,142.41931152, 13.38352966,end
timer_stats,698584554819319,PAPI_L3_TCM,2,142.49945068, 13.39231873,end
timer_stats,698584555986326,PAPI_L3_TCM,0,142.57843017, 13.40116882,end
timer_stats,698584557154921,PAPI_L3_TCM,1,142.66235352, 13.40992737,end
timer_stats,698584558320183,PAPI_L3_TCM,0,142.82830810, 13.43029785,end
timer_stats,698584559486244,PAPI_L3_TCM,1,142.91082764, 13.43933105,end
timer_stats,698584560656641,PAPI_L3_TCM,0,142.99145508, 13.44839477,end
timer_stats,698584561821845,PAPI_L3_TCM,2,143.07183838, 13.45718384,end
timer_stats,698584562988563,PAPI_L3_TCM,0,143.15350342, 13.46598816,end
timer_stats,698584564158951,PAPI_L3_TCM,2,143.23663330, 13.47477722,end
timer_stats,698584565328836,PAPI_L3_TCM,0,143.40063477, 13.49391174,end
timer_stats,698584566494488,PAPI_L3_TCM,1,143.48376465, 13.50248718,end
timer_stats,698584567674728,PAPI_L3_TCM,0,143.56622314, 13.51127624,end
timer_stats,698584568861775,PAPI_L3_TCM,1,143.64691162, 13.52085876,end
timer_stats,698584570029944,PAPI_L3_TCM,0,143.73162842, 13.52961731,end
timer_stats,698584571194166,PAPI_L3_TCM,2,143.86163330, 13.54304504,end
timer_stats,698584572348412,PAPI_L3_TCM,0,143.95263672, 13.54884338,end
timer_stats,698584573499203,PAPI_L3_TCM,2,144.06628418, 13.56352234,end
timer_stats,698584574665817,PAPI_L3_TCM,0,144.15069580, 13.57208252,end
timer_stats,698584575824458,PAPI_L3_TCM,1,144.23199463, 13.58114624,end
timer_stats,698584577004150,PAPI_L3_TCM,0,144.31616211, 13.58993530,end
timer_stats,698584578169427,PAPI_L3_TCM,1,144.40081787, 13.59872436,end
timer_stats,698584579335032,PAPI_L3_TCM,0,144.57080078, 13.61761474,end
timer_stats,698584580503969,PAPI_L3_TCM,2,144.60955810, 13.62280273,end
timer_stats,698584581671023,PAPI_L3_TCM,0,144.74127197, 13.63671875,end
timer_stats,698584582817492,PAPI_L3_TCM,2,144.82440185, 13.64550781,end
timer_stats,698584583985699,PAPI_L3_TCM,0,144.90631103, 13.65429687,end
timer_stats,698584585163179,PAPI_L3_TCM,1,144.98156738, 13.66156006,end
timer_stats,698584586364025,PAPI_L3_TCM,0,145.13073730, 13.67916870,end
timer_stats,698584587545593,PAPI_L3_TCM,1,145.20373535, 13.68644714,end
timer_stats,698584588728450,PAPI_L3_TCM,0,145.27923584, 13.69369507,end
timer_stats,698584589907080,PAPI_L3_TCM,2,145.35339355, 13.70095825,end
timer_stats,698584591085764,PAPI_L3_TCM,0,145.43670654, 13.70837402,end
timer_stats,698584592263643,PAPI_L3_TCM,2,145.53002930, 13.71946716,end
timer_stats,698584593440090,PAPI_L3_TCM,0,145.60833740, 13.72953796,end
timer_stats,698584594627180,PAPI_L3_TCM,1,145.72753906, 13.74327087,end
timer_stats,698584595806019,PAPI_L3_TCM,0,145.80230713, 13.75053406,end
timer_stats,698584596985952,PAPI_L3_TCM,1,145.88665771, 13.75901794,end
timer_stats,698584598158386,PAPI_L3_TCM,0,145.96356201, 13.76753235,end
timer_stats,698584599335315,PAPI_L3_TCM,2,146.05548096, 13.77857971,end
timer_stats,698584600509002,PAPI_L3_TCM,0,146.17352295, 13.79254150,end
timer_stats,698584601682789,PAPI_L3_TCM,2,146.25793457, 13.80151367,end
timer_stats,698584602846361,PAPI_L3_TCM,0,146.32250977, 13.80891418,end
timer_stats,698584604031656,PAPI_L3_TCM,1,146.39306641, 13.81620789,end
timer_stats,698584605198212,PAPI_L3_TCM,0,146.47918701, 13.82334900,end
timer_stats,698584606367047,PAPI_L3_TCM,1,146.61279297, 13.83961487,end
timer_stats,698584607547878,PAPI_L3_TCM,0,146.64196777, 13.84324646,end
timer_stats,698584608728506,PAPI_L3_TCM,4,146.76440430, 13.85563660,end
timer_stats,698584609905473,PAPI_L3_TCM,0,146.83898926, 13.86286926,end
timer_stats,698584611077850,PAPI_L3_TCM,2,146.90777588, 13.87042236,end
timer_stats,698584612251717,PAPI_L3_TCM,0,146.97949219, 13.87768555,end
timer_stats,698584613415944,PAPI_L3_TCM,1,147.08142090, 13.88986206,end
timer_stats,698584614596603,PAPI_L3_TCM,0,147.19226074, 13.90359497,end
timer_stats,698584615777455,PAPI_L3_TCM,2,147.26336670, 13.91085815,end
timer_stats,698584616958365,PAPI_L3_TCM,0,147.34375000, 13.91781616,end
timer_stats,698584618136306,PAPI_L3_TCM,2,147.41595459, 13.92507935,end
timer_stats,698584619296048,PAPI_L3_TCM,0,147.50439453, 13.93762207,end
timer_stats,698584620477278,PAPI_L3_TCM,2,147.57672119, 13.95150757,end
timer_stats,698584621637820,PAPI_L3_TCM,0,147.69317627, 13.95669556,end
timer_stats,698584622806329,PAPI_L3_TCM,1,147.76226807, 13.96398926,end
timer_stats,698584623988846,PAPI_L3_TCM,0,147.84332275, 13.97116089,end
timer_stats,698584625167011,PAPI_L3_TCM,1,147.90399170, 13.97860718,end
timer_stats,698584626370743,PAPI_L3_TCM,0,148.04577637, 13.99465942,end
timer_stats,698584627545057,PAPI_L3_TCM,2,148.11444092, 14.00192261,end
timer_stats,698584628724819,PAPI_L3_TCM,0,148.19287109, 14.00936890,end
timer_stats,698584629902891,PAPI_L3_TCM,2,148.26074219, 14.01666260,end
timer_stats,698584631081668,PAPI_L3_TCM,0,148.32965088, 14.02392578,end
timer_stats,698584638427353,PAPI_L3_TCM,306,149.03674316, 14.12135315,end
timer_stats,698584639586718,PAPI_L3_TCM,135,149.11602783, 14.13044739,end
timer_stats,698584640722131,PAPI_L3_TCM,13,149.22943115, 14.14437866,end
timer_stats,698584641891241,PAPI_L3_TCM,2,149.30139160, 14.15185547,end
timer_stats,698584643068723,PAPI_L3_TCM,5,149.36602783, 14.15917969,end
timer_stats,698584644245618,PAPI_L3_TCM,0,149.43414307, 14.16665649,end
timer_stats,698584645423992,PAPI_L3_TCM,2,149.53082275, 14.17800903,end
timer_stats,698584646603990,PAPI_L3_TCM,0,149.64215088, 14.19041443,end
timer_stats,698584647779994,PAPI_L3_TCM,1,149.70141601, 14.19950867,end
timer_stats,698584648956268,PAPI_L3_TCM,0,149.77770996, 14.20668030,end
timer_stats,698584650132060,PAPI_L3_TCM,1,149.84667969, 14.21437073,end
timer_stats,698584651307691,PAPI_L3_TCM,1,149.93853760, 14.22528076,end
timer_stats,698584652486586,PAPI_L3_TCM,3,150.04138184, 14.23820496,end
timer_stats,698584653661923,PAPI_L3_TCM,0,150.11755371, 14.24540710,end
timer_stats,698584654839018,PAPI_L3_TCM,2,150.18859863, 14.24903870,end
timer_stats,698584656012772,PAPI_L3_TCM,0,150.25354004, 14.25633240,end
timer_stats,698584657164224,PAPI_L3_TCM,2,150.32281494, 14.26408386,end
timer_stats,698584658327871,PAPI_L3_TCM,0,150.41674805, 14.27540588,end
timer_stats,698584659490916,PAPI_L3_TCM,1,150.47302246, 14.28282165,end
timer_stats,698584660672025,PAPI_L3_TCM,0,150.58404541, 14.29698181,end
timer_stats,698584661852547,PAPI_L3_TCM,2,150.66076660, 14.30439758,end
timer_stats,698584663027754,PAPI_L3_TCM,0,150.72534180, 14.31169128,end
timer_stats,698584664205483,PAPI_L3_TCM,2,150.79431152, 14.31915283,end
timer_stats,698584665388728,PAPI_L3_TCM,0,150.88403320, 14.33032226,end
timer_stats,698584666573548,PAPI_L3_TCM,1,150.99493408, 14.34271240,end
timer_stats,698584667736409,PAPI_L3_TCM,0,151.06134033, 14.35156250,end
timer_stats,698584668913872,PAPI_L3_TCM,1,151.13281250, 14.35879517,end
timer_stats,698584670089591,PAPI_L3_TCM,0,151.19696045, 14.36608887,end
timer_stats,698584671266550,PAPI_L3_TCM,2,151.29003906, 14.37750244,end
timer_stats,698584672445262,PAPI_L3_TCM,0,151.35461426, 14.38500976,end
timer_stats,698584673601194,PAPI_L3_TCM,3,151.46270752, 14.39900207,end
timer_stats,698584674756521,PAPI_L3_TCM,0,151.53320312, 14.40773010,end
timer_stats,698584675933797,PAPI_L3_TCM,1,151.59680176, 14.41505432,end
timer_stats,698584677119090,PAPI_L3_TCM,0,151.66381836, 14.42253113,end
timer_stats,698584678296121,PAPI_L3_TCM,1,151.72930908, 14.43022156,end
timer_stats,698584679479752,PAPI_L3_TCM,0,151.81768799, 14.44160461,end
timer_stats,698584680659007,PAPI_L3_TCM,2,151.92785644, 14.45553589,end
timer_stats,698584681836232,PAPI_L3_TCM,0,151.99475098, 14.46298218,end
timer_stats,698584683005602,PAPI_L3_TCM,2,152.06103516, 14.47045898,end
timer_stats,698584684182287,PAPI_L3_TCM,0,152.12225342, 14.47802734,end
timer_stats,698584685360251,PAPI_L3_TCM,1,152.21032715, 14.48937988,end
timer_stats,698584686539637,PAPI_L3_TCM,0,152.28027344, 14.49661255,end
timer_stats,698584687717127,PAPI_L3_TCM,1,152.39050293, 14.51054382,end
timer_stats,698584688899777,PAPI_L3_TCM,0,152.45257568, 14.51782226,end
timer_stats,698584690079041,PAPI_L3_TCM,2,152.51696777, 14.52508545,end
timer_stats,698584691256034,PAPI_L3_TCM,0,152.60241699, 14.53601074,end
timer_stats,698584692443417,PAPI_L3_TCM,2,152.67486572, 14.54318237,end
timer_stats,698584693622968,PAPI_L3_TCM,0,152.77819824, 14.55567932,end
timer_stats,698584694803607,PAPI_L3_TCM,1,152.84381103, 14.56292724,end
timer_stats,698584695994314,PAPI_L3_TCM,0,152.90771484, 14.57020569,end
timer_stats,698584697183899,PAPI_L3_TCM,2,152.97326660, 14.57771301,end
timer_stats,698584698364405,PAPI_L3_TCM,0,153.05651855, 14.58863830,end
timer_stats,698584699550007,PAPI_L3_TCM,2,153.12182617, 14.59611511,end
timer_stats,698584700729555,PAPI_L3_TCM,0,153.23187256, 14.61003113,end
timer_stats,698584701910109,PAPI_L3_TCM,2,153.29357910, 14.61732483,end
timer_stats,698584703097641,PAPI_L3_TCM,0,153.35809326, 14.62483215,end
timer_stats,698584704276540,PAPI_L3_TCM,1,153.42266846, 14.63284302,end
timer_stats,698584705467755,PAPI_L3_TCM,209,153.51123047, 14.64373779,end
timer_stats,698584706648794,PAPI_L3_TCM,1,153.61358642, 14.65643310,end
timer_stats,698584707824929,PAPI_L3_TCM,0,153.67932129, 14.66390991,end
timer_stats,698584709006816,PAPI_L3_TCM,2,153.74267578, 14.67118835,end
timer_stats,698584710152172,PAPI_L3_TCM,0,153.80816650, 14.67840576,end
timer_stats,698584711330521,PAPI_L3_TCM,2,153.89373779, 14.68933105,end
timer_stats,698584712514501,PAPI_L3_TCM,0,153.95593262, 14.69662476,end
timer_stats,698584713698228,PAPI_L3_TCM,1,154.06622314, 14.71072388,end
timer_stats,698584714880749,PAPI_L3_TCM,0,154.12823486, 14.71801758,end
timer_stats,698584716057952,PAPI_L3_TCM,1,154.19329834, 14.72525024,end
timer_stats,698584717236356,PAPI_L3_TCM,0,154.25750732, 14.73294067,end
timer_stats,698584718416558,PAPI_L3_TCM,2,154.33721924, 14.74407959,end
timer_stats,698584719602698,PAPI_L3_TCM,0,154.40136719, 14.75796509,end
timer_stats,698584720784594,PAPI_L3_TCM,2,154.51074219, 14.76681518,end
timer_stats,698584721956985,PAPI_L3_TCM,0,154.57592773, 14.77432251,end
timer_stats,698584723137192,PAPI_L3_TCM,1,154.63488769, 14.78184509,end
timer_stats,698584724320833,PAPI_L3_TCM,0,154.71826172, 14.79295349,end
timer_stats,698584725505206,PAPI_L3_TCM,2,154.78497314, 14.80015564,end
timer_stats,698584726684664,PAPI_L3_TCM,0,154.89202881, 14.81413269,end
timer_stats,698584727867384,PAPI_L3_TCM,2,154.95465088, 14.82138062,end
timer_stats,698584729045031,PAPI_L3_TCM,0,155.01666260, 14.82888794,end
timer_stats,698584730228916,PAPI_L3_TCM,2,155.08123779, 14.83633423,end
timer_stats,698584731410114,PAPI_L3_TCM,0,155.16680908, 14.84725952,end
timer_stats,698584732599575,PAPI_L3_TCM,1,155.26586914, 14.85975647,end
timer_stats,698584733779542,PAPI_L3_TCM,0,155.33312988, 14.86720276,end
timer_stats,698584734961248,PAPI_L3_TCM,1,155.39312744, 14.87449646,end
timer_stats,698584736140150,PAPI_L3_TCM,2,155.45684814, 14.88172912,end
timer_stats,698584737321675,PAPI_L3_TCM,2,155.53924560, 14.89317322,end
timer_stats,698584738509460,PAPI_L3_TCM,0,155.60528564, 14.90037537,end
timer_stats,698584739688295,PAPI_L3_TCM,2,155.70922852, 14.91281128,end
timer_stats,698584740867241,PAPI_L3_TCM,0,155.77044678, 14.92031860,end
timer_stats,698584742047043,PAPI_L3_TCM,1,155.83209228, 14.92756653,end
timer_stats,698584743230888,PAPI_L3_TCM,0,155.89257812, 14.93484497,end
timer_stats,698584744413069,PAPI_L3_TCM,1,155.97485352, 14.94570923,end
timer_stats,698584745592241,PAPI_L3_TCM,1,156.07757568, 14.95318603,end
timer_stats,698584746782952,PAPI_L3_TCM,2,156.14031982, 14.96195984,end
timer_stats,698584747964135,PAPI_L3_TCM,0,156.20001221, 14.96925354,end
timer_stats,698584749143160,PAPI_L3_TCM,2,156.26464844, 14.97673035,end
timer_stats,698584750321380,PAPI_L3_TCM,0,156.32519531, 14.98446655,end
timer_stats,698584751466476,PAPI_L3_TCM,1,156.40692139, 14.99562073,end
timer_stats,698584752649303,PAPI_L3_TCM,0,156.50811767, 15.00827026,end
timer_stats,698584753839806,PAPI_L3_TCM,8,156.57507324, 15.01596069,end
timer_stats,698584755023727,PAPI_L3_TCM,0,156.64038086, 15.02514648,end
timer_stats,698584756203169,PAPI_L3_TCM,3,156.70867920, 15.03494263,end
timer_stats,698584757365143,PAPI_L3_TCM,0,156.80389404, 15.04956055,end
timer_stats,698584758535970,PAPI_L3_TCM,5,156.86688232, 15.05917358,end
timer_stats,698584759704985,PAPI_L3_TCM,0,156.97796631, 15.07351684,end
timer_stats,698584760874472,PAPI_L3_TCM,1,157.04278564, 15.08276367,end
timer_stats,698584762042497,PAPI_L3_TCM,0,157.10949707, 15.09149170,end
timer_stats,698584763210855,PAPI_L3_TCM,1,157.17456054, 15.10026550,end
timer_stats,698584764378320,PAPI_L3_TCM,0,157.26080322, 15.11293030,end
timer_stats,698584765547060,PAPI_L3_TCM,2,157.32287597, 15.12174988,end
timer_stats,698584766713702,PAPI_L3_TCM,0,157.43890381, 15.13563537,end
timer_stats,698584767881849,PAPI_L3_TCM,2,157.50030517, 15.14447021,end
timer_stats,698584769048777,PAPI_L3_TCM,0,157.56951904, 15.15319824,end
timer_stats,698584770214655,PAPI_L3_TCM,1,157.63800049, 15.16197205,end
timer_stats,698584771380216,PAPI_L3_TCM,0,157.70178223, 15.17103576,end
timer_stats,698584772551327,PAPI_L3_TCM,1,157.78814697, 15.18363953,end
timer_stats,698584773688985,PAPI_L3_TCM,0,157.90802002, 15.19773865,end
timer_stats,698584774825542,PAPI_L3_TCM,2,157.97821045, 15.20652771,end
timer_stats,698584775998070,PAPI_L3_TCM,0,158.05358887, 15.21549988,end
timer_stats,698584777182084,PAPI_L3_TCM,2,158.12207031, 15.22409057,end
timer_stats,698584778352416,PAPI_L3_TCM,0,158.21856689, 15.23284912,end
timer_stats,698584779523613,PAPI_L3_TCM,1,158.28698730, 15.24554443,end
timer_stats,698584780697808,PAPI_L3_TCM,0,158.41223145, 15.25579834,end
timer_stats,698584781834709,PAPI_L3_TCM,1,158.47973633, 15.26458740,end
timer_stats,698584783002916,PAPI_L3_TCM,0,158.54827881, 15.27355957,end
timer_stats,698584784185051,PAPI_L3_TCM,2,158.60784912, 15.28140259,end
timer_stats,698584785348332,PAPI_L3_TCM,0,158.67272949, 15.28884888,end
timer_stats,698584786544430,PAPI_L3_TCM,2,158.76092529, 15.30174255,end
timer_stats,698584787723398,PAPI_L3_TCM,0,158.87072754, 15.31565857,end
timer_stats,698584788913853,PAPI_L3_TCM,1,158.93371582, 15.32345581,end
timer_stats,698584790104503,PAPI_L3_TCM,0,158.99658203, 15.33070374,end
timer_stats,698584791292735,PAPI_L3_TCM,1,159.06005859, 15.33819580,end
timer_stats,698584792477259,PAPI_L3_TCM,0,159.14544678, 15.34930420,end
timer_stats,698584793668321,PAPI_L3_TCM,2,159.25494385, 15.36215210,end
timer_stats,698584794812535,PAPI_L3_TCM,0,159.31872559, 15.37121582,end
timer_stats,698584795993463,PAPI_L3_TCM,2,159.38409424, 15.37890625,end
timer_stats,698584797193770,PAPI_L3_TCM,0,159.45092773, 15.38690185,end
timer_stats,698584798380919,PAPI_L3_TCM,1,159.50903320, 15.39443970,end
timer_stats,698584799569019,PAPI_L3_TCM,0,159.59265137, 15.40576172,end
timer_stats,698584800749320,PAPI_L3_TCM,1,159.69848633, 15.41998291,end
timer_stats,698584801931022,PAPI_L3_TCM,0,159.76391601, 15.42742920,end
timer_stats,698584803120113,PAPI_L3_TCM,2,159.82653809, 15.43492126,end
timer_stats,698584804308317,PAPI_L3_TCM,0,159.88806152, 15.44236755,end
timer_stats,698584805510199,PAPI_L3_TCM,2,159.97509766, 15.45394897,end
timer_stats,698584806697673,PAPI_L3_TCM,0,160.08032226, 15.46632385,end
timer_stats,698584807886091,PAPI_L3_TCM,1,160.14172363, 15.47386169,end
timer_stats,698584809068229,PAPI_L3_TCM,0,160.20416260, 15.48135376,end
timer_stats,698584810258943,PAPI_L3_TCM,1,160.26818848, 15.48858642,end
timer_stats,698584811449124,PAPI_L3_TCM,0,160.35076904, 15.49972534,end
timer_stats,698584812632468,PAPI_L3_TCM,2,160.45538330, 15.51240539,end
timer_stats,698584813819693,PAPI_L3_TCM,0,160.52044678, 15.51985168,end
timer_stats,698584815010842,PAPI_L3_TCM,2,160.58325195, 15.52735901,end
timer_stats,698584816217182,PAPI_L3_TCM,0,160.64648437, 15.53457642,end
timer_stats,698584817385931,PAPI_L3_TCM,1,160.70599365, 15.54232788,end
timer_stats,698584818575421,PAPI_L3_TCM,0,160.78869629, 15.55343628,end
timer_stats,698584819764886,PAPI_L3_TCM,1,160.89373779, 15.56755066,end
timer_stats,698584820957337,PAPI_L3_TCM,0,160.95391846, 15.57505798,end
timer_stats,698584822145004,PAPI_L3_TCM,2,161.01544189, 15.58253479,end
timer_stats,698584823333036,PAPI_L3_TCM,0,161.07763672, 15.58976746,end
timer_stats,698584824526703,PAPI_L3_TCM,2,161.15966797, 15.60063171,end
timer_stats,698584825694898,PAPI_L3_TCM,0,161.26013184, 15.61485290,end
timer_stats,698584826886393,PAPI_L3_TCM,1,161.32159424, 15.62211609,end
timer_stats,698584828053344,PAPI_L3_TCM,0,161.38580322, 15.63087463,end
timer_stats,698584829244075,PAPI_L3_TCM,1,161.44696045, 15.63835144,end
timer_stats,698584830433950,PAPI_L3_TCM,0,161.50836182, 15.64604187,end
timer_stats,698584831626440,PAPI_L3_TCM,2,161.58917236, 15.65843201,end
timer_stats,698584832817515,PAPI_L3_TCM,0,161.69329834, 15.66600037,end
timer_stats,698584834000944,PAPI_L3_TCM,2,161.75628662, 15.67376709,end
timer_stats,698584835191484,PAPI_L3_TCM,0,161.81872559, 15.67791748,end
timer_stats,698584836381603,PAPI_L3_TCM,1,161.89678955, 15.68905639,end
timer_stats,698584837575070,PAPI_L3_TCM,0,161.95849609, 15.69653320,end
timer_stats,698584838772415,PAPI_L3_TCM,1,162.06134033, 15.70893860,end
timer_stats,698584839932429,PAPI_L3_TCM,0,162.12341309, 15.71647644,end
timer_stats,698584841130074,PAPI_L3_TCM,2,162.18731689, 15.72416687,end
timer_stats,698584842321795,PAPI_L3_TCM,0,162.24884033, 15.73197937,end
timer_stats,698584843511862,PAPI_L3_TCM,2,162.33062744, 15.74308777,end
timer_stats,698584844704150,PAPI_L3_TCM,0,162.38677978, 15.75547790,end
timer_stats,698584845897462,PAPI_L3_TCM,1,162.49011230, 15.76325989,end
timer_stats,698584847089573,PAPI_L3_TCM,0,162.54980469, 15.77076721,end
timer_stats,698584848278191,PAPI_L3_TCM,1,162.61175537, 15.77821350,end
timer_stats,698584849475735,PAPI_L3_TCM,0,162.68786621, 15.78971863,end
timer_stats,698584850665767,PAPI_L3_TCM,2,162.75219727, 15.79335022,end
timer_stats,698584851854394,PAPI_L3_TCM,0,162.85223389, 15.80726623,end
timer_stats,698584853045276,PAPI_L3_TCM,2,162.91070557, 15.81495666,end
timer_stats,698584854214676,PAPI_L3_TCM,0,162.97454834, 15.82392883,end
timer_stats,698584855403897,PAPI_L3_TCM,1,163.05584717, 15.83143616,end
timer_stats,698584856595195,PAPI_L3_TCM,0,163.11419678, 15.84796142,end
timer_stats,698584857789487,PAPI_L3_TCM,1,163.21453857, 15.85693359,end
timer_stats,698584858981858,PAPI_L3_TCM,0,163.27801514, 15.86419678,end
timer_stats,698584860173126,PAPI_L3_TCM,2,163.33422852, 15.87176514,end
timer_stats,698584861362157,PAPI_L3_TCM,0,163.39587402, 15.87924194,end
timer_stats,698584862555202,PAPI_L3_TCM,2,163.47302246, 15.89064026,end
timer_stats,698584863735176,PAPI_L3_TCM,3,163.57971191, 15.90618896,end
timer_stats,698584864919917,PAPI_L3_TCM,1,163.64874267, 15.91554260,end
timer_stats,698584866109635,PAPI_L3_TCM,0,163.71020508, 15.92445373,end
timer_stats,698584867302260,PAPI_L3_TCM,1,163.77471924, 15.92961121,end
timer_stats,698584868487464,PAPI_L3_TCM,0,163.85113525, 15.94055176,end
timer_stats,698584869678589,PAPI_L3_TCM,2,163.92022705, 15.95483398,end
timer_stats,698584870842316,PAPI_L3_TCM,0,164.02954102, 15.96603394,end
timer_stats,698584872021744,PAPI_L3_TCM,2,164.09625244, 15.97720337,end
timer_stats,698584873186058,PAPI_L3_TCM,0,164.16497803, 15.98837280,end
timer_stats,698584874347946,PAPI_L3_TCM,1,164.22894287, 15.99913025,end
timer_stats,698584875512204,PAPI_L3_TCM,0,164.32281494, 16.01448059,end
timer_stats,698584876678635,PAPI_L3_TCM,1,164.42779541, 16.03038025,end
timer_stats,698584877856563,PAPI_L3_TCM,0,164.49420166, 16.03938293,end
timer_stats,698584879043344,PAPI_L3_TCM,3,164.56024170, 16.04869079,end
timer_stats,698584880207952,PAPI_L3_TCM,1,164.63012695, 16.05918884,end
timer_stats,698584881370113,PAPI_L3_TCM,2,164.70269775, 16.06971741,end
timer_stats,698584882536567,PAPI_L3_TCM,0,164.80242920, 16.08558655,end
timer_stats,698584883702038,PAPI_L3_TCM,1,164.87261963, 16.09609985,end
timer_stats,698584884865149,PAPI_L3_TCM,0,164.99139404, 16.11218262,end
timer_stats,698584886026210,PAPI_L3_TCM,1,165.06079102, 16.12243652,end
timer_stats,698584887188571,PAPI_L3_TCM,0,165.13079834, 16.13275146,end
timer_stats,698584888357972,PAPI_L3_TCM,3,165.20202637, 16.14303589,end
timer_stats,698584889534194,PAPI_L3_TCM,0,165.31097412, 16.15847778,end
timer_stats,698584890704184,PAPI_L3_TCM,2,165.39678955, 16.16946411,end
timer_stats,698584891874823,PAPI_L3_TCM,0,165.53796387, 16.18618774,end
timer_stats,698584893012140,PAPI_L3_TCM,1,165.61785889, 16.19721985,end
timer_stats,698584894178778,PAPI_L3_TCM,0,165.70349121, 16.20747375,end
timer_stats,698584895346086,PAPI_L3_TCM,1,165.79705810, 16.21861267,end
timer_stats,698584896517153,PAPI_L3_TCM,0,165.92034912, 16.22914124,end
timer_stats,698584897685931,PAPI_L3_TCM,2,166.01068115, 16.24476623,end
timer_stats,698584898854735,PAPI_L3_TCM,0,166.15020752, 16.26086426,end
timer_stats,698584900039214,PAPI_L3_TCM,2,166.23840332, 16.27206421,end
timer_stats,698584901201661,PAPI_L3_TCM,1,166.32800293, 16.28323364,end
timer_stats,698584902336449,PAPI_L3_TCM,1,166.41839599, 16.29391479,end
timer_stats,698584903517313,PAPI_L3_TCM,0,166.53979492, 16.30508423,end
timer_stats,698584904696921,PAPI_L3_TCM,1,166.61517334, 16.31951904,end
timer_stats,698584905881122,PAPI_L3_TCM,1,166.74511719, 16.33602905,end
timer_stats,698584907069390,PAPI_L3_TCM,2,166.82611084, 16.34550476,end
timer_stats,698584908250431,PAPI_L3_TCM,0,166.90502930, 16.35575867,end
timer_stats,698584909436555,PAPI_L3_TCM,3,166.98913574, 16.36552429,end
timer_stats,698584910626337,PAPI_L3_TCM,0,167.10424805, 16.38113403,end
timer_stats,698584911806431,PAPI_L3_TCM,1,167.22827148, 16.39741516,end
timer_stats,698584912980369,PAPI_L3_TCM,1,167.30096435, 16.40769958,end
timer_stats,698584914163687,PAPI_L3_TCM,1,167.37689209, 16.41667175,end
timer_stats,698584915346615,PAPI_L3_TCM,0,167.45196533, 16.42619324,end
timer_stats,698584916523792,PAPI_L3_TCM,2,167.52758789, 16.43568420,end
timer_stats,698584917703334,PAPI_L3_TCM,0,167.63269043, 16.45573425,end
timer_stats,698584918883038,PAPI_L3_TCM,3,167.74981689, 16.46498108,end
timer_stats,698584920070645,PAPI_L3_TCM,0,167.82031250, 16.47430420,end
timer_stats,698584921234627,PAPI_L3_TCM,1,167.89489746, 16.48355102,end
timer_stats,698584922413904,PAPI_L3_TCM,1,167.96978760, 16.49331665,end
timer_stats,698584923593379,PAPI_L3_TCM,1,168.07531738, 16.50747681,end
timer_stats,698584924775610,PAPI_L3_TCM,0,168.19067383, 16.52236938,end
timer_stats,698584925955568,PAPI_L3_TCM,3,168.26971435, 16.53234863,end
timer_stats,698584927145186,PAPI_L3_TCM,0,168.34179687, 16.54214477,end
timer_stats,698584928329151,PAPI_L3_TCM,2,168.41815185, 16.55160522,end
timer_stats,698584929505265,PAPI_L3_TCM,0,168.52020264, 16.56607056,end
timer_stats,698584930688330,PAPI_L3_TCM,2,168.59558105, 16.57583618,end
timer_stats,698584931875520,PAPI_L3_TCM,1,168.71044922, 16.58955383,end
timer_stats,698584933049485,PAPI_L3_TCM,4,168.78509521, 16.59449768,end
timer_stats,698584934231376,PAPI_L3_TCM,0,168.85424805, 16.60334778,end
timer_stats,698584935412791,PAPI_L3_TCM,2,168.92980957, 16.61212158,end
timer_stats,698584936598702,PAPI_L3_TCM,0,169.03662109, 16.62609863,end
timer_stats,698584937761993,PAPI_L3_TCM,2,169.15557861, 16.64024353,end
timer_stats,698584938940071,PAPI_L3_TCM,0,169.22607422, 16.64862060,end
timer_stats,698584940122301,PAPI_L3_TCM,1,169.30474853, 16.65783691,end
timer_stats,698584941287823,PAPI_L3_TCM,0,169.38043213, 16.66952515,end
timer_stats,698584942451944,PAPI_L3_TCM,1,169.45806885, 16.68026733,end
timer_stats,698584943616715,PAPI_L3_TCM,0,169.57135010, 16.69570923,end
timer_stats,698584944776829,PAPI_L3_TCM,3,169.69274902, 16.71119690,end
timer_stats,698584945961041,PAPI_L3_TCM,0,169.76684570, 16.72001648,end
timer_stats,698584947142658,PAPI_L3_TCM,2,169.83923340, 16.72862244,end
timer_stats,698584948332507,PAPI_L3_TCM,0,169.91577148, 16.73713684,end
timer_stats,698584949520734,PAPI_L3_TCM,1,169.99078369, 16.74546814,end
timer_stats,698584950680188,PAPI_L3_TCM,0,170.09692383, 16.75999451,end
timer_stats,698584951840603,PAPI_L3_TCM,1,170.22003174, 16.77569580,end
timer_stats,698584953000627,PAPI_L3_TCM,0,170.30084228, 16.78596497,end
timer_stats,698584954166185,PAPI_L3_TCM,5,170.38305664, 16.79624939,end
timer_stats,698584955328819,PAPI_L3_TCM,0,170.46026611, 16.80726623,end
timer_stats,698584956492051,PAPI_L3_TCM,3,170.53582764, 16.81736755,end
timer_stats,698584957657908,PAPI_L3_TCM,0,170.64770508, 16.83259582,end
timer_stats,698584958821902,PAPI_L3_TCM,1,170.77062988, 16.84825134,end
timer_stats,698584959986017,PAPI_L3_TCM,0,170.84661865, 16.85856628,end
timer_stats,698584961182655,PAPI_L3_TCM,2,170.92315674, 16.86914062,end
timer_stats,698584962345916,PAPI_L3_TCM,0,171.00897217, 16.87942505,end
timer_stats,698584963511544,PAPI_L3_TCM,2,171.09326172, 16.89019775,end
timer_stats,698584964645131,PAPI_L3_TCM,1,171.21801758, 16.90567017,end
timer_stats,698584965808373,PAPI_L3_TCM,2,171.34265137, 16.92071533,end
timer_stats,698584966971143,PAPI_L3_TCM,0,171.42706299, 16.93103027,end
timer_stats,698584968136855,PAPI_L3_TCM,1,171.51367187, 16.94105530,end
timer_stats,698584969305536,PAPI_L3_TCM,0,171.59942627, 16.95091247,end
timer_stats,698584970497674,PAPI_L3_TCM,1,171.68548584, 16.96101379,end
timer_stats,698584971690275,PAPI_L3_TCM,0,171.81250000, 16.97471618,end
timer_stats,698584972871669,PAPI_L3_TCM,2,171.93194580, 16.98869324,end
timer_stats,698584974066850,PAPI_L3_TCM,0,172.01458740, 16.99746704,end
timer_stats,698584975261682,PAPI_L3_TCM,2,172.09558105, 17.00674438,end
timer_stats,698584976449899,PAPI_L3_TCM,0,172.17340088, 17.01553345,end
timer_stats,698584977643531,PAPI_L3_TCM,2,172.30517578, 17.02920532,end
timer_stats,698584978847605,PAPI_L3_TCM,3,172.42071533, 17.04266357,end
timer_stats,698584980031777,PAPI_L3_TCM,1,172.49731445, 17.05143738,end
timer_stats,698584981195074,PAPI_L3_TCM,1,172.56903076, 17.06028747,end
timer_stats,698584982361965,PAPI_L3_TCM,2,172.64721680, 17.06829834,end
timer_stats,698584983555466,PAPI_L3_TCM,0,172.71173096, 17.07514954,end
timer_stats,698584984734304,PAPI_L3_TCM,2,172.80725097, 17.08491516,end
timer_stats,698584985928975,PAPI_L3_TCM,0,172.90948486, 17.09788513,end
timer_stats,698584987119480,PAPI_L3_TCM,2,172.97216797, 17.10375976,end
timer_stats,698584988303344,PAPI_L3_TCM,0,173.03802490, 17.11033630,end
timer_stats,698584989496416,PAPI_L3_TCM,2,173.10357666, 17.11718750,end
timer_stats,698584990683253,PAPI_L3_TCM,0,173.20166016, 17.12763977,end
timer_stats,698584991876538,PAPI_L3_TCM,2,173.29876709, 17.13993835,end
timer_stats,698584993053836,PAPI_L3_TCM,1,173.36474609, 17.14602661,end
timer_stats,698584994242050,PAPI_L3_TCM,2,173.42742920, 17.15214538,end
timer_stats,698584995430971,PAPI_L3_TCM,0,173.49267578, 17.15898132,end
timer_stats,698584996616242,PAPI_L3_TCM,1,173.58532715, 17.16873169,end
timer_stats,698584997820660,PAPI_L3_TCM,0,173.68292236, 17.17994690,end
timer_stats,698584999011875,PAPI_L3_TCM,1,173.74438476, 17.18585205,end
timer_stats,698585000197489,PAPI_L3_TCM,0,173.80895996, 17.19171143,end
timer_stats,698585001362134,PAPI_L3_TCM,2,173.87249756, 17.19828796,end
timer_stats,698585002552958,PAPI_L3_TCM,0,173.96618652, 17.20858765,end
timer_stats,698585003742809,PAPI_L3_TCM,2,174.02972412, 17.21520996,end
timer_stats,698585004925461,PAPI_L3_TCM,1,174.12329102, 17.22772217,end
timer_stats,698585006114356,PAPI_L3_TCM,1,174.18737793, 17.23356628,end
timer_stats,698585007311423,PAPI_L3_TCM,0,174.25036621, 17.23989868,end
timer_stats,698585008489611,PAPI_L3_TCM,3,174.31420898, 17.24769592,end
timer_stats,698585009651275,PAPI_L3_TCM,0,174.41381836, 17.26164246,end
timer_stats,698585010814126,PAPI_L3_TCM,2,174.47821045, 17.27046204,end
timer_stats,698585011975231,PAPI_L3_TCM,0,174.57910156, 17.28440857,end
timer_stats,698585013137435,PAPI_L3_TCM,3,174.64282227, 17.29324341,end
timer_stats,698585014272249,PAPI_L3_TCM,0,174.70648193, 17.30160522,end
timer_stats,698585015406547,PAPI_L3_TCM,1,174.77215576, 17.31019592,end
timer_stats,698585016572208,PAPI_L3_TCM,1,174.83447266, 17.31858826,end
timer_stats,698585017733163,PAPI_L3_TCM,1,174.93096924, 17.33079529,end
timer_stats,698585018893914,PAPI_L3_TCM,0,175.02990723, 17.34452820,end
timer_stats,698585020066242,PAPI_L3_TCM,3,175.09094238, 17.35264587,end
timer_stats,698585021232396,PAPI_L3_TCM,0,175.15002441, 17.35877991,end
timer_stats,698585022422477,PAPI_L3_TCM,2,175.21343994, 17.36585999,end
timer_stats,698585023610878,PAPI_L3_TCM,0,175.30285644, 17.37588501,end
timer_stats,698585024789952,PAPI_L3_TCM,2,175.36303711, 17.38224792,end
timer_stats,698585025983287,PAPI_L3_TCM,0,175.45617676, 17.39447021,end
timer_stats,698585027170431,PAPI_L3_TCM,1,175.51647949, 17.40034485,end
timer_stats,698585028345766,PAPI_L3_TCM,1,175.57727051, 17.40689087,end
timer_stats,698585029542550,PAPI_L3_TCM,2,175.63958740, 17.41366577,end
timer_stats,698585030728195,PAPI_L3_TCM,0,175.72857666, 17.42393494,end
timer_stats,698585031919289,PAPI_L3_TCM,2,175.82067871, 17.43469238,end
timer_stats,698585033101518,PAPI_L3_TCM,1,175.88208008, 17.44056701,end
timer_stats,698585034293705,PAPI_L3_TCM,1,175.93890381, 17.44692993,end
timer_stats,698585035487470,PAPI_L3_TCM,0,176.00018310, 17.45397949,end
timer_stats,698585036664161,PAPI_L3_TCM,2,176.09143066, 17.46490479,end
timer_stats,698585037827716,PAPI_L3_TCM,0,176.15161133, 17.47373962,end
timer_stats,698585038991423,PAPI_L3_TCM,2,176.24786377, 17.48744202,end
timer_stats,698585040152718,PAPI_L3_TCM,1,176.30969238, 17.49626160,end
timer_stats,698585041314039,PAPI_L3_TCM,2,176.37048340, 17.50486755,end
timer_stats,698585042481576,PAPI_L3_TCM,0,176.43267822, 17.51364136,end
timer_stats,698585043675004,PAPI_L3_TCM,1,176.52484131, 17.52456665,end
timer_stats,698585044861162,PAPI_L3_TCM,1,176.58349609, 17.53114319,end
timer_stats,698585046052357,PAPI_L3_TCM,1,176.67187500, 17.54464722,end
timer_stats,698585047241324,PAPI_L3_TCM,0,176.73059082, 17.55075073,end
timer_stats,698585048436616,PAPI_L3_TCM,3,176.78625488, 17.55760193,end
timer_stats,698585049627756,PAPI_L3_TCM,0,176.87689209, 17.56758118,end
timer_stats,698585050819738,PAPI_L3_TCM,2,176.93652344, 17.57391357,end
timer_stats,698585052015763,PAPI_L3_TCM,0,177.02496338, 17.58691406,end
timer_stats,698585053176080,PAPI_L3_TCM,1,177.09674072, 17.59536743,end
timer_stats,698585054339144,PAPI_L3_TCM,0,177.15155029, 17.60430908,end
timer_stats,698585055482449,PAPI_L3_TCM,1,177.21356201, 17.61285400,end
timer_stats,698585056663790,PAPI_L3_TCM,2,177.27093506, 17.61970520,end
timer_stats,698585057856297,PAPI_L3_TCM,2,177.36315918, 17.62968445,end
timer_stats,698585059052582,PAPI_L3_TCM,0,177.44635010, 17.64097595,end
timer_stats,698585060227976,PAPI_L3_TCM,3,177.50195312, 17.64709472,end
timer_stats,698585061394031,PAPI_L3_TCM,0,177.56066895, 17.65390015,end
timer_stats,698585062594032,PAPI_L3_TCM,1,177.62402344, 17.66064453,end
timer_stats,698585063795017,PAPI_L3_TCM,0,177.67919922, 17.66729736,end
timer_stats,698585064985732,PAPI_L3_TCM,2,177.79864502, 17.68223572,end
timer_stats,698585066178036,PAPI_L3_TCM,0,177.85607910, 17.68833923,end
timer_stats,698585067370874,PAPI_L3_TCM,2,177.90515137, 17.69500732,end
timer_stats,698585068552878,PAPI_L3_TCM,1,177.96240234, 17.70185852,end
timer_stats,698585069746883,PAPI_L3_TCM,2,178.05102539, 17.71224975,end
timer_stats,698585070942731,PAPI_L3_TCM,0,178.13702392, 17.72418213,end
timer_stats,698585072135939,PAPI_L3_TCM,3,178.19970703, 17.73069763,end
timer_stats,698585073304720,PAPI_L3_TCM,0,178.24938965, 17.73741150,end
timer_stats,698585074502611,PAPI_L3_TCM,1,178.31311035, 17.74412536,end
timer_stats,698585075697655,PAPI_L3_TCM,0,178.39154053, 17.75468445,end
timer_stats,698585076885110,PAPI_L3_TCM,3,178.45605469, 17.76269531,end
timer_stats,698585078040568,PAPI_L3_TCM,0,178.54125976, 17.77708435,end
timer_stats,698585079220908,PAPI_L3_TCM,2,178.59991455, 17.78456116,end
timer_stats,698585080415057,PAPI_L3_TCM,1,178.64849853, 17.79197693,end
timer_stats,698585081608214,PAPI_L3_TCM,1,178.70867920, 17.79920959,end
timer_stats,698585082774259,PAPI_L3_TCM,0,178.79589844, 17.81111145,end
timer_stats,698585083938997,PAPI_L3_TCM,1,178.88159180, 17.82507324,end
timer_stats,698585085104625,PAPI_L3_TCM,1,178.94232178, 17.83404541,end
timer_stats,698585086268502,PAPI_L3_TCM,2,179.00952148, 17.84298706,end
timer_stats,698585087435430,PAPI_L3_TCM,0,179.06048584, 17.85218811,end
timer_stats,698585088602588,PAPI_L3_TCM,2,179.12097168, 17.86116028,end
timer_stats,698585089779155,PAPI_L3_TCM,0,179.21075439, 17.87358093,end
timer_stats,698585090945090,PAPI_L3_TCM,1,179.27093506, 17.88430786,end
timer_stats,698585092111184,PAPI_L3_TCM,2,179.36535644, 17.89942932,end
timer_stats,698585093282692,PAPI_L3_TCM,1,179.42529297, 17.90846252,end
timer_stats,698585094475910,PAPI_L3_TCM,0,179.48547363, 17.91720581,end
timer_stats,698585095664775,PAPI_L3_TCM,2,179.54052734, 17.92446899,end
timer_stats,698585096843825,PAPI_L3_TCM,1,179.62286377, 17.93389893,end
