timer_stats,656028927820841,PAPI_L3_TCM,544,  0.09503174,  0.01037598,end
timer_stats,656028928962377,PAPI_L3_TCM,58,  0.18414307,  0.02133179,end
timer_stats,656028930120003,PAPI_L3_TCM,8,  0.27459717,  0.03346252,end
timer_stats,656028931272667,PAPI_L3_TCM,4,  0.39538574,  0.04901123,end
timer_stats,656028932444203,PAPI_L3_TCM,48,  0.53240967,  0.06513977,end
timer_stats,656028933549764,PAPI_L3_TCM,3,  0.62231445,  0.07582092,end
timer_stats,656028934725669,PAPI_L3_TCM,7,  0.71600342,  0.08625793,end
timer_stats,656028935915824,PAPI_L3_TCM,2,  0.80157471,  0.09675598,end
timer_stats,656028937100469,PAPI_L3_TCM,5,  0.87390137,  0.10807800,end
timer_stats,656028938287671,PAPI_L3_TCM,7,  0.99133301,  0.12297058,end
timer_stats,656028939469581,PAPI_L3_TCM,10,  1.08953857,  0.13308716,end
timer_stats,656028940626903,PAPI_L3_TCM,2,  1.24005127,  0.14897156,end
timer_stats,656028941907938,PAPI_L3_TCM,26,  1.31420898,  0.16099548,end
timer_stats,656028943047828,PAPI_L3_TCM,31,  1.43066406,  0.17155456,end
timer_stats,656028944200164,PAPI_L3_TCM,5,  1.51715088,  0.18234253,end
timer_stats,656028945339296,PAPI_L3_TCM,4,  1.66790771,  0.19926452,end
timer_stats,656028946500500,PAPI_L3_TCM,1,  1.77062988,  0.21038818,end
timer_stats,656028947635732,PAPI_L3_TCM,4,  1.93560791,  0.22633362,end
timer_stats,656028948743014,PAPI_L3_TCM,0,  2.03332519,  0.23657226,end
timer_stats,656028949856450,PAPI_L3_TCM,3,  2.13067627,  0.24729919,end
timer_stats,656028951011687,PAPI_L3_TCM,4,  2.22869873,  0.25801086,end
timer_stats,656028952181662,PAPI_L3_TCM,1,  2.31671142,  0.26860046,end
timer_stats,656028953337572,PAPI_L3_TCM,0,  2.45135498,  0.28446960,end
timer_stats,656028954526677,PAPI_L3_TCM,0,  2.60406494,  0.29992676,end
timer_stats,656028955705421,PAPI_L3_TCM,0,  2.69958496,  0.31024170,end
timer_stats,656028956889544,PAPI_L3_TCM,1,  2.79321289,  0.32078552,end
timer_stats,656028958067164,PAPI_L3_TCM,1,  2.89709473,  0.33079529,end
timer_stats,656028959245371,PAPI_L3_TCM,0,  2.99407959,  0.34086609,end
timer_stats,656028960424702,PAPI_L3_TCM,0,  3.12725830,  0.35614014,end
timer_stats,656028961604624,PAPI_L3_TCM,0,  3.29016113,  0.37197876,end
timer_stats,656028962776564,PAPI_L3_TCM,3,  3.38958740,  0.38391113,end
timer_stats,656028963952527,PAPI_L3_TCM,0,  3.48211670,  0.39572144,end
timer_stats,656028965131284,PAPI_L3_TCM,1,  3.58483887,  0.40795898,end
timer_stats,656028966289499,PAPI_L3_TCM,1,  3.73156738,  0.42378235,end
timer_stats,656028967463001,PAPI_L3_TCM,4,  3.82141113,  0.43482971,end
timer_stats,656028968644846,PAPI_L3_TCM,1,  3.97491455,  0.45071411,end
timer_stats,656028969827681,PAPI_L3_TCM,0,  4.07318115,  0.46102905,end
timer_stats,656028971005344,PAPI_L3_TCM,0,  4.17474365,  0.47131347,end
timer_stats,656028972183461,PAPI_L3_TCM,0,  4.26879883,  0.48208618,end
timer_stats,656028973340336,PAPI_L3_TCM,0,  4.40966797,  0.49752808,end
timer_stats,656028974508506,PAPI_L3_TCM,0,  4.55999756,  0.51272583,end
timer_stats,656028975693196,PAPI_L3_TCM,1,  4.65417480,  0.52282715,end
timer_stats,656028976876956,PAPI_L3_TCM,1,  4.75549316,  0.53289795,end
timer_stats,656028978048097,PAPI_L3_TCM,0,  4.85467529,  0.54273987,end
timer_stats,656028979214832,PAPI_L3_TCM,0,  4.95825195,  0.55303955,end
timer_stats,656028980400639,PAPI_L3_TCM,1,  5.09460449,  0.56854248,end
timer_stats,656028981554329,PAPI_L3_TCM,5,  5.19940185,  0.57902527,end
timer_stats,656028982682436,PAPI_L3_TCM,1,  5.35925293,  0.59626770,end
timer_stats,656028983854422,PAPI_L3_TCM,2,  5.46643066,  0.60719299,end
timer_stats,656028985041817,PAPI_L3_TCM,2,  5.57128906,  0.61860657,end
timer_stats,656028986203350,PAPI_L3_TCM,0,  5.67382812,  0.62953186,end
timer_stats,656028987313250,PAPI_L3_TCM,0,  5.76391602,  0.64006042,end
timer_stats,656028988471949,PAPI_L3_TCM,15,  5.90747070,  0.65591431,end
timer_stats,656028989643512,PAPI_L3_TCM,1,  6.07086182,  0.67483520,end
timer_stats,656028990769230,PAPI_L3_TCM,0,  6.19329834,  0.68778992,end
timer_stats,656028991877450,PAPI_L3_TCM,0,  6.31372070,  0.70101929,end
timer_stats,656028992989968,PAPI_L3_TCM,5,  6.44287109,  0.71401977,end
timer_stats,656028994097251,PAPI_L3_TCM,1,  6.56927490,  0.72779846,end
timer_stats,656028995244812,PAPI_L3_TCM,3,  6.69366455,  0.74037170,end
timer_stats,656028996352087,PAPI_L3_TCM,2,  6.88879394,  0.75926208,end
timer_stats,656028997491424,PAPI_L3_TCM,1,  7.01831055,  0.77117920,end
timer_stats,656028998612994,PAPI_L3_TCM,0,  7.23724365,  0.78953552,end
timer_stats,656028999736675,PAPI_L3_TCM,1,  7.37493896,  0.80169678,end
timer_stats,656029000865646,PAPI_L3_TCM,3,  7.52062988,  0.81359863,end
timer_stats,656029002000911,PAPI_L3_TCM,2,  7.67095947,  0.82646179,end
timer_stats,656029003113314,PAPI_L3_TCM,1,  7.82525635,  0.83837891,end
timer_stats,656029004203036,PAPI_L3_TCM,2,  7.97564697,  0.85058594,end
timer_stats,656029005307870,PAPI_L3_TCM,1,  8.13781738,  0.86274719,end
timer_stats,656029006411080,PAPI_L3_TCM,0,  8.41009521,  0.88284302,end
timer_stats,656029007515104,PAPI_L3_TCM,0,  8.59497070,  0.89598083,end
timer_stats,656029008613637,PAPI_L3_TCM,3,  8.88543701,  0.91326904,end
timer_stats,656029009706506,PAPI_L3_TCM,3,  9.07110596,  0.92526245,end
timer_stats,656029010805251,PAPI_L3_TCM,0,  9.28668213,  0.93733215,end
timer_stats,656029011898848,PAPI_L3_TCM,1,  9.46405029,  0.94953918,end
timer_stats,656029013000118,PAPI_L3_TCM,2,  9.67456055,  0.96141052,end
timer_stats,656029014160232,PAPI_L3_TCM,2,  9.87341308,  0.97380066,end
timer_stats,656029015324847,PAPI_L3_TCM,0, 10.07745361,  0.98513794,end
timer_stats,656029016405981,PAPI_L3_TCM,2, 10.39880371,  1.00299072,end
timer_stats,656029017492237,PAPI_L3_TCM,1, 10.62231445,  1.01501465,end
timer_stats,656029018570558,PAPI_L3_TCM,3, 10.86700439,  1.02725220,end
timer_stats,656029019651493,PAPI_L3_TCM,7, 11.26470947,  1.04699707,end
timer_stats,656029020738725,PAPI_L3_TCM,12, 11.47723389,  1.05778503,end
timer_stats,656029021892788,PAPI_L3_TCM,1, 11.68347168,  1.06889343,end
timer_stats,656029023015355,PAPI_L3_TCM,1, 11.89306641,  1.08024597,end
timer_stats,656029024105420,PAPI_L3_TCM,2, 12.09741211,  1.09159851,end
timer_stats,656029025183036,PAPI_L3_TCM,0, 12.31689453,  1.10382080,end
timer_stats,656029026308997,PAPI_L3_TCM,0, 12.53588867,  1.11531067,end
timer_stats,656029027422895,PAPI_L3_TCM,3, 12.84875488,  1.13189697,end
timer_stats,656029028522669,PAPI_L3_TCM,1, 13.15380859,  1.15078735,end
timer_stats,656029029637662,PAPI_L3_TCM,4, 13.37316894,  1.16271973,end
timer_stats,656029030791160,PAPI_L3_TCM,1, 13.58142090,  1.17485046,end
timer_stats,656029031882687,PAPI_L3_TCM,2, 13.80358887,  1.18081665,end
timer_stats,656029033063851,PAPI_L3_TCM,4, 14.01147461,  1.19258118,end
timer_stats,656029034189444,PAPI_L3_TCM,4, 14.22967529,  1.20475769,end
timer_stats,656029035296175,PAPI_L3_TCM,1, 14.43389892,  1.21650696,end
timer_stats,656029036456716,PAPI_L3_TCM,8, 14.76239014,  1.23469543,end
timer_stats,656029037567370,PAPI_L3_TCM,0, 15.10150146,  1.25354004,end
timer_stats,656029038665126,PAPI_L3_TCM,2, 15.31231689,  1.26617431,end
timer_stats,656029039788096,PAPI_L3_TCM,0, 15.55871582,  1.27825928,end
timer_stats,656029040895203,PAPI_L3_TCM,3, 15.75799560,  1.29060364,end
timer_stats,656029042020429,PAPI_L3_TCM,0, 15.96899414,  1.30180359,end
timer_stats,656029043119923,PAPI_L3_TCM,1, 16.18554687,  1.31407165,end
timer_stats,656029044208963,PAPI_L3_TCM,17, 16.40612793,  1.32635498,end
timer_stats,656029045352482,PAPI_L3_TCM,15, 16.61706543,  1.33854675,end
timer_stats,656029046596186,PAPI_L3_TCM,3, 17.04284668,  1.36192322,end
timer_stats,656029047707329,PAPI_L3_TCM,3, 17.25164795,  1.37298584,end
timer_stats,656029057400904,PAPI_L3_TCM,302, 19.08898926,  1.49679565,end
timer_stats,656029058499561,PAPI_L3_TCM,119, 19.39965820,  1.51756286,end
timer_stats,656029059576111,PAPI_L3_TCM,12, 19.75512695,  1.53918457,end
timer_stats,656029060652323,PAPI_L3_TCM,3, 19.99523926,  1.55245972,end
timer_stats,656029061737399,PAPI_L3_TCM,10, 20.24487305,  1.56582642,end
timer_stats,656029062824600,PAPI_L3_TCM,16, 20.47790527,  1.57945251,end
timer_stats,656029063910163,PAPI_L3_TCM,4, 20.71343994,  1.59327698,end
timer_stats,656029064995285,PAPI_L3_TCM,5, 20.96221924,  1.60661316,end
timer_stats,656029066080470,PAPI_L3_TCM,9, 21.20349121,  1.62062073,end
timer_stats,656029067163498,PAPI_L3_TCM,7, 21.44616699,  1.63502502,end
timer_stats,656029068247679,PAPI_L3_TCM,5, 21.68359375,  1.64967346,end
timer_stats,656029069332169,PAPI_L3_TCM,4, 21.93475342,  1.66377258,end
timer_stats,656029070417254,PAPI_L3_TCM,2, 22.29211426,  1.68560791,end
timer_stats,656029071503810,PAPI_L3_TCM,13, 22.53002930,  1.70043945,end
timer_stats,656029076765075,PAPI_L3_TCM,30, 23.63415527,  1.77496338,end
timer_stats,656029077849380,PAPI_L3_TCM,15, 23.82348633,  1.78785705,end
timer_stats,656029078934396,PAPI_L3_TCM,10, 24.05688476,  1.80049133,end
timer_stats,656029080033492,PAPI_L3_TCM,4, 24.29504394,  1.81379700,end
timer_stats,656029081116865,PAPI_L3_TCM,7, 24.54626465,  1.82708740,end
timer_stats,656029082191822,PAPI_L3_TCM,7, 24.78643799,  1.84014893,end
timer_stats,656029083267069,PAPI_L3_TCM,3, 25.03771973,  1.85295105,end
timer_stats,656029084351255,PAPI_L3_TCM,218, 25.27624512,  1.86650085,end
timer_stats,656029085427264,PAPI_L3_TCM,4, 25.65393066,  1.88621521,end
timer_stats,656029086502728,PAPI_L3_TCM,5, 25.89270019,  1.90042114,end
timer_stats,656029087577270,PAPI_L3_TCM,14, 26.13458252,  1.91432190,end
timer_stats,656029088656242,PAPI_L3_TCM,20, 26.49462890,  1.93453979,end
timer_stats,656029089734386,PAPI_L3_TCM,4, 26.74682617,  1.94821167,end
timer_stats,656029090808892,PAPI_L3_TCM,6, 26.98645019,  1.96127319,end
timer_stats,656029091885349,PAPI_L3_TCM,4, 27.24200439,  1.97543335,end
timer_stats,656029092960548,PAPI_L3_TCM,4, 27.48687744,  1.98890686,end
timer_stats,656029094034955,PAPI_L3_TCM,1, 27.72705078,  2.00263977,end
timer_stats,656029095108947,PAPI_L3_TCM,5, 27.98150635,  2.01629638,end
timer_stats,656029096182706,PAPI_L3_TCM,2, 28.23547363,  2.02952575,end
timer_stats,656029097257711,PAPI_L3_TCM,4, 28.47467041,  2.04368591,end
timer_stats,656029098332958,PAPI_L3_TCM,2, 28.73016357,  2.05734253,end
timer_stats,656029099407267,PAPI_L3_TCM,4, 29.09741211,  2.07766724,end
timer_stats,656029100482518,PAPI_L3_TCM,4, 29.35406494,  2.09086609,end
timer_stats,656029101556869,PAPI_L3_TCM,3, 29.58831787,  2.10415649,end
timer_stats,656029102630496,PAPI_L3_TCM,8, 29.85333252,  2.11758423,end
timer_stats,656029103704447,PAPI_L3_TCM,6, 30.21618652,  2.13766479,end
timer_stats,656029104778592,PAPI_L3_TCM,4, 30.46118164,  2.15118408,end
timer_stats,656029105852515,PAPI_L3_TCM,4, 30.71722412,  2.16444397,end
timer_stats,656029106926685,PAPI_L3_TCM,6, 30.96643066,  2.17860413,end
timer_stats,656029108005215,PAPI_L3_TCM,6, 31.22045898,  2.19161987,end
timer_stats,656029109081653,PAPI_L3_TCM,5, 31.46685791,  2.20535278,end
timer_stats,656029110156685,PAPI_L3_TCM,8, 31.70941162,  2.21862793,end
timer_stats,656029111231982,PAPI_L3_TCM,7, 31.96685791,  2.23208618,end
timer_stats,656029112307268,PAPI_L3_TCM,13, 32.21875000,  2.24510193,end
timer_stats,656029113381743,PAPI_L3_TCM,7, 32.46740723,  2.25862121,end
timer_stats,656029114456008,PAPI_L3_TCM,8, 32.71649170,  2.27281189,end
timer_stats,656029115537768,PAPI_L3_TCM,6, 33.08709717,  2.29289246,end
timer_stats,656029116613382,PAPI_L3_TCM,6, 33.34893799,  2.30703735,end
timer_stats,656029117687231,PAPI_L3_TCM,4, 33.72326660,  2.32736206,end
timer_stats,656029118761573,PAPI_L3_TCM,5, 33.96130371,  2.34089661,end
timer_stats,656029119836145,PAPI_L3_TCM,9, 34.21386719,  2.35414123,end
timer_stats,656029120911524,PAPI_L3_TCM,6, 34.47814941,  2.36784363,end
timer_stats,656029121986563,PAPI_L3_TCM,2, 34.70739746,  2.38137817,end
timer_stats,656029125231337,PAPI_L3_TCM,110, 35.41619873,  2.44079590,end
timer_stats,656029126310618,PAPI_L3_TCM,46, 35.59857178,  2.45639038,end
timer_stats,656029127385200,PAPI_L3_TCM,13, 35.84375000,  2.47109985,end
timer_stats,656029128465008,PAPI_L3_TCM,3, 36.22808838,  2.48553467,end
timer_stats,656029129543386,PAPI_L3_TCM,13, 36.47607422,  2.50756836,end
timer_stats,656029130618460,PAPI_L3_TCM,8, 36.72442627,  2.52185059,end
timer_stats,656029131692574,PAPI_L3_TCM,5, 37.09167480,  2.54441833,end
timer_stats,656029132767134,PAPI_L3_TCM,2, 37.33898926,  2.55895996,end
timer_stats,656029133844100,PAPI_L3_TCM,9, 37.59436035,  2.57369995,end
timer_stats,656029134918148,PAPI_L3_TCM,4, 37.83032226,  2.58851623,end
timer_stats,656029135992715,PAPI_L3_TCM,7, 38.08624268,  2.60369873,end
timer_stats,656029137073205,PAPI_L3_TCM,4, 38.34527588,  2.61866760,end
timer_stats,656029138147046,PAPI_L3_TCM,8, 38.59136963,  2.63461304,end
timer_stats,656029139221537,PAPI_L3_TCM,2, 38.83715820,  2.64974976,end
timer_stats,656029140296194,PAPI_L3_TCM,3, 39.08361816,  2.66464233,end
timer_stats,656029141370159,PAPI_L3_TCM,3, 39.34020996,  2.67932129,end
timer_stats,656029142443901,PAPI_L3_TCM,3, 39.71331787,  2.69502258,end
timer_stats,656029143517535,PAPI_L3_TCM,5, 39.96057129,  2.71728515,end
timer_stats,656029144592490,PAPI_L3_TCM,5, 40.21282959,  2.73223877,end
timer_stats,656029145669295,PAPI_L3_TCM,9, 40.57635498,  2.75488281,end
timer_stats,656029146745291,PAPI_L3_TCM,8, 40.83984375,  2.76995850,end
timer_stats,656029147819567,PAPI_L3_TCM,4, 41.08941650,  2.78504944,end
timer_stats,656029148894218,PAPI_L3_TCM,12, 41.34234619,  2.80024719,end
timer_stats,656029149967935,PAPI_L3_TCM,4, 41.58795166,  2.81585693,end
timer_stats,656029151041867,PAPI_L3_TCM,6, 41.84332275,  2.83309936,end
timer_stats,656029152114054,PAPI_L3_TCM,2, 42.09973145,  2.84939575,end
timer_stats,656029153188253,PAPI_L3_TCM,4, 42.35687256,  2.86450195,end
timer_stats,656029154261011,PAPI_L3_TCM,5, 42.61090088,  2.87992859,end
timer_stats,656029155334823,PAPI_L3_TCM,4, 42.86578369,  2.89572143,end
timer_stats,656029156412605,PAPI_L3_TCM,7, 43.11883545,  2.91178894,end
timer_stats,656029157486094,PAPI_L3_TCM,6, 43.50231934,  2.92788696,end
timer_stats,656029158559037,PAPI_L3_TCM,3, 43.76324463,  2.95051575,end
timer_stats,656029159632889,PAPI_L3_TCM,3, 44.01739502,  2.96652222,end
timer_stats,656029160708416,PAPI_L3_TCM,12, 44.40240478,  2.98924255,end
timer_stats,656029161783253,PAPI_L3_TCM,10, 44.65136719,  3.00421142,end
timer_stats,656029162857552,PAPI_L3_TCM,3, 44.90698242,  3.01937866,end
timer_stats,656029163931815,PAPI_L3_TCM,5, 45.15490723,  3.03408813,end
timer_stats,656029165007516,PAPI_L3_TCM,5, 45.42181396,  3.04940796,end
timer_stats,656029166082015,PAPI_L3_TCM,6, 45.67230224,  3.06477356,end
timer_stats,656029167155419,PAPI_L3_TCM,7, 45.91894531,  3.07997131,end
timer_stats,656029168229001,PAPI_L3_TCM,10, 46.18280029,  3.09536743,end
timer_stats,656029169304406,PAPI_L3_TCM,9, 46.43432617,  3.10929871,end
timer_stats,656029170379280,PAPI_L3_TCM,15, 46.68756103,  3.12315369,end
timer_stats,656029171453886,PAPI_L3_TCM,6, 46.94317627,  3.13661194,end
timer_stats,656029175219425,PAPI_L3_TCM,170, 47.86956787,  3.21311951,end
timer_stats,656029176305708,PAPI_L3_TCM,74, 48.06823730,  3.22808838,end
timer_stats,656029177384296,PAPI_L3_TCM,10, 48.31665039,  3.24284363,end
timer_stats,656029178466575,PAPI_L3_TCM,7, 48.56280518,  3.25822449,end
timer_stats,656029179546940,PAPI_L3_TCM,11, 48.95208740,  3.28033447,end
timer_stats,656029180623936,PAPI_L3_TCM,4, 49.20916748,  3.29502869,end
timer_stats,656029181701790,PAPI_L3_TCM,4, 49.58489990,  3.31745911,end
timer_stats,656029182777866,PAPI_L3_TCM,4, 49.84979248,  3.33261108,end
timer_stats,656029183853462,PAPI_L3_TCM,7, 50.10260010,  3.34780884,end
timer_stats,656029184929722,PAPI_L3_TCM,7, 50.35375976,  3.36277771,end
timer_stats,656029186005532,PAPI_L3_TCM,6, 50.62060547,  3.37792969,end
timer_stats,656029187080703,PAPI_L3_TCM,3, 50.87402344,  3.39338684,end
timer_stats,656029188156107,PAPI_L3_TCM,5, 51.11968994,  3.40856934,end
timer_stats,656029189231377,PAPI_L3_TCM,2, 51.37707519,  3.42372131,end
timer_stats,656029190306174,PAPI_L3_TCM,6, 51.64794922,  3.43879700,end
timer_stats,656029191381925,PAPI_L3_TCM,3, 51.89758301,  3.45417786,end
timer_stats,656029192457303,PAPI_L3_TCM,4, 52.15856934,  3.46955871,end
timer_stats,656029193532821,PAPI_L3_TCM,6, 52.52758789,  3.49240112,end
timer_stats,656029194608090,PAPI_L3_TCM,5, 52.78881836,  3.50772095,end
timer_stats,656029195684223,PAPI_L3_TCM,2, 53.05041504,  3.52282715,end
timer_stats,656029196760128,PAPI_L3_TCM,4, 53.43395996,  3.54643249,end
timer_stats,656029197835336,PAPI_L3_TCM,8, 53.69305420,  3.56150818,end
timer_stats,656029198910412,PAPI_L3_TCM,7, 53.94049072,  3.57662964,end
timer_stats,656029199986423,PAPI_L3_TCM,2, 54.19512939,  3.59178162,end
timer_stats,656029201074867,PAPI_L3_TCM,9, 54.44604492,  3.60693359,end
timer_stats,656029202150316,PAPI_L3_TCM,8, 54.70141601,  3.62207031,end
timer_stats,656029203227183,PAPI_L3_TCM,6, 54.94677734,  3.63745117,end
timer_stats,656029204303303,PAPI_L3_TCM,4, 55.21875000,  3.65298462,end
timer_stats,656029205378766,PAPI_L3_TCM,5, 55.47595215,  3.66906738,end
timer_stats,656029206455868,PAPI_L3_TCM,4, 55.72650146,  3.68437195,end
timer_stats,656029207531085,PAPI_L3_TCM,6, 56.10443115,  3.69923401,end
timer_stats,656029208608124,PAPI_L3_TCM,8, 56.35870361,  3.72232056,end
timer_stats,656029209693626,PAPI_L3_TCM,91, 56.73352051,  3.74539184,end
timer_stats,656029210775308,PAPI_L3_TCM,42, 56.99005127,  3.76100159,end
timer_stats,656029211849467,PAPI_L3_TCM,9, 57.25720215,  3.77603149,end
timer_stats,656029212927542,PAPI_L3_TCM,12, 57.49395752,  3.79122925,end
timer_stats,656029214003500,PAPI_L3_TCM,7, 57.75628662,  3.80685425,end
timer_stats,656029215080956,PAPI_L3_TCM,2, 57.99853515,  3.82182312,end
timer_stats,656029216155640,PAPI_L3_TCM,6, 58.25305176,  3.83702087,end
timer_stats,656029217231215,PAPI_L3_TCM,1, 58.50531006,  3.85289001,end
timer_stats,656029218307028,PAPI_L3_TCM,7, 58.75622559,  3.86784363,end
timer_stats,656029219383261,PAPI_L3_TCM,2, 59.01702881,  3.88296509,end
timer_stats,656029220459887,PAPI_L3_TCM,6, 59.27191162,  3.89810181,end
timer_stats,656029225108311,PAPI_L3_TCM,107, 60.44219971,  3.97740173,end
timer_stats,656029226193834,PAPI_L3_TCM,41, 60.64129638,  3.99337769,end
timer_stats,656029227277241,PAPI_L3_TCM,16, 60.89666748,  4.00823975,end
timer_stats,656029228360472,PAPI_L3_TCM,19, 61.13848877,  4.02317810,end
timer_stats,656029229439370,PAPI_L3_TCM,5, 61.39715576,  4.03858948,end
timer_stats,656029230856396,PAPI_L3_TCM,3585, 61.91436768,  4.06930542,end
timer_stats,656029231938891,PAPI_L3_TCM,31, 62.15893555,  4.08517456,end
timer_stats,656029233016171,PAPI_L3_TCM,11, 62.42584228,  4.10046387,end
timer_stats,656029234091701,PAPI_L3_TCM,4, 62.68975830,  4.11550903,end
timer_stats,656029235169089,PAPI_L3_TCM,9, 62.94787598,  4.13179016,end
timer_stats,656029236246432,PAPI_L3_TCM,4, 63.20416260,  4.14753723,end
timer_stats,656029237322778,PAPI_L3_TCM,6, 63.45819092,  4.16304016,end
timer_stats,656029238399812,PAPI_L3_TCM,5, 63.71093750,  4.17907715,end
timer_stats,656029239475230,PAPI_L3_TCM,5, 63.96899414,  4.19480896,end
timer_stats,656029240551300,PAPI_L3_TCM,7, 64.35302734,  4.21014404,end
timer_stats,656029241627596,PAPI_L3_TCM,8, 64.60864258,  4.23348999,end
timer_stats,656029242702670,PAPI_L3_TCM,2, 64.86816406,  4.24879455,end
timer_stats,656029243778079,PAPI_L3_TCM,6, 65.12292480,  4.26411438,end
timer_stats,656029244853587,PAPI_L3_TCM,6, 65.50958252,  4.28718567,end
timer_stats,656029245928925,PAPI_L3_TCM,4, 65.76019287,  4.30253601,end
timer_stats,656029247004375,PAPI_L3_TCM,4, 66.02764892,  4.31936645,end
timer_stats,656029248078251,PAPI_L3_TCM,8, 66.28613281,  4.33439636,end
timer_stats,656029249155481,PAPI_L3_TCM,2, 66.54046631,  4.34971619,end
timer_stats,656029250231905,PAPI_L3_TCM,6, 66.79089355,  4.36506653,end
timer_stats,656029251308213,PAPI_L3_TCM,4, 67.04901123,  4.38084412,end
timer_stats,656029252384866,PAPI_L3_TCM,6, 67.30828857,  4.39639282,end
timer_stats,656029253460846,PAPI_L3_TCM,3, 67.55847168,  4.41197204,end
timer_stats,656029254537312,PAPI_L3_TCM,5, 67.81988525,  4.42752075,end
timer_stats,656029255612995,PAPI_L3_TCM,3, 68.20959473,  4.45111084,end
timer_stats,656029256690464,PAPI_L3_TCM,8, 68.45526123,  4.46714783,end
timer_stats,656029257767248,PAPI_L3_TCM,9, 68.70690918,  4.48242187,end
timer_stats,656029258843385,PAPI_L3_TCM,11, 69.10443115,  4.50564575,end
timer_stats,656029259919171,PAPI_L3_TCM,7, 69.35681152,  4.52117920,end
timer_stats,656029260996482,PAPI_L3_TCM,7, 69.61798096,  4.53671265,end
timer_stats,656029262071959,PAPI_L3_TCM,4, 69.87402344,  4.55253601,end
timer_stats,656029263147537,PAPI_L3_TCM,3, 70.12603760,  4.56813049,end
timer_stats,656029264223466,PAPI_L3_TCM,7, 70.38458252,  4.58375549,end
timer_stats,656029265299739,PAPI_L3_TCM,4, 70.64019775,  4.59930420,end
timer_stats,656029266375922,PAPI_L3_TCM,6, 70.90118408,  4.61460876,end
timer_stats,656029267451166,PAPI_L3_TCM,5, 71.13867187,  4.62998962,end
timer_stats,656029268527209,PAPI_L3_TCM,4, 71.38409424,  4.64582825,end
timer_stats,656029269602606,PAPI_L3_TCM,6, 71.76861572,  4.66801453,end
timer_stats,656029270678227,PAPI_L3_TCM,4, 72.02514648,  4.68283081,end
timer_stats,656029275230667,PAPI_L3_TCM,213, 73.04046631,  4.75697327,end
timer_stats,656029276323231,PAPI_L3_TCM,115, 73.22332764,  4.77079773,end
timer_stats,656029277403734,PAPI_L3_TCM,8, 73.48193359,  4.78489685,end
timer_stats,656029278477954,PAPI_L3_TCM,3, 73.72839355,  4.79884338,end
timer_stats,656029279556140,PAPI_L3_TCM,5, 73.98571777,  4.81274414,end
timer_stats,656029280630853,PAPI_L3_TCM,4, 74.36169433,  4.83355713,end
timer_stats,656029281707110,PAPI_L3_TCM,4, 74.61309814,  4.84703064,end
timer_stats,656029282781542,PAPI_L3_TCM,4, 74.99414062,  4.86116028,end
timer_stats,656029283856082,PAPI_L3_TCM,6, 75.24383545,  4.88230896,end
timer_stats,656029284932851,PAPI_L3_TCM,6, 75.49969482,  4.89620972,end
timer_stats,656029286007718,PAPI_L3_TCM,5, 75.75061035,  4.91011047,end
timer_stats,656029287082178,PAPI_L3_TCM,5, 76.01293945,  4.92373657,end
timer_stats,656029288157512,PAPI_L3_TCM,7, 76.26287842,  4.93807983,end
timer_stats,656029289231621,PAPI_L3_TCM,3, 76.52545166,  4.95195007,end
timer_stats,656029290305184,PAPI_L3_TCM,4, 76.77972412,  4.96560669,end
timer_stats,656029291379936,PAPI_L3_TCM,9, 77.03186035,  4.97248840,end
timer_stats,656029292456703,PAPI_L3_TCM,12, 77.27856445,  4.98661804,end
timer_stats,656029293531176,PAPI_L3_TCM,2, 77.52935791,  5.00050354,end
timer_stats,656029294605690,PAPI_L3_TCM,9, 77.78381348,  5.01464844,end
timer_stats,656029295680357,PAPI_L3_TCM,4, 78.16918945,  5.03663635,end
timer_stats,656029296755654,PAPI_L3_TCM,7, 78.55072021,  5.05355835,end
timer_stats,656029297829729,PAPI_L3_TCM,5, 78.81494140,  5.07681274,end
timer_stats,656029298903766,PAPI_L3_TCM,4, 79.06488037,  5.09263611,end
timer_stats,656029299976911,PAPI_L3_TCM,5, 79.33679199,  5.10781860,end
timer_stats,656029301051461,PAPI_L3_TCM,6, 79.58068848,  5.12318420,end
timer_stats,656029302125197,PAPI_L3_TCM,4, 79.84857178,  5.13821411,end
timer_stats,656029303199947,PAPI_L3_TCM,4, 80.09448242,  5.15380859,end
timer_stats,656029304274535,PAPI_L3_TCM,5, 80.35980224,  5.16908264,end
timer_stats,656029305348579,PAPI_L3_TCM,8, 80.60449219,  5.18495178,end
timer_stats,656029306422360,PAPI_L3_TCM,2, 80.86944580,  5.20040893,end
timer_stats,656029307496060,PAPI_L3_TCM,3, 81.12310791,  5.21626282,end
timer_stats,656029308570029,PAPI_L3_TCM,11, 81.37011719,  5.23181152,end
timer_stats,656029309643959,PAPI_L3_TCM,3, 81.76293945,  5.25468445,end
timer_stats,656029310718021,PAPI_L3_TCM,7, 82.01226807,  5.26980591,end
timer_stats,656029311791533,PAPI_L3_TCM,5, 82.27032471,  5.28533935,end
timer_stats,656029312866016,PAPI_L3_TCM,7, 82.65625000,  5.30850220,end
timer_stats,656029313948643,PAPI_L3_TCM,5, 82.91674805,  5.32406616,end
timer_stats,656029315022848,PAPI_L3_TCM,4, 83.17254639,  5.33992004,end
timer_stats,656029316096857,PAPI_L3_TCM,7, 83.42254639,  5.35534668,end
timer_stats,656029317169994,PAPI_L3_TCM,7, 83.71002197,  5.37081909,end
timer_stats,656029318243548,PAPI_L3_TCM,5, 83.96160889,  5.38592529,end
timer_stats,656029319316813,PAPI_L3_TCM,2, 84.18750000,  5.40208435,end
timer_stats,656029320390329,PAPI_L3_TCM,7, 84.44921875,  5.41735840,end
timer_stats,656029321463215,PAPI_L3_TCM,3, 84.70227051,  5.43270874,end
timer_stats,656029322537071,PAPI_L3_TCM,4, 84.95648193,  5.44805908,end
timer_stats,656029323610063,PAPI_L3_TCM,2, 85.33502197,  5.46336365,end
timer_stats,656029324684850,PAPI_L3_TCM,8, 85.60321045,  5.48606872,end
timer_stats,656029325759022,PAPI_L3_TCM,3, 85.85406494,  5.50122070,end
timer_stats,656029326832809,PAPI_L3_TCM,6, 86.21905517,  5.52423096,end
timer_stats,656029327906151,PAPI_L3_TCM,2, 86.47473145,  5.53941345,end
timer_stats,656029328981910,PAPI_L3_TCM,8, 86.74572754,  5.55476379,end
timer_stats,656029330055281,PAPI_L3_TCM,3, 87.00549316,  5.56962585,end
timer_stats,656029331128465,PAPI_L3_TCM,9, 87.22900390,  5.58460999,end
timer_stats,656029332202847,PAPI_L3_TCM,10, 87.48004150,  5.60098267,end
timer_stats,656029333277088,PAPI_L3_TCM,6, 87.73858642,  5.61633301,end
timer_stats,656029334352424,PAPI_L3_TCM,2, 87.99462890,  5.63186645,end
timer_stats,656029335426256,PAPI_L3_TCM,4, 88.24578857,  5.64695740,end
timer_stats,656029339254453,PAPI_L3_TCM,218, 89.17895508,  5.71672058,end
timer_stats,656029340339861,PAPI_L3_TCM,81, 89.37384033,  5.73295593,end
timer_stats,656029341415984,PAPI_L3_TCM,3, 89.61334228,  5.74783325,end
timer_stats,656029342490465,PAPI_L3_TCM,4, 89.87438965,  5.76289367,end
timer_stats,656029343565413,PAPI_L3_TCM,3, 90.13238525,  5.77821350,end
timer_stats,656029344638890,PAPI_L3_TCM,4, 90.51220703,  5.79356384,end
timer_stats,656029345714445,PAPI_L3_TCM,3, 90.76715088,  5.81741333,end
timer_stats,656029346790193,PAPI_L3_TCM,4, 91.02740478,  5.83268738,end
timer_stats,656029347864679,PAPI_L3_TCM,3, 91.40118408,  5.85548401,end
timer_stats,656029348939663,PAPI_L3_TCM,4, 91.69494629,  5.87086487,end
timer_stats,656029350013110,PAPI_L3_TCM,4, 91.91687012,  5.88674927,end
timer_stats,656029351087312,PAPI_L3_TCM,7, 92.21075439,  5.90214538,end
timer_stats,656029352161359,PAPI_L3_TCM,4, 92.43377685,  5.91809082,end
timer_stats,656029353246543,PAPI_L3_TCM,5, 92.69543457,  5.93360901,end
timer_stats,656029354321122,PAPI_L3_TCM,5, 92.95513916,  5.94888305,end
timer_stats,656029355395339,PAPI_L3_TCM,6, 93.20892334,  5.96418762,end
timer_stats,656029356471331,PAPI_L3_TCM,7, 93.46429443,  5.97998047,end
timer_stats,656029357547201,PAPI_L3_TCM,9, 93.71997070,  5.99549866,end
timer_stats,656029358621752,PAPI_L3_TCM,9, 93.98706055,  6.01081848,end
timer_stats,656029359695734,PAPI_L3_TCM,5, 94.22198486,  6.02621460,end
timer_stats,656029360771834,PAPI_L3_TCM,2, 94.50561523,  6.04173279,end
timer_stats,656029361846041,PAPI_L3_TCM,3, 95.00708008,  6.07270813,end
timer_stats,656029362919830,PAPI_L3_TCM,2, 95.24530029,  6.08827209,end
timer_stats,656029363993427,PAPI_L3_TCM,3, 95.52612305,  6.10371399,end
timer_stats,656029365070908,PAPI_L3_TCM,4, 95.75543213,  6.11888122,end
timer_stats,656029366145891,PAPI_L3_TCM,4, 96.02893066,  6.13494873,end
timer_stats,656029367221031,PAPI_L3_TCM,5, 96.26904297,  6.15034485,end
timer_stats,656029368295102,PAPI_L3_TCM,7, 96.51660156,  6.16546631,end
timer_stats,656029369369397,PAPI_L3_TCM,3, 96.78009033,  6.18103027,end
timer_stats,656029370443551,PAPI_L3_TCM,3, 97.03906250,  6.19689941,end
timer_stats,656029371517761,PAPI_L3_TCM,4, 97.30438232,  6.21220398,end
timer_stats,656029372591790,PAPI_L3_TCM,5, 97.57250976,  6.22724915,end
timer_stats,656029373666241,PAPI_L3_TCM,3, 97.82189941,  6.24258423,end
timer_stats,656029374740156,PAPI_L3_TCM,6, 98.08789062,  6.25036621,end
timer_stats,656029375814974,PAPI_L3_TCM,4, 98.44195557,  6.27461242,end
timer_stats,656029376889638,PAPI_L3_TCM,6, 98.85272217,  6.29782104,end
timer_stats,656029377965154,PAPI_L3_TCM,4, 99.10748291,  6.31340027,end
timer_stats,656029379039077,PAPI_L3_TCM,5, 99.36541748,  6.32870483,end
timer_stats,656029380112740,PAPI_L3_TCM,2, 99.61376953,  6.34426880,end
timer_stats,656029381186516,PAPI_L3_TCM,4, 99.87084961,  6.35981750,end
timer_stats,656029382259402,PAPI_L3_TCM,2,100.12322998,  6.37515259,end
timer_stats,656029383332851,PAPI_L3_TCM,4,100.35742187,  6.39053345,end
timer_stats,656029384406591,PAPI_L3_TCM,8,100.63183594,  6.40634155,end
timer_stats,656029385481126,PAPI_L3_TCM,4,100.88745117,  6.42192078,end
timer_stats,656029386555451,PAPI_L3_TCM,4,101.11651611,  6.43833923,end
timer_stats,656029387629439,PAPI_L3_TCM,5,101.40856933,  6.45375061,end
timer_stats,656029388703391,PAPI_L3_TCM,5,101.64874267,  6.46861267,end
timer_stats,656029389785783,PAPI_L3_TCM,13,102.01251221,  6.49139404,end
timer_stats,656029390860040,PAPI_L3_TCM,3,102.25836182,  6.50654602,end
timer_stats,656029391934135,PAPI_L3_TCM,5,102.50891113,  6.52207947,end
timer_stats,656029393008589,PAPI_L3_TCM,8,102.90124512,  6.53726196,end
timer_stats,656029394083550,PAPI_L3_TCM,12,103.13964844,  6.55241394,end
timer_stats,656029395158480,PAPI_L3_TCM,2,103.38854980,  6.56756592,end
timer_stats,656029396232770,PAPI_L3_TCM,3,103.65863037,  6.58306885,end
timer_stats,656029397306381,PAPI_L3_TCM,2,103.93023682,  6.59883117,end
timer_stats,656029398380491,PAPI_L3_TCM,4,104.18383789,  6.61395264,end
timer_stats,656029399454619,PAPI_L3_TCM,3,104.42797852,  6.62908935,end
timer_stats,656029400529497,PAPI_L3_TCM,10,104.68725586,  6.64474487,end
timer_stats,656029401604577,PAPI_L3_TCM,3,104.93579102,  6.66035461,end
timer_stats,656029402677906,PAPI_L3_TCM,4,105.29626465,  6.68383789,end
timer_stats,656029406789751,PAPI_L3_TCM,190,106.21636963,  6.77233887,end
timer_stats,656029407880580,PAPI_L3_TCM,96,106.41821289,  6.78802490,end
timer_stats,656029408956733,PAPI_L3_TCM,6,106.81976318,  6.81094360,end
timer_stats,656029410031582,PAPI_L3_TCM,4,107.07977295,  6.82603454,end
timer_stats,656029411105452,PAPI_L3_TCM,3,107.33203125,  6.84120178,end
timer_stats,656029412180201,PAPI_L3_TCM,9,107.58776855,  6.85653686,end
timer_stats,656029413253838,PAPI_L3_TCM,3,107.85504150,  6.87162781,end
timer_stats,656029414329164,PAPI_L3_TCM,6,108.11187744,  6.88700867,end
timer_stats,656029415403380,PAPI_L3_TCM,2,108.35522461,  6.90266418,end
timer_stats,656029416477760,PAPI_L3_TCM,4,108.60906982,  6.91801453,end
timer_stats,656029417551400,PAPI_L3_TCM,2,108.87854004,  6.93307495,end
timer_stats,656029418625007,PAPI_L3_TCM,6,109.14416504,  6.94813537,end
timer_stats,656029419697803,PAPI_L3_TCM,1,109.39831543,  6.96366882,end
timer_stats,656029420772640,PAPI_L3_TCM,4,109.65942383,  6.97999573,end
timer_stats,656029421845872,PAPI_L3_TCM,4,110.03332519,  6.99511719,end
timer_stats,656029422919323,PAPI_L3_TCM,8,110.29376221,  7.01846313,end
timer_stats,656029423992767,PAPI_L3_TCM,6,110.66754150,  7.04182434,end
timer_stats,656029425070374,PAPI_L3_TCM,5,110.93988037,  7.05735779,end
timer_stats,656029426144141,PAPI_L3_TCM,3,111.19757080,  7.07269287,end
timer_stats,656029427217102,PAPI_L3_TCM,3,111.45904541,  7.08821106,end
timer_stats,656029428290266,PAPI_L3_TCM,2,111.71258545,  7.10375977,end
timer_stats,656029429374080,PAPI_L3_TCM,9,111.97125244,  7.11909485,end
timer_stats,656029430448082,PAPI_L3_TCM,3,112.22338867,  7.13442993,end
timer_stats,656029431522855,PAPI_L3_TCM,6,112.48919678,  7.14971924,end
timer_stats,656029432597226,PAPI_L3_TCM,8,112.74511719,  7.16523743,end
timer_stats,656029433671358,PAPI_L3_TCM,5,113.00268555,  7.18057251,end
timer_stats,656029434745784,PAPI_L3_TCM,6,113.26324463,  7.19641113,end
timer_stats,656029435819794,PAPI_L3_TCM,4,113.51934814,  7.21226501,end
timer_stats,656029436892967,PAPI_L3_TCM,7,113.90551758,  7.23535156,end
timer_stats,656029437966578,PAPI_L3_TCM,5,114.30456543,  7.25859070,end
timer_stats,656029439040441,PAPI_L3_TCM,5,114.54571533,  7.27418518,end
timer_stats,656029440114657,PAPI_L3_TCM,5,114.80944824,  7.28944397,end
timer_stats,656029441187485,PAPI_L3_TCM,4,115.07238769,  7.30494690,end
timer_stats,656029442260570,PAPI_L3_TCM,4,115.33807373,  7.31996155,end
timer_stats,656029443333243,PAPI_L3_TCM,2,115.58435058,  7.33549499,end
timer_stats,656029444407104,PAPI_L3_TCM,7,115.83654785,  7.35124207,end
timer_stats,656029445481041,PAPI_L3_TCM,2,116.09851074,  7.36651611,end
timer_stats,656029446555779,PAPI_L3_TCM,5,116.34808349,  7.38208008,end
timer_stats,656029447629663,PAPI_L3_TCM,2,116.61633301,  7.39762878,end
timer_stats,656029448704392,PAPI_L3_TCM,4,116.86425781,  7.41276550,end
timer_stats,656029449778958,PAPI_L3_TCM,7,117.11968994,  7.42837524,end
timer_stats,656029450852568,PAPI_L3_TCM,7,117.38476562,  7.44400024,end
timer_stats,656029451925830,PAPI_L3_TCM,3,117.77252197,  7.46670532,end
timer_stats,656029453000392,PAPI_L3_TCM,7,118.15490723,  7.48918152,end
timer_stats,656029454073455,PAPI_L3_TCM,4,118.42138672,  7.50404358,end
timer_stats,656029455145814,PAPI_L3_TCM,4,118.66119385,  7.51873779,end
timer_stats,656029456218628,PAPI_L3_TCM,3,118.91632080,  7.53431702,end
timer_stats,656029457291611,PAPI_L3_TCM,7,119.17572021,  7.54969787,end
timer_stats,656029458365701,PAPI_L3_TCM,2,119.43078613,  7.56509399,end
timer_stats,656029459439048,PAPI_L3_TCM,3,119.69104004,  7.58045959,end
timer_stats,656029460513315,PAPI_L3_TCM,7,119.94525146,  7.59561157,end
timer_stats,656029461586892,PAPI_L3_TCM,4,120.21032715,  7.61071777,end
timer_stats,656029462660324,PAPI_L3_TCM,3,120.43908691,  7.62617493,end
timer_stats,656029463734384,PAPI_L3_TCM,8,120.71765137,  7.64126587,end
timer_stats,656029464807356,PAPI_L3_TCM,2,120.96093750,  7.65641784,end
timer_stats,656029465888319,PAPI_L3_TCM,6,121.22351074,  7.67179871,end
timer_stats,656029466961735,PAPI_L3_TCM,2,121.72436523,  7.70233154,end
timer_stats,656029468014547,PAPI_L3_TCM,6,121.97760010,  7.71794128,end
timer_stats,656029469087960,PAPI_L3_TCM,4,122.23760986,  7.73352051,end
timer_stats,656029470162031,PAPI_L3_TCM,5,122.49468994,  7.74931335,end
timer_stats,656029471235245,PAPI_L3_TCM,4,122.76098633,  7.76484680,end
timer_stats,656029472307823,PAPI_L3_TCM,11,123.01617432,  7.77966309,end
timer_stats,656029473381135,PAPI_L3_TCM,5,123.27148437,  7.79501343,end
timer_stats,656029477806571,PAPI_L3_TCM,338,124.20574951,  7.88533020,end
timer_stats,656029478896718,PAPI_L3_TCM,111,124.50970459,  7.89880371,end
timer_stats,656029479977339,PAPI_L3_TCM,8,124.77026367,  7.92124939,end
timer_stats,656029481054252,PAPI_L3_TCM,4,125.16308594,  7.94393921,end
timer_stats,656029482130849,PAPI_L3_TCM,9,125.41003418,  7.95909119,end
timer_stats,656029483205604,PAPI_L3_TCM,3,125.65130615,  7.97424316,end
timer_stats,656029484281036,PAPI_L3_TCM,7,125.92767334,  7.98905945,end
timer_stats,656029485356129,PAPI_L3_TCM,2,126.17999267,  8.00445557,end
timer_stats,656029486431155,PAPI_L3_TCM,5,126.42913818,  8.01957703,end
timer_stats,656029487506395,PAPI_L3_TCM,4,126.68054199,  8.03492737,end
timer_stats,656029488581737,PAPI_L3_TCM,5,126.94000244,  8.05024719,end
timer_stats,656029489657164,PAPI_L3_TCM,3,127.19982910,  8.06535339,end
timer_stats,656029490731147,PAPI_L3_TCM,8,127.46563721,  8.08047485,end
timer_stats,656029491805976,PAPI_L3_TCM,5,127.71685791,  8.09480285,end
timer_stats,656029492882684,PAPI_L3_TCM,4,127.97406006,  8.10997009,end
timer_stats,656029493957386,PAPI_L3_TCM,4,128.36901855,  8.13230896,end
timer_stats,656029495032144,PAPI_L3_TCM,5,128.74273682,  8.15522766,end
timer_stats,656029496106036,PAPI_L3_TCM,3,128.99749756,  8.17013550,end
timer_stats,656029497181239,PAPI_L3_TCM,5,129.25939941,  8.18557739,end
timer_stats,656029498256677,PAPI_L3_TCM,5,129.51574707,  8.20075989,end
timer_stats,656029499331659,PAPI_L3_TCM,8,129.77423096,  8.21664429,end
timer_stats,656029500406015,PAPI_L3_TCM,4,130.03613281,  8.23171997,end
timer_stats,656029501481754,PAPI_L3_TCM,5,130.27630615,  8.24710083,end
timer_stats,656029502556784,PAPI_L3_TCM,3,130.54681396,  8.26222229,end
timer_stats,656029503631847,PAPI_L3_TCM,6,130.80706787,  8.27766418,end
timer_stats,656029504706946,PAPI_L3_TCM,5,131.05395508,  8.29306030,end
timer_stats,656029505781966,PAPI_L3_TCM,3,131.31335449,  8.30819702,end
timer_stats,656029506857104,PAPI_L3_TCM,7,131.69702148,  8.32356262,end
timer_stats,656029507931804,PAPI_L3_TCM,7,131.95770264,  8.34669494,end
timer_stats,656029509006884,PAPI_L3_TCM,2,132.32867432,  8.36985779,end
timer_stats,656029510081357,PAPI_L3_TCM,6,132.60870361,  8.38540649,end
timer_stats,656029511155229,PAPI_L3_TCM,3,132.85351562,  8.40055847,end
timer_stats,656029512229353,PAPI_L3_TCM,4,133.11096191,  8.41589355,end
timer_stats,656029513304068,PAPI_L3_TCM,2,133.37921142,  8.43072510,end
timer_stats,656029514379528,PAPI_L3_TCM,5,133.63989258,  8.44607544,end
timer_stats,656029515454020,PAPI_L3_TCM,4,133.89117432,  8.46142578,end
timer_stats,656029516529037,PAPI_L3_TCM,6,134.14996338,  8.47673034,end
timer_stats,656029517603418,PAPI_L3_TCM,6,134.40704346,  8.49209595,end
timer_stats,656029518678545,PAPI_L3_TCM,3,134.65686035,  8.50724792,end
timer_stats,656029519753331,PAPI_L3_TCM,2,134.92333984,  8.52233887,end
timer_stats,656029520828475,PAPI_L3_TCM,4,135.17651367,  8.53814697,end
timer_stats,656029521902626,PAPI_L3_TCM,6,135.55651855,  8.56056213,end
timer_stats,656029522977134,PAPI_L3_TCM,4,135.93829346,  8.58370972,end
timer_stats,656029524018213,PAPI_L3_TCM,4,136.19299316,  8.59907532,end
timer_stats,656029525092439,PAPI_L3_TCM,3,136.45306396,  8.61421204,end
timer_stats,656029526166411,PAPI_L3_TCM,2,136.71954346,  8.62957764,end
timer_stats,656029527240901,PAPI_L3_TCM,4,136.97692871,  8.64445496,end
timer_stats,656029528316400,PAPI_L3_TCM,4,137.22943115,  8.66035461,end
timer_stats,656029529391450,PAPI_L3_TCM,5,137.47564697,  8.67526245,end
timer_stats,656029530466192,PAPI_L3_TCM,4,137.72644043,  8.69039917,end
timer_stats,656029531539712,PAPI_L3_TCM,7,137.99578857,  8.69795227,end
timer_stats,656029532614304,PAPI_L3_TCM,4,138.23992920,  8.71264648,end
timer_stats,656029533688516,PAPI_L3_TCM,7,138.50018310,  8.72802734,end
timer_stats,656029534762538,PAPI_L3_TCM,4,138.75018310,  8.74322510,end
timer_stats,656029535837437,PAPI_L3_TCM,5,139.01007080,  8.75790405,end
timer_stats,656029536915001,PAPI_L3_TCM,10,139.38793945,  8.77285767,end
timer_stats,656029537990828,PAPI_L3_TCM,13,139.77539062,  8.79658508,end
timer_stats,656029539065757,PAPI_L3_TCM,6,140.03515625,  8.81918335,end
timer_stats,656029540139541,PAPI_L3_TCM,6,140.28649902,  8.83457947,end
timer_stats,656029541213529,PAPI_L3_TCM,6,140.56176758,  8.84968567,end
timer_stats,656029542287666,PAPI_L3_TCM,4,140.79632568,  8.86491394,end
timer_stats,656029543361637,PAPI_L3_TCM,5,141.06146240,  8.88006592,end
timer_stats,656029544435837,PAPI_L3_TCM,9,141.31158447,  8.89523315,end
timer_stats,656029545509909,PAPI_L3_TCM,3,141.55975342,  8.91044617,end
timer_stats,656029546584631,PAPI_L3_TCM,8,141.82183838,  8.92532348,end
timer_stats,656029551788642,PAPI_L3_TCM,182,143.01037598,  9.01580810,end
timer_stats,656029552882292,PAPI_L3_TCM,76,143.17535400,  9.03234863,end
timer_stats,656029553966792,PAPI_L3_TCM,16,143.53527832,  9.05299377,end
timer_stats,656029555048731,PAPI_L3_TCM,21,143.91772461,  9.07330322,end
timer_stats,656029556124074,PAPI_L3_TCM,3,144.17388916,  9.08633423,end
timer_stats,656029557199706,PAPI_L3_TCM,6,144.42645264,  9.09983826,end
timer_stats,656029558275374,PAPI_L3_TCM,4,144.68304443,  9.11306763,end
timer_stats,656029559349840,PAPI_L3_TCM,7,144.95404053,  9.12649536,end
timer_stats,656029560424574,PAPI_L3_TCM,3,145.21118164,  9.13995361,end
timer_stats,656029561499638,PAPI_L3_TCM,6,145.46136474,  9.15414429,end
timer_stats,656029562574521,PAPI_L3_TCM,3,145.72375488,  9.16848755,end
timer_stats,656029563648465,PAPI_L3_TCM,7,145.97094726,  9.18196106,end
timer_stats,656029564723441,PAPI_L3_TCM,4,146.21801758,  9.19523621,end
timer_stats,656029565800361,PAPI_L3_TCM,5,146.47381592,  9.20869446,end
timer_stats,656029566875719,PAPI_L3_TCM,5,146.74047852,  9.22212219,end
timer_stats,656029567949884,PAPI_L3_TCM,6,146.99536133,  9.23580932,end
timer_stats,656029569024335,PAPI_L3_TCM,7,147.49816894,  9.26368713,end
timer_stats,656029570099923,PAPI_L3_TCM,5,147.76013183,  9.27735901,end
timer_stats,656029571177395,PAPI_L3_TCM,4,148.01318359,  9.29127502,end
timer_stats,656029572251328,PAPI_L3_TCM,8,148.27490234,  9.30494690,end
timer_stats,656029573326238,PAPI_L3_TCM,4,148.51977539,  9.31932068,end
timer_stats,656029574401299,PAPI_L3_TCM,8,148.77801514,  9.33273315,end
timer_stats,656029575476535,PAPI_L3_TCM,3,149.04797363,  9.33937073,end
timer_stats,656029576551732,PAPI_L3_TCM,5,149.30194092,  9.35371399,end
timer_stats,656029577627181,PAPI_L3_TCM,3,149.55938721,  9.36715698,end
timer_stats,656029578701573,PAPI_L3_TCM,4,149.80206299,  9.38064575,end
timer_stats,656029579775969,PAPI_L3_TCM,5,150.06518555,  9.39428711,end
timer_stats,656029580851358,PAPI_L3_TCM,3,150.31909180,  9.40797424,end
timer_stats,656029581926368,PAPI_L3_TCM,5,150.57788086,  9.42324829,end
timer_stats,656029583000227,PAPI_L3_TCM,4,150.95806885,  9.44641113,end
timer_stats,656029584073950,PAPI_L3_TCM,7,151.35137939,  9.46925354,end
timer_stats,656029585147768,PAPI_L3_TCM,8,151.61358642,  9.48440552,end
timer_stats,656029586221909,PAPI_L3_TCM,2,151.85894775,  9.50003052,end
timer_stats,656029587295919,PAPI_L3_TCM,4,152.12518310,  9.51544189,end
timer_stats,656029588370736,PAPI_L3_TCM,4,152.37713623,  9.53063965,end
timer_stats,656029589446087,PAPI_L3_TCM,10,152.63476562,  9.54556274,end
timer_stats,656029590520427,PAPI_L3_TCM,10,152.89251709,  9.56097412,end
timer_stats,656029591594951,PAPI_L3_TCM,7,153.14630127,  9.57591248,end
timer_stats,656029592669529,PAPI_L3_TCM,3,153.41253662,  9.59100342,end
timer_stats,656029593744381,PAPI_L3_TCM,6,153.66784668,  9.60644531,end
timer_stats,656029594817827,PAPI_L3_TCM,3,153.92871094,  9.62178039,end
timer_stats,656029595891886,PAPI_L3_TCM,3,154.18536377,  9.63708496,end
timer_stats,656029596966449,PAPI_L3_TCM,6,154.55541992,  9.66011047,end
timer_stats,656029598041678,PAPI_L3_TCM,5,154.82635498,  9.67520142,end
timer_stats,656029599116033,PAPI_L3_TCM,2,155.20770264,  9.69810486,end
timer_stats,656029600190178,PAPI_L3_TCM,9,155.46508789,  9.71350098,end
timer_stats,656029601264303,PAPI_L3_TCM,3,155.70971680,  9.72869873,end
timer_stats,656029602339488,PAPI_L3_TCM,5,155.96899414,  9.74407959,end
timer_stats,656029603413483,PAPI_L3_TCM,3,156.22607422,  9.75994873,end
timer_stats,656029604487495,PAPI_L3_TCM,8,156.47686767,  9.77549744,end
timer_stats,656029605561185,PAPI_L3_TCM,2,156.73596191,  9.79133606,end
timer_stats,656029606634785,PAPI_L3_TCM,4,156.99566650,  9.80686951,end
timer_stats,656029607709669,PAPI_L3_TCM,4,157.24621582,  9.82218933,end
timer_stats,656029608784003,PAPI_L3_TCM,10,157.50622559,  9.83796692,end
timer_stats,656029609858991,PAPI_L3_TCM,2,157.76501465,  9.85354614,end
timer_stats,656029610933376,PAPI_L3_TCM,9,158.01257324,  9.86885071,end
timer_stats,656029612013923,PAPI_L3_TCM,9,158.40032959,  9.89129639,end
timer_stats,656029613087911,PAPI_L3_TCM,5,158.78381347,  9.91395569,end
timer_stats,656029614161581,PAPI_L3_TCM,3,159.04309082,  9.92955017,end
timer_stats,656029615234788,PAPI_L3_TCM,3,159.30657959,  9.94511414,end
timer_stats,656029616308732,PAPI_L3_TCM,4,159.56250000,  9.95996094,end
timer_stats,656029617383809,PAPI_L3_TCM,6,159.81951904,  9.97554016,end
timer_stats,656029618458554,PAPI_L3_TCM,3,160.07623291,  9.99081421,end
timer_stats,656029619531839,PAPI_L3_TCM,8,160.33465576, 10.00610351,end
timer_stats,656029620606308,PAPI_L3_TCM,6,160.58868408, 10.02169800,end
timer_stats,656029621680147,PAPI_L3_TCM,3,160.85327148, 10.03700256,end
timer_stats,656029622754547,PAPI_L3_TCM,3,161.10931396, 10.05233765,end
timer_stats,656029623828077,PAPI_L3_TCM,3,161.36718750, 10.06825256,end
timer_stats,656029624902459,PAPI_L3_TCM,6,161.61401367, 10.08335876,end
timer_stats,656029625976682,PAPI_L3_TCM,5,161.88049316, 10.09893799,end
timer_stats,656029627050380,PAPI_L3_TCM,6,162.39160156, 10.12136841,end
timer_stats,656029628123856,PAPI_L3_TCM,4,162.65899658, 10.13671875,end
timer_stats,656029629198825,PAPI_L3_TCM,6,162.91040039, 10.15977478,end
timer_stats,656029630273395,PAPI_L3_TCM,5,163.16442871, 10.17613220,end
timer_stats,656029631348226,PAPI_L3_TCM,7,163.42175293, 10.19142151,end
timer_stats,656029632421977,PAPI_L3_TCM,8,163.67572021, 10.20730591,end
timer_stats,656029633496765,PAPI_L3_TCM,6,163.92810059, 10.22244263,end
timer_stats,656029634571817,PAPI_L3_TCM,4,164.19897461, 10.23750305,end
timer_stats,656029635645437,PAPI_L3_TCM,3,164.45520020, 10.25308227,end
timer_stats,656029636720255,PAPI_L3_TCM,10,164.70391846, 10.26800537,end
timer_stats,656029637795008,PAPI_L3_TCM,14,164.96697998, 10.27557373,end
timer_stats,656029642043107,PAPI_L3_TCM,137,165.93994141, 10.36676025,end
timer_stats,656029643127895,PAPI_L3_TCM,48,166.34283447, 10.39303589,end
timer_stats,656029644204103,PAPI_L3_TCM,6,166.61199951, 10.40858459,end
timer_stats,656029645278399,PAPI_L3_TCM,5,166.88220215, 10.42384338,end
timer_stats,656029646353460,PAPI_L3_TCM,6,167.14892578, 10.43840027,end
timer_stats,656029647427144,PAPI_L3_TCM,3,167.39849853, 10.45356750,end
timer_stats,656029648501371,PAPI_L3_TCM,4,167.65649414, 10.46870422,end
timer_stats,656029649575348,PAPI_L3_TCM,2,167.90527344, 10.48410034,end
timer_stats,656029650648727,PAPI_L3_TCM,8,168.17047119, 10.49919128,end
timer_stats,656029651722418,PAPI_L3_TCM,3,168.41558838, 10.51416016,end
timer_stats,656029652796506,PAPI_L3_TCM,5,168.67980957, 10.52926636,end
timer_stats,656029653871412,PAPI_L3_TCM,2,168.92718506, 10.54421997,end
timer_stats,656029654945075,PAPI_L3_TCM,7,169.18389892, 10.55955505,end
timer_stats,656029656014999,PAPI_L3_TCM,2,169.43902588, 10.57496643,end
timer_stats,656029657088778,PAPI_L3_TCM,3,169.82727051, 10.59793091,end
timer_stats,656029658162609,PAPI_L3_TCM,6,170.20690918, 10.62197876,end
timer_stats,656029659237060,PAPI_L3_TCM,6,170.45324707, 10.63751221,end
timer_stats,656029660312077,PAPI_L3_TCM,4,170.71374512, 10.65287781,end
timer_stats,656029661386340,PAPI_L3_TCM,4,170.98242187, 10.66908264,end
timer_stats,656029662460371,PAPI_L3_TCM,4,171.23590088, 10.68432617,end
timer_stats,656029663534552,PAPI_L3_TCM,3,171.49682617, 10.69981384,end
timer_stats,656029664609227,PAPI_L3_TCM,7,171.75091553, 10.71508789,end
timer_stats,656029665684352,PAPI_L3_TCM,7,172.01086426, 10.73034668,end
timer_stats,656029666758009,PAPI_L3_TCM,5,172.27807617, 10.74609375,end
timer_stats,656029667831841,PAPI_L3_TCM,4,172.52819824, 10.76138306,end
timer_stats,656029668906921,PAPI_L3_TCM,4,172.77874756, 10.77699280,end
timer_stats,656029669981400,PAPI_L3_TCM,2,173.04113769, 10.79252624,end
timer_stats,656029671055510,PAPI_L3_TCM,3,173.41973877, 10.81596374,end
timer_stats,656029672129596,PAPI_L3_TCM,16,173.80572510, 10.83229065,end
timer_stats,656029673204192,PAPI_L3_TCM,5,174.06719971, 10.85504150,end
timer_stats,656029674278196,PAPI_L3_TCM,8,174.32934570, 10.87084961,end
timer_stats,656029675352888,PAPI_L3_TCM,2,174.58215332, 10.88636780,end
timer_stats,656029676427715,PAPI_L3_TCM,10,174.83612060, 10.90197754,end
timer_stats,656029677502445,PAPI_L3_TCM,3,175.09246826, 10.91731262,end
timer_stats,656029678576694,PAPI_L3_TCM,7,175.35314941, 10.93261719,end
timer_stats,656029679650461,PAPI_L3_TCM,4,175.59576416, 10.94796753,end
timer_stats,656029680725263,PAPI_L3_TCM,13,175.85693359, 10.96304321,end
timer_stats,656029681800098,PAPI_L3_TCM,6,176.10748291, 10.97840881,end
timer_stats,656029682874210,PAPI_L3_TCM,6,176.35260010, 10.99354553,end
timer_stats,656029683947963,PAPI_L3_TCM,3,176.61285400, 11.00866699,end
timer_stats,656029685022400,PAPI_L3_TCM,7,176.87274170, 11.02352905,end
timer_stats,656029686096614,PAPI_L3_TCM,5,177.24987793, 11.04656982,end
timer_stats,656029687169846,PAPI_L3_TCM,3,177.62701416, 11.06933594,end
timer_stats,656029688243830,PAPI_L3_TCM,7,177.88464355, 11.08464050,end
timer_stats,656029689318150,PAPI_L3_TCM,5,178.15747070, 11.09992981,end
timer_stats,656029690392772,PAPI_L3_TCM,3,178.40264892, 11.11526489,end
timer_stats,656029691467029,PAPI_L3_TCM,9,178.65386963, 11.13059998,end
timer_stats,656029692541553,PAPI_L3_TCM,4,178.90991211, 11.14588928,end
timer_stats,656029693615671,PAPI_L3_TCM,5,179.17150879, 11.16116333,end
timer_stats,656029694690023,PAPI_L3_TCM,3,179.42108154, 11.17700195,end
timer_stats,656029695764265,PAPI_L3_TCM,3,179.68957519, 11.19277954,end
timer_stats,656029696838117,PAPI_L3_TCM,2,179.93707275, 11.20858765,end
timer_stats,656029697913083,PAPI_L3_TCM,5,180.19445801, 11.22483826,end
timer_stats,656029698987392,PAPI_L3_TCM,4,180.46228027, 11.23999023,end
timer_stats,656029700014150,PAPI_L3_TCM,5,180.72357178, 11.25523376,end
timer_stats,656029701087657,PAPI_L3_TCM,10,181.10235596, 11.27883911,end
timer_stats,656029702161927,PAPI_L3_TCM,4,181.35437012, 11.29492187,end
timer_stats,656029703236112,PAPI_L3_TCM,3,181.73480224, 11.31793213,end
timer_stats,656029704310451,PAPI_L3_TCM,9,181.99896240, 11.33343506,end
timer_stats,656029705384610,PAPI_L3_TCM,4,182.25189209, 11.34896850,end
timer_stats,656029706458701,PAPI_L3_TCM,7,182.51501465, 11.36453247,end
timer_stats,656029707532789,PAPI_L3_TCM,5,182.77362060, 11.38005066,end
timer_stats,656029708608167,PAPI_L3_TCM,7,183.01977539, 11.39491272,end
timer_stats,656029709682417,PAPI_L3_TCM,3,183.28234863, 11.41023254,end
timer_stats,656029710756074,PAPI_L3_TCM,3,183.54046631, 11.42608642,end
timer_stats,656029711829652,PAPI_L3_TCM,3,183.79705810, 11.44142151,end
timer_stats,656029712904213,PAPI_L3_TCM,8,184.04528809, 11.45655823,end
timer_stats,656029713977753,PAPI_L3_TCM,4,184.30389404, 11.47196960,end
timer_stats,656029715051189,PAPI_L3_TCM,4,184.55981445, 11.48735046,end
timer_stats,656029716125417,PAPI_L3_TCM,2,184.94372558, 11.51040649,end
timer_stats,656029717198677,PAPI_L3_TCM,7,185.31793213, 11.53305054,end
timer_stats,656029718272803,PAPI_L3_TCM,3,185.57739258, 11.54838562,end
timer_stats,656029719347673,PAPI_L3_TCM,3,185.83483887, 11.56391907,end
timer_stats,656029720422167,PAPI_L3_TCM,5,186.09484863, 11.57876587,end
timer_stats,656029721497118,PAPI_L3_TCM,7,186.35278320, 11.59434509,end
timer_stats,656029726782291,PAPI_L3_TCM,203,187.56109619, 11.66276550,end
timer_stats,656029727900013,PAPI_L3_TCM,108,187.74359131, 11.67939758,end
timer_stats,656029728981041,PAPI_L3_TCM,34,187.98651123, 11.69471741,end
timer_stats,656029730057802,PAPI_L3_TCM,10,188.22991943, 11.70983887,end
timer_stats,656029731132544,PAPI_L3_TCM,10,188.62261963, 11.72563171,end
timer_stats,656029732207535,PAPI_L3_TCM,3,189.00555420, 11.75613403,end
timer_stats,656029733284194,PAPI_L3_TCM,5,189.26110840, 11.77145386,end
timer_stats,656029734358896,PAPI_L3_TCM,3,189.52819824, 11.78640747,end
timer_stats,656029735433555,PAPI_L3_TCM,1,189.77185059, 11.80221557,end
timer_stats,656029736507766,PAPI_L3_TCM,4,190.03253174, 11.81752014,end
timer_stats,656029737582743,PAPI_L3_TCM,6,190.29046631, 11.83283996,end
timer_stats,656029738657966,PAPI_L3_TCM,7,190.55322266, 11.84884644,end
timer_stats,656029739732771,PAPI_L3_TCM,3,190.80090332, 11.86445618,end
timer_stats,656029740807665,PAPI_L3_TCM,3,191.05505371, 11.87973022,end
timer_stats,656029741882592,PAPI_L3_TCM,3,191.31219482, 11.89556885,end
timer_stats,656029742957151,PAPI_L3_TCM,5,191.57080078, 11.91108704,end
timer_stats,656029744016009,PAPI_L3_TCM,0,191.83001709, 11.92663574,end
timer_stats,656029745090804,PAPI_L3_TCM,9,192.07159424, 11.94219971,end
timer_stats,656029746164959,PAPI_L3_TCM,4,192.58740234, 11.97303772,end
timer_stats,656029747240108,PAPI_L3_TCM,7,192.84680176, 11.98884582,end
timer_stats,656029748314502,PAPI_L3_TCM,2,193.10455322, 12.00386047,end
timer_stats,656029749389132,PAPI_L3_TCM,3,193.36547852, 12.01940918,end
timer_stats,656029750463835,PAPI_L3_TCM,7,193.60668945, 12.03509521,end
timer_stats,656029751538021,PAPI_L3_TCM,4,193.87066650, 12.05068970,end
timer_stats,656029752612302,PAPI_L3_TCM,3,194.12292480, 12.06506348,end
timer_stats,656029753686446,PAPI_L3_TCM,5,194.36950684, 12.07998657,end
timer_stats,656029754760527,PAPI_L3_TCM,5,194.63201904, 12.09535217,end
timer_stats,656029755834459,PAPI_L3_TCM,7,194.88806152, 12.11093139,end
timer_stats,656029756909972,PAPI_L3_TCM,14,195.12988281, 12.12626648,end
timer_stats,656029757985965,PAPI_L3_TCM,11,195.38916016, 12.13389587,end
timer_stats,656029759060234,PAPI_L3_TCM,4,195.64715576, 12.14904785,end
timer_stats,656029760134191,PAPI_L3_TCM,4,196.01654053, 12.17207336,end
timer_stats,656029761207512,PAPI_L3_TCM,3,196.39862060, 12.19561767,end
timer_stats,656029762282068,PAPI_L3_TCM,8,196.65301514, 12.21093750,end
timer_stats,656029763356337,PAPI_L3_TCM,2,196.90954590, 12.22627258,end
timer_stats,656029764431202,PAPI_L3_TCM,5,197.17932129, 12.24131775,end
timer_stats,656029765506619,PAPI_L3_TCM,2,197.43640137, 12.25663757,end
timer_stats,656029766581606,PAPI_L3_TCM,13,197.68713379, 12.27174377,end
timer_stats,656029767656723,PAPI_L3_TCM,9,197.93316650, 12.28713989,end
timer_stats,656029768731788,PAPI_L3_TCM,7,198.19854736, 12.30218506,end
timer_stats,656029769806012,PAPI_L3_TCM,7,198.45294189, 12.31748962,end
timer_stats,656029770881247,PAPI_L3_TCM,5,198.70349121, 12.33407593,end
timer_stats,656029771955267,PAPI_L3_TCM,6,198.95446777, 12.34938049,end
timer_stats,656029773030202,PAPI_L3_TCM,5,199.21881103, 12.36421203,end
timer_stats,656029774104442,PAPI_L3_TCM,2,199.47497559, 12.37957764,end
timer_stats,656029775178514,PAPI_L3_TCM,4,199.97796631, 12.40275574,end
timer_stats,656029776252331,PAPI_L3_TCM,5,200.24157715, 12.42556763,end
timer_stats,656029777327097,PAPI_L3_TCM,6,200.49072266, 12.44096374,end
timer_stats,656029778401649,PAPI_L3_TCM,2,200.74865722, 12.45706177,end
timer_stats,656029779476078,PAPI_L3_TCM,5,201.00903320, 12.47239685,end
timer_stats,656029780551304,PAPI_L3_TCM,6,201.26159668, 12.48725891,end
timer_stats,656029781626551,PAPI_L3_TCM,11,201.51135254, 12.50260925,end
timer_stats,656029782701510,PAPI_L3_TCM,2,201.77136230, 12.51893616,end
timer_stats,656029783777363,PAPI_L3_TCM,5,202.02880859, 12.53440857,end
timer_stats,656029784852054,PAPI_L3_TCM,5,202.28411865, 12.54945373,end
timer_stats,656029785926458,PAPI_L3_TCM,7,202.53613281, 12.56504822,end
timer_stats,656029787000638,PAPI_L3_TCM,6,202.79351807, 12.58035278,end
timer_stats,656029788074266,PAPI_L3_TCM,7,203.05731201, 12.59663391,end
timer_stats,656029789149350,PAPI_L3_TCM,6,203.43823242, 12.61929321,end
timer_stats,656029790224135,PAPI_L3_TCM,5,203.69335937, 12.63436890,end
timer_stats,656029791298783,PAPI_L3_TCM,3,204.09289551, 12.65769958,end
timer_stats,656029792373405,PAPI_L3_TCM,6,204.33593750, 12.67303467,end
timer_stats,656029793447744,PAPI_L3_TCM,5,204.59448242, 12.68812561,end
timer_stats,656029794521737,PAPI_L3_TCM,3,204.85052490, 12.70344543,end
timer_stats,656029795595804,PAPI_L3_TCM,3,205.11529541, 12.71868896,end
timer_stats,656029796671093,PAPI_L3_TCM,13,205.37109375, 12.73451233,end
timer_stats,656029797746200,PAPI_L3_TCM,4,205.62054443, 12.74980164,end
timer_stats,656029798821277,PAPI_L3_TCM,12,205.88037109, 12.76486206,end
timer_stats,656029799896212,PAPI_L3_TCM,5,206.13409424, 12.78024292,end
timer_stats,656029800971363,PAPI_L3_TCM,5,206.38946533, 12.79537964,end
timer_stats,656029802046995,PAPI_L3_TCM,4,206.64746094, 12.81071472,end
timer_stats,656029803121536,PAPI_L3_TCM,2,206.90490722, 12.82585144,end
timer_stats,656029804196434,PAPI_L3_TCM,7,207.28240967, 12.84858703,end
timer_stats,656029805271330,PAPI_L3_TCM,10,207.67193603, 12.87170410,end
timer_stats,656029806345549,PAPI_L3_TCM,3,207.92529297, 12.88684082,end
timer_stats,656029811467125,PAPI_L3_TCM,137,209.04003906, 12.99087524,end
timer_stats,656029812558610,PAPI_L3_TCM,71,209.25842285, 13.00640869,end
timer_stats,656029813635873,PAPI_L3_TCM,7,209.52258301, 13.02223205,end
timer_stats,656029814711825,PAPI_L3_TCM,2,209.77429199, 13.03736877,end
timer_stats,656029815787885,PAPI_L3_TCM,11,210.02618408, 13.05274963,end
timer_stats,656029816864484,PAPI_L3_TCM,10,210.27587891, 13.06744385,end
timer_stats,656029817940642,PAPI_L3_TCM,4,210.52972412, 13.08238220,end
timer_stats,656029819016469,PAPI_L3_TCM,1,210.78021240, 13.09736633,end
timer_stats,656029820092274,PAPI_L3_TCM,5,211.03564453, 13.11228943,end
timer_stats,656029821168113,PAPI_L3_TCM,1,211.28833008, 13.12698364,end
timer_stats,656029822243786,PAPI_L3_TCM,4,211.68078613, 13.14950561,end
timer_stats,656029823319551,PAPI_L3_TCM,3,212.06018066, 13.17268371,end
timer_stats,656029824395740,PAPI_L3_TCM,4,212.31597900, 13.18829346,end
timer_stats,656029825471409,PAPI_L3_TCM,4,212.55285644, 13.20347595,end
timer_stats,656029826548718,PAPI_L3_TCM,12,212.82928467, 13.21875000,end
timer_stats,656029827624667,PAPI_L3_TCM,8,213.08203125, 13.23483276,end
timer_stats,656029828700873,PAPI_L3_TCM,6,213.33117676, 13.25059509,end
timer_stats,656029829775417,PAPI_L3_TCM,3,213.59240723, 13.26565552,end
timer_stats,656029830849749,PAPI_L3_TCM,4,213.84802246, 13.28106689,end
timer_stats,656029831924685,PAPI_L3_TCM,4,214.10150146, 13.29620361,end
timer_stats,656029833000150,PAPI_L3_TCM,5,214.35864258, 13.31101990,end
timer_stats,656029834075225,PAPI_L3_TCM,2,214.60766601, 13.32637024,end
timer_stats,656029835150017,PAPI_L3_TCM,6,214.86376953, 13.34196472,end
timer_stats,656029836225924,PAPI_L3_TCM,4,215.24700928, 13.36466980,end
timer_stats,656029837301000,PAPI_L3_TCM,5,215.51190185, 13.37951660,end
timer_stats,656029838375768,PAPI_L3_TCM,2,215.89825439, 13.40306091,end
timer_stats,656029839450206,PAPI_L3_TCM,3,216.15411377, 13.41839599,end
timer_stats,656029840524974,PAPI_L3_TCM,3,216.41870117, 13.43371582,end
timer_stats,656029841599779,PAPI_L3_TCM,4,216.66900635, 13.44915771,end
timer_stats,656029842674312,PAPI_L3_TCM,7,216.92797851, 13.46447754,end
timer_stats,656029843749209,PAPI_L3_TCM,4,217.17791748, 13.47988892,end
timer_stats,656029844826041,PAPI_L3_TCM,13,217.44592285, 13.49536133,end
timer_stats,656029845902073,PAPI_L3_TCM,16,217.69226074, 13.51036072,end
timer_stats,656029846976445,PAPI_L3_TCM,3,217.94598389, 13.52493286,end
timer_stats,656029848014041,PAPI_L3_TCM,3,218.20770264, 13.54122925,end
timer_stats,656029849087939,PAPI_L3_TCM,2,218.46221924, 13.55630493,end
timer_stats,656029850162059,PAPI_L3_TCM,8,218.84155273, 13.57240295,end
timer_stats,656029851236244,PAPI_L3_TCM,3,218.96838379, 13.58825683,end
timer_stats,656029852331984,PAPI_L3_TCM,9,219.47979736, 13.61802673,end
timer_stats,656029853408015,PAPI_L3_TCM,3,219.73974609, 13.63449096,end
timer_stats,656029854482488,PAPI_L3_TCM,5,219.99768066, 13.64979553,end
timer_stats,656029855557657,PAPI_L3_TCM,2,220.25933838, 13.66467285,end
timer_stats,656029856634064,PAPI_L3_TCM,7,220.51397705, 13.67932129,end
timer_stats,656029857708483,PAPI_L3_TCM,5,220.75976562, 13.69471741,end
timer_stats,656029858782945,PAPI_L3_TCM,3,221.01611328, 13.71031189,end
timer_stats,656029859857005,PAPI_L3_TCM,4,221.30926514, 13.72552490,end
timer_stats,656029860931956,PAPI_L3_TCM,7,221.53033447, 13.74052429,end
timer_stats,656029862006313,PAPI_L3_TCM,3,221.78222656, 13.75567627,end
timer_stats,656029863080989,PAPI_L3_TCM,7,222.03845215, 13.77035522,end
timer_stats,656029864154753,PAPI_L3_TCM,3,222.29431152, 13.78549194,end
timer_stats,656029865229609,PAPI_L3_TCM,4,222.67785644, 13.80895996,end
timer_stats,656029866304235,PAPI_L3_TCM,3,222.92315674, 13.82406616,end
timer_stats,656029867377964,PAPI_L3_TCM,7,223.29510498, 13.84651184,end
timer_stats,656029868452294,PAPI_L3_TCM,3,223.56628418, 13.86138916,end
timer_stats,656029869528082,PAPI_L3_TCM,11,223.80523682, 13.87657165,end
timer_stats,656029870602698,PAPI_L3_TCM,2,224.06335449, 13.89166260,end
timer_stats,656029871677944,PAPI_L3_TCM,5,224.31695557, 13.90684509,end
timer_stats,656029872753325,PAPI_L3_TCM,3,224.58294678, 13.92150879,end
timer_stats,656029873827782,PAPI_L3_TCM,4,224.82910156, 13.93673706,end
timer_stats,656029874902378,PAPI_L3_TCM,3,225.07971191, 13.95217895,end
timer_stats,656029875976030,PAPI_L3_TCM,3,225.32946777, 13.96691894,end
timer_stats,656029877051104,PAPI_L3_TCM,6,225.59069824, 13.98187256,end
timer_stats,656029878125481,PAPI_L3_TCM,5,225.84259033, 13.99748230,end
timer_stats,656029879199372,PAPI_L3_TCM,4,226.09356689, 14.01257324,end
timer_stats,656029880273791,PAPI_L3_TCM,9,226.35852051, 14.02716064,end
timer_stats,656029881348265,PAPI_L3_TCM,3,226.85540771, 14.05728149,end
timer_stats,656029882422510,PAPI_L3_TCM,5,227.11462402, 14.07368469,end
timer_stats,656029883496651,PAPI_L3_TCM,1,227.37701416, 14.08894348,end
timer_stats,656029884571185,PAPI_L3_TCM,6,227.65557861, 14.10377502,end
timer_stats,656029885646701,PAPI_L3_TCM,4,227.88000488, 14.11903381,end
timer_stats,656029886720820,PAPI_L3_TCM,5,228.13885498, 14.13395691,end
timer_stats,656029887794894,PAPI_L3_TCM,1,228.39630127, 14.14912415,end
timer_stats,656029888881750,PAPI_L3_TCM,6,228.64880371, 14.16381836,end
timer_stats,656029889956876,PAPI_L3_TCM,11,228.89831543, 14.17901611,end
timer_stats,656029891030295,PAPI_L3_TCM,4,229.17694092, 14.19384766,end
timer_stats,656029892105047,PAPI_L3_TCM,2,229.41748047, 14.20904541,end
timer_stats,656029893179698,PAPI_L3_TCM,2,229.66040039, 14.22416687,end
timer_stats,656029899049408,PAPI_L3_TCM,129,230.92248535, 14.34120178,end
timer_stats,656029900133676,PAPI_L3_TCM,73,231.04705810, 14.35820007,end
timer_stats,656029901209041,PAPI_L3_TCM,10,231.29840088, 14.37145996,end
timer_stats,656029902282201,PAPI_L3_TCM,3,231.54669189, 14.38597107,end
timer_stats,656029903358081,PAPI_L3_TCM,5,231.95410156, 14.40603638,end
timer_stats,656029904434766,PAPI_L3_TCM,9,232.19787597, 14.41911316,end
timer_stats,656029905510508,PAPI_L3_TCM,3,232.44311523, 14.43238830,end
timer_stats,656029906587365,PAPI_L3_TCM,2,232.80529785, 14.45272827,end
timer_stats,656029907663041,PAPI_L3_TCM,0,233.07415771, 14.46569824,end
timer_stats,656029908738338,PAPI_L3_TCM,7,233.30505371, 14.47924805,end
timer_stats,656029909814200,PAPI_L3_TCM,3,233.55529785, 14.49278259,end
timer_stats,656029910889382,PAPI_L3_TCM,6,233.79913330, 14.50564575,end
timer_stats,656029911964065,PAPI_L3_TCM,5,234.07611084, 14.51861572,end
timer_stats,656029913041082,PAPI_L3_TCM,8,234.32086182, 14.53216553,end
timer_stats,656029914116427,PAPI_L3_TCM,5,234.58093262, 14.54539490,end
timer_stats,656029915191536,PAPI_L3_TCM,4,234.82879639, 14.55868530,end
timer_stats,656029916267311,PAPI_L3_TCM,7,235.07574463, 14.57197571,end
timer_stats,656029917342485,PAPI_L3_TCM,3,235.43298340, 14.59129333,end
timer_stats,656029918417149,PAPI_L3_TCM,4,235.71508789, 14.60397339,end
timer_stats,656029919491547,PAPI_L3_TCM,5,235.96929932, 14.61746216,end
timer_stats,656029920566223,PAPI_L3_TCM,5,236.34405517, 14.63073730,end
timer_stats,656029921641270,PAPI_L3_TCM,4,236.59271240, 14.64396667,end
timer_stats,656029922716678,PAPI_L3_TCM,3,236.83868408, 14.65724182,end
timer_stats,656029923792816,PAPI_L3_TCM,9,237.07061767, 14.67103576,end
timer_stats,656029924868463,PAPI_L3_TCM,4,237.34063721, 14.68487549,end
timer_stats,656029925943369,PAPI_L3_TCM,6,237.60925293, 14.69941711,end
timer_stats,656029927019735,PAPI_L3_TCM,4,237.86169434, 14.71215820,end
timer_stats,656029928094894,PAPI_L3_TCM,5,238.07818603, 14.72555542,end
timer_stats,656029929170035,PAPI_L3_TCM,4,238.35632324, 14.73826599,end
timer_stats,656029930250410,PAPI_L3_TCM,2,238.60650635, 14.75291443,end
timer_stats,656029931325289,PAPI_L3_TCM,3,239.09167480, 14.77346802,end
timer_stats,656029932400199,PAPI_L3_TCM,6,239.33807373, 14.79344177,end
timer_stats,656029933475169,PAPI_L3_TCM,4,239.61090088, 14.80012512,end
timer_stats,656029934550971,PAPI_L3_TCM,6,239.84912109, 14.82083130,end
timer_stats,656029935625098,PAPI_L3_TCM,1,240.11505127, 14.83425903,end
timer_stats,656029936701648,PAPI_L3_TCM,10,240.36962891, 14.84703064,end
timer_stats,656029937776518,PAPI_L3_TCM,5,240.62756348, 14.86048889,end
timer_stats,656029938851107,PAPI_L3_TCM,5,240.87628174, 14.87446594,end
timer_stats,656029939925655,PAPI_L3_TCM,3,241.10717773, 14.88778686,end
timer_stats,656029941001557,PAPI_L3_TCM,8,241.38885498, 14.90086365,end
timer_stats,656029942076109,PAPI_L3_TCM,3,241.61761474, 14.91461182,end
timer_stats,656029943151215,PAPI_L3_TCM,3,241.88598633, 14.92803955,end
timer_stats,656029944225479,PAPI_L3_TCM,5,242.14520264, 14.94129944,end
timer_stats,656029945299880,PAPI_L3_TCM,5,242.51171875, 14.96058655,end
timer_stats,656029946374363,PAPI_L3_TCM,1,242.76953125, 14.97381592,end
timer_stats,656029947448795,PAPI_L3_TCM,4,243.01367187, 14.98736572,end
timer_stats,656029948522470,PAPI_L3_TCM,4,243.26989746, 15.00056457,end
timer_stats,656029949597019,PAPI_L3_TCM,7,243.65515137, 15.02052307,end
timer_stats,656029950670830,PAPI_L3_TCM,2,243.89837646, 15.03402710,end
timer_stats,656029951745136,PAPI_L3_TCM,7,244.14685059, 15.04730224,end
timer_stats,656029952818965,PAPI_L3_TCM,3,244.38903809, 15.06036377,end
timer_stats,656029953892826,PAPI_L3_TCM,4,244.62896728, 15.07342529,end
timer_stats,656029954966874,PAPI_L3_TCM,2,244.91033935, 15.08706665,end
timer_stats,656029956016315,PAPI_L3_TCM,6,245.16625977, 15.10055542,end
timer_stats,656029957091155,PAPI_L3_TCM,2,245.40441894, 15.11387634,end
timer_stats,656029958165778,PAPI_L3_TCM,5,245.66125488, 15.12895203,end
timer_stats,656029959239448,PAPI_L3_TCM,5,245.91180420, 15.14263916,end
timer_stats,656029960314052,PAPI_L3_TCM,4,246.30310059, 15.15606689,end
timer_stats,656029961388418,PAPI_L3_TCM,1,246.55749512, 15.17530823,end
timer_stats,656029962463194,PAPI_L3_TCM,3,246.79852295, 15.18881226,end
timer_stats,656029963537404,PAPI_L3_TCM,1,247.06103516, 15.20223999,end
timer_stats,656029964612461,PAPI_L3_TCM,11,247.43652344, 15.22209167,end
timer_stats,656029965687536,PAPI_L3_TCM,2,247.67718506, 15.23559570,end
timer_stats,656029966765191,PAPI_L3_TCM,5,247.92492676, 15.24862671,end
timer_stats,656029967839307,PAPI_L3_TCM,3,248.18701172, 15.26231384,end
timer_stats,656029968914926,PAPI_L3_TCM,8,248.44677734, 15.27578735,end
timer_stats,656029969989993,PAPI_L3_TCM,6,248.69104004, 15.28906250,end
timer_stats,656029971064465,PAPI_L3_TCM,5,248.93695068, 15.30278015,end
timer_stats,656029972139245,PAPI_L3_TCM,4,249.18792724, 15.31594848,end
timer_stats,656029973213997,PAPI_L3_TCM,2,249.44525146, 15.32916260,end
timer_stats,656029974288676,PAPI_L3_TCM,3,249.68414307, 15.34262085,end
timer_stats,656029975364392,PAPI_L3_TCM,2,250.07116699, 15.36332703,end
timer_stats,656029976438962,PAPI_L3_TCM,7,250.32342529, 15.37750244,end
timer_stats,656029977514224,PAPI_L3_TCM,4,250.57812500, 15.39050293,end
timer_stats,656029978588819,PAPI_L3_TCM,5,250.83410645, 15.40373230,end
timer_stats,656029979662793,PAPI_L3_TCM,4,251.22662353, 15.42375183,end
timer_stats,656029980737170,PAPI_L3_TCM,6,251.45861816, 15.43754578,end
timer_stats,656029981811795,PAPI_L3_TCM,4,251.72314453, 15.45167541,end
timer_stats,656029982886183,PAPI_L3_TCM,3,251.97161865, 15.46467590,end
timer_stats,656029983964243,PAPI_L3_TCM,5,252.22576904, 15.47817993,end
timer_stats,656029985040242,PAPI_L3_TCM,4,252.47161865, 15.49099731,end
timer_stats,656029986114473,PAPI_L3_TCM,6,252.73602295, 15.50422668,end
timer_stats,656029987189032,PAPI_L3_TCM,9,252.99890137, 15.51770019,end
timer_stats,656029988264492,PAPI_L3_TCM,11,253.24108887, 15.53073120,end
timer_stats,656029989340834,PAPI_L3_TCM,7,253.50482178, 15.54525757,end
timer_stats,656029990416209,PAPI_L3_TCM,8,253.87982178, 15.56445312,end
timer_stats,656029991490649,PAPI_L3_TCM,2,254.12066650, 15.57771301,end
timer_stats,656029992565154,PAPI_L3_TCM,5,254.49169922, 15.59774780,end
timer_stats,656029993639593,PAPI_L3_TCM,2,254.74554443, 15.61158752,end
timer_stats,656029994714438,PAPI_L3_TCM,3,254.99609375, 15.62484741,end
timer_stats,656029995789071,PAPI_L3_TCM,3,255.25262451, 15.63851929,end
timer_stats,656029996864075,PAPI_L3_TCM,7,255.50122070, 15.65179443,end
timer_stats,656029997938261,PAPI_L3_TCM,4,255.76385498, 15.66569519,end
timer_stats,656029999014078,PAPI_L3_TCM,7,256.01562500, 15.68038940,end
timer_stats,656030000088627,PAPI_L3_TCM,11,256.26300049, 15.69567871,end
timer_stats,656030001162586,PAPI_L3_TCM,3,256.53649902, 15.71179199,end
timer_stats,656030002236502,PAPI_L3_TCM,5,256.79602051, 15.72744751,end
timer_stats,656030003314097,PAPI_L3_TCM,3,257.03210449, 15.74235535,end
timer_stats,656030004388484,PAPI_L3_TCM,6,257.42584228, 15.76423645,end
timer_stats,656030005466969,PAPI_L3_TCM,35,257.65783691, 15.77943420,end
timer_stats,656030006544587,PAPI_L3_TCM,8,257.89434814, 15.79115295,end
timer_stats,656030007846309,PAPI_L3_TCM,205,258.25866699, 15.81414795,end
timer_stats,656030008934481,PAPI_L3_TCM,121,258.48370361, 15.82916260,end
timer_stats,656030010010832,PAPI_L3_TCM,16,258.72711182, 15.83894348,end
timer_stats,656030011087528,PAPI_L3_TCM,6,258.94873047, 15.85401916,end
timer_stats,656030012163215,PAPI_L3_TCM,12,259.18261719, 15.86924744,end
timer_stats,656030013235352,PAPI_L3_TCM,2,259.43176269, 15.88403320,end
timer_stats,656030014309974,PAPI_L3_TCM,9,259.67327881, 15.89950562,end
timer_stats,656030015385296,PAPI_L3_TCM,4,260.04461670, 15.92208862,end
timer_stats,656030016459218,PAPI_L3_TCM,5,260.28179932, 15.93666077,end
timer_stats,656030017535323,PAPI_L3_TCM,1,260.53063965, 15.95198059,end
timer_stats,656030018627416,PAPI_L3_TCM,40,260.90576172, 15.97682190,end
timer_stats,656030019715707,PAPI_L3_TCM,20,261.17150879, 15.99238586,end
timer_stats,656030020819167,PAPI_L3_TCM,30,261.41296387, 16.00825500,end
timer_stats,656030021909685,PAPI_L3_TCM,30,261.68957519, 16.02403259,end
timer_stats,656030023005480,PAPI_L3_TCM,25,261.94689941, 16.03953552,end
timer_stats,656030024037379,PAPI_L3_TCM,10,262.20922852, 16.05531311,end
timer_stats,656030025137170,PAPI_L3_TCM,6,262.47845459, 16.07112122,end
timer_stats,656030026236165,PAPI_L3_TCM,3,262.72692871, 16.08674622,end
timer_stats,656030027325289,PAPI_L3_TCM,8,262.99707031, 16.10253906,end
timer_stats,656030028719129,PAPI_L3_TCM,15,263.47613525, 16.13055420,end
timer_stats,656030029796075,PAPI_L3_TCM,5,263.72644043, 16.14677429,end
timer_stats,656030030871217,PAPI_L3_TCM,3,264.00457764, 16.16329956,end
timer_stats,656030032083468,PAPI_L3_TCM,7,264.24731445, 16.18023682,end
timer_stats,656030033162103,PAPI_L3_TCM,5,264.46325683, 16.19628906,end
timer_stats,656030034239264,PAPI_L3_TCM,5,264.71588135, 16.21231079,end
timer_stats,656030035317126,PAPI_L3_TCM,4,264.93707275, 16.22792053,end
timer_stats,656030036635638,PAPI_L3_TCM,7,265.44195557, 16.25122070,end
timer_stats,656030037714500,PAPI_L3_TCM,4,265.66815186, 16.27491760,end
timer_stats,656030038790753,PAPI_L3_TCM,5,265.92755127, 16.29026794,end
timer_stats,656030039865940,PAPI_L3_TCM,3,266.15917969, 16.30572510,end
timer_stats,656030040949086,PAPI_L3_TCM,7,266.41186523, 16.32113647,end
timer_stats,656030042026250,PAPI_L3_TCM,3,266.65734863, 16.33631897,end
timer_stats,656030043350080,PAPI_L3_TCM,7,266.90649414, 16.35174560,end
timer_stats,656030044978348,PAPI_L3_TCM,1,267.29827881, 16.37313843,end
timer_stats,656030046060155,PAPI_L3_TCM,8,267.45306396, 16.39035034,end
timer_stats,656030051510237,PAPI_L3_TCM,252,268.50640869, 16.49021911,end
timer_stats,656030052610472,PAPI_L3_TCM,108,268.77886963, 16.51013183,end
timer_stats,656030053690668,PAPI_L3_TCM,8,268.99963379, 16.52508545,end
timer_stats,656030054769673,PAPI_L3_TCM,7,269.22473144, 16.54057312,end
timer_stats,656030055846463,PAPI_L3_TCM,5,269.43981933, 16.55517578,end
timer_stats,656030056924270,PAPI_L3_TCM,5,269.66009521, 16.56999206,end
timer_stats,656030058040337,PAPI_L3_TCM,3,269.87683105, 16.58457947,end
timer_stats,656030059155971,PAPI_L3_TCM,4,270.09399414, 16.59915161,end
timer_stats,656030060265627,PAPI_L3_TCM,2,270.28887939, 16.61401367,end
timer_stats,656030061835880,PAPI_L3_TCM,76,270.67651367, 16.63990784,end
timer_stats,656030063110025,PAPI_L3_TCM,29,270.88305664, 16.65460205,end
timer_stats,656030064207391,PAPI_L3_TCM,25,271.10571289, 16.66915893,end
timer_stats,656030065285907,PAPI_L3_TCM,13,271.33319092, 16.68272400,end
timer_stats,656030066388474,PAPI_L3_TCM,3,271.64135742, 16.70503235,end
timer_stats,656030067490013,PAPI_L3_TCM,5,271.87335205, 16.71957397,end
timer_stats,656030068586705,PAPI_L3_TCM,3,272.20416260, 16.74185181,end
timer_stats,656030069688522,PAPI_L3_TCM,8,272.42437744, 16.75573730,end
timer_stats,656030070789443,PAPI_L3_TCM,8,272.65313721, 16.77032471,end
timer_stats,656030071894517,PAPI_L3_TCM,6,272.86376953, 16.78469848,end
timer_stats,656030072989512,PAPI_L3_TCM,7,273.08319092, 16.79930115,end
timer_stats,656030074092358,PAPI_L3_TCM,2,273.29553222, 16.81369018,end
timer_stats,656030075194416,PAPI_L3_TCM,3,273.49707031, 16.82791138,end
timer_stats,656030076286761,PAPI_L3_TCM,8,273.70257568, 16.84214783,end
timer_stats,656030077372536,PAPI_L3_TCM,3,273.99945068, 16.86343384,end
timer_stats,656030078475769,PAPI_L3_TCM,2,274.21441650, 16.87762451,end
timer_stats,656030079583388,PAPI_L3_TCM,7,274.51580811, 16.89868164,end
timer_stats,656030080675581,PAPI_L3_TCM,7,274.73602295, 16.91307068,end
timer_stats,656030081779266,PAPI_L3_TCM,4,274.92742920, 16.92709350,end
timer_stats,656030082882288,PAPI_L3_TCM,8,275.12457275, 16.94088745,end
timer_stats,656030083984630,PAPI_L3_TCM,5,275.32489014, 16.95465088,end
timer_stats,656030085081852,PAPI_L3_TCM,8,275.51611328, 16.96899414,end
timer_stats,656030086185822,PAPI_L3_TCM,6,275.70843506, 16.98306274,end
timer_stats,656030087288280,PAPI_L3_TCM,7,275.89556885, 16.99690247,end
timer_stats,656030088391255,PAPI_L3_TCM,12,276.17736816, 17.01782226,end
timer_stats,656030089495486,PAPI_L3_TCM,2,276.37609863, 17.03211975,end
timer_stats,656030090599906,PAPI_L3_TCM,4,276.65899658, 17.05305481,end
timer_stats,656030091703398,PAPI_L3_TCM,2,276.84973144, 17.06709289,end
timer_stats,656030092797014,PAPI_L3_TCM,9,277.04553223, 17.08071899,end
timer_stats,656030093901342,PAPI_L3_TCM,3,277.22607422, 17.09478760,end
timer_stats,656030095004313,PAPI_L3_TCM,5,277.42303467, 17.10903931,end
timer_stats,656030096109594,PAPI_L3_TCM,4,277.59088135, 17.12268066,end
timer_stats,656030097188359,PAPI_L3_TCM,7,277.78173828, 17.13652039,end
timer_stats,656030098387264,PAPI_L3_TCM,346,277.95611572, 17.15065002,end
timer_stats,656030099481936,PAPI_L3_TCM,18,278.22515869, 17.17108154,end
timer_stats,656030100591680,PAPI_L3_TCM,8,278.39984131, 17.18447876,end
timer_stats,656030101700498,PAPI_L3_TCM,3,278.67761230, 17.20477295,end
timer_stats,656030102791666,PAPI_L3_TCM,5,278.85101318, 17.21910095,end
timer_stats,656030103895945,PAPI_L3_TCM,5,279.02673340, 17.23229980,end
timer_stats,656030105018987,PAPI_L3_TCM,6,279.20288086, 17.24552917,end
timer_stats,656030106120323,PAPI_L3_TCM,4,279.37292480, 17.25970459,end
timer_stats,656030107245894,PAPI_L3_TCM,3,279.53741455, 17.27410889,end
timer_stats,656030108366061,PAPI_L3_TCM,7,279.70697021, 17.28689575,end
timer_stats,656030109474475,PAPI_L3_TCM,2,279.94970703, 17.30725098,end
timer_stats,656030110587337,PAPI_L3_TCM,5,280.17919922, 17.32702637,end
timer_stats,656030111702873,PAPI_L3_TCM,2,280.34393310, 17.34010315,end
timer_stats,656030112838367,PAPI_L3_TCM,5,280.49725342, 17.35275268,end
timer_stats,656030113958430,PAPI_L3_TCM,3,280.66088867, 17.36558533,end
timer_stats,656030115078757,PAPI_L3_TCM,62,280.81341553, 17.37960815,end
timer_stats,656030116198371,PAPI_L3_TCM,22,280.96832275, 17.39221191,end
timer_stats,656030117298542,PAPI_L3_TCM,38,281.11279297, 17.40466308,end
timer_stats,656030118442489,PAPI_L3_TCM,36,281.35119629, 17.42411804,end
timer_stats,656030119597304,PAPI_L3_TCM,5,281.50982666, 17.43983459,end
timer_stats,656030120747745,PAPI_L3_TCM,6,281.74298096, 17.45578003,end
timer_stats,656030121892909,PAPI_L3_TCM,6,281.88604736, 17.46868896,end
timer_stats,656030123038221,PAPI_L3_TCM,6,282.04388428, 17.48155212,end
timer_stats,656030124177018,PAPI_L3_TCM,17,282.19293213, 17.49418640,end
timer_stats,656030125285332,PAPI_L3_TCM,5,282.35803222, 17.50741577,end
timer_stats,656030126435371,PAPI_L3_TCM,4,282.51275635, 17.51982117,end
timer_stats,656030127587736,PAPI_L3_TCM,2,282.80291748, 17.54499817,end
timer_stats,656030128742664,PAPI_L3_TCM,4,282.95489502, 17.55746460,end
timer_stats,656030129913854,PAPI_L3_TCM,4,283.10131836, 17.57015991,end
timer_stats,656030131061328,PAPI_L3_TCM,4,283.25024414, 17.58287048,end
timer_stats,656030132203301,PAPI_L3_TCM,5,283.40435791, 17.59527588,end
timer_stats,656030133325902,PAPI_L3_TCM,5,283.55255127, 17.60743713,end
timer_stats,656030134484471,PAPI_L3_TCM,2,283.77154541, 17.62591553,end
timer_stats,656030135654284,PAPI_L3_TCM,5,283.97937012, 17.64436340,end
timer_stats,656030136827394,PAPI_L3_TCM,3,284.13061523, 17.65625000,end
timer_stats,656030138003328,PAPI_L3_TCM,3,284.26593017, 17.66822815,end
timer_stats,656030139178488,PAPI_L3_TCM,2,284.40765381, 17.68069458,end
timer_stats,656030140328980,PAPI_L3_TCM,6,284.54693603, 17.69294739,end
timer_stats,656030141474612,PAPI_L3_TCM,2,284.76025391, 17.71160889,end
timer_stats,656030142638192,PAPI_L3_TCM,4,284.96618652, 17.73005676,end
timer_stats,656030143812340,PAPI_L3_TCM,2,285.10284424, 17.74275207,end
timer_stats,656030144987164,PAPI_L3_TCM,6,285.24298096, 17.75494385,end
timer_stats,656030146161070,PAPI_L3_TCM,2,285.37896728, 17.76716614,end
timer_stats,656030147333565,PAPI_L3_TCM,3,285.52117920, 17.77935791,end
timer_stats,656030148500749,PAPI_L3_TCM,3,285.73382568, 17.79830933,end
timer_stats,656030149670134,PAPI_L3_TCM,4,285.93206787, 17.81704712,end
timer_stats,656030150845342,PAPI_L3_TCM,3,286.07147217, 17.83158874,end
timer_stats,656030152028868,PAPI_L3_TCM,4,286.20605469, 17.84332275,end
timer_stats,656030153183646,PAPI_L3_TCM,3,286.33868408, 17.85485840,end
timer_stats,656030154364342,PAPI_L3_TCM,5,286.46435547, 17.86642456,end
timer_stats,656030155547419,PAPI_L3_TCM,2,286.64868164, 17.88424683,end
timer_stats,656030156730979,PAPI_L3_TCM,4,286.84301758, 17.90208435,end
timer_stats,656030157913082,PAPI_L3_TCM,2,286.97027588, 17.91455078,end
timer_stats,656030159091351,PAPI_L3_TCM,4,287.09600830, 17.92636108,end
timer_stats,656030160272334,PAPI_L3_TCM,3,287.21795654, 17.93771362,end
timer_stats,656030161426292,PAPI_L3_TCM,4,287.38769531, 17.94932556,end
timer_stats,656030162601091,PAPI_L3_TCM,3,287.50488281, 17.96644592,end
timer_stats,656030163786801,PAPI_L3_TCM,4,287.68530273, 17.98339844,end
timer_stats,656030164967071,PAPI_L3_TCM,4,287.79864502, 17.99453735,end
timer_stats,656030166145333,PAPI_L3_TCM,4,287.92395019, 18.00582886,end
timer_stats,656030167319101,PAPI_L3_TCM,2,288.04479980, 18.01745605,end
timer_stats,656030168489848,PAPI_L3_TCM,5,288.21893311, 18.03395080,end
timer_stats,656030169660454,PAPI_L3_TCM,4,288.34533691, 18.05152893,end
timer_stats,656030170826876,PAPI_L3_TCM,5,288.52532959, 18.06295776,end
timer_stats,656030171996662,PAPI_L3_TCM,3,288.64282227, 18.07406616,end
timer_stats,656030173183166,PAPI_L3_TCM,6,288.77014160, 18.08489990,end
timer_stats,656030174362615,PAPI_L3_TCM,3,288.89117432, 18.09622192,end
timer_stats,656030175546603,PAPI_L3_TCM,4,289.06958008, 18.11410522,end
timer_stats,656030176729096,PAPI_L3_TCM,3,289.24963379, 18.13122558,end
timer_stats,656030177915267,PAPI_L3_TCM,4,289.37518310, 18.14280701,end
timer_stats,656030179084748,PAPI_L3_TCM,3,289.49157715, 18.15419006,end
timer_stats,656030180256068,PAPI_L3_TCM,5,289.61169433, 18.16554260,end
timer_stats,656030181408088,PAPI_L3_TCM,2,289.73083496, 18.17689514,end
timer_stats,656030182578181,PAPI_L3_TCM,4,289.91204834, 18.19451904,end
timer_stats,656030183764272,PAPI_L3_TCM,2,290.09375000, 18.21173096,end
timer_stats,656030184947079,PAPI_L3_TCM,3,290.21594238, 18.22283935,end
timer_stats,656030186118368,PAPI_L3_TCM,3,290.33251953, 18.23471069,end
timer_stats,656030187287556,PAPI_L3_TCM,3,290.45385742, 18.24607849,end
timer_stats,656030188472031,PAPI_L3_TCM,2,290.63452148, 18.25793457,end
timer_stats,656030189652628,PAPI_L3_TCM,5,290.75390625, 18.26925659,end
timer_stats,656030190823836,PAPI_L3_TCM,3,290.93304443, 18.28697204,end
timer_stats,656030191991443,PAPI_L3_TCM,5,291.05639648, 18.29881286,end
timer_stats,656030193175838,PAPI_L3_TCM,2,291.17388916, 18.31016540,end
timer_stats,656030194359365,PAPI_L3_TCM,2,291.29681396, 18.32223511,end
timer_stats,656030195540852,PAPI_L3_TCM,0,291.46905517, 18.33918762,end
timer_stats,656030196727967,PAPI_L3_TCM,1,291.64422607, 18.35679626,end
timer_stats,656030197906228,PAPI_L3_TCM,0,291.75445557, 18.36772156,end
timer_stats,656030199068958,PAPI_L3_TCM,2,291.86328125, 18.37867737,end
timer_stats,656030200250242,PAPI_L3_TCM,0,291.96893311, 18.38960266,end
timer_stats,656030201441363,PAPI_L3_TCM,2,292.12463379, 18.40077209,end
timer_stats,656030202617688,PAPI_L3_TCM,0,292.23144531, 18.42289734,end
timer_stats,656030203798796,PAPI_L3_TCM,1,292.39672851, 18.43382263,end
timer_stats,656030204974141,PAPI_L3_TCM,1,292.50756836, 18.44471741,end
timer_stats,656030206138821,PAPI_L3_TCM,1,292.60681152, 18.45570373,end
timer_stats,656030207302706,PAPI_L3_TCM,0,292.72058105, 18.46636963,end
timer_stats,656030208477687,PAPI_L3_TCM,2,292.87487793, 18.48269653,end
timer_stats,656030209649819,PAPI_L3_TCM,0,292.98596191, 18.49899292,end
timer_stats,656030210831096,PAPI_L3_TCM,2,293.15130615, 18.50993347,end
timer_stats,656030212017024,PAPI_L3_TCM,0,293.25500488, 18.52088928,end
timer_stats,656030213168714,PAPI_L3_TCM,3,293.36035156, 18.53181457,end
timer_stats,656030214349554,PAPI_L3_TCM,0,293.46313477, 18.54277038,end
timer_stats,656030215530181,PAPI_L3_TCM,1,293.57745361, 18.55413818,end
timer_stats,656030216706281,PAPI_L3_TCM,1,293.78839111, 18.57604980,end
timer_stats,656030217882551,PAPI_L3_TCM,2,293.89404297, 18.58699036,end
timer_stats,656030219056530,PAPI_L3_TCM,0,293.99884033, 18.59819031,end
timer_stats,656030220235784,PAPI_L3_TCM,2,294.10729980, 18.60934448,end
timer_stats,656030221381651,PAPI_L3_TCM,0,294.21630859, 18.62026978,end
timer_stats,656030222549365,PAPI_L3_TCM,1,294.32568359, 18.62582397,end
timer_stats,656030223726173,PAPI_L3_TCM,0,294.53625488, 18.64793396,end
timer_stats,656030224905032,PAPI_L3_TCM,1,294.64270019, 18.65959167,end
timer_stats,656030226077446,PAPI_L3_TCM,1,294.74945068, 18.67021179,end
timer_stats,656030227246063,PAPI_L3_TCM,2,294.84185791, 18.68101501,end
timer_stats,656030228420509,PAPI_L3_TCM,0,294.94342041, 18.69151306,end
timer_stats,656030229591506,PAPI_L3_TCM,2,295.09503174, 18.70762634,end
timer_stats,656030230764280,PAPI_L3_TCM,0,295.24359131, 18.72328186,end
timer_stats,656030231936901,PAPI_L3_TCM,1,295.33862305, 18.73405457,end
timer_stats,656030233114908,PAPI_L3_TCM,0,295.44195557, 18.74455261,end
timer_stats,656030234274503,PAPI_L3_TCM,1,295.54278564, 18.75505066,end
timer_stats,656030235432228,PAPI_L3_TCM,3,295.64300537, 18.76579285,end
timer_stats,656030236596985,PAPI_L3_TCM,2,295.78991699, 18.78190613,end
timer_stats,656030237771086,PAPI_L3_TCM,0,295.94158936, 18.79777527,end
timer_stats,656030238945461,PAPI_L3_TCM,3,296.04162598, 18.80827331,end
timer_stats,656030240117016,PAPI_L3_TCM,0,296.14007568, 18.81922912,end
timer_stats,656030241288813,PAPI_L3_TCM,1,296.23968506, 18.83018494,end
timer_stats,656030242457930,PAPI_L3_TCM,0,296.34210205, 18.84089661,end
timer_stats,656030243621389,PAPI_L3_TCM,1,296.48822021, 18.85700989,end
timer_stats,656030244806751,PAPI_L3_TCM,0,296.63604736, 18.87355041,end
timer_stats,656030245966110,PAPI_L3_TCM,2,296.74121094, 18.88447571,end
timer_stats,656030247131648,PAPI_L3_TCM,0,296.83911133, 18.89546204,end
timer_stats,656030248285125,PAPI_L3_TCM,2,296.93518066, 18.90623474,end
timer_stats,656030249438340,PAPI_L3_TCM,0,297.04095459, 18.91716003,end
timer_stats,656030250598575,PAPI_L3_TCM,1,297.17669678, 18.93302917,end
timer_stats,656030251753817,PAPI_L3_TCM,0,297.32165527, 18.94822693,end
timer_stats,656030252922332,PAPI_L3_TCM,1,297.41699219, 18.95851135,end
timer_stats,656030254078918,PAPI_L3_TCM,0,297.50396728, 18.96731567,end
timer_stats,656030255242748,PAPI_L3_TCM,3,297.59112549, 18.97631836,end
timer_stats,656030256413632,PAPI_L3_TCM,0,297.68487549, 18.98529053,end
timer_stats,656030257584162,PAPI_L3_TCM,2,297.80908203, 18.99946594,end
timer_stats,656030258756123,PAPI_L3_TCM,1,297.95178222, 19.01512146,end
timer_stats,656030259924534,PAPI_L3_TCM,1,298.03875732, 19.02392578,end
timer_stats,656030261098703,PAPI_L3_TCM,0,298.13134766, 19.03265381,end
timer_stats,656030262274778,PAPI_L3_TCM,1,298.22277832, 19.04193115,end
timer_stats,656030263432269,PAPI_L3_TCM,0,298.30718994, 19.05072021,end
timer_stats,656030264594118,PAPI_L3_TCM,3,298.39385986, 19.06506348,end
timer_stats,656030265777942,PAPI_L3_TCM,0,298.57830810, 19.08052063,end
timer_stats,656030266947739,PAPI_L3_TCM,2,298.66729736, 19.08955383,end
timer_stats,656030268122340,PAPI_L3_TCM,1,298.75384521, 19.09889221,end
timer_stats,656030269311005,PAPI_L3_TCM,1,298.84515381, 19.10401916,end
timer_stats,656030270490703,PAPI_L3_TCM,0,298.92669678, 19.11305237,end
timer_stats,656030271661805,PAPI_L3_TCM,1,299.05676269, 19.12916565,end
timer_stats,656030272845610,PAPI_L3_TCM,2,299.19110107, 19.14308166,end
timer_stats,656030274025547,PAPI_L3_TCM,2,299.27777100, 19.15229797,end
timer_stats,656030275195148,PAPI_L3_TCM,0,299.36596680, 19.16157532,end
timer_stats,656030276364269,PAPI_L3_TCM,3,299.45446777, 19.17033386,end
timer_stats,656030277524627,PAPI_L3_TCM,0,299.53680420, 19.18089294,end
timer_stats,656030278713565,PAPI_L3_TCM,1,299.71368408, 19.20191955,end
timer_stats,656030279909820,PAPI_L3_TCM,0,299.80084228, 19.21067810,end
timer_stats,656030281100805,PAPI_L3_TCM,2,299.88330078, 19.21948242,end
timer_stats,656030282282579,PAPI_L3_TCM,0,299.97045898, 19.22848511,end
timer_stats,656030283464168,PAPI_L3_TCM,2,300.05700683, 19.23724365,end
timer_stats,656030284657862,PAPI_L3_TCM,1,300.17877197, 19.25140381,end
timer_stats,656030285835021,PAPI_L3_TCM,2,300.31011963, 19.26557922,end
timer_stats,656030287004228,PAPI_L3_TCM,0,300.39727783, 19.27455139,end
timer_stats,656030288185542,PAPI_L3_TCM,2,300.47943115, 19.28334045,end
timer_stats,656030289368121,PAPI_L3_TCM,0,300.56781006, 19.29258728,end
timer_stats,656030290538625,PAPI_L3_TCM,1,300.65155029, 19.30204773,end
timer_stats,656030291709288,PAPI_L3_TCM,0,300.77203369, 19.31816101,end
timer_stats,656030292883634,PAPI_L3_TCM,3,300.90454102, 19.33232117,end
timer_stats,656030294061933,PAPI_L3_TCM,0,300.98724365, 19.34156799,end
timer_stats,656030295245384,PAPI_L3_TCM,2,301.06896972, 19.35060119,end
timer_stats,656030296418488,PAPI_L3_TCM,1,301.15521240, 19.35957336,end
timer_stats,656030297600038,PAPI_L3_TCM,1,301.26989746, 19.36854553,end
timer_stats,656030298784946,PAPI_L3_TCM,0,301.40112305, 19.38766479,end
timer_stats,656030299964998,PAPI_L3_TCM,1,301.48565674, 19.39639282,end
timer_stats,656030301154273,PAPI_L3_TCM,2,301.56744385, 19.40539551,end
timer_stats,656030302337409,PAPI_L3_TCM,2,301.65380859, 19.41436767,end
timer_stats,656030303529031,PAPI_L3_TCM,0,301.73352051, 19.42340088,end
timer_stats,656030304707196,PAPI_L3_TCM,3,301.85241699, 19.43902588,end
timer_stats,656030305897121,PAPI_L3_TCM,0,301.98211670, 19.45297241,end
timer_stats,656030307079982,PAPI_L3_TCM,1,302.06677246, 19.46197510,end
timer_stats,656030308255405,PAPI_L3_TCM,1,302.14453125, 19.47079468,end
timer_stats,656030309437278,PAPI_L3_TCM,1,302.22509766, 19.47958374,end
timer_stats,656030310630237,PAPI_L3_TCM,0,302.33935547, 19.49392700,end
timer_stats,656030311814313,PAPI_L3_TCM,18,302.47088623, 19.51025390,end
timer_stats,656030313011315,PAPI_L3_TCM,12,302.55200195, 19.52023315,end
timer_stats,656030314204896,PAPI_L3_TCM,2,302.62835693, 19.52975464,end
timer_stats,656030315389947,PAPI_L3_TCM,0,302.70007324, 19.53961182,end
timer_stats,656030316573033,PAPI_L3_TCM,8,302.80517578, 19.55473328,end
timer_stats,656030317736405,PAPI_L3_TCM,12,302.84936523, 19.56010437,end
timer_stats,656030318896794,PAPI_L3_TCM,3,303.00115967, 19.58250427,end
timer_stats,656030320069863,PAPI_L3_TCM,1,303.08514404, 19.59272766,end
timer_stats,656030321227492,PAPI_L3_TCM,2,303.15972900, 19.60331726,end
timer_stats,656030322403230,PAPI_L3_TCM,0,303.22979736, 19.61190796,end
timer_stats,656030323578755,PAPI_L3_TCM,2,303.30120850, 19.62072754,end
