timer_stats,698651015541201,PAPI_L3_TCM,475,  0.07440185,  0.01046753,end
timer_stats,698651016676996,PAPI_L3_TCM,51,  0.14807129,  0.02146912,end
timer_stats,698651017822261,PAPI_L3_TCM,15,  0.29711914,  0.04339599,end
timer_stats,698651018990709,PAPI_L3_TCM,10,  0.37023926,  0.05410766,end
timer_stats,698651020126881,PAPI_L3_TCM,1,  0.44982910,  0.06524658,end
timer_stats,698651021271417,PAPI_L3_TCM,5,  0.52502441,  0.07693481,end
timer_stats,698651022433144,PAPI_L3_TCM,6,  0.59857178,  0.08718872,end
timer_stats,698651023600655,PAPI_L3_TCM,3,  0.67852783,  0.09832763,end
timer_stats,698651024758092,PAPI_L3_TCM,2,  0.79785156,  0.11395264,end
timer_stats,698651025925483,PAPI_L3_TCM,0,  0.89428711,  0.12989807,end
timer_stats,698651027081289,PAPI_L3_TCM,0,  0.97119141,  0.14031982,end
timer_stats,698651028226541,PAPI_L3_TCM,2,  1.05017090,  0.15171814,end
timer_stats,698651029374739,PAPI_L3_TCM,0,  1.11871338,  0.16203308,end
timer_stats,698651030553379,PAPI_L3_TCM,1,  1.19006348,  0.17100525,end
timer_stats,698651031725777,PAPI_L3_TCM,0,  1.30334473,  0.18565369,end
timer_stats,698651032895479,PAPI_L3_TCM,6,  1.40606689,  0.20182800,end
timer_stats,698651034069379,PAPI_L3_TCM,2,  1.48321533,  0.21156311,end
timer_stats,698651035244388,PAPI_L3_TCM,1,  1.56323242,  0.22131348,end
timer_stats,698651036407840,PAPI_L3_TCM,0,  1.63775635,  0.23052978,end
timer_stats,698651037588886,PAPI_L3_TCM,1,  1.71179199,  0.24005127,end
timer_stats,698651038766275,PAPI_L3_TCM,5,  1.83435058,  0.25506592,end
timer_stats,698651039920625,PAPI_L3_TCM,2,  1.93975830,  0.26998901,end
timer_stats,698651041086860,PAPI_L3_TCM,1,  2.01403809,  0.27973938,end
timer_stats,698651042233716,PAPI_L3_TCM,3,  2.10034180,  0.28871155,end
timer_stats,698651043377167,PAPI_L3_TCM,1,  2.18255615,  0.29920959,end
timer_stats,698651044541313,PAPI_L3_TCM,2,  2.26776123,  0.30975342,end
timer_stats,698651045685218,PAPI_L3_TCM,0,  2.34869385,  0.31875610,end
timer_stats,698651046867911,PAPI_L3_TCM,4,  2.47766113,  0.33807373,end
timer_stats,698651048058312,PAPI_L3_TCM,0,  2.58483887,  0.34820557,end
timer_stats,698651049209181,PAPI_L3_TCM,2,  2.66540527,  0.35699463,end
timer_stats,698651050382107,PAPI_L3_TCM,0,  2.74304199,  0.36578369,end
timer_stats,698651051563154,PAPI_L3_TCM,3,  2.82092285,  0.37457275,end
timer_stats,698651052739918,PAPI_L3_TCM,0,  2.94635010,  0.38822937,end
timer_stats,698651053916651,PAPI_L3_TCM,1,  3.06683350,  0.40620422,end
timer_stats,698651055080386,PAPI_L3_TCM,0,  3.14733887,  0.41712952,end
timer_stats,698651056232746,PAPI_L3_TCM,1,  3.23211670,  0.42575073,end
timer_stats,698651057362433,PAPI_L3_TCM,0,  3.32995605,  0.43402100,end
timer_stats,698651058538606,PAPI_L3_TCM,1,  3.41290283,  0.44439697,end
timer_stats,698651059712075,PAPI_L3_TCM,0,  3.49798584,  0.45440674,end
timer_stats,698651060885717,PAPI_L3_TCM,3,  3.66485596,  0.47564697,end
timer_stats,698651062043470,PAPI_L3_TCM,0,  3.75061035,  0.48617554,end
timer_stats,698651063191859,PAPI_L3_TCM,0,  3.83795166,  0.49740600,end
timer_stats,698651064344640,PAPI_L3_TCM,0,  3.93652344,  0.50953674,end
timer_stats,698651065486621,PAPI_L3_TCM,2,  4.05285644,  0.52120972,end
timer_stats,698651066607164,PAPI_L3_TCM,0,  4.16778564,  0.53457641,end
timer_stats,698651067724201,PAPI_L3_TCM,1,  4.27655029,  0.54693603,end
timer_stats,698651068844223,PAPI_L3_TCM,2,  4.45947265,  0.56521606,end
timer_stats,698651069953475,PAPI_L3_TCM,6,  4.63214111,  0.58309936,end
timer_stats,698651071054989,PAPI_L3_TCM,2,  4.75909424,  0.59622192,end
timer_stats,698651072180788,PAPI_L3_TCM,4,  4.88281250,  0.60820007,end
timer_stats,698651073280642,PAPI_L3_TCM,1,  5.01025390,  0.62251282,end
timer_stats,698651074390869,PAPI_L3_TCM,4,  5.14672851,  0.63572693,end
timer_stats,698651075514143,PAPI_L3_TCM,3,  5.27606201,  0.64738464,end
timer_stats,698651076627580,PAPI_L3_TCM,6,  5.41906738,  0.66017151,end
timer_stats,698651077715581,PAPI_L3_TCM,2,  5.56402588,  0.67176819,end
timer_stats,698651078814834,PAPI_L3_TCM,5,  5.80560303,  0.68960571,end
timer_stats,698651079927410,PAPI_L3_TCM,2,  6.04437256,  0.70896912,end
timer_stats,698651081037000,PAPI_L3_TCM,4,  6.19543457,  0.72431946,end
timer_stats,698651082143867,PAPI_L3_TCM,3,  6.38128662,  0.73887634,end
timer_stats,698651083259896,PAPI_L3_TCM,4,  6.54632568,  0.75177002,end
timer_stats,698651084365900,PAPI_L3_TCM,3,  6.73217773,  0.76701355,end
timer_stats,698651085452251,PAPI_L3_TCM,3,  6.90875244,  0.77938843,end
timer_stats,698651086542498,PAPI_L3_TCM,4,  7.07635498,  0.79328918,end
timer_stats,698651087641390,PAPI_L3_TCM,4,  7.26165771,  0.80886841,end
timer_stats,698651088726173,PAPI_L3_TCM,6,  7.43951416,  0.82269287,end
timer_stats,698651089808434,PAPI_L3_TCM,4,  7.60168457,  0.83418274,end
timer_stats,698651090897299,PAPI_L3_TCM,5,  7.93481445,  0.86228943,end
timer_stats,698651091978682,PAPI_L3_TCM,3,  8.10247803,  0.87622070,end
timer_stats,698651093063345,PAPI_L3_TCM,1,  8.27648926,  0.88883972,end
timer_stats,698651094151133,PAPI_L3_TCM,6,  8.44360351,  0.90190124,end
timer_stats,698651095233078,PAPI_L3_TCM,1,  8.62127685,  0.91690063,end
timer_stats,698651096343250,PAPI_L3_TCM,5,  8.80847168,  0.92857361,end
timer_stats,698651097437295,PAPI_L3_TCM,1,  8.97375488,  0.94042969,end
timer_stats,698651098530513,PAPI_L3_TCM,0,  9.15069580,  0.95429993,end
timer_stats,698651099616462,PAPI_L3_TCM,1,  9.32257080,  0.96606445,end
timer_stats,698651100704010,PAPI_L3_TCM,3,  9.49694824,  0.97866821,end
timer_stats,698651101801776,PAPI_L3_TCM,0,  9.66394043,  0.99206543,end
timer_stats,698651102882788,PAPI_L3_TCM,1,  9.82305908,  1.00663757,end
timer_stats,698651103970637,PAPI_L3_TCM,0, 10.14990234,  1.03497314,end
timer_stats,698651105078352,PAPI_L3_TCM,6, 10.30786133,  1.05068970,end
timer_stats,698651106181124,PAPI_L3_TCM,1, 10.47949219,  1.06352234,end
timer_stats,698651107277709,PAPI_L3_TCM,2, 10.64776611,  1.07531738,end
timer_stats,698651108377701,PAPI_L3_TCM,2, 10.80554199,  1.08934021,end
timer_stats,698651109492482,PAPI_L3_TCM,9, 10.96704101,  1.10166931,end
timer_stats,698651110613020,PAPI_L3_TCM,4, 11.10815430,  1.11463928,end
timer_stats,698651111713675,PAPI_L3_TCM,2, 11.27783203,  1.12930298,end
timer_stats,698651112825220,PAPI_L3_TCM,4, 11.43353271,  1.14173889,end
timer_stats,698651113910013,PAPI_L3_TCM,4, 11.68554687,  1.16134643,end
timer_stats,698651115018436,PAPI_L3_TCM,2, 11.90350342,  1.18133545,end
timer_stats,698651116123134,PAPI_L3_TCM,2, 12.06878662,  1.19401550,end
timer_stats,698651117234154,PAPI_L3_TCM,1, 12.22778320,  1.20672607,end
timer_stats,698651118330235,PAPI_L3_TCM,3, 12.39288330,  1.21968078,end
timer_stats,698651119448911,PAPI_L3_TCM,2, 12.55548096,  1.23324585,end
timer_stats,698651120553620,PAPI_L3_TCM,2, 12.71551514,  1.24617004,end
timer_stats,698651121649117,PAPI_L3_TCM,1, 12.88275146,  1.26004028,end
timer_stats,698651122743069,PAPI_L3_TCM,5, 13.04736328,  1.27534485,end
timer_stats,698651123838723,PAPI_L3_TCM,1, 13.20703125,  1.28804016,end
timer_stats,698651124938309,PAPI_L3_TCM,0, 13.53033447,  1.31504822,end
timer_stats,698651126027836,PAPI_L3_TCM,1, 13.69036865,  1.32804871,end
timer_stats,698651127135857,PAPI_L3_TCM,2, 13.85095215,  1.34196472,end
timer_stats,698651128228965,PAPI_L3_TCM,4, 14.01086426,  1.35493469,end
timer_stats,698651129316115,PAPI_L3_TCM,1, 14.17590332,  1.36785889,end
timer_stats,698651130448307,PAPI_L3_TCM,0, 14.33435058,  1.37959289,end
timer_stats,698651131539825,PAPI_L3_TCM,4, 14.48864746,  1.39285278,end
timer_stats,698651132645311,PAPI_L3_TCM,2, 14.65252685,  1.40592956,end
timer_stats,698651133752773,PAPI_L3_TCM,0, 14.80419922,  1.41902160,end
timer_stats,698651134849365,PAPI_L3_TCM,6, 14.95544433,  1.43136597,end
timer_stats,698651135975700,PAPI_L3_TCM,7, 15.20080566,  1.45220947,end
timer_stats,698651137132737,PAPI_L3_TCM,1, 15.43109131,  1.47167969,end
timer_stats,698651138265293,PAPI_L3_TCM,5, 15.56994629,  1.48387146,end
timer_stats,698651139404522,PAPI_L3_TCM,0, 15.71636963,  1.49722290,end
timer_stats,698651140533898,PAPI_L3_TCM,6, 15.87127685,  1.51110840,end
timer_stats,698651141660864,PAPI_L3_TCM,3, 16.01116943,  1.52394104,end
timer_stats,698651142764617,PAPI_L3_TCM,1, 16.14501953,  1.53633117,end
timer_stats,698651143880028,PAPI_L3_TCM,0, 16.36474609,  1.54965210,end
timer_stats,698651144974738,PAPI_L3_TCM,3, 16.55859375,  1.57398987,end
timer_stats,698651146087914,PAPI_L3_TCM,3, 16.69488525,  1.58689880,end
timer_stats,698651147215063,PAPI_L3_TCM,2, 16.83953857,  1.59956360,end
timer_stats,698651148321983,PAPI_L3_TCM,0, 16.96856689,  1.61129761,end
timer_stats,698651149463067,PAPI_L3_TCM,6, 17.10736084,  1.62391662,end
timer_stats,698651150592092,PAPI_L3_TCM,6, 17.23931885,  1.63565063,end
timer_stats,698651151719476,PAPI_L3_TCM,4, 17.36364746,  1.64839172,end
timer_stats,698651152853976,PAPI_L3_TCM,2, 17.58563232,  1.66174316,end
timer_stats,698651153999233,PAPI_L3_TCM,4, 17.72424316,  1.68013000,end
timer_stats,698651155139262,PAPI_L3_TCM,2, 17.92486572,  1.69686889,end
timer_stats,698651156275513,PAPI_L3_TCM,8, 18.04589844,  1.71035767,end
timer_stats,698651157412971,PAPI_L3_TCM,5, 18.17968750,  1.72317505,end
timer_stats,698651158575332,PAPI_L3_TCM,8, 18.34197998,  1.73539734,end
timer_stats,698651159721938,PAPI_L3_TCM,3, 18.46575928,  1.74720764,end
timer_stats,698651160875367,PAPI_L3_TCM,2, 18.60058594,  1.75946045,end
timer_stats,698651162042452,PAPI_L3_TCM,2, 18.86853027,  1.78405762,end
timer_stats,698651163160564,PAPI_L3_TCM,4, 19.01208496,  1.79823303,end
timer_stats,698651164278625,PAPI_L3_TCM,3, 19.13909912,  1.81169128,end
timer_stats,698651165423750,PAPI_L3_TCM,1, 19.28594971,  1.82551575,end
timer_stats,698651166578268,PAPI_L3_TCM,1, 19.42712402,  1.83850098,end
timer_stats,698651167681378,PAPI_L3_TCM,5, 19.56805420,  1.85185242,end
timer_stats,698651168803673,PAPI_L3_TCM,3, 19.72784424,  1.86534118,end
timer_stats,698651169916625,PAPI_L3_TCM,3, 19.85333252,  1.87968445,end
timer_stats,698651171049270,PAPI_L3_TCM,1, 20.13452148,  1.90792847,end
timer_stats,698651172170257,PAPI_L3_TCM,8, 20.28686523,  1.92326355,end
timer_stats,698651173307303,PAPI_L3_TCM,2, 20.43927002,  1.93807983,end
timer_stats,698651174436996,PAPI_L3_TCM,1, 20.59606933,  1.95329285,end
timer_stats,698651175554538,PAPI_L3_TCM,0, 20.74932861,  1.96789551,end
timer_stats,698651176686915,PAPI_L3_TCM,4, 20.91052246,  1.98249817,end
timer_stats,698651177828246,PAPI_L3_TCM,1, 21.04669189,  1.99708557,end
timer_stats,698651178965239,PAPI_L3_TCM,2, 21.33941650,  2.02049255,end
timer_stats,698651180064765,PAPI_L3_TCM,1, 21.49700928,  2.04011536,end
timer_stats,698651181195511,PAPI_L3_TCM,2, 21.65155029,  2.05409241,end
timer_stats,698651182327791,PAPI_L3_TCM,0, 21.80773926,  2.06651306,end
timer_stats,698651190967045,PAPI_L3_TCM,227, 23.15185547,  2.18280029,end
timer_stats,698651192030657,PAPI_L3_TCM,90, 23.35760498,  2.20236206,end
timer_stats,698651193122938,PAPI_L3_TCM,6, 23.53381347,  2.21751404,end
timer_stats,698651194212500,PAPI_L3_TCM,2, 23.69616699,  2.23085022,end
timer_stats,698651195303998,PAPI_L3_TCM,0, 23.82318115,  2.24429321,end
timer_stats,698651196410995,PAPI_L3_TCM,4, 23.97558594,  2.25773621,end
timer_stats,698651197519025,PAPI_L3_TCM,7, 24.12811279,  2.27058411,end
timer_stats,698651198624720,PAPI_L3_TCM,13, 24.26159668,  2.28300476,end
timer_stats,698651199755076,PAPI_L3_TCM,5, 24.42620850,  2.28898621,end
timer_stats,698651200870373,PAPI_L3_TCM,1, 24.54510498,  2.30123901,end
timer_stats,698651201969603,PAPI_L3_TCM,6, 24.77020264,  2.32167053,end
timer_stats,698651203077264,PAPI_L3_TCM,4, 24.96746826,  2.33952331,end
timer_stats,698651204160615,PAPI_L3_TCM,1, 25.11920166,  2.35301208,end
timer_stats,698651205276503,PAPI_L3_TCM,0, 25.26531982,  2.36567688,end
timer_stats,698651206405769,PAPI_L3_TCM,2, 25.40539551,  2.37936401,end
timer_stats,698651207534102,PAPI_L3_TCM,1, 25.56341553,  2.39224243,end
timer_stats,698651208661032,PAPI_L3_TCM,5, 25.71911621,  2.41011047,end
timer_stats,698651209773859,PAPI_L3_TCM,2, 25.84515381,  2.42393494,end
timer_stats,698651210920385,PAPI_L3_TCM,7, 25.98394775,  2.43565369,end
timer_stats,698651212058071,PAPI_L3_TCM,0, 26.26367187,  2.45559692,end
timer_stats,698651213151050,PAPI_L3_TCM,3, 26.39910889,  2.47412109,end
timer_stats,698651214296058,PAPI_L3_TCM,0, 26.53375244,  2.48704529,end
timer_stats,698651215418775,PAPI_L3_TCM,3, 26.68688965,  2.50097656,end
timer_stats,698651216525350,PAPI_L3_TCM,4, 26.80877685,  2.51423645,end
timer_stats,698651217663069,PAPI_L3_TCM,3, 26.96136475,  2.52735901,end
timer_stats,698651218802934,PAPI_L3_TCM,0, 27.08172607,  2.54234314,end
timer_stats,698651219940162,PAPI_L3_TCM,3, 27.22937012,  2.55581665,end
timer_stats,698651221079002,PAPI_L3_TCM,1, 27.37170410,  2.57080078,end
timer_stats,698651222234073,PAPI_L3_TCM,1, 27.62988281,  2.59649658,end
timer_stats,698651223352957,PAPI_L3_TCM,2, 27.78552246,  2.60798645,end
timer_stats,698651224499567,PAPI_L3_TCM,3, 27.92016601,  2.62040710,end
timer_stats,698651225651422,PAPI_L3_TCM,1, 28.04309082,  2.63371277,end
timer_stats,698651226778746,PAPI_L3_TCM,1, 28.17620850,  2.64558411,end
timer_stats,698651227919380,PAPI_L3_TCM,2, 28.40002441,  2.65695190,end
timer_stats,698651229048212,PAPI_L3_TCM,4, 28.45251465,  2.67112732,end
timer_stats,698651230177031,PAPI_L3_TCM,0, 28.75042725,  2.69869995,end
timer_stats,698651231297015,PAPI_L3_TCM,1, 28.89251709,  2.71197510,end
timer_stats,698651232432257,PAPI_L3_TCM,1, 29.02673340,  2.72543335,end
timer_stats,698651233532501,PAPI_L3_TCM,2, 29.18713379,  2.73922729,end
timer_stats,698651234667265,PAPI_L3_TCM,2, 29.33856201,  2.75256348,end
timer_stats,698651235812771,PAPI_L3_TCM,2, 29.48590088,  2.76649475,end
timer_stats,698651236967027,PAPI_L3_TCM,1, 29.70660400,  2.78756714,end
timer_stats,698651238099731,PAPI_L3_TCM,4, 29.91674805,  2.80793762,end
timer_stats,698651239232055,PAPI_L3_TCM,0, 30.09161377,  2.82211304,end
timer_stats,698651240336850,PAPI_L3_TCM,0, 30.24322510,  2.83601379,end
timer_stats,698651241469464,PAPI_L3_TCM,4, 30.38122558,  2.85020447,end
timer_stats,698651242604530,PAPI_L3_TCM,2, 30.55981445,  2.86592102,end
timer_stats,698651243735603,PAPI_L3_TCM,0, 30.72045898,  2.88026428,end
timer_stats,698651244869935,PAPI_L3_TCM,2, 30.90209961,  2.89505005,end
timer_stats,698651246011921,PAPI_L3_TCM,1, 31.04779053,  2.91183472,end
timer_stats,698651247113966,PAPI_L3_TCM,8, 31.38049316,  2.94685364,end
timer_stats,698651248246210,PAPI_L3_TCM,1, 31.57525635,  2.96324158,end
timer_stats,698651249367744,PAPI_L3_TCM,5, 31.74438476,  2.97697449,end
timer_stats,698651250503449,PAPI_L3_TCM,0, 31.91113281,  2.99110413,end
timer_stats,698651251630596,PAPI_L3_TCM,4, 32.07208252,  3.00653076,end
timer_stats,698651252774934,PAPI_L3_TCM,0, 32.24829101,  3.02220154,end
timer_stats,698651253897205,PAPI_L3_TCM,4, 32.41571045,  3.03688049,end
timer_stats,698651255030946,PAPI_L3_TCM,1, 32.58343506,  3.05105591,end
timer_stats,698651256135467,PAPI_L3_TCM,3, 32.91278076,  3.07376098,end
timer_stats,698651257250721,PAPI_L3_TCM,1, 33.09637451,  3.08837890,end
timer_stats,698651258382309,PAPI_L3_TCM,3, 33.25268555,  3.10496521,end
timer_stats,698651259520803,PAPI_L3_TCM,0, 33.42248535,  3.12026977,end
timer_stats,698651260612874,PAPI_L3_TCM,5, 33.60455322,  3.13504028,end
timer_stats,698651261731128,PAPI_L3_TCM,2, 33.75366211,  3.15214538,end
timer_stats,698651262844778,PAPI_L3_TCM,1, 33.94580078,  3.16880798,end
timer_stats,698651263939470,PAPI_L3_TCM,2, 34.12316894,  3.18374634,end
timer_stats,698651265056824,PAPI_L3_TCM,5, 34.30249023,  3.19718933,end
timer_stats,698651266160897,PAPI_L3_TCM,2, 34.54724121,  3.21961975,end
timer_stats,698651267272021,PAPI_L3_TCM,3, 34.82806396,  3.24139404,end
timer_stats,698651268372480,PAPI_L3_TCM,1, 34.98913574,  3.25645447,end
timer_stats,698651269491425,PAPI_L3_TCM,2, 35.18426513,  3.27107239,end
timer_stats,698651270607472,PAPI_L3_TCM,1, 35.35223389,  3.28529358,end
timer_stats,698651271742604,PAPI_L3_TCM,1, 35.52807617,  3.29917908,end
timer_stats,698651272881877,PAPI_L3_TCM,0, 35.69256592,  3.31314087,end
timer_stats,698651274006033,PAPI_L3_TCM,3, 35.85223388,  3.32688904,end
timer_stats,698651275142470,PAPI_L3_TCM,0, 36.10284424,  3.35108948,end
timer_stats,698651276233926,PAPI_L3_TCM,7, 36.34674072,  3.37251282,end
timer_stats,698651277375045,PAPI_L3_TCM,7, 36.51184082,  3.38639832,end
timer_stats,698651278503281,PAPI_L3_TCM,4, 36.67895508,  3.40162659,end
timer_stats,698651279611234,PAPI_L3_TCM,0, 36.82745361,  3.41488647,end
timer_stats,698651280741880,PAPI_L3_TCM,5, 36.99365234,  3.42921448,end
timer_stats,698651281827452,PAPI_L3_TCM,4, 37.14611816,  3.44335937,end
timer_stats,698651282946596,PAPI_L3_TCM,8, 37.30334473,  3.45724487,end
timer_stats,698651284046849,PAPI_L3_TCM,0, 37.46508789,  3.47167969,end
timer_stats,698651285136697,PAPI_L3_TCM,5, 37.69317627,  3.49159241,end
timer_stats,698651295898981,PAPI_L3_TCM,266, 39.50714111,  3.65628052,end
timer_stats,698651297023146,PAPI_L3_TCM,117, 39.66461182,  3.67373657,end
timer_stats,698651298156850,PAPI_L3_TCM,12, 39.95935059,  3.70216370,end
timer_stats,698651299273137,PAPI_L3_TCM,6, 40.12011719,  3.71636963,end
timer_stats,698651300397720,PAPI_L3_TCM,4, 40.27050781,  3.73193359,end
timer_stats,698651301542330,PAPI_L3_TCM,3, 40.42846680,  3.74827576,end
timer_stats,698651302687025,PAPI_L3_TCM,2, 40.58825684,  3.76281738,end
timer_stats,698651303806241,PAPI_L3_TCM,1, 40.74871826,  3.78041077,end
timer_stats,698651304915226,PAPI_L3_TCM,7, 40.91076660,  3.79527283,end
timer_stats,698651306022796,PAPI_L3_TCM,10, 41.08416748,  3.81350708,end
timer_stats,698651307121845,PAPI_L3_TCM,2, 41.31628418,  3.83415222,end
timer_stats,698651308201347,PAPI_L3_TCM,9, 41.55670166,  3.85586548,end
timer_stats,698651309315365,PAPI_L3_TCM,1, 41.70581055,  3.86943054,end
timer_stats,698651310451238,PAPI_L3_TCM,3, 41.85437012,  3.88337707,end
timer_stats,698651311546745,PAPI_L3_TCM,1, 42.00634765,  3.89949036,end
timer_stats,698651312632699,PAPI_L3_TCM,0, 42.17218018,  3.91505432,end
timer_stats,698651313723000,PAPI_L3_TCM,0, 42.32727051,  3.93066406,end
timer_stats,698651314846508,PAPI_L3_TCM,4, 42.48651123,  3.94992065,end
timer_stats,698651315951246,PAPI_L3_TCM,4, 42.65344238,  3.95756531,end
timer_stats,698651317035352,PAPI_L3_TCM,2, 42.81237793,  3.97357178,end
timer_stats,698651318146661,PAPI_L3_TCM,0, 42.96472168,  3.98942566,end
timer_stats,698651319539392,PAPI_L3_TCM,2375, 43.29113769,  4.01991272,end
timer_stats,698651320758364,PAPI_L3_TCM,41, 43.44604492,  4.03297424,end
timer_stats,698651322026864,PAPI_L3_TCM,56, 43.74023437,  4.05970764,end
timer_stats,698651323286735,PAPI_L3_TCM,18, 43.90417480,  4.07341003,end
timer_stats,698651324395932,PAPI_L3_TCM,5, 44.06378174,  4.08766174,end
timer_stats,698651325535167,PAPI_L3_TCM,3, 44.20593262,  4.10308838,end
timer_stats,698651326675019,PAPI_L3_TCM,4, 44.35198974,  4.11691284,end
timer_stats,698651327806009,PAPI_L3_TCM,5, 44.51409912,  4.12918091,end
timer_stats,698651328966404,PAPI_L3_TCM,4, 44.65643310,  4.14256287,end
timer_stats,698651330157640,PAPI_L3_TCM,6, 44.89526367,  4.16297912,end
timer_stats,698651331318531,PAPI_L3_TCM,3, 45.10473633,  4.18411255,end
timer_stats,698651332467667,PAPI_L3_TCM,4, 45.25360107,  4.19696045,end
timer_stats,698651333599685,PAPI_L3_TCM,3, 45.40612793,  4.21063232,end
timer_stats,698651334770128,PAPI_L3_TCM,0, 45.55780029,  4.22633362,end
timer_stats,698651335920447,PAPI_L3_TCM,1, 45.70794678,  4.24264526,end
timer_stats,698651337030124,PAPI_L3_TCM,3, 45.86987305,  4.25608826,end
timer_stats,698651338197389,PAPI_L3_TCM,8, 46.17095947,  4.27778625,end
timer_stats,698651339338680,PAPI_L3_TCM,0, 46.31530762,  4.29800415,end
timer_stats,698651340451854,PAPI_L3_TCM,1, 46.47662353,  4.31523132,end
timer_stats,698651341581258,PAPI_L3_TCM,1, 46.63073730,  4.33024597,end
timer_stats,698651342737868,PAPI_L3_TCM,2, 46.79241943,  4.34497070,end
timer_stats,698651343876500,PAPI_L3_TCM,5, 46.94335937,  4.36061096,end
timer_stats,698651345029551,PAPI_L3_TCM,2, 47.10186768,  4.37586975,end
timer_stats,698651346140194,PAPI_L3_TCM,2, 47.25445557,  4.39122009,end
timer_stats,698651347282751,PAPI_L3_TCM,3, 47.56280518,  4.41789245,end
timer_stats,698651348432988,PAPI_L3_TCM,0, 47.72180176,  4.43072510,end
timer_stats,698651349547119,PAPI_L3_TCM,0, 47.86578369,  4.44413757,end
timer_stats,698651350683638,PAPI_L3_TCM,0, 48.02343750,  4.45951843,end
timer_stats,698651351819644,PAPI_L3_TCM,2, 48.17553711,  4.47473144,end
timer_stats,698651352923281,PAPI_L3_TCM,2, 48.31848144,  4.49206543,end
timer_stats,698651354053234,PAPI_L3_TCM,4, 48.48071289,  4.50831604,end
timer_stats,698651355183765,PAPI_L3_TCM,0, 48.69006348,  4.52781677,end
timer_stats,698651356331477,PAPI_L3_TCM,3, 48.93096924,  4.54907227,end
timer_stats,698651357463058,PAPI_L3_TCM,1, 49.08410645,  4.56419372,end
timer_stats,698651358598258,PAPI_L3_TCM,1, 49.23730469,  4.58006287,end
timer_stats,698651359735081,PAPI_L3_TCM,1, 49.39398193,  4.59484863,end
timer_stats,698651360890190,PAPI_L3_TCM,3, 49.54846191,  4.60998535,end
timer_stats,698651362037237,PAPI_L3_TCM,4, 49.69342041,  4.62414551,end
timer_stats,698651363203445,PAPI_L3_TCM,4, 50.00982666,  4.65298462,end
timer_stats,698651364367635,PAPI_L3_TCM,1, 50.15454101,  4.66661072,end
timer_stats,698651365525499,PAPI_L3_TCM,7, 50.30999756,  4.67976379,end
timer_stats,698651366627277,PAPI_L3_TCM,3, 50.46185303,  4.69683838,end
timer_stats,698651367786368,PAPI_L3_TCM,3, 50.61151123,  4.71176147,end
timer_stats,698651368947102,PAPI_L3_TCM,1, 50.76409912,  4.72769165,end
timer_stats,698651370084080,PAPI_L3_TCM,2, 50.91979980,  4.74253845,end
timer_stats,698651371223201,PAPI_L3_TCM,3, 51.22814941,  4.77314758,end
timer_stats,698651372382795,PAPI_L3_TCM,2, 51.38623047,  4.78883362,end
timer_stats,698651373540147,PAPI_L3_TCM,1, 51.53729248,  4.80416870,end
timer_stats,698651374670074,PAPI_L3_TCM,5, 51.69354248,  4.81938171,end
timer_stats,698651375813112,PAPI_L3_TCM,2, 51.83502197,  4.83331299,end
timer_stats,698651386903434,PAPI_L3_TCM,327, 53.66046143,  5.01853943,end
timer_stats,698651388020878,PAPI_L3_TCM,145, 53.80407715,  5.03935242,end
timer_stats,698651389105462,PAPI_L3_TCM,13, 53.97369385,  5.05651855,end
timer_stats,698651390180571,PAPI_L3_TCM,0, 54.13983154,  5.07270813,end
timer_stats,698651391254113,PAPI_L3_TCM,2, 54.45727539,  5.10212707,end
timer_stats,698651392342317,PAPI_L3_TCM,8, 54.60424805,  5.11703491,end
timer_stats,698651393427281,PAPI_L3_TCM,7, 54.75445557,  5.13049316,end
timer_stats,698651394555260,PAPI_L3_TCM,0, 54.89654541,  5.14404297,end
timer_stats,698651395688462,PAPI_L3_TCM,4, 55.04461670,  5.15693665,end
timer_stats,698651396833118,PAPI_L3_TCM,8, 55.19152832,  5.16970825,end
timer_stats,698651397964680,PAPI_L3_TCM,8, 55.33398437,  5.18276977,end
timer_stats,698651399120713,PAPI_L3_TCM,12, 55.48284912,  5.19551086,end
timer_stats,698651400268264,PAPI_L3_TCM,13, 55.77862549,  5.22268677,end
timer_stats,698651401430676,PAPI_L3_TCM,10, 55.93292236,  5.23622131,end
timer_stats,698651402589901,PAPI_L3_TCM,4, 56.08569336,  5.25184631,end
timer_stats,698651403754538,PAPI_L3_TCM,0, 56.24639892,  5.26611328,end
timer_stats,698651404897779,PAPI_L3_TCM,0, 56.39489746,  5.27993774,end
timer_stats,698651406048755,PAPI_L3_TCM,1, 56.55273437,  5.29234314,end
timer_stats,698651407181635,PAPI_L3_TCM,2, 56.69689941,  5.30670166,end
timer_stats,698651408304162,PAPI_L3_TCM,8, 57.00817871,  5.32752991,end
timer_stats,698651409471835,PAPI_L3_TCM,5, 57.15454101,  5.34216309,end
timer_stats,698651410643958,PAPI_L3_TCM,5, 57.30206299,  5.35678101,end
timer_stats,698651411828415,PAPI_L3_TCM,6, 57.44964599,  5.37152100,end
timer_stats,698651412979596,PAPI_L3_TCM,0, 57.58850098,  5.38679504,end
timer_stats,698651414127258,PAPI_L3_TCM,0, 57.74963379,  5.39942932,end
timer_stats,698651415251968,PAPI_L3_TCM,0, 57.97100830,  5.41929626,end
timer_stats,698651416404027,PAPI_L3_TCM,3, 58.18927002,  5.44027710,end
timer_stats,698651417541906,PAPI_L3_TCM,1, 58.33172607,  5.45266723,end
timer_stats,698651418702338,PAPI_L3_TCM,1, 58.48883057,  5.46463013,end
timer_stats,698651419830280,PAPI_L3_TCM,0, 58.63031006,  5.48080444,end
timer_stats,698651420977637,PAPI_L3_TCM,4, 58.77832031,  5.49671936,end
timer_stats,698651422112644,PAPI_L3_TCM,3, 58.93945312,  5.51167297,end
timer_stats,698651423273664,PAPI_L3_TCM,0, 59.23541260,  5.54112244,end
timer_stats,698651424409516,PAPI_L3_TCM,1, 59.38769531,  5.55422973,end
timer_stats,698651425549383,PAPI_L3_TCM,2, 59.53649902,  5.56835937,end
timer_stats,698651426685432,PAPI_L3_TCM,0, 59.69116211,  5.58439636,end
timer_stats,698651427830143,PAPI_L3_TCM,1, 59.84771728,  5.59971619,end
timer_stats,698651428964759,PAPI_L3_TCM,0, 59.99914551,  5.61511230,end
timer_stats,698651430100329,PAPI_L3_TCM,5, 60.15478516,  5.62959290,end
timer_stats,698651431235455,PAPI_L3_TCM,0, 60.30950928,  5.64373779,end
timer_stats,698651432372994,PAPI_L3_TCM,0, 60.62115478,  5.67515564,end
timer_stats,698651433503339,PAPI_L3_TCM,0, 60.76983643,  5.68948364,end
timer_stats,698651434655552,PAPI_L3_TCM,2, 60.91992187,  5.70370483,end
timer_stats,698651435801722,PAPI_L3_TCM,0, 61.07238769,  5.71726990,end
timer_stats,698651436954078,PAPI_L3_TCM,2, 61.22088623,  5.73049927,end
timer_stats,698651438103245,PAPI_L3_TCM,0, 61.37145996,  5.74308777,end
timer_stats,698651439254777,PAPI_L3_TCM,3, 61.52368164,  5.75662231,end
timer_stats,698651440404371,PAPI_L3_TCM,2, 61.83709717,  5.78059387,end
timer_stats,698651441539198,PAPI_L3_TCM,9, 61.98254394,  5.79368591,end
timer_stats,698651442697330,PAPI_L3_TCM,7, 62.13391113,  5.80482483,end
timer_stats,698651443833441,PAPI_L3_TCM,2, 62.27911377,  5.81678772,end
timer_stats,698651444968801,PAPI_L3_TCM,0, 62.43859863,  5.82910156,end
timer_stats,698651446104206,PAPI_L3_TCM,1, 62.58856201,  5.84156799,end
timer_stats,698651447238740,PAPI_L3_TCM,1, 62.73937988,  5.85459900,end
timer_stats,698651448352101,PAPI_L3_TCM,4, 63.04864502,  5.88012695,end
timer_stats,698651449503573,PAPI_L3_TCM,3, 63.20611572,  5.89537048,end
timer_stats,698651450651483,PAPI_L3_TCM,0, 63.35913086,  5.91091919,end
timer_stats,698651451805624,PAPI_L3_TCM,0, 63.50811768,  5.92663574,end
timer_stats,698651452953412,PAPI_L3_TCM,3, 63.66375732,  5.93963623,end
timer_stats,698651454096570,PAPI_L3_TCM,0, 63.81585693,  5.95433044,end
timer_stats,698651455239935,PAPI_L3_TCM,4, 63.96362305,  5.96853638,end
timer_stats,698651456384372,PAPI_L3_TCM,2, 64.25097656,  5.99411011,end
timer_stats,698651457491693,PAPI_L3_TCM,6, 64.40356445,  6.00910950,end
timer_stats,698651458638187,PAPI_L3_TCM,1, 64.55822754,  6.02182007,end
timer_stats,698651459801248,PAPI_L3_TCM,0, 64.70532227,  6.03750610,end
timer_stats,698651461270710,PAPI_L3_TCM,27, 64.94549560,  6.05017090,end
timer_stats,698651462894764,PAPI_L3_TCM,26, 65.15985107,  6.07121277,end
timer_stats,698651464034478,PAPI_L3_TCM,6, 65.31384277,  6.08396912,end
timer_stats,698651465167418,PAPI_L3_TCM,4, 65.46124267,  6.09709167,end
timer_stats,698651466300943,PAPI_L3_TCM,0, 65.69708252,  6.12207031,end
timer_stats,698651467459411,PAPI_L3_TCM,3, 65.89782715,  6.13522339,end
timer_stats,698651468635671,PAPI_L3_TCM,12, 66.04980469,  6.14834595,end
timer_stats,698651469771110,PAPI_L3_TCM,12, 66.20867920,  6.16333008,end
timer_stats,698651470922004,PAPI_L3_TCM,1, 66.35211182,  6.17778015,end
timer_stats,698651472095342,PAPI_L3_TCM,26, 66.50897217,  6.19306946,end
timer_stats,698651473233406,PAPI_L3_TCM,3, 66.65911865,  6.20783996,end
timer_stats,698651474392607,PAPI_L3_TCM,13, 66.89196777,  6.23231506,end
timer_stats,698651475527352,PAPI_L3_TCM,2, 67.11242676,  6.25540161,end
timer_stats,698651476682582,PAPI_L3_TCM,8, 67.26800537,  6.26924133,end
timer_stats,698651477892624,PAPI_L3_TCM,15, 67.42553711,  6.28279114,end
timer_stats,698651479024998,PAPI_L3_TCM,5, 67.58148193,  6.29600525,end
timer_stats,698651480152972,PAPI_L3_TCM,1, 67.73101807,  6.31065369,end
timer_stats,698651481288867,PAPI_L3_TCM,3, 67.87731933,  6.32397461,end
timer_stats,698651482446464,PAPI_L3_TCM,0, 68.17370605,  6.34959412,end
timer_stats,698651483582648,PAPI_L3_TCM,1, 68.31927490,  6.36198425,end
timer_stats,698651484733693,PAPI_L3_TCM,1, 68.47827148,  6.37522888,end
timer_stats,698651485886671,PAPI_L3_TCM,4, 68.61474609,  6.38810730,end
timer_stats,698651487039122,PAPI_L3_TCM,1, 68.77246094,  6.40020752,end
timer_stats,698651488149050,PAPI_L3_TCM,3, 68.91851807,  6.41302490,end
timer_stats,698651489293584,PAPI_L3_TCM,4, 69.15911865,  6.42559814,end
timer_stats,698651490442551,PAPI_L3_TCM,4, 69.36181640,  6.45492554,end
timer_stats,698651491589836,PAPI_L3_TCM,1, 69.51916504,  6.46971130,end
timer_stats,698651493044098,PAPI_L3_TCM,18, 69.67291260,  6.48228454,end
timer_stats,698651494179549,PAPI_L3_TCM,2, 69.82342529,  6.49569702,end
timer_stats,698651495332903,PAPI_L3_TCM,4, 69.96545410,  6.50997925,end
timer_stats,698651496482091,PAPI_L3_TCM,4, 70.26739502,  6.53637695,end
timer_stats,698651497633826,PAPI_L3_TCM,2, 70.41638183,  6.55076599,end
timer_stats,698651498781963,PAPI_L3_TCM,1, 70.56243896,  6.56355286,end
timer_stats,698651499930000,PAPI_L3_TCM,3, 70.71148682,  6.57583618,end
timer_stats,698651501079759,PAPI_L3_TCM,12, 70.86700439,  6.58773804,end
timer_stats,698651502213249,PAPI_L3_TCM,14, 71.01611328,  6.60060120,end
timer_stats,698651503368208,PAPI_L3_TCM,2, 71.31396484,  6.62374878,end
timer_stats,698651504508885,PAPI_L3_TCM,4, 71.46960449,  6.63708496,end
timer_stats,698651505653542,PAPI_L3_TCM,0, 71.60913086,  6.65205383,end
timer_stats,698651506807764,PAPI_L3_TCM,0, 71.76086426,  6.66334534,end
timer_stats,698651507960368,PAPI_L3_TCM,1, 71.91552734,  6.67526245,end
timer_stats,698651509108989,PAPI_L3_TCM,2, 72.06463623,  6.68785095,end
timer_stats,698651510259054,PAPI_L3_TCM,0, 72.20898437,  6.70257568,end
timer_stats,698651511413161,PAPI_L3_TCM,1, 72.45367432,  6.72164917,end
timer_stats,698651512567543,PAPI_L3_TCM,0, 72.66625977,  6.74041748,end
timer_stats,698651513718710,PAPI_L3_TCM,14, 72.81457520,  6.75340271,end
timer_stats,698651514869077,PAPI_L3_TCM,1, 72.96075439,  6.76629639,end
timer_stats,698651516032839,PAPI_L3_TCM,1, 73.11218262,  6.78034973,end
timer_stats,698651517172886,PAPI_L3_TCM,1, 73.26824951,  6.79493713,end
timer_stats,698651518325431,PAPI_L3_TCM,2, 73.41308594,  6.80696106,end
timer_stats,698651519479289,PAPI_L3_TCM,0, 73.71099853,  6.83183288,end
timer_stats,698651520634093,PAPI_L3_TCM,1, 73.85003662,  6.84544372,end
timer_stats,698651521775858,PAPI_L3_TCM,0, 73.99841308,  6.85841370,end
timer_stats,698651522898562,PAPI_L3_TCM,15, 74.15332031,  6.87202454,end
timer_stats,698651524037476,PAPI_L3_TCM,3, 74.29608154,  6.88552856,end
timer_stats,698651525190001,PAPI_L3_TCM,0, 74.45507812,  6.89872742,end
timer_stats,698651526354778,PAPI_L3_TCM,1, 74.69110107,  6.92073059,end
timer_stats,698651527508850,PAPI_L3_TCM,2, 74.90393066,  6.94035339,end
timer_stats,698651528644650,PAPI_L3_TCM,0, 75.04388428,  6.95774841,end
timer_stats,698651529784688,PAPI_L3_TCM,3, 75.19360351,  6.97611999,end
timer_stats,698651530919132,PAPI_L3_TCM,0, 75.35076904,  6.99284363,end
timer_stats,698651532065013,PAPI_L3_TCM,4, 75.49475098,  7.00767517,end
timer_stats,698651533239527,PAPI_L3_TCM,1, 75.65100098,  7.02249145,end
timer_stats,698651534412362,PAPI_L3_TCM,0, 75.93591308,  7.04988098,end
timer_stats,698651535559906,PAPI_L3_TCM,0, 76.08233642,  7.06489563,end
timer_stats,698651536944662,PAPI_L3_TCM,32, 76.24066162,  7.07951355,end
timer_stats,698651538078000,PAPI_L3_TCM,6, 76.39434814,  7.09284973,end
timer_stats,698651539233064,PAPI_L3_TCM,1, 76.53704834,  7.10713196,end
timer_stats,698651542672070,PAPI_L3_TCM,22, 77.11279297,  7.16101074,end
timer_stats,698651543833222,PAPI_L3_TCM,4, 77.26403808,  7.17619324,end
timer_stats,698651544970412,PAPI_L3_TCM,0, 77.40393066,  7.18978882,end
timer_stats,698651546157247,PAPI_L3_TCM,0, 77.54705811,  7.20277405,end
timer_stats,698651547339771,PAPI_L3_TCM,0, 77.68267822,  7.21888733,end
timer_stats,698651548529272,PAPI_L3_TCM,2, 77.96997070,  7.23724365,end
timer_stats,698651549688757,PAPI_L3_TCM,0, 78.10510254,  7.24946594,end
timer_stats,698651550850264,PAPI_L3_TCM,1, 78.25836182,  7.26226806,end
timer_stats,698651552025906,PAPI_L3_TCM,1, 78.39624023,  7.27551269,end
timer_stats,698651553179640,PAPI_L3_TCM,3, 78.54577637,  7.28796387,end
timer_stats,698651554342212,PAPI_L3_TCM,0, 78.77056885,  7.30711365,end
timer_stats,698651555521282,PAPI_L3_TCM,0, 78.97753906,  7.32716370,end
timer_stats,698651556687617,PAPI_L3_TCM,0, 79.12713623,  7.33358765,end
timer_stats,698651557853255,PAPI_L3_TCM,2, 79.26324463,  7.34947204,end
timer_stats,698651559027473,PAPI_L3_TCM,0, 79.41308594,  7.36209106,end
timer_stats,698651560187404,PAPI_L3_TCM,1, 79.55865478,  7.37622070,end
timer_stats,698651561338964,PAPI_L3_TCM,0, 79.70452881,  7.39109802,end
timer_stats,698651562514319,PAPI_L3_TCM,3, 79.98559570,  7.42004394,end
timer_stats,698651563680560,PAPI_L3_TCM,0, 80.12231445,  7.43377685,end
timer_stats,698651564850221,PAPI_L3_TCM,0, 80.26104736,  7.44818115,end
timer_stats,698651566015819,PAPI_L3_TCM,0, 80.39904785,  7.46057129,end
timer_stats,698651567191907,PAPI_L3_TCM,2, 80.55169678,  7.47586059,end
timer_stats,698651568356531,PAPI_L3_TCM,0, 80.77337646,  7.49664306,end
timer_stats,698651569530672,PAPI_L3_TCM,1, 80.96771240,  7.51934814,end
timer_stats,698651570710107,PAPI_L3_TCM,0, 81.10266113,  7.53182983,end
timer_stats,698651571886218,PAPI_L3_TCM,3, 81.24560547,  7.54470825,end
timer_stats,698651573051853,PAPI_L3_TCM,0, 81.38525391,  7.55807495,end
timer_stats,698651574203640,PAPI_L3_TCM,0, 81.52398682,  7.57307434,end
timer_stats,698651575357478,PAPI_L3_TCM,0, 81.66552734,  7.58718872,end
timer_stats,698651576511402,PAPI_L3_TCM,2, 81.95703125,  7.61578369,end
timer_stats,698651577667693,PAPI_L3_TCM,0, 82.09722900,  7.63240051,end
timer_stats,698651578849898,PAPI_L3_TCM,1, 82.24475098,  7.64915466,end
timer_stats,698651580016932,PAPI_L3_TCM,1, 82.38586426,  7.66311645,end
timer_stats,698651581154713,PAPI_L3_TCM,3, 82.52160644,  7.67872620,end
timer_stats,698651582347781,PAPI_L3_TCM,5, 82.74621582,  7.70124817,end
timer_stats,698651583517818,PAPI_L3_TCM,0, 82.94012451,  7.72114563,end
timer_stats,698651584707010,PAPI_L3_TCM,2, 83.08459473,  7.74095154,end
timer_stats,698651585920101,PAPI_L3_TCM,6, 83.22106933,  7.75471496,end
timer_stats,698651587104072,PAPI_L3_TCM,3, 83.35992432,  7.76937866,end
timer_stats,698651588283687,PAPI_L3_TCM,1, 83.50091553,  7.78712463,end
timer_stats,698651589430055,PAPI_L3_TCM,1, 83.72259521,  7.81166077,end
timer_stats,698651590610449,PAPI_L3_TCM,5, 83.91979980,  7.83392334,end
timer_stats,698651591787564,PAPI_L3_TCM,0, 84.06188965,  7.85371399,end
timer_stats,698651592959631,PAPI_L3_TCM,1, 84.20526123,  7.86996460,end
timer_stats,698651594154469,PAPI_L3_TCM,3, 84.34875488,  7.88446045,end
timer_stats,698651595318987,PAPI_L3_TCM,4, 84.49133301,  7.90147400,end
timer_stats,698651596491512,PAPI_L3_TCM,2, 84.77301025,  7.92346191,end
timer_stats,698651597661466,PAPI_L3_TCM,1, 84.90924072,  7.94291687,end
timer_stats,698651598850621,PAPI_L3_TCM,0, 85.04431152,  7.95672607,end
timer_stats,698651600021245,PAPI_L3_TCM,4, 85.18829346,  7.96998596,end
timer_stats,698651601163792,PAPI_L3_TCM,4, 85.32580566,  7.98320007,end
timer_stats,698651602303820,PAPI_L3_TCM,0, 85.47070312,  7.99768066,end
timer_stats,698651603491378,PAPI_L3_TCM,1, 85.69799805,  8.02032471,end
timer_stats,698651604653989,PAPI_L3_TCM,2, 85.89904785,  8.03926086,end
timer_stats,698651605818763,PAPI_L3_TCM,0, 86.04266357,  8.05178833,end
timer_stats,698651607003568,PAPI_L3_TCM,2, 86.18408203,  8.06832886,end
timer_stats,698651608169409,PAPI_L3_TCM,0, 86.33020019,  8.07434082,end
timer_stats,698651609305737,PAPI_L3_TCM,3, 86.46343994,  8.08862305,end
timer_stats,698651610458635,PAPI_L3_TCM,4, 86.69671631,  8.10829162,end
timer_stats,698651611645436,PAPI_L3_TCM,2, 86.89251709,  8.12783813,end
timer_stats,698651612818284,PAPI_L3_TCM,1, 87.04113769,  8.14157104,end
timer_stats,698651614002034,PAPI_L3_TCM,2, 87.18249512,  8.15576172,end
timer_stats,698651615170319,PAPI_L3_TCM,0, 87.32257080,  8.17269897,end
timer_stats,698651616353390,PAPI_L3_TCM,1, 87.45843506,  8.18540955,end
timer_stats,698651617526515,PAPI_L3_TCM,0, 87.74298096,  8.21333313,end
timer_stats,698651618728562,PAPI_L3_TCM,3, 87.88342285,  8.22666931,end
timer_stats,698651619920417,PAPI_L3_TCM,0, 88.03082275,  8.23947143,end
timer_stats,698651621099042,PAPI_L3_TCM,0, 88.16772461,  8.25222778,end
timer_stats,698651622282820,PAPI_L3_TCM,0, 88.30987549,  8.26512146,end
timer_stats,698651623478670,PAPI_L3_TCM,2, 88.53887939,  8.28450012,end
timer_stats,698651624642962,PAPI_L3_TCM,1, 88.73675537,  8.30302429,end
timer_stats,698651625840699,PAPI_L3_TCM,1, 88.87481689,  8.31710815,end
timer_stats,698651627035434,PAPI_L3_TCM,0, 89.02728271,  8.32968140,end
timer_stats,698651628220999,PAPI_L3_TCM,4, 89.16064453,  8.34149170,end
timer_stats,698651629383637,PAPI_L3_TCM,0, 89.30792236,  8.35488892,end
timer_stats,698651630572781,PAPI_L3_TCM,3, 89.60229492,  8.38142395,end
timer_stats,698651631749672,PAPI_L3_TCM,0, 89.74261474,  8.39497375,end
timer_stats,698651632933603,PAPI_L3_TCM,2, 89.89294433,  8.40802002,end
timer_stats,698651634121621,PAPI_L3_TCM,0, 90.02337646,  8.42434692,end
timer_stats,698651635319293,PAPI_L3_TCM,4, 90.17102051,  8.44247436,end
timer_stats,698651636517717,PAPI_L3_TCM,2, 90.41711426,  8.46429443,end
timer_stats,698651637725209,PAPI_L3_TCM,3, 90.61413574,  8.48342896,end
timer_stats,698651638890309,PAPI_L3_TCM,0, 90.75653076,  8.49928284,end
timer_stats,698651640074537,PAPI_L3_TCM,2, 90.90313721,  8.51429749,end
timer_stats,698651641242302,PAPI_L3_TCM,0, 91.04266357,  8.52987671,end
timer_stats,698651642435763,PAPI_L3_TCM,2, 91.19006348,  8.54873657,end
timer_stats,698651643614307,PAPI_L3_TCM,0, 91.47509765,  8.58207703,end
timer_stats,698651644796776,PAPI_L3_TCM,1, 91.62310791,  8.59715271,end
timer_stats,698651645995163,PAPI_L3_TCM,0, 91.75909424,  8.61253357,end
timer_stats,698651647162201,PAPI_L3_TCM,6, 91.90258789,  8.62786865,end
timer_stats,698651648328339,PAPI_L3_TCM,0, 92.05029297,  8.64363098,end
timer_stats,698651649490616,PAPI_L3_TCM,1, 92.27130127,  8.66178894,end
timer_stats,698651650687028,PAPI_L3_TCM,0, 92.46514892,  8.68132019,end
timer_stats,698651651875353,PAPI_L3_TCM,2, 92.61706543,  8.69509888,end
timer_stats,698651653056323,PAPI_L3_TCM,0, 92.75317383,  8.70838928,end
timer_stats,698651654251878,PAPI_L3_TCM,1, 92.89215088,  8.72238159,end
timer_stats,698651655441719,PAPI_L3_TCM,1, 93.11816406,  8.74281311,end
timer_stats,698651656628847,PAPI_L3_TCM,3, 93.32427978,  8.75433349,end
timer_stats,698651657800441,PAPI_L3_TCM,0, 93.46551514,  8.76756287,end
timer_stats,698651658960956,PAPI_L3_TCM,0, 93.60009765,  8.78050232,end
timer_stats,698651660115900,PAPI_L3_TCM,0, 93.74658203,  8.79389953,end
timer_stats,698651661271664,PAPI_L3_TCM,2, 93.88482666,  8.80683899,end
timer_stats,698651662436793,PAPI_L3_TCM,0, 94.03332519,  8.81971741,end
timer_stats,698651663600203,PAPI_L3_TCM,3, 94.32067871,  8.84472656,end
timer_stats,698651664779805,PAPI_L3_TCM,0, 94.46856689,  8.85723877,end
timer_stats,698651665952452,PAPI_L3_TCM,3, 94.61968994,  8.87007141,end
timer_stats,698651667129337,PAPI_L3_TCM,0, 94.77514648,  8.88142395,end
timer_stats,698651668292488,PAPI_L3_TCM,0, 94.90649414,  8.89402771,end
timer_stats,698651669435242,PAPI_L3_TCM,0, 95.06030273,  8.90718078,end
timer_stats,698651670601990,PAPI_L3_TCM,2, 95.34918213,  8.93264770,end
timer_stats,698651671791534,PAPI_L3_TCM,0, 95.49084473,  8.94482422,end
timer_stats,698651672952473,PAPI_L3_TCM,1, 95.63281250,  8.95730591,end
timer_stats,698651674146970,PAPI_L3_TCM,0, 95.78186035,  8.96911621,end
timer_stats,698651675329745,PAPI_L3_TCM,3, 95.93792724,  8.98123169,end
timer_stats,698651676503222,PAPI_L3_TCM,0, 96.17297363,  9.00012207,end
timer_stats,698651677693244,PAPI_L3_TCM,0, 96.37200928,  9.01821899,end
timer_stats,698651678852208,PAPI_L3_TCM,0, 96.51983642,  9.03080749,end
timer_stats,698651680042093,PAPI_L3_TCM,6, 96.66839599,  9.04438782,end
timer_stats,698651681209797,PAPI_L3_TCM,1, 96.81622314,  9.05740356,end
timer_stats,698651682387439,PAPI_L3_TCM,2, 96.95715332,  9.06958008,end
timer_stats,698651683553819,PAPI_L3_TCM,0, 97.20141602,  9.08779907,end
timer_stats,698651684742614,PAPI_L3_TCM,4, 97.39099121,  9.10540771,end
timer_stats,698651685932285,PAPI_L3_TCM,0, 97.54150390,  9.12052917,end
timer_stats,698651687133147,PAPI_L3_TCM,0, 97.67755127,  9.13288879,end
timer_stats,698651688302274,PAPI_L3_TCM,1, 97.82012939,  9.14602661,end
timer_stats,698651689452229,PAPI_L3_TCM,2, 98.05151367,  9.16024780,end
timer_stats,698651690645566,PAPI_L3_TCM,1, 98.24981689,  9.18663025,end
timer_stats,698651691830258,PAPI_L3_TCM,3, 98.39691162,  9.19869995,end
timer_stats,698651692992695,PAPI_L3_TCM,0, 98.54583740,  9.21110535,end
timer_stats,698651694155919,PAPI_L3_TCM,3, 98.68786621,  9.22607422,end
timer_stats,698651695342708,PAPI_L3_TCM,0, 98.82470703,  9.24232483,end
timer_stats,698651696541898,PAPI_L3_TCM,1, 99.05957031,  9.26933288,end
timer_stats,698651697712250,PAPI_L3_TCM,0, 99.25579834,  9.28895569,end
timer_stats,698651698871807,PAPI_L3_TCM,2, 99.40802002,  9.30294800,end
timer_stats,698651700044992,PAPI_L3_TCM,0, 99.55578613,  9.31573486,end
timer_stats,698651701209093,PAPI_L3_TCM,1, 99.69873047,  9.32868957,end
timer_stats,698651702361751,PAPI_L3_TCM,1, 99.83398437,  9.34153747,end
timer_stats,698651703544345,PAPI_L3_TCM,3,100.06359863,  9.36399841,end
timer_stats,698651704734954,PAPI_L3_TCM,1,100.26849365,  9.38294983,end
timer_stats,698651705919424,PAPI_L3_TCM,0,100.41479492,  9.39649963,end
timer_stats,698651707086676,PAPI_L3_TCM,0,100.56140137,  9.40948486,end
timer_stats,698651708284973,PAPI_L3_TCM,3,100.69610596,  9.42211914,end
timer_stats,698651709449972,PAPI_L3_TCM,2,100.84204102,  9.43731689,end
timer_stats,698651710634249,PAPI_L3_TCM,1,101.12384033,  9.46536255,end
timer_stats,698651711802780,PAPI_L3_TCM,0,101.26177978,  9.48059082,end
timer_stats,698651712982785,PAPI_L3_TCM,4,101.41748047,  9.49482727,end
timer_stats,698651714182843,PAPI_L3_TCM,0,101.56048584,  9.50379944,end
timer_stats,698651715354174,PAPI_L3_TCM,0,101.68511963,  9.52127075,end
timer_stats,698651716545509,PAPI_L3_TCM,0,101.91925049,  9.55224609,end
timer_stats,698651717734853,PAPI_L3_TCM,2,102.11181640,  9.56488037,end
timer_stats,698651718915524,PAPI_L3_TCM,0,102.27069092,  9.57861328,end
timer_stats,698651720075675,PAPI_L3_TCM,3,102.40093994,  9.59220886,end
timer_stats,698651721269633,PAPI_L3_TCM,0,102.54992676,  9.60504150,end
timer_stats,698651722464011,PAPI_L3_TCM,3,102.68756103,  9.61741638,end
timer_stats,698651723632436,PAPI_L3_TCM,0,102.96325683,  9.64266968,end
timer_stats,698651724800186,PAPI_L3_TCM,0,103.10211182,  9.65542602,end
timer_stats,698651725999425,PAPI_L3_TCM,0,103.24133301,  9.66857910,end
timer_stats,698651727136239,PAPI_L3_TCM,2,103.38800049,  9.68051147,end
timer_stats,698651728338529,PAPI_L3_TCM,0,103.53741455,  9.69429016,end
timer_stats,698651729503474,PAPI_L3_TCM,1,103.67828369,  9.70733642,end
timer_stats,698651730691802,PAPI_L3_TCM,0,103.95037842,  9.73403930,end
timer_stats,698651731851823,PAPI_L3_TCM,3,104.09759521,  9.74786377,end
timer_stats,698651733055618,PAPI_L3_TCM,0,104.24017334,  9.76216125,end
timer_stats,698651734244832,PAPI_L3_TCM,0,104.37646484,  9.77763367,end
timer_stats,698651735376100,PAPI_L3_TCM,3,104.52044678,  9.79139709,end
timer_stats,698651736604055,PAPI_L3_TCM,6,104.81018066,  9.81900024,end
timer_stats,698651737793223,PAPI_L3_TCM,0,104.95471191,  9.83145142,end
timer_stats,698651738947294,PAPI_L3_TCM,3,105.09887695,  9.84503174,end
timer_stats,698651740102308,PAPI_L3_TCM,9,105.24908447,  9.85797119,end
timer_stats,698651741214306,PAPI_L3_TCM,13,105.39678955,  9.87088013,end
timer_stats,698651742375943,PAPI_L3_TCM,1,105.53240967,  9.88418579,end
timer_stats,698651743571547,PAPI_L3_TCM,0,105.81561279,  9.91024780,end
timer_stats,698651744763376,PAPI_L3_TCM,0,105.90936279,  9.92242432,end
timer_stats,698651745952331,PAPI_L3_TCM,1,106.10485840,  9.93482971,end
timer_stats,698651747132705,PAPI_L3_TCM,0,106.24859619,  9.94662476,end
timer_stats,698651748314136,PAPI_L3_TCM,1,106.39544678,  9.95883179,end
timer_stats,698651749483097,PAPI_L3_TCM,0,106.54309082,  9.97053528,end
timer_stats,698651750635214,PAPI_L3_TCM,3,106.76239014,  9.98832703,end
timer_stats,698651751802383,PAPI_L3_TCM,0,106.91387939, 10.00074768,end
timer_stats,698651752954027,PAPI_L3_TCM,0,107.11499023, 10.01908874,end
timer_stats,698651754119672,PAPI_L3_TCM,0,107.26562500, 10.03144836,end
timer_stats,698651755288102,PAPI_L3_TCM,1,107.38757324, 10.04550171,end
timer_stats,698651756471004,PAPI_L3_TCM,0,107.54968262, 10.05871582,end
timer_stats,698651757654911,PAPI_L3_TCM,1,107.77600098, 10.08106994,end
timer_stats,698651758814972,PAPI_L3_TCM,0,107.91632080, 10.09370422,end
timer_stats,698651759991337,PAPI_L3_TCM,3,108.11016846, 10.11465454,end
timer_stats,698651761169588,PAPI_L3_TCM,4,108.23669433, 10.12794494,end
timer_stats,698651762358853,PAPI_L3_TCM,0,108.37811279, 10.14276123,end
timer_stats,698651763520844,PAPI_L3_TCM,1,108.52130127, 10.15708923,end
timer_stats,698651764686185,PAPI_L3_TCM,2,108.74713135, 10.17868042,end
timer_stats,698651765880352,PAPI_L3_TCM,0,108.93615723, 10.19996643,end
timer_stats,698651767082251,PAPI_L3_TCM,1,109.08209229, 10.21243286,end
timer_stats,698651768267621,PAPI_L3_TCM,1,109.22467041, 10.22543335,end
timer_stats,698651769413360,PAPI_L3_TCM,3,109.35504150, 10.23870849,end
timer_stats,698651770591447,PAPI_L3_TCM,1,109.59771728, 10.25906372,end
timer_stats,698651771770629,PAPI_L3_TCM,0,109.78210449, 10.27719116,end
timer_stats,698651772934959,PAPI_L3_TCM,0,109.93298340, 10.28909302,end
timer_stats,698651774122214,PAPI_L3_TCM,2,110.06970215, 10.30117798,end
timer_stats,698651775311148,PAPI_L3_TCM,0,110.21313477, 10.31312561,end
timer_stats,698651776518300,PAPI_L3_TCM,4,110.36517334, 10.32571411,end
timer_stats,698651777685237,PAPI_L3_TCM,1,110.58612061, 10.34603882,end
timer_stats,698651778868792,PAPI_L3_TCM,3,110.78039551, 10.36405945,end
timer_stats,698651780055293,PAPI_L3_TCM,1,110.92663574, 10.37785339,end
timer_stats,698651781196078,PAPI_L3_TCM,0,111.07855225, 10.39109802,end
timer_stats,698651782381989,PAPI_L3_TCM,0,111.22100830, 10.40374756,end
timer_stats,698651783557674,PAPI_L3_TCM,2,111.36621094, 10.41639709,end
timer_stats,698651784722901,PAPI_L3_TCM,0,111.63958740, 10.44067383,end
timer_stats,698651785921123,PAPI_L3_TCM,0,111.80249023, 10.45394897,end
timer_stats,698651787090657,PAPI_L3_TCM,0,111.94531250, 10.46548462,end
timer_stats,698651788277418,PAPI_L3_TCM,3,112.09490967, 10.47848511,end
timer_stats,698651789416729,PAPI_L3_TCM,0,112.23193359, 10.49090576,end
timer_stats,698651790590486,PAPI_L3_TCM,0,112.37988281, 10.50550842,end
timer_stats,698651791779635,PAPI_L3_TCM,0,112.60974121, 10.52601624,end
timer_stats,698651792932419,PAPI_L3_TCM,2,112.80395508, 10.54371643,end
timer_stats,698651794121557,PAPI_L3_TCM,0,112.95971680, 10.55491638,end
timer_stats,698651795285224,PAPI_L3_TCM,0,113.09912109, 10.56767273,end
timer_stats,698651796479672,PAPI_L3_TCM,0,113.25415039, 10.58106994,end
timer_stats,698651797677600,PAPI_L3_TCM,3,113.48010254, 10.60261535,end
timer_stats,698651798862148,PAPI_L3_TCM,0,113.62286377, 10.62184143,end
timer_stats,698651800044212,PAPI_L3_TCM,0,113.82226562, 10.63433838,end
timer_stats,698651801212161,PAPI_L3_TCM,0,113.96429443, 10.64659119,end
timer_stats,698651802398405,PAPI_L3_TCM,2,114.10028076, 10.65975952,end
timer_stats,698651803571486,PAPI_L3_TCM,0,114.24884033, 10.67303467,end
timer_stats,698651804755107,PAPI_L3_TCM,0,114.47735596, 10.69111633,end
timer_stats,698651805919448,PAPI_L3_TCM,0,114.67333984, 10.70843506,end
timer_stats,698651807110083,PAPI_L3_TCM,6,114.81561279, 10.72131348,end
timer_stats,698651808291641,PAPI_L3_TCM,0,114.95874023, 10.73612976,end
timer_stats,698651809432115,PAPI_L3_TCM,0,115.09924316, 10.74851990,end
timer_stats,698651810593289,PAPI_L3_TCM,0,115.23950195, 10.76054382,end
timer_stats,698651811754011,PAPI_L3_TCM,1,115.47161865, 10.77972412,end
timer_stats,698651812944831,PAPI_L3_TCM,0,115.65557861, 10.79728699,end
timer_stats,698651814134926,PAPI_L3_TCM,0,115.78723144, 10.81175232,end
timer_stats,698651815311340,PAPI_L3_TCM,0,115.92681885, 10.82316589,end
timer_stats,698651816500235,PAPI_L3_TCM,4,116.05914307, 10.83494568,end
timer_stats,698651817698696,PAPI_L3_TCM,0,116.27264404, 10.85452270,end
timer_stats,698651818864668,PAPI_L3_TCM,0,116.40338135, 10.86730957,end
timer_stats,698651820040745,PAPI_L3_TCM,0,116.58453369, 10.88549805,end
timer_stats,698651821181110,PAPI_L3_TCM,6,116.71667480, 10.89714050,end
timer_stats,698651822343507,PAPI_L3_TCM,0,116.84143066, 10.90740967,end
timer_stats,698651823516972,PAPI_L3_TCM,0,116.96875000, 10.91969299,end
timer_stats,698651824680213,PAPI_L3_TCM,0,117.18096924, 10.93681335,end
timer_stats,698651825858357,PAPI_L3_TCM,3,117.34802246, 10.95227051,end
timer_stats,698651827031125,PAPI_L3_TCM,0,117.47821045, 10.96360779,end
timer_stats,698651828205366,PAPI_L3_TCM,0,117.60174561, 10.97604370,end
timer_stats,698651829344584,PAPI_L3_TCM,0,117.73004150, 10.98728943,end
timer_stats,698651830525828,PAPI_L3_TCM,2,117.85913086, 10.99929810,end
timer_stats,698651831687953,PAPI_L3_TCM,0,118.06610107, 11.02058410,end
timer_stats,698651832864317,PAPI_L3_TCM,0,118.22216797, 11.03622437,end
timer_stats,698651834024615,PAPI_L3_TCM,0,118.34423828, 11.04660034,end
timer_stats,698651835199890,PAPI_L3_TCM,3,118.46972656, 11.05717468,end
timer_stats,698651836363997,PAPI_L3_TCM,1,118.59655762, 11.06689453,end
timer_stats,698651837526789,PAPI_L3_TCM,0,118.70794678, 11.07684326,end
timer_stats,698651838703043,PAPI_L3_TCM,0,118.90606689, 11.09197998,end
timer_stats,698651839867784,PAPI_L3_TCM,2,119.02648926, 11.10449219,end
timer_stats,698651841049855,PAPI_L3_TCM,0,119.18804932, 11.12292480,end
timer_stats,698651842230047,PAPI_L3_TCM,1,119.30108642, 11.13255310,end
timer_stats,698651843404021,PAPI_L3_TCM,0,119.41650391, 11.14170837,end
timer_stats,698651844569895,PAPI_L3_TCM,3,119.53619385, 11.15357971,end
timer_stats,698651845762716,PAPI_L3_TCM,0,119.72088623, 11.17004394,end
timer_stats,698651846942361,PAPI_L3_TCM,0,119.88256836, 11.18750000,end
timer_stats,698651848134442,PAPI_L3_TCM,0,120.01580810, 11.19781494,end
timer_stats,698651849323454,PAPI_L3_TCM,2,120.13623047, 11.20812988,end
timer_stats,698651850508938,PAPI_L3_TCM,0,120.25915527, 11.21821594,end
timer_stats,698651851698889,PAPI_L3_TCM,0,120.46398926, 11.23594665,end
timer_stats,698651852895087,PAPI_L3_TCM,0,120.61828613, 11.25534058,end
timer_stats,698651854082015,PAPI_L3_TCM,3,120.74603271, 11.26950073,end
timer_stats,698651855272426,PAPI_L3_TCM,0,120.86431885, 11.28210449,end
timer_stats,698651856440844,PAPI_L3_TCM,0,120.98156738, 11.29693603,end
timer_stats,698651857627845,PAPI_L3_TCM,0,121.10668945, 11.30856323,end
timer_stats,698651858817583,PAPI_L3_TCM,2,121.30364990, 11.32670593,end
timer_stats,698651860016227,PAPI_L3_TCM,0,121.46282959, 11.34790039,end
timer_stats,698651861199349,PAPI_L3_TCM,1,121.58624267, 11.36218262,end
timer_stats,698651862364843,PAPI_L3_TCM,0,121.71185303, 11.37753296,end
timer_stats,698651863551758,PAPI_L3_TCM,3,121.83123779, 11.39065552,end
timer_stats,698651864741205,PAPI_L3_TCM,0,122.02966308, 11.41046142,end
timer_stats,698651865912077,PAPI_L3_TCM,0,122.15313721, 11.42424011,end
timer_stats,698651867085937,PAPI_L3_TCM,0,122.30523682, 11.44097900,end
timer_stats,698651868264976,PAPI_L3_TCM,2,122.42596436, 11.45401001,end
timer_stats,698651869416543,PAPI_L3_TCM,0,122.54437256, 11.46527099,end
timer_stats,698651870580125,PAPI_L3_TCM,0,122.65246582, 11.47515869,end
timer_stats,698651871744479,PAPI_L3_TCM,0,122.84521484, 11.49224853,end
timer_stats,698651872914714,PAPI_L3_TCM,3,122.99322510, 11.50880432,end
timer_stats,698651874093308,PAPI_L3_TCM,0,123.10711670, 11.51951599,end
timer_stats,698651875244152,PAPI_L3_TCM,0,123.20825195, 11.52983093,end
timer_stats,698651876415357,PAPI_L3_TCM,1,123.32116699, 11.54069519,end
timer_stats,698651877582521,PAPI_L3_TCM,2,123.44891357, 11.55107117,end
timer_stats,698651878736926,PAPI_L3_TCM,0,123.63916016, 11.56785583,end
timer_stats,698651879904130,PAPI_L3_TCM,0,123.81298828, 11.58412170,end
timer_stats,698651881067225,PAPI_L3_TCM,0,123.94110107, 11.59478760,end
timer_stats,698651882231869,PAPI_L3_TCM,3,124.07324219, 11.60040283,end
timer_stats,698651883392366,PAPI_L3_TCM,0,124.20544433, 11.61120605,end
timer_stats,698651884560294,PAPI_L3_TCM,1,124.33496094, 11.62324524,end
timer_stats,698651885723295,PAPI_L3_TCM,0,124.54278564, 11.64131164,end
timer_stats,698651886881407,PAPI_L3_TCM,2,124.71899414, 11.65895080,end
timer_stats,698651888046301,PAPI_L3_TCM,1,124.86108398, 11.67085266,end
timer_stats,698651889185852,PAPI_L3_TCM,1,124.99151611, 11.68257141,end
timer_stats,698651890345970,PAPI_L3_TCM,0,125.13037109, 11.69432068,end
timer_stats,698651891512754,PAPI_L3_TCM,3,125.26965332, 11.70535278,end
timer_stats,698651892687465,PAPI_L3_TCM,0,125.48504639, 11.72557068,end
timer_stats,698651893880933,PAPI_L3_TCM,0,125.67535400, 11.74220276,end
timer_stats,698651895065964,PAPI_L3_TCM,1,125.80615234, 11.75285339,end
timer_stats,698651896246598,PAPI_L3_TCM,2,125.93957520, 11.76399231,end
timer_stats,698651897382640,PAPI_L3_TCM,0,126.08184814, 11.77555847,end
timer_stats,698651898551184,PAPI_L3_TCM,1,126.22369385, 11.78706360,end
timer_stats,698651899736348,PAPI_L3_TCM,0,126.44305420, 11.80607605,end
timer_stats,698651900910473,PAPI_L3_TCM,3,126.62176514, 11.82142639,end
timer_stats,698651902082457,PAPI_L3_TCM,0,126.74743652, 11.83396912,end
timer_stats,698651903253962,PAPI_L3_TCM,0,126.88287354, 11.84481812,end
timer_stats,698651904427970,PAPI_L3_TCM,0,127.02252197, 11.85650635,end
timer_stats,698651905608691,PAPI_L3_TCM,2,127.15814209, 11.86756897,end
timer_stats,698651906789298,PAPI_L3_TCM,0,127.37609863, 11.88600159,end
timer_stats,698651907971187,PAPI_L3_TCM,1,127.54797363, 11.90194702,end
timer_stats,698651909145304,PAPI_L3_TCM,1,127.69006348, 11.91271973,end
timer_stats,698651910329966,PAPI_L3_TCM,3,127.82312012, 11.91882324,end
timer_stats,698651911510833,PAPI_L3_TCM,0,127.95648193, 11.93025207,end
timer_stats,698651912683265,PAPI_L3_TCM,0,128.08270264, 11.94218445,end
timer_stats,698651913880472,PAPI_L3_TCM,0,128.30755615, 11.95898437,end
timer_stats,698651915063250,PAPI_L3_TCM,2,128.47308349, 11.97570801,end
timer_stats,698651916248661,PAPI_L3_TCM,0,128.60308838, 11.98776245,end
timer_stats,698651917384389,PAPI_L3_TCM,1,128.72912598, 11.99942017,end
timer_stats,698651918561937,PAPI_L3_TCM,0,128.85882568, 12.01115417,end
timer_stats,698651919750488,PAPI_L3_TCM,3,129.06152344, 12.03100586,end
timer_stats,698651920930336,PAPI_L3_TCM,0,129.23333740, 12.04716492,end
timer_stats,698651922081664,PAPI_L3_TCM,0,129.36376953, 12.05780029,end
timer_stats,698651923231245,PAPI_L3_TCM,0,129.48229980, 12.06843567,end
timer_stats,698651924391632,PAPI_L3_TCM,2,129.60589599, 12.07850647,end
timer_stats,698651925556500,PAPI_L3_TCM,0,129.72595215, 12.08979797,end
timer_stats,698651926716748,PAPI_L3_TCM,1,129.85089111, 12.10157776,end
timer_stats,698651927881983,PAPI_L3_TCM,0,130.04907227, 12.11820984,end
timer_stats,698651929044493,PAPI_L3_TCM,3,130.21411133, 12.13545227,end
timer_stats,698651930206401,PAPI_L3_TCM,0,130.32873535, 12.14775085,end
timer_stats,698651931368482,PAPI_L3_TCM,0,130.45446777, 12.15760803,end
timer_stats,698651932528793,PAPI_L3_TCM,0,130.57598877, 12.16839599,end
timer_stats,698651933714478,PAPI_L3_TCM,2,130.77258301, 12.18623352,end
timer_stats,698651934903182,PAPI_L3_TCM,0,130.89257812, 12.19783020,end
timer_stats,698651936094910,PAPI_L3_TCM,2,131.05725097, 12.21383667,end
timer_stats,698651937256944,PAPI_L3_TCM,0,131.18090820, 12.22366333,end
timer_stats,698651938442063,PAPI_L3_TCM,3,131.29846191, 12.23477173,end
timer_stats,698651939628027,PAPI_L3_TCM,0,131.41040039, 12.24545288,end
timer_stats,698651940816392,PAPI_L3_TCM,0,131.60656738, 12.26586914,end
timer_stats,698651941977519,PAPI_L3_TCM,0,131.76391602, 12.28392029,end
timer_stats,698651943138721,PAPI_L3_TCM,6,131.87896728, 12.29481506,end
timer_stats,698651944271991,PAPI_L3_TCM,10,131.98858642, 12.30593872,end
timer_stats,698651945432389,PAPI_L3_TCM,3,132.10949707, 12.31671142,end
timer_stats,698651946597000,PAPI_L3_TCM,0,132.21917724, 12.32708740,end
timer_stats,698651947795098,PAPI_L3_TCM,5,132.38934326, 12.34332275,end
timer_stats,698651948955819,PAPI_L3_TCM,0,132.53057861, 12.35900879,end
timer_stats,698651950127917,PAPI_L3_TCM,0,132.63879395, 12.36993408,end
timer_stats,698651951264265,PAPI_L3_TCM,0,132.74035644, 12.38064575,end
timer_stats,698651952434279,PAPI_L3_TCM,2,132.83843994, 12.39094543,end
timer_stats,698651953600664,PAPI_L3_TCM,0,132.94299316, 12.40309143,end
timer_stats,698651954770575,PAPI_L3_TCM,1,133.04675293, 12.41383362,end
timer_stats,698651955950782,PAPI_L3_TCM,0,133.24737549, 12.43894958,end
timer_stats,698651957137467,PAPI_L3_TCM,2,133.34326172, 12.44926453,end
timer_stats,698651958305225,PAPI_L3_TCM,0,133.43945312, 12.45933533,end
timer_stats,698651959473226,PAPI_L3_TCM,0,133.52886963, 12.46945190,end
timer_stats,698651960639337,PAPI_L3_TCM,0,133.62768555, 12.47952270,end
timer_stats,698651961811795,PAPI_L3_TCM,2,133.77166748, 12.48986816,end
timer_stats,698651962981609,PAPI_L3_TCM,0,133.91094971, 12.51022339,end
timer_stats,698651964148994,PAPI_L3_TCM,1,134.00573730, 12.52029419,end
timer_stats,698651965312058,PAPI_L3_TCM,1,134.10034179, 12.53060913,end
timer_stats,698651966478243,PAPI_L3_TCM,2,134.19940185, 12.53555298,end
timer_stats,698651967645564,PAPI_L3_TCM,0,134.28961182, 12.54592895,end
timer_stats,698651968817802,PAPI_L3_TCM,0,134.43713379, 12.56118774,end
timer_stats,698651969984693,PAPI_L3_TCM,0,134.57983398, 12.57617187,end
timer_stats,698651971151477,PAPI_L3_TCM,2,134.67572021, 12.58673096,end
timer_stats,698651972316158,PAPI_L3_TCM,1,134.77270508, 12.59701538,end
timer_stats,698651973483956,PAPI_L3_TCM,1,134.86907959, 12.60734558,end
timer_stats,698651974652471,PAPI_L3_TCM,0,134.96386719, 12.61787415,end
timer_stats,698651975819241,PAPI_L3_TCM,2,135.11016846, 12.62797546,end
timer_stats,698651976994856,PAPI_L3_TCM,1,135.25714111, 12.64875793,end
timer_stats,698651978162907,PAPI_L3_TCM,0,135.34747314, 12.65913391,end
timer_stats,698651979331221,PAPI_L3_TCM,0,135.44451904, 12.66923523,end
timer_stats,698651980467673,PAPI_L3_TCM,3,135.54638672, 12.67927551,end
timer_stats,698651981633560,PAPI_L3_TCM,0,135.64135742, 12.68965149,end
timer_stats,698651982804212,PAPI_L3_TCM,1,135.79473877, 12.70530701,end
timer_stats,698651983971052,PAPI_L3_TCM,0,135.93725586, 12.72082519,end
timer_stats,698651985151791,PAPI_L3_TCM,3,136.03955078, 12.73109436,end
timer_stats,698651986316861,PAPI_L3_TCM,0,136.13800049, 12.74421692,end
timer_stats,698651987483565,PAPI_L3_TCM,0,136.23901367, 12.75382996,end
timer_stats,698651988649540,PAPI_L3_TCM,0,136.34082031, 12.76473999,end
timer_stats,698651989818528,PAPI_L3_TCM,2,136.44207764, 12.77520752,end
timer_stats,698651990972236,PAPI_L3_TCM,0,136.59411621, 12.79689026,end
timer_stats,698651992138830,PAPI_L3_TCM,1,136.74841309, 12.80717468,end
timer_stats,698651993305355,PAPI_L3_TCM,0,136.84460449, 12.81773376,end
timer_stats,698651994470926,PAPI_L3_TCM,2,136.95080566, 12.82774353,end
timer_stats,698651995637013,PAPI_L3_TCM,0,137.04364014, 12.83787537,end
timer_stats,698651996779411,PAPI_L3_TCM,0,137.14855957, 12.84817505,end
timer_stats,698651997917132,PAPI_L3_TCM,0,137.30053711, 12.86361694,end
timer_stats,698651999055004,PAPI_L3_TCM,2,137.45513916, 12.87924194,end
timer_stats,698652000191461,PAPI_L3_TCM,0,137.55334472, 12.88937378,end
timer_stats,698652001326292,PAPI_L3_TCM,2,137.65332031, 12.89990234,end
timer_stats,698652002499163,PAPI_L3_TCM,0,137.75073242, 12.91000366,end
timer_stats,698652003666547,PAPI_L3_TCM,2,137.86108398, 12.92025757,end
timer_stats,698652004821691,PAPI_L3_TCM,0,138.01214599, 12.93063354,end
timer_stats,698652006005896,PAPI_L3_TCM,0,138.11895752, 12.95115662,end
timer_stats,698652007166534,PAPI_L3_TCM,0,138.27307129, 12.96148682,end
timer_stats,698652008327608,PAPI_L3_TCM,2,138.37646484, 12.97177124,end
timer_stats,698652009494566,PAPI_L3_TCM,0,138.47625732, 12.98184204,end
timer_stats,698652010665607,PAPI_L3_TCM,1,138.58276367, 12.99234009,end
timer_stats,698652011824475,PAPI_L3_TCM,0,138.72912597, 13.00717163,end
timer_stats,698652012975782,PAPI_L3_TCM,2,138.88385010, 13.02236938,end
timer_stats,698652014143377,PAPI_L3_TCM,0,138.98590088, 13.03286743,end
timer_stats,698652015318985,PAPI_L3_TCM,0,139.08392334, 13.04296875,end
timer_stats,698652016474636,PAPI_L3_TCM,0,139.18896484, 13.05322266,end
timer_stats,698652017639994,PAPI_L3_TCM,2,139.28387451, 13.06359863,end
timer_stats,698652018807708,PAPI_L3_TCM,0,139.43811035, 13.07385254,end
timer_stats,698652019984043,PAPI_L3_TCM,1,139.53485107, 13.08915710,end
timer_stats,698652021160190,PAPI_L3_TCM,0,139.68823242, 13.10414123,end
timer_stats,698652022327505,PAPI_L3_TCM,2,139.79705810, 13.11418152,end
timer_stats,698652023499116,PAPI_L3_TCM,0,139.90100098, 13.12452698,end
timer_stats,698652024655627,PAPI_L3_TCM,0,140.00744629, 13.13484192,end
timer_stats,698652025813095,PAPI_L3_TCM,0,140.11309814, 13.14491272,end
timer_stats,698652026986710,PAPI_L3_TCM,2,140.32049560, 13.16487121,end
timer_stats,698652028142977,PAPI_L3_TCM,0,140.42779541, 13.17539978,end
timer_stats,698652029307568,PAPI_L3_TCM,1,140.53308105, 13.18572998,end
timer_stats,698652030481443,PAPI_L3_TCM,0,140.63653564, 13.19607544,end
timer_stats,698652031647490,PAPI_L3_TCM,2,140.74829101, 13.20611572,end
timer_stats,698652032810718,PAPI_L3_TCM,0,140.85443115, 13.21636963,end
timer_stats,698652033992042,PAPI_L3_TCM,0,141.05767822, 13.23924255,end
timer_stats,698652035173974,PAPI_L3_TCM,0,141.15563965, 13.24952698,end
timer_stats,698652036361568,PAPI_L3_TCM,2,141.26043701, 13.26002502,end
timer_stats,698652037542796,PAPI_L3_TCM,0,141.35797119, 13.27033996,end
timer_stats,698652038726647,PAPI_L3_TCM,1,141.45544434, 13.28041076,end
timer_stats,698652039915672,PAPI_L3_TCM,0,141.60693359, 13.29588318,end
timer_stats,698652041096603,PAPI_L3_TCM,2,141.74890137, 13.31089783,end
timer_stats,698652042278418,PAPI_L3_TCM,0,141.84832764, 13.32121277,end
timer_stats,698652043460808,PAPI_L3_TCM,0,141.94604492, 13.33219910,end
timer_stats,698652044638593,PAPI_L3_TCM,0,142.04718017, 13.34220886,end
timer_stats,698652045822847,PAPI_L3_TCM,2,142.14514160, 13.35346985,end
timer_stats,698652047009756,PAPI_L3_TCM,0,142.29840088, 13.36877441,end
timer_stats,698652048184936,PAPI_L3_TCM,1,142.43615723, 13.38427734,end
timer_stats,698652049347808,PAPI_L3_TCM,0,142.54217529, 13.39428711,end
timer_stats,698652050534462,PAPI_L3_TCM,2,142.63781738, 13.40466308,end
timer_stats,698652051719794,PAPI_L3_TCM,0,142.73565674, 13.41522217,end
timer_stats,698652052898684,PAPI_L3_TCM,0,142.88854980, 13.43043518,end
timer_stats,698652054085533,PAPI_L3_TCM,0,143.03088379, 13.44564819,end
timer_stats,698652055283707,PAPI_L3_TCM,2,143.12152100, 13.45713806,end
timer_stats,698652056432655,PAPI_L3_TCM,0,143.22930908, 13.46711731,end
timer_stats,698652057618392,PAPI_L3_TCM,1,143.32415771, 13.47767639,end
timer_stats,698652058808141,PAPI_L3_TCM,0,143.42266846, 13.48797607,end
timer_stats,698652059995525,PAPI_L3_TCM,2,143.58227539, 13.50384521,end
timer_stats,698652061178120,PAPI_L3_TCM,0,143.71881103, 13.51934814,end
timer_stats,698652062368324,PAPI_L3_TCM,0,143.82177734, 13.52986145,end
timer_stats,698652063557075,PAPI_L3_TCM,0,143.93212891, 13.54008484,end
timer_stats,698652064736103,PAPI_L3_TCM,2,144.03289795, 13.55036926,end
timer_stats,698652065902578,PAPI_L3_TCM,0,144.18023682, 13.56590271,end
timer_stats,698652067082105,PAPI_L3_TCM,1,144.32904053, 13.58242798,end
timer_stats,698652068258637,PAPI_L3_TCM,0,144.42352295, 13.59274292,end
timer_stats,698652069420134,PAPI_L3_TCM,2,144.52203369, 13.60302734,end
timer_stats,698652070606449,PAPI_L3_TCM,0,144.61267090, 13.61407471,end
timer_stats,698652071798420,PAPI_L3_TCM,0,144.72399902, 13.62454223,end
timer_stats,698652072978118,PAPI_L3_TCM,0,144.86315918, 13.64004517,end
timer_stats,698652074172295,PAPI_L3_TCM,2,145.00628662, 13.65505981,end
timer_stats,698652075365890,PAPI_L3_TCM,0,145.10803223, 13.66510010,end
timer_stats,698652076550131,PAPI_L3_TCM,1,145.21960449, 13.67506409,end
timer_stats,698652077744939,PAPI_L3_TCM,0,145.30816650, 13.68545532,end
timer_stats,698652078937373,PAPI_L3_TCM,4,145.40936279, 13.69573974,end
timer_stats,698652080132292,PAPI_L3_TCM,0,145.60534668, 13.71591187,end
timer_stats,698652081297619,PAPI_L3_TCM,0,145.71978760, 13.72610474,end
timer_stats,698652082492237,PAPI_L3_TCM,0,145.82067871, 13.73687744,end
timer_stats,698652083674878,PAPI_L3_TCM,2,145.92022705, 13.74771118,end
timer_stats,698652084859270,PAPI_L3_TCM,0,146.02233887, 13.75814819,end
timer_stats,698652086053620,PAPI_L3_TCM,1,146.16552734, 13.77990723,end
timer_stats,698652087248229,PAPI_L3_TCM,0,146.31793213, 13.79016113,end
timer_stats,698652088430046,PAPI_L3_TCM,2,146.41986084, 13.80108642,end
timer_stats,698652089627601,PAPI_L3_TCM,0,146.53509521, 13.81106567,end
timer_stats,698652090825523,PAPI_L3_TCM,0,146.63348389, 13.82162476,end
timer_stats,698652092042187,PAPI_L3_TCM,1,146.72869873, 13.83197021,end
timer_stats,698652093209778,PAPI_L3_TCM,2,146.93902588, 13.85392761,end
timer_stats,698652094404542,PAPI_L3_TCM,0,147.05969238, 13.86450195,end
timer_stats,698652095614461,PAPI_L3_TCM,1,147.16021728, 13.87619018,end
timer_stats,698652096796531,PAPI_L3_TCM,0,147.26074219, 13.88673401,end
timer_stats,698652097988933,PAPI_L3_TCM,3,147.42175293, 13.90322876,end
timer_stats,698652099180997,PAPI_L3_TCM,0,147.58062744, 13.91958618,end
timer_stats,698652100373915,PAPI_L3_TCM,0,147.69952392, 13.92999267,end
timer_stats,698652101579020,PAPI_L3_TCM,0,147.79669189, 13.94032287,end
timer_stats,698652102778771,PAPI_L3_TCM,2,147.91351318, 13.95239258,end
timer_stats,698652103936745,PAPI_L3_TCM,0,148.03143310, 13.96322632,end
timer_stats,698652105096503,PAPI_L3_TCM,1,148.19726562, 13.97882080,end
timer_stats,698652106263511,PAPI_L3_TCM,0,148.36169434, 13.99485779,end
timer_stats,698652107428976,PAPI_L3_TCM,3,148.46105957, 14.00538635,end
timer_stats,698652108592780,PAPI_L3_TCM,0,148.56738281, 14.01589966,end
timer_stats,698652109783745,PAPI_L3_TCM,0,148.66741943, 14.02743530,end
timer_stats,698652110973149,PAPI_L3_TCM,0,148.81091309, 14.04269409,end
timer_stats,698652112162650,PAPI_L3_TCM,2,148.96771240, 14.05789185,end
timer_stats,698652113324971,PAPI_L3_TCM,0,149.05914307, 14.06826782,end
timer_stats,698652114516633,PAPI_L3_TCM,1,149.16693115, 14.07943726,end
timer_stats,698652115708560,PAPI_L3_TCM,0,149.25854492, 14.09043884,end
timer_stats,698652116893395,PAPI_L3_TCM,3,149.40808105, 14.10630798,end
timer_stats,698652118088196,PAPI_L3_TCM,0,149.55328369, 14.12199402,end
timer_stats,698652119282344,PAPI_L3_TCM,1,149.65856934, 14.13269043,end
timer_stats,698652120465308,PAPI_L3_TCM,0,149.75531006, 14.14270019,end
timer_stats,698652121660293,PAPI_L3_TCM,2,149.84887695, 14.15280151,end
timer_stats,698652122853654,PAPI_L3_TCM,0,149.94281006, 14.16290283,end
timer_stats,698652124050812,PAPI_L3_TCM,1,150.03582764, 14.17300415,end
timer_stats,698652125214773,PAPI_L3_TCM,0,150.22155762, 14.19342041,end
timer_stats,698652126418154,PAPI_L3_TCM,3,150.31494141, 14.20352173,end
timer_stats,698652127584825,PAPI_L3_TCM,0,150.40087891, 14.21365356,end
timer_stats,698652128769460,PAPI_L3_TCM,0,150.49322510, 14.22398376,end
timer_stats,698652129964798,PAPI_L3_TCM,0,150.58679199, 14.23449707,end
timer_stats,698652131160989,PAPI_L3_TCM,2,150.77325439, 14.25442505,end
timer_stats,698652132370454,PAPI_L3_TCM,0,150.85717773, 14.26480103,end
timer_stats,698652133565008,PAPI_L3_TCM,1,150.95721435, 14.27484131,end
timer_stats,698652134759993,PAPI_L3_TCM,0,151.04949951, 14.28515625,end
timer_stats,698652135956927,PAPI_L3_TCM,3,151.14044189, 14.29548645,end
timer_stats,698652137153742,PAPI_L3_TCM,0,151.32379150, 14.31568909,end
timer_stats,698652138337516,PAPI_L3_TCM,0,151.41668701, 14.32575989,end
timer_stats,698652139529641,PAPI_L3_TCM,0,151.50640869, 14.33564758,end
timer_stats,698652140724386,PAPI_L3_TCM,2,151.59979248, 14.34548950,end
timer_stats,698652141917840,PAPI_L3_TCM,0,151.69183349, 14.35559082,end
timer_stats,698652143113464,PAPI_L3_TCM,1,151.87854004, 14.37597656,end
timer_stats,698652144308286,PAPI_L3_TCM,0,151.96685791, 14.38610840,end
timer_stats,698652145501701,PAPI_L3_TCM,3,152.06103516, 14.39619446,end
timer_stats,698652146695038,PAPI_L3_TCM,0,152.15979004, 14.40620422,end
timer_stats,698652147861540,PAPI_L3_TCM,0,152.24456787, 14.41661072,end
timer_stats,698652149054117,PAPI_L3_TCM,0,152.33856201, 14.42689514,end
timer_stats,698652150249192,PAPI_L3_TCM,2,152.52355957, 14.44729614,end
timer_stats,698652151440066,PAPI_L3_TCM,0,152.61639404, 14.45761108,end
timer_stats,698652152633554,PAPI_L3_TCM,1,152.70617676, 14.46798706,end
timer_stats,698652153828905,PAPI_L3_TCM,0,152.79864502, 14.47808838,end
timer_stats,698652155028977,PAPI_L3_TCM,3,152.89147949, 14.48840332,end
timer_stats,698652156223651,PAPI_L3_TCM,0,153.07165527, 14.50886535,end
timer_stats,698652157416969,PAPI_L3_TCM,0,153.16223144, 14.51921081,end
timer_stats,698652158607100,PAPI_L3_TCM,0,153.25463867, 14.52931213,end
timer_stats,698652159772895,PAPI_L3_TCM,2,153.35070801, 14.53981018,end
timer_stats,698652160957819,PAPI_L3_TCM,0,153.44720459, 14.55009460,end
timer_stats,698652162149914,PAPI_L3_TCM,1,153.63006592, 14.57026672,end
timer_stats,698652163343789,PAPI_L3_TCM,0,153.72491455, 14.58058166,end
timer_stats,698652164537636,PAPI_L3_TCM,3,153.81903076, 14.59065246,end
timer_stats,698652165732061,PAPI_L3_TCM,0,153.91107178, 14.60072327,end
timer_stats,698652166927488,PAPI_L3_TCM,0,154.00518799, 14.61103821,end
timer_stats,698652168121533,PAPI_L3_TCM,0,154.14514160, 14.62648010,end
timer_stats,698652169313207,PAPI_L3_TCM,2,154.28381347, 14.64196777,end
timer_stats,698652170507782,PAPI_L3_TCM,0,154.38134766, 14.65200805,end
timer_stats,698652171704570,PAPI_L3_TCM,1,154.47125244, 14.66235351,end
timer_stats,698652172872008,PAPI_L3_TCM,0,154.56555176, 14.67265320,end
timer_stats,698652174064992,PAPI_L3_TCM,3,154.70874023, 14.68859863,end
timer_stats,698652175229580,PAPI_L3_TCM,0,154.86169434, 14.70404053,end
timer_stats,698652176423898,PAPI_L3_TCM,0,154.95166016, 14.71417236,end
timer_stats,698652177616073,PAPI_L3_TCM,0,155.05383301, 14.72421264,end
timer_stats,698652178784797,PAPI_L3_TCM,2,155.15399170, 14.73452759,end
timer_stats,698652179980298,PAPI_L3_TCM,0,155.24713135, 14.74487305,end
timer_stats,698652181175546,PAPI_L3_TCM,1,155.44763184, 14.76525879,end
timer_stats,698652182368344,PAPI_L3_TCM,0,155.54577637, 14.77534485,end
timer_stats,698652183560255,PAPI_L3_TCM,3,155.64422607, 14.78544617,end
timer_stats,698652184755730,PAPI_L3_TCM,0,155.74005127, 14.79557800,end
timer_stats,698652185950078,PAPI_L3_TCM,0,155.84008789, 14.80589294,end
timer_stats,698652187142292,PAPI_L3_TCM,0,155.98889160, 14.82115173,end
timer_stats,698652188335730,PAPI_L3_TCM,2,156.13720703, 14.83634949,end
timer_stats,698652189529004,PAPI_L3_TCM,0,156.23553467, 14.84710693,end
timer_stats,698652190695143,PAPI_L3_TCM,1,156.33752441, 14.85737610,end
timer_stats,698652191860773,PAPI_L3_TCM,0,156.42956543, 14.86793518,end
timer_stats,698652193052185,PAPI_L3_TCM,3,156.52764892, 14.87825012,end
timer_stats,698652194247409,PAPI_L3_TCM,0,156.72564697, 14.89845276,end
timer_stats,698652195440181,PAPI_L3_TCM,0,156.82336426, 14.90852356,end
timer_stats,698652196633315,PAPI_L3_TCM,0,156.92218017, 14.91883850,end
timer_stats,698652197829563,PAPI_L3_TCM,2,157.02404785, 14.92912292,end
timer_stats,698652199027174,PAPI_L3_TCM,0,157.11706543, 14.93922424,end
timer_stats,698652200222185,PAPI_L3_TCM,1,157.31146240, 14.96035767,end
timer_stats,698652201388393,PAPI_L3_TCM,0,157.41577148, 14.97103882,end
timer_stats,698652202578698,PAPI_L3_TCM,3,157.51428223, 14.98136902,end
timer_stats,698652203764872,PAPI_L3_TCM,0,157.60803222, 14.99150085,end
timer_stats,698652204948760,PAPI_L3_TCM,0,157.70806885, 15.00181580,end
timer_stats,698652206146364,PAPI_L3_TCM,0,157.90063476, 15.02195740,end
timer_stats,698652207330602,PAPI_L3_TCM,2,157.99267578, 15.03230285,end
timer_stats,698652208522896,PAPI_L3_TCM,0,158.08660889, 15.04261780,end
timer_stats,698652209717578,PAPI_L3_TCM,1,158.18231201, 15.05268860,end
timer_stats,698652210884586,PAPI_L3_TCM,0,158.26977539, 15.06303406,end
timer_stats,698652212082734,PAPI_L3_TCM,3,158.40405273, 15.07832336,end
timer_stats,698652213254665,PAPI_L3_TCM,0,158.55078125, 15.09352112,end
timer_stats,698652214427403,PAPI_L3_TCM,0,158.63769531, 15.10388183,end
timer_stats,698652215598007,PAPI_L3_TCM,0,158.72869873, 15.11396789,end
timer_stats,698652216773345,PAPI_L3_TCM,2,158.82263184, 15.12405395,end
timer_stats,698652217946369,PAPI_L3_TCM,0,158.91461182, 15.13412476,end
timer_stats,698652219118347,PAPI_L3_TCM,1,159.00634766, 15.14916992,end
timer_stats,698652220292141,PAPI_L3_TCM,0,159.19079590, 15.16461182,end
timer_stats,698652221485566,PAPI_L3_TCM,3,159.27496338, 15.17500305,end
timer_stats,698652222677760,PAPI_L3_TCM,0,159.36694336, 15.18505859,end
timer_stats,698652223873605,PAPI_L3_TCM,0,159.45672607, 15.19540405,end
timer_stats,698652225066889,PAPI_L3_TCM,0,159.54791260, 15.20550537,end
timer_stats,698652226259821,PAPI_L3_TCM,2,159.72827148, 15.22592163,end
timer_stats,698652227432346,PAPI_L3_TCM,0,159.82336426, 15.23620605,end
timer_stats,698652228604373,PAPI_L3_TCM,1,159.91778564, 15.24649048,end
timer_stats,698652229799697,PAPI_L3_TCM,0,160.01074219, 15.25653076,end
timer_stats,698652230991689,PAPI_L3_TCM,3,160.10479736, 15.26679993,end
timer_stats,698652232194823,PAPI_L3_TCM,18,160.28082275, 15.28727722,end
timer_stats,698652233387985,PAPI_L3_TCM,0,160.36883545, 15.29762268,end
timer_stats,698652234581383,PAPI_L3_TCM,0,160.46295166, 15.30790710,end
timer_stats,698652235771737,PAPI_L3_TCM,2,160.55316162, 15.31803894,end
timer_stats,698652236964289,PAPI_L3_TCM,0,160.64935303, 15.32804871,end
timer_stats,698652238159756,PAPI_L3_TCM,1,160.82818603, 15.34843445,end
timer_stats,698652239353608,PAPI_L3_TCM,0,160.92144775, 15.35871887,end
timer_stats,698652240549145,PAPI_L3_TCM,3,161.00939941, 15.36882019,end
timer_stats,698652241743133,PAPI_L3_TCM,0,161.10144043, 15.37867737,end
timer_stats,698652242934707,PAPI_L3_TCM,0,161.19091797, 15.38880920,end
timer_stats,698652244129362,PAPI_L3_TCM,0,161.28179932, 15.39912414,end
timer_stats,698652245321966,PAPI_L3_TCM,2,161.46264648, 15.41955566,end
timer_stats,698652246514321,PAPI_L3_TCM,0,161.55041504, 15.42965698,end
timer_stats,698652247708975,PAPI_L3_TCM,1,161.64245605, 15.43994141,end
timer_stats,698652248917057,PAPI_L3_TCM,0,161.73779297, 15.45045471,end
timer_stats,698652250110158,PAPI_L3_TCM,3,161.86376953, 15.46574402,end
timer_stats,698652251302819,PAPI_L3_TCM,0,162.00256347, 15.48100281,end
timer_stats,698652252496917,PAPI_L3_TCM,0,162.09490967, 15.49131775,end
timer_stats,698652253692862,PAPI_L3_TCM,0,162.18951416, 15.50160217,end
timer_stats,698652254888700,PAPI_L3_TCM,2,162.27770996, 15.51194763,end
timer_stats,698652256082914,PAPI_L3_TCM,0,162.37023926, 15.52201843,end
timer_stats,698652257281889,PAPI_L3_TCM,1,162.54974365, 15.54264831,end
timer_stats,698652258473680,PAPI_L3_TCM,0,162.64056396, 15.55273437,end
timer_stats,698652259667858,PAPI_L3_TCM,3,162.73394775, 15.56301880,end
timer_stats,698652260861962,PAPI_L3_TCM,0,162.82324219, 15.57333374,end
timer_stats,698652262053537,PAPI_L3_TCM,0,162.91198730, 15.58367920,end
timer_stats,698652263246082,PAPI_L3_TCM,0,163.09594726, 15.60379028,end
timer_stats,698652264441259,PAPI_L3_TCM,2,163.18463135, 15.61415100,end
timer_stats,698652265635288,PAPI_L3_TCM,0,163.27349853, 15.62425232,end
timer_stats,698652266829468,PAPI_L3_TCM,1,163.36639404, 15.63433838,end
timer_stats,698652268042230,PAPI_L3_TCM,0,163.45715332, 15.64465332,end
timer_stats,698652269214611,PAPI_L3_TCM,3,163.63726807, 15.66555786,end
timer_stats,698652270407796,PAPI_L3_TCM,0,163.73028564, 15.67584228,end
timer_stats,698652271600610,PAPI_L3_TCM,0,163.82238770, 15.68615723,end
timer_stats,698652272793465,PAPI_L3_TCM,0,163.91156006, 15.69650269,end
timer_stats,698652273987399,PAPI_L3_TCM,2,163.99896240, 15.70687866,end
timer_stats,698652275182144,PAPI_L3_TCM,0,164.17822266, 15.72708130,end
timer_stats,698652276376128,PAPI_L3_TCM,1,164.27111816, 15.73713684,end
timer_stats,698652277567839,PAPI_L3_TCM,0,164.36260986, 15.74723816,end
timer_stats,698652278764431,PAPI_L3_TCM,3,164.45434570, 15.75753784,end
timer_stats,698652279929702,PAPI_L3_TCM,0,164.54577637, 15.76760864,end
timer_stats,698652281129217,PAPI_L3_TCM,0,164.67315674, 15.78341675,end
timer_stats,698652282323231,PAPI_L3_TCM,0,164.81762695, 15.79881287,end
timer_stats,698652283517242,PAPI_L3_TCM,2,164.90570068, 15.80915832,end
timer_stats,698652284713140,PAPI_L3_TCM,0,164.99938965, 15.81944275,end
timer_stats,698652285905161,PAPI_L3_TCM,1,165.08673096, 15.82929993,end
timer_stats,698652287097042,PAPI_L3_TCM,0,165.17675781, 15.83961487,end
timer_stats,698652288293154,PAPI_L3_TCM,3,165.36309814, 15.85977173,end
timer_stats,698652289489768,PAPI_L3_TCM,1,165.45568847, 15.86982727,end
timer_stats,698652290669543,PAPI_L3_TCM,0,165.54852295, 15.88014221,end
timer_stats,698652291859080,PAPI_L3_TCM,0,165.63641357, 15.89048767,end
timer_stats,698652293052205,PAPI_L3_TCM,2,165.73382568, 15.90098572,end
timer_stats,698652294243019,PAPI_L3_TCM,0,165.86962891, 15.92109680,end
timer_stats,698652295431807,PAPI_L3_TCM,1,166.00903320, 15.93122864,end
timer_stats,698652296594238,PAPI_L3_TCM,0,166.10296631, 15.94175720,end
timer_stats,698652297783060,PAPI_L3_TCM,3,166.19531250, 15.95207214,end
timer_stats,698652298968587,PAPI_L3_TCM,1,166.28796387, 15.96211243,end
timer_stats,698652300159132,PAPI_L3_TCM,0,166.37860107, 15.97193909,end
timer_stats,698652301323809,PAPI_L3_TCM,0,166.56445312, 15.99238586,end
timer_stats,698652302515968,PAPI_L3_TCM,2,166.66229248, 16.00267029,end
timer_stats,698652303707123,PAPI_L3_TCM,0,166.75903320, 16.01298523,end
timer_stats,698652304898377,PAPI_L3_TCM,1,166.86065674, 16.02348328,end
timer_stats,698652306090638,PAPI_L3_TCM,0,166.95233154, 16.03382873,end
timer_stats,698652307271396,PAPI_L3_TCM,3,167.14721680, 16.05397034,end
timer_stats,698652308460986,PAPI_L3_TCM,0,167.24383545, 16.06425476,end
timer_stats,698652309662345,PAPI_L3_TCM,0,167.33508301, 16.07438660,end
timer_stats,698652310833596,PAPI_L3_TCM,9,167.42370605, 16.08445740,end
timer_stats,698652311996040,PAPI_L3_TCM,7,167.51580810, 16.09452820,end
timer_stats,698652313200089,PAPI_L3_TCM,0,167.64416504, 16.11494446,end
timer_stats,698652314388333,PAPI_L3_TCM,1,167.77935791, 16.12503052,end
timer_stats,698652315577220,PAPI_L3_TCM,0,167.86614990, 16.13537598,end
timer_stats,698652316766488,PAPI_L3_TCM,3,167.95623779, 16.14547729,end
timer_stats,698652317952543,PAPI_L3_TCM,0,168.04382324, 16.15557861,end
timer_stats,698652319133454,PAPI_L3_TCM,0,168.13232422, 16.16564941,end
timer_stats,698652320330829,PAPI_L3_TCM,1,168.31121826, 16.18603515,end
timer_stats,698652321527200,PAPI_L3_TCM,2,168.40026855, 16.19613647,end
timer_stats,698652322717718,PAPI_L3_TCM,0,168.48651123, 16.20623779,end
timer_stats,698652323908619,PAPI_L3_TCM,1,168.57373047, 16.21633911,end
timer_stats,698652325096437,PAPI_L3_TCM,0,168.66467285, 16.22640991,end
timer_stats,698652326286484,PAPI_L3_TCM,3,168.83233642, 16.24688721,end
timer_stats,698652327476596,PAPI_L3_TCM,0,168.92156982, 16.25718689,end
timer_stats,698652328665947,PAPI_L3_TCM,0,169.01153564, 16.26747131,end
timer_stats,698652329856838,PAPI_L3_TCM,0,169.10168457, 16.27775574,end
timer_stats,698652331044612,PAPI_L3_TCM,2,169.18646240, 16.28810119,end
timer_stats,698652332238457,PAPI_L3_TCM,0,169.30725097, 16.30830383,end
timer_stats,698652333427328,PAPI_L3_TCM,1,169.44763184, 16.31855774,end
timer_stats,698652334616086,PAPI_L3_TCM,0,169.53155517, 16.32868957,end
timer_stats,698652335808698,PAPI_L3_TCM,3,169.61639404, 16.33876037,end
timer_stats,698652336999832,PAPI_L3_TCM,0,169.70220947, 16.34886169,end
timer_stats,698652344802233,PAPI_L3_TCM,176,170.56616211, 16.45849609,end
timer_stats,698652345967489,PAPI_L3_TCM,55,170.65802002, 16.46868896,end
timer_stats,698652347163048,PAPI_L3_TCM,8,170.74291992, 16.47875976,end
timer_stats,698652348353298,PAPI_L3_TCM,3,170.90826416, 16.49940491,end
timer_stats,698652349532548,PAPI_L3_TCM,1,170.99291992, 16.50949097,end
timer_stats,698652350695153,PAPI_L3_TCM,0,171.07757568, 16.51977539,end
timer_stats,698652351849411,PAPI_L3_TCM,3,171.16168213, 16.52984619,end
timer_stats,698652353002447,PAPI_L3_TCM,0,171.24560547, 16.54016113,end
timer_stats,698652354166705,PAPI_L3_TCM,0,171.32958984, 16.55023193,end
timer_stats,698652355330309,PAPI_L3_TCM,0,171.49450684, 16.57064819,end
timer_stats,698652356482806,PAPI_L3_TCM,2,171.58209228, 16.58065796,end
timer_stats,698652357650342,PAPI_L3_TCM,1,171.66369629, 16.59262085,end
timer_stats,698652358787524,PAPI_L3_TCM,1,171.75115967, 16.60260010,end
timer_stats,698652359948241,PAPI_L3_TCM,0,171.83325195, 16.61265564,end
timer_stats,698652361120015,PAPI_L3_TCM,3,171.91271973, 16.62370300,end
timer_stats,698652362293124,PAPI_L3_TCM,0,172.03125000, 16.63935852,end
timer_stats,698652363467353,PAPI_L3_TCM,0,172.15979004, 16.65458679,end
timer_stats,698652364629528,PAPI_L3_TCM,0,172.23828125, 16.66493225,end
timer_stats,698652365807666,PAPI_L3_TCM,1,172.32305908, 16.67543030,end
timer_stats,698652366981655,PAPI_L3_TCM,0,172.40765381, 16.68545532,end
timer_stats,698652368160291,PAPI_L3_TCM,1,172.48620605, 16.69578552,end
timer_stats,698652369308793,PAPI_L3_TCM,0,172.64868164, 16.71638489,end
timer_stats,698652370491910,PAPI_L3_TCM,3,172.72821045, 16.72718811,end
timer_stats,698652371675644,PAPI_L3_TCM,0,172.80834961, 16.73748779,end
timer_stats,698652372850599,PAPI_L3_TCM,2,172.89093017, 16.74752808,end
timer_stats,698652374033103,PAPI_L3_TCM,0,172.97003174, 16.75759888,end
timer_stats,698652375218539,PAPI_L3_TCM,1,173.05139160, 16.76791382,end
timer_stats,698652376395133,PAPI_L3_TCM,0,173.21734619, 16.78848267,end
timer_stats,698652377575469,PAPI_L3_TCM,1,173.29522705, 16.79881287,end
timer_stats,698652378761816,PAPI_L3_TCM,0,173.37426758, 16.81004333,end
timer_stats,698652379934335,PAPI_L3_TCM,3,173.45446777, 16.82035828,end
timer_stats,698652381140340,PAPI_L3_TCM,1,173.54168701, 16.83106994,end
timer_stats,698652382339575,PAPI_L3_TCM,0,173.66302490, 16.84657287,end
timer_stats,698652383498722,PAPI_L3_TCM,1,173.78167724, 16.86174011,end
timer_stats,698652384685812,PAPI_L3_TCM,1,173.86242676, 16.87229919,end
timer_stats,698652385871445,PAPI_L3_TCM,0,173.94396972, 16.88238525,end
timer_stats,698652387057695,PAPI_L3_TCM,1,174.02606201, 16.89247131,end
timer_stats,698652388245927,PAPI_L3_TCM,0,174.10620117, 16.90299988,end
timer_stats,698652389412353,PAPI_L3_TCM,3,174.26782227, 16.92366028,end
timer_stats,698652390598315,PAPI_L3_TCM,0,174.35675049, 16.93367004,end
timer_stats,698652391791729,PAPI_L3_TCM,0,174.44567871, 16.94374084,end
timer_stats,698652392978712,PAPI_L3_TCM,0,174.53021240, 16.95405579,end
timer_stats,698652394164482,PAPI_L3_TCM,1,174.61798096, 16.96434021,end
timer_stats,698652395338044,PAPI_L3_TCM,0,174.78698730, 16.98030090,end
timer_stats,698652396512168,PAPI_L3_TCM,1,174.87310791, 16.99525451,end
timer_stats,698652397700437,PAPI_L3_TCM,0,174.95782471, 17.00532532,end
timer_stats,698652398888516,PAPI_L3_TCM,3,175.04333496, 17.01539612,end
timer_stats,698652400080451,PAPI_L3_TCM,0,175.12622070, 17.02546692,end
timer_stats,698652401268546,PAPI_L3_TCM,0,175.23480224, 17.04096985,end
timer_stats,698652402454575,PAPI_L3_TCM,0,175.36743164, 17.05638122,end
timer_stats,698652403639297,PAPI_L3_TCM,1,175.44982910, 17.06645203,end
timer_stats,698652404829150,PAPI_L3_TCM,0,175.52593994, 17.07679748,end
timer_stats,698652405990349,PAPI_L3_TCM,1,175.60638428, 17.08732605,end
timer_stats,698652407153661,PAPI_L3_TCM,0,175.68621826, 17.09764099,end
timer_stats,698652408317567,PAPI_L3_TCM,3,175.81665039, 17.11283874,end
timer_stats,698652409523036,PAPI_L3_TCM,0,175.93310547, 17.12849426,end
timer_stats,698652410712453,PAPI_L3_TCM,0,176.01177978, 17.13880920,end
timer_stats,698652411891433,PAPI_L3_TCM,0,176.09594727, 17.14888000,end
timer_stats,698652413064637,PAPI_L3_TCM,1,176.17492676, 17.15898132,end
timer_stats,698652414239183,PAPI_L3_TCM,0,176.25567627, 17.16954040,end
timer_stats,698652415422480,PAPI_L3_TCM,1,176.41375732, 17.19139099,end
timer_stats,698652416584842,PAPI_L3_TCM,3,176.50073242, 17.20225525,end
timer_stats,698652417759430,PAPI_L3_TCM,3,176.57769775, 17.21278381,end
timer_stats,698652418951434,PAPI_L3_TCM,0,176.65789795, 17.22352600,end
timer_stats,698652420113517,PAPI_L3_TCM,0,176.74261474, 17.23435974,end
timer_stats,698652421245982,PAPI_L3_TCM,1,176.83209228, 17.24526977,end
timer_stats,698652422432750,PAPI_L3_TCM,2,176.99768066, 17.26649475,end
timer_stats,698652423629812,PAPI_L3_TCM,0,177.07714844, 17.27723694,end
timer_stats,698652424806553,PAPI_L3_TCM,1,177.16326904, 17.28816223,end
timer_stats,698652425998243,PAPI_L3_TCM,0,177.24499512, 17.29866028,end
timer_stats,698652427170402,PAPI_L3_TCM,3,177.32598877, 17.30897522,end
timer_stats,698652428317070,PAPI_L3_TCM,0,177.41186523, 17.31993103,end
timer_stats,698652429476672,PAPI_L3_TCM,1,177.57366943, 17.34082031,end
timer_stats,698652430651144,PAPI_L3_TCM,0,177.65771484, 17.35131836,end
timer_stats,698652431835226,PAPI_L3_TCM,1,177.74395752, 17.36250305,end
timer_stats,698652433010885,PAPI_L3_TCM,0,177.82183838, 17.37304687,end
timer_stats,698652434198612,PAPI_L3_TCM,2,177.90319824, 17.38333130,end
timer_stats,698652435405793,PAPI_L3_TCM,0,178.06658935, 17.40368652,end
timer_stats,698652436592834,PAPI_L3_TCM,3,178.14892578, 17.41442871,end
timer_stats,698652437780913,PAPI_L3_TCM,1,178.23712158, 17.42535400,end
timer_stats,698652438954920,PAPI_L3_TCM,0,178.31872559, 17.43661499,end
timer_stats,698652440121485,PAPI_L3_TCM,0,178.40734863, 17.44711304,end
timer_stats,698652441253299,PAPI_L3_TCM,1,178.49188232, 17.45782471,end
timer_stats,698652442442386,PAPI_L3_TCM,0,178.67114258, 17.47921753,end
timer_stats,698652443592246,PAPI_L3_TCM,3,178.75622559, 17.48992920,end
timer_stats,698652444736905,PAPI_L3_TCM,0,178.84704590, 17.50126648,end
timer_stats,698652445914694,PAPI_L3_TCM,4,178.93627930, 17.51289368,end
timer_stats,698652447090443,PAPI_L3_TCM,1,179.02758789, 17.52418518,end
timer_stats,698652448246353,PAPI_L3_TCM,1,179.11596680, 17.53532410,end
timer_stats,698652449385286,PAPI_L3_TCM,0,179.30047607, 17.55810547,end
timer_stats,698652450549375,PAPI_L3_TCM,2,179.39385986, 17.56903076,end
timer_stats,698652451705358,PAPI_L3_TCM,0,179.48797607, 17.57971191,end
timer_stats,698652452859841,PAPI_L3_TCM,1,179.57946777, 17.59114075,end
timer_stats,698652454024721,PAPI_L3_TCM,0,179.66619873, 17.60185242,end
timer_stats,698652455191425,PAPI_L3_TCM,5,179.76104736, 17.61277771,end
timer_stats,698652456348964,PAPI_L3_TCM,0,179.89196777, 17.62886047,end
timer_stats,698652457516923,PAPI_L3_TCM,0,180.03802490, 17.64509582,end
timer_stats,698652458688182,PAPI_L3_TCM,0,180.12915039, 17.65653992,end
timer_stats,698652459854181,PAPI_L3_TCM,2,180.21685791, 17.66822815,end
timer_stats,698652461017497,PAPI_L3_TCM,0,180.30834961, 17.67918396,end
timer_stats,698652462184102,PAPI_L3_TCM,1,180.41143799, 17.68986511,end
timer_stats,698652463335955,PAPI_L3_TCM,0,180.51330566, 17.70079040,end
timer_stats,698652464493580,PAPI_L3_TCM,4,180.71685791, 17.72283936,end
timer_stats,698652465656570,PAPI_L3_TCM,1,180.81707764, 17.73396301,end
timer_stats,698652466822558,PAPI_L3_TCM,0,180.91857910, 17.74485779,end
timer_stats,698652468023158,PAPI_L3_TCM,0,181.01916504, 17.75508118,end
timer_stats,698652469180959,PAPI_L3_TCM,2,181.11511230, 17.76544189,end
timer_stats,698652470340872,PAPI_L3_TCM,0,181.21441650, 17.77574158,end
timer_stats,698652471513539,PAPI_L3_TCM,1,181.41955566, 17.79609680,end
timer_stats,698652472688210,PAPI_L3_TCM,0,181.52185059, 17.80683899,end
timer_stats,698652473835166,PAPI_L3_TCM,3,181.62164307, 17.81694031,end
timer_stats,698652475002279,PAPI_L3_TCM,0,181.71783447, 17.82746887,end
timer_stats,698652476120387,PAPI_L3_TCM,23,181.81121826, 17.83782959,end
timer_stats,698652477236378,PAPI_L3_TCM,4,181.91406250, 17.84812927,end
timer_stats,698652478395755,PAPI_L3_TCM,3,182.05230713, 17.85844421,end
timer_stats,698652479518485,PAPI_L3_TCM,0,182.18988037, 17.87904358,end
timer_stats,698652480656356,PAPI_L3_TCM,1,182.28259277, 17.88914490,end
timer_stats,698652481827444,PAPI_L3_TCM,0,182.37799072, 17.89941406,end
timer_stats,698652482988064,PAPI_L3_TCM,3,182.46618652, 17.91067505,end
timer_stats,698652484112338,PAPI_L3_TCM,1,182.55651855, 17.92080688,end
timer_stats,698652485210934,PAPI_L3_TCM,3,182.64642334, 17.93136597,end
timer_stats,698652486364223,PAPI_L3_TCM,2,182.78582764, 17.94656372,end
timer_stats,698652487514850,PAPI_L3_TCM,5,182.93231201, 17.96148682,end
timer_stats,698652488657863,PAPI_L3_TCM,6,183.02038574, 17.97210693,end
timer_stats,698652489806474,PAPI_L3_TCM,2,183.10852051, 17.98089600,end
timer_stats,698652490954945,PAPI_L3_TCM,1,183.20111084, 17.98986816,end
timer_stats,698652492065274,PAPI_L3_TCM,4,183.29376221, 17.99839783,end
timer_stats,698652493185301,PAPI_L3_TCM,1,183.38238525, 18.00720215,end
timer_stats,698652494354285,PAPI_L3_TCM,0,183.46612549, 18.01554871,end
timer_stats,698652495522776,PAPI_L3_TCM,0,183.64660645, 18.03547668,end
timer_stats,698652496669689,PAPI_L3_TCM,2,183.74108887, 18.04554748,end
timer_stats,698652497838374,PAPI_L3_TCM,0,183.83129883, 18.05412292,end
timer_stats,698652499013220,PAPI_L3_TCM,2,183.92639160, 18.06294250,end
timer_stats,698652500153984,PAPI_L3_TCM,0,184.01751709, 18.07199097,end
timer_stats,698652501265150,PAPI_L3_TCM,6,184.11303711, 18.08053589,end
timer_stats,698652502410282,PAPI_L3_TCM,0,184.25268555, 18.09088135,end
timer_stats,698652503555974,PAPI_L3_TCM,0,184.38543701, 18.10563660,end
timer_stats,698652504716200,PAPI_L3_TCM,0,184.47033691, 18.11398315,end
timer_stats,698652505879148,PAPI_L3_TCM,2,184.55645752, 18.12303162,end
timer_stats,698652507036249,PAPI_L3_TCM,0,184.64648437, 18.13111877,end
timer_stats,698652508184547,PAPI_L3_TCM,1,184.73120117, 18.13996887,end
timer_stats,698652509308784,PAPI_L3_TCM,3,184.82073974, 18.14952087,end
timer_stats,698652510479701,PAPI_L3_TCM,3,185.00469971, 18.16737366,end
timer_stats,698652511652017,PAPI_L3_TCM,0,185.09399414, 18.17547607,end
timer_stats,698652512814457,PAPI_L3_TCM,0,185.17773437, 18.18388367,end
timer_stats,698652513982958,PAPI_L3_TCM,0,185.26867676, 18.19241333,end
timer_stats,698652515164383,PAPI_L3_TCM,2,185.35791016, 18.20053100,end
timer_stats,698652516303354,PAPI_L3_TCM,2,185.44958496, 18.20913696,end
timer_stats,698652517454170,PAPI_L3_TCM,1,185.58416748, 18.22265625,end
timer_stats,698652518615180,PAPI_L3_TCM,0,185.71691894, 18.23660278,end
timer_stats,698652519796227,PAPI_L3_TCM,3,185.79559326, 18.24496460,end
timer_stats,698652520974125,PAPI_L3_TCM,0,185.88366699, 18.25306701,end
timer_stats,698652522160840,PAPI_L3_TCM,0,185.96472168, 18.26165771,end
timer_stats,698652523351004,PAPI_L3_TCM,0,186.05242920, 18.27018738,end
timer_stats,698652524548656,PAPI_L3_TCM,2,186.21771240, 18.28765869,end
timer_stats,698652525738733,PAPI_L3_TCM,0,186.30395508, 18.29528808,end
timer_stats,698652526929507,PAPI_L3_TCM,1,186.38720703, 18.30363464,end
timer_stats,698652528083167,PAPI_L3_TCM,0,186.47021484, 18.31196594,end
timer_stats,698652529273950,PAPI_L3_TCM,3,186.55133057, 18.32078552,end
timer_stats,698652530455902,PAPI_L3_TCM,0,186.68322754, 18.33227539,end
timer_stats,698652531640424,PAPI_L3_TCM,0,186.80053711, 18.34655762,end
timer_stats,698652532831317,PAPI_L3_TCM,0,186.88098145, 18.35467529,end
timer_stats,698652534021032,PAPI_L3_TCM,2,186.96630859, 18.36274719,end
timer_stats,698652535210489,PAPI_L3_TCM,0,187.04821777, 18.37059021,end
timer_stats,698652536401294,PAPI_L3_TCM,2,187.12738037, 18.37944031,end
timer_stats,698652537594465,PAPI_L3_TCM,0,187.29321289, 18.39807129,end
timer_stats,698652538790307,PAPI_L3_TCM,3,187.37237549, 18.40499878,end
timer_stats,698652539979394,PAPI_L3_TCM,0,187.45220947, 18.41261291,end
timer_stats,698652541189719,PAPI_L3_TCM,1,187.53491211, 18.42092895,end
timer_stats,698652542383480,PAPI_L3_TCM,0,187.66271973, 18.42898560,end
timer_stats,698652543567245,PAPI_L3_TCM,2,187.78125000, 18.44660950,end
timer_stats,698652544731422,PAPI_L3_TCM,1,187.86425781, 18.45541382,end
timer_stats,698652545894810,PAPI_L3_TCM,1,187.95147705, 18.46438598,end
timer_stats,698652547056874,PAPI_L3_TCM,0,188.03552246, 18.47315979,end
timer_stats,698652548193709,PAPI_L3_TCM,5,188.11657715, 18.48254394,end
timer_stats,698652549341903,PAPI_L3_TCM,0,188.20056152, 18.49153137,end
timer_stats,698652550508581,PAPI_L3_TCM,0,188.36749267, 18.51017761,end
timer_stats,698652551675426,PAPI_L3_TCM,1,188.44750977, 18.51782226,end
timer_stats,698652552820993,PAPI_L3_TCM,3,188.53253174, 18.52679443,end
timer_stats,698652553973918,PAPI_L3_TCM,4,188.61022949, 18.53512573,end
timer_stats,698652555116299,PAPI_L3_TCM,1,188.69244385, 18.54388428,end
timer_stats,698652556269955,PAPI_L3_TCM,2,188.77423096, 18.55267334,end
timer_stats,698652557425572,PAPI_L3_TCM,5,188.90106201, 18.56666565,end
timer_stats,698652558586432,PAPI_L3_TCM,0,189.01904297, 18.58189392,end
timer_stats,698652559766846,PAPI_L3_TCM,0,189.09509277, 18.58979797,end
timer_stats,698652560948807,PAPI_L3_TCM,1,189.17541504, 18.59788513,end
timer_stats,698652562132896,PAPI_L3_TCM,2,189.25476074, 18.60600281,end
timer_stats,698652563316975,PAPI_L3_TCM,4,189.33215332, 18.61407471,end
timer_stats,698652564484531,PAPI_L3_TCM,5,189.49633789, 18.62799072,end
timer_stats,698652565648802,PAPI_L3_TCM,0,189.58032227, 18.64175415,end
timer_stats,698652566805302,PAPI_L3_TCM,2,189.66162109, 18.64939880,end
timer_stats,698652567975251,PAPI_L3_TCM,0,189.73901367, 18.65701294,end
timer_stats,698652569156608,PAPI_L3_TCM,2,189.81628418, 18.66539001,end
timer_stats,698652570343823,PAPI_L3_TCM,0,189.89422607, 18.67393494,end
timer_stats,698652571533341,PAPI_L3_TCM,2,190.04650879, 18.68991089,end
timer_stats,698652572728899,PAPI_L3_TCM,1,190.12536621, 18.69822693,end
timer_stats,698652573929674,PAPI_L3_TCM,1,190.20147705, 18.70536804,end
timer_stats,698652575118398,PAPI_L3_TCM,0,190.27685547, 18.71372986,end
timer_stats,698652576275975,PAPI_L3_TCM,3,190.35711670, 18.72250366,end
timer_stats,698652577469040,PAPI_L3_TCM,0,190.48187256, 18.73646545,end
timer_stats,698652578658765,PAPI_L3_TCM,0,190.58917236, 18.75173950,end
timer_stats,698652579846409,PAPI_L3_TCM,0,190.66540527, 18.76029968,end
timer_stats,698652581030824,PAPI_L3_TCM,2,190.73944092, 18.76988220,end
timer_stats,698652582194795,PAPI_L3_TCM,0,190.81341553, 18.78016662,end
timer_stats,698652583355639,PAPI_L3_TCM,1,190.88665771, 18.79025268,end
timer_stats,698652584515924,PAPI_L3_TCM,0,190.99957275, 18.80548096,end
timer_stats,698652585689898,PAPI_L3_TCM,2,191.10388184, 18.82073975,end
timer_stats,698652586854066,PAPI_L3_TCM,0,191.17938232, 18.83102417,end
timer_stats,698652588033464,PAPI_L3_TCM,0,191.25299072, 18.84109497,end
timer_stats,698652589172595,PAPI_L3_TCM,0,191.32128906, 18.85122681,end
timer_stats,698652590305096,PAPI_L3_TCM,2,191.39605713, 18.86152649,end
timer_stats,698652591434420,PAPI_L3_TCM,1,191.47161865, 18.87208557,end
timer_stats,698652592572817,PAPI_L3_TCM,4,191.59252930, 18.88746643,end
timer_stats,698652593711872,PAPI_L3_TCM,2,191.69531250, 18.90272522,end
timer_stats,698652594877443,PAPI_L3_TCM,2,191.76995849, 18.91276550,end
timer_stats,698652596031315,PAPI_L3_TCM,3,191.84057617, 18.92311096,end
timer_stats,698652597172295,PAPI_L3_TCM,1,191.91601562, 18.93319702,end
timer_stats,698652598334476,PAPI_L3_TCM,0,191.99389648, 18.94351196,end
timer_stats,698652599498818,PAPI_L3_TCM,2,192.11499023, 18.95898437,end
timer_stats,698652600655812,PAPI_L3_TCM,2,192.23364258, 18.97509766,end
timer_stats,698652601824837,PAPI_L3_TCM,7,192.30969238, 18.98583984,end
timer_stats,698652602990761,PAPI_L3_TCM,9,192.39190674, 18.99633789,end
timer_stats,698652604104592,PAPI_L3_TCM,5,192.47027588, 19.00665283,end
timer_stats,698652605254136,PAPI_L3_TCM,4,192.54370117, 19.01678467,end
timer_stats,698652606453570,PAPI_L3_TCM,3,192.61077881, 19.02560425,end
timer_stats,698652607625969,PAPI_L3_TCM,3,192.75604248, 19.04598999,end
