timer_stats,697037765806673,PAPI_L3_TCM,137,  0.08892822,  0.01007080,end
timer_stats,697037766925904,PAPI_L3_TCM,17,  0.16632080,  0.02044678,end
timer_stats,697037768025939,PAPI_L3_TCM,3,  0.33563232,  0.04162598,end
timer_stats,697037769146904,PAPI_L3_TCM,0,  0.37396240,  0.04675293,end
timer_stats,697037770294538,PAPI_L3_TCM,5,  0.51550293,  0.06243896,end
timer_stats,697037771472202,PAPI_L3_TCM,17,  0.62072754,  0.07281494,end
timer_stats,697037772625523,PAPI_L3_TCM,8,  0.69726562,  0.08364868,end
timer_stats,697037773789232,PAPI_L3_TCM,0,  0.78369141,  0.09414673,end
timer_stats,697037774967516,PAPI_L3_TCM,6,  0.87127685,  0.10443115,end
timer_stats,697037776089116,PAPI_L3_TCM,6,  1.00695801,  0.12698364,end
timer_stats,697037777236697,PAPI_L3_TCM,2,  1.14825439,  0.13851929,end
timer_stats,697037778413697,PAPI_L3_TCM,2,  1.21905518,  0.14944458,end
timer_stats,697037781892880,PAPI_L3_TCM,23,  1.47247314,  0.17987060,end
timer_stats,697037783179209,PAPI_L3_TCM,13,  1.65637207,  0.20333862,end
timer_stats,697037784307967,PAPI_L3_TCM,5,  1.76800537,  0.21511841,end
timer_stats,697037785441201,PAPI_L3_TCM,6,  1.89373779,  0.22798157,end
timer_stats,697037786571046,PAPI_L3_TCM,3,  2.01245117,  0.24316406,end
timer_stats,697037787680134,PAPI_L3_TCM,3,  2.14910889,  0.25500488,end
timer_stats,697037791742058,PAPI_L3_TCM,43,  2.64367676,  0.30235290,end
timer_stats,697037793334324,PAPI_L3_TCM,29,  2.86578369,  0.32853699,end
timer_stats,697037794461777,PAPI_L3_TCM,9,  3.00787353,  0.33950806,end
timer_stats,697037795571314,PAPI_L3_TCM,3,  3.15899658,  0.35266113,end
timer_stats,697037796681521,PAPI_L3_TCM,2,  3.32647705,  0.36503601,end
timer_stats,697037797779882,PAPI_L3_TCM,9,  3.47985840,  0.37792969,end
timer_stats,697037798874836,PAPI_L3_TCM,1,  3.63995361,  0.39129639,end
timer_stats,697037799986941,PAPI_L3_TCM,1,  3.87939453,  0.41059875,end
timer_stats,697037801195550,PAPI_L3_TCM,3,  4.06304931,  0.42430115,end
timer_stats,697037802293072,PAPI_L3_TCM,1,  4.34881592,  0.44360352,end
timer_stats,697037803388987,PAPI_L3_TCM,0,  4.50689697,  0.45555115,end
timer_stats,697037804483401,PAPI_L3_TCM,3,  4.69390869,  0.46969604,end
timer_stats,697037805579868,PAPI_L3_TCM,1,  4.87640381,  0.48313904,end
timer_stats,697037806677106,PAPI_L3_TCM,3,  5.08587646,  0.49719238,end
timer_stats,697037807767425,PAPI_L3_TCM,0,  5.28247070,  0.51087952,end
timer_stats,697037808857044,PAPI_L3_TCM,5,  5.49902344,  0.52554321,end
timer_stats,697037809943252,PAPI_L3_TCM,21,  5.71545410,  0.54187012,end
timer_stats,697037811031991,PAPI_L3_TCM,20,  5.88439941,  0.55805969,end
timer_stats,697037812129677,PAPI_L3_TCM,2,  6.35076904,  0.58850097,end
timer_stats,697037816090943,PAPI_L3_TCM,52,  6.98150635,  0.63327026,end
timer_stats,697037817179903,PAPI_L3_TCM,17,  7.13427734,  0.64674377,end
timer_stats,697037818264303,PAPI_L3_TCM,4,  7.46972656,  0.66853332,end
timer_stats,697037819345442,PAPI_L3_TCM,0,  7.69647217,  0.68270874,end
timer_stats,697037820429397,PAPI_L3_TCM,3,  7.92602539,  0.69856262,end
timer_stats,697037821510121,PAPI_L3_TCM,3,  8.16699219,  0.71290588,end
timer_stats,697037822605576,PAPI_L3_TCM,2,  8.38946533,  0.72763061,end
timer_stats,697037823692043,PAPI_L3_TCM,0,  8.63299560,  0.74290466,end
timer_stats,697037824774665,PAPI_L3_TCM,11,  8.85266113,  0.75796509,end
timer_stats,697037825856207,PAPI_L3_TCM,3,  9.07562256,  0.77337646,end
timer_stats,697037826936805,PAPI_L3_TCM,10,  9.30682373,  0.78845215,end
timer_stats,697037828021298,PAPI_L3_TCM,4,  9.54327392,  0.80285644,end
timer_stats,697037829102830,PAPI_L3_TCM,5,  9.88952637,  0.82534790,end
timer_stats,697037830192417,PAPI_L3_TCM,6, 10.19622803,  0.84840393,end
timer_stats,697037831287608,PAPI_L3_TCM,12, 10.43847656,  0.86325073,end
timer_stats,697037832378241,PAPI_L3_TCM,12, 10.69329834,  0.87849426,end
timer_stats,697037833470084,PAPI_L3_TCM,3, 10.92651367,  0.89289856,end
timer_stats,697037834554537,PAPI_L3_TCM,2, 11.14807129,  0.90966797,end
timer_stats,697037835640075,PAPI_L3_TCM,3, 11.40881348,  0.92364502,end
timer_stats,697037836726645,PAPI_L3_TCM,4, 11.64038086,  0.93829346,end
timer_stats,697037837811044,PAPI_L3_TCM,5, 11.87377930,  0.95314026,end
timer_stats,697037838898046,PAPI_L3_TCM,2, 12.11041260,  0.96726990,end
timer_stats,697037839983450,PAPI_L3_TCM,2, 12.34631348,  0.98304748,end
timer_stats,697037841067335,PAPI_L3_TCM,8, 12.70562744,  1.00569153,end
timer_stats,697037842160210,PAPI_L3_TCM,5, 12.95825195,  1.02137756,end
timer_stats,697037843243879,PAPI_L3_TCM,4, 13.31616211,  1.04525757,end
timer_stats,697037844331242,PAPI_L3_TCM,9, 13.55908203,  1.06069946,end
timer_stats,697037845413961,PAPI_L3_TCM,3, 13.76214599,  1.07490539,end
timer_stats,697037846502528,PAPI_L3_TCM,20, 13.97344971,  1.09135437,end
timer_stats,697037847593619,PAPI_L3_TCM,4, 14.21112060,  1.10659790,end
timer_stats,697037848684189,PAPI_L3_TCM,1, 14.43817139,  1.12123108,end
timer_stats,697037849769463,PAPI_L3_TCM,1, 14.68853760,  1.13670349,end
timer_stats,697037850853488,PAPI_L3_TCM,1, 14.92004394,  1.15176392,end
timer_stats,697037851936035,PAPI_L3_TCM,0, 15.17077637,  1.15943909,end
timer_stats,697037853019001,PAPI_L3_TCM,2, 15.40222168,  1.17469787,end
timer_stats,697037854102157,PAPI_L3_TCM,2, 15.76385498,  1.19732666,end
timer_stats,697037855186256,PAPI_L3_TCM,6, 16.13171387,  1.22042846,end
timer_stats,697037856269293,PAPI_L3_TCM,7, 16.36492920,  1.23619079,end
timer_stats,697037857353129,PAPI_L3_TCM,2, 16.60235596,  1.25144958,end
timer_stats,697037860944544,PAPI_L3_TCM,44, 17.23248291,  1.28926086,end
timer_stats,697037862028717,PAPI_L3_TCM,36, 17.38690185,  1.30720520,end
timer_stats,697037863114892,PAPI_L3_TCM,11, 17.75744629,  1.33294678,end
timer_stats,697037864199670,PAPI_L3_TCM,11, 18.12261963,  1.35748291,end
timer_stats,697037865282624,PAPI_L3_TCM,6, 18.39337158,  1.37426758,end
timer_stats,697037866366017,PAPI_L3_TCM,6, 18.63366699,  1.39112854,end
timer_stats,697037867448843,PAPI_L3_TCM,1, 18.87927246,  1.40744019,end
timer_stats,697037868531632,PAPI_L3_TCM,7, 19.14239502,  1.42465210,end
timer_stats,697037869614085,PAPI_L3_TCM,3, 19.38049316,  1.44200134,end
timer_stats,697037870697499,PAPI_L3_TCM,3, 19.64404297,  1.45919800,end
timer_stats,697037871781359,PAPI_L3_TCM,7, 19.88531494,  1.47662353,end
timer_stats,697037872865304,PAPI_L3_TCM,4, 20.14166260,  1.49473572,end
timer_stats,697037873948837,PAPI_L3_TCM,12, 20.38244629,  1.51266479,end
timer_stats,697037875031344,PAPI_L3_TCM,6, 20.62896729,  1.53031921,end
timer_stats,697037876113258,PAPI_L3_TCM,12, 21.01953125,  1.55650329,end
timer_stats,697037877195484,PAPI_L3_TCM,13, 21.38513183,  1.58366394,end
timer_stats,697037878279495,PAPI_L3_TCM,16, 21.63580322,  1.60066223,end
timer_stats,697037879370875,PAPI_L3_TCM,6, 21.88946533,  1.61747742,end
timer_stats,697037880454323,PAPI_L3_TCM,6, 22.13751221,  1.63478088,end
timer_stats,697037883358308,PAPI_L3_TCM,32, 22.88262939,  1.68626404,end
timer_stats,697037884453140,PAPI_L3_TCM,17, 23.13165283,  1.70269775,end
timer_stats,697037885542512,PAPI_L3_TCM,7, 23.38732910,  1.71971130,end
timer_stats,697037886632130,PAPI_L3_TCM,5, 23.64129639,  1.73669433,end
timer_stats,697037887719397,PAPI_L3_TCM,2, 23.89093018,  1.75373840,end
timer_stats,697037888812297,PAPI_L3_TCM,3, 24.14440918,  1.77165222,end
timer_stats,697037889896312,PAPI_L3_TCM,3, 24.39672851,  1.79016113,end
timer_stats,697037890979816,PAPI_L3_TCM,5, 24.63995361,  1.80918884,end
timer_stats,697037892023905,PAPI_L3_TCM,11, 24.90167236,  1.82524109,end
timer_stats,697037895395858,PAPI_L3_TCM,84, 25.77502441,  1.88212585,end
timer_stats,697037896507617,PAPI_L3_TCM,42, 25.97436523,  1.89825439,end
timer_stats,697037897594009,PAPI_L3_TCM,15, 26.23199463,  1.91439819,end
timer_stats,697037898680153,PAPI_L3_TCM,2, 26.45306396,  1.93176269,end
timer_stats,697037899765330,PAPI_L3_TCM,0, 26.71270752,  1.94783020,end
timer_stats,697037900852576,PAPI_L3_TCM,9, 26.97680664,  1.96528625,end
timer_stats,697037901937881,PAPI_L3_TCM,8, 27.22113037,  1.98226929,end
timer_stats,697037903023303,PAPI_L3_TCM,2, 27.47656250,  1.99874878,end
timer_stats,697037904108014,PAPI_L3_TCM,2, 27.84729004,  2.02372742,end
timer_stats,697037905195596,PAPI_L3_TCM,6, 28.22192383,  2.04960632,end
timer_stats,697037906282265,PAPI_L3_TCM,9, 28.46929932,  2.06600952,end
timer_stats,697037907372778,PAPI_L3_TCM,9, 28.72259521,  2.08277893,end
timer_stats,697037908453649,PAPI_L3_TCM,1, 28.96807861,  2.09829712,end
timer_stats,697037909538066,PAPI_L3_TCM,4, 29.21411133,  2.11576843,end
timer_stats,697037910617878,PAPI_L3_TCM,2, 29.43835449,  2.13099670,end
timer_stats,697037911698452,PAPI_L3_TCM,17, 29.67254639,  2.14700317,end
timer_stats,697037912772579,PAPI_L3_TCM,24, 29.89691162,  2.16281128,end
timer_stats,697037913840062,PAPI_L3_TCM,4, 30.11236572,  2.17832947,end
timer_stats,697037914928657,PAPI_L3_TCM,2, 30.32354736,  2.19403076,end
timer_stats,697037915999372,PAPI_L3_TCM,2, 30.53039551,  2.20959473,end
timer_stats,697037917079548,PAPI_L3_TCM,3, 30.74163818,  2.22535705,end
timer_stats,697037918146334,PAPI_L3_TCM,1, 31.04675293,  2.24819946,end
timer_stats,697037919213892,PAPI_L3_TCM,0, 31.34387207,  2.26292419,end
timer_stats,697037920294958,PAPI_L3_TCM,40, 31.53253174,  2.28598022,end
timer_stats,697037921366671,PAPI_L3_TCM,1, 31.73394775,  2.29968262,end
timer_stats,697037922450718,PAPI_L3_TCM,2, 31.90551758,  2.31373596,end
timer_stats,697037923532365,PAPI_L3_TCM,2, 32.08715820,  2.32867432,end
timer_stats,697037924635993,PAPI_L3_TCM,5, 32.26739502,  2.34321594,end
timer_stats,697037925744160,PAPI_L3_TCM,0, 32.43713379,  2.35858154,end
timer_stats,697037926860196,PAPI_L3_TCM,65, 32.60632324,  2.37200928,end
timer_stats,697037927982625,PAPI_L3_TCM,47, 32.77532959,  2.38563538,end
timer_stats,697037929110840,PAPI_L3_TCM,18, 33.02526855,  2.40667725,end
timer_stats,697037930239994,PAPI_L3_TCM,5, 33.24627685,  2.42767334,end
timer_stats,697037931370900,PAPI_L3_TCM,6, 33.40600586,  2.44168091,end
timer_stats,697037932492293,PAPI_L3_TCM,9, 33.57208252,  2.45553589,end
timer_stats,697037933619529,PAPI_L3_TCM,2, 33.71936035,  2.46861267,end
timer_stats,697037934748074,PAPI_L3_TCM,0, 33.87487793,  2.48254394,end
timer_stats,697037935879023,PAPI_L3_TCM,4, 34.02563476,  2.49601746,end
timer_stats,697037937005469,PAPI_L3_TCM,2, 34.16912842,  2.50909424,end
timer_stats,697037938146681,PAPI_L3_TCM,2, 34.32226562,  2.52235413,end
timer_stats,697037939277348,PAPI_L3_TCM,0, 34.60070801,  2.54800415,end
timer_stats,697037940394839,PAPI_L3_TCM,8, 34.73883057,  2.56024170,end
timer_stats,697037941526143,PAPI_L3_TCM,0, 34.89117432,  2.57278442,end
timer_stats,697037942660795,PAPI_L3_TCM,1, 35.02789307,  2.58538818,end
timer_stats,697037943796450,PAPI_L3_TCM,1, 35.16448974,  2.59777832,end
timer_stats,697037944929603,PAPI_L3_TCM,3, 35.29608154,  2.60998535,end
timer_stats,697037946069137,PAPI_L3_TCM,0, 35.44287109,  2.62237549,end
timer_stats,697037947210734,PAPI_L3_TCM,3, 35.65728760,  2.64767456,end
timer_stats,697037948328238,PAPI_L3_TCM,2, 35.86682129,  2.66099548,end
timer_stats,697037949473508,PAPI_L3_TCM,6, 35.99914551,  2.67362976,end
timer_stats,697037950616458,PAPI_L3_TCM,0, 36.14196777,  2.68626404,end
timer_stats,697037952857478,PAPI_L3_TCM,19, 36.41796875,  2.72026062,end
timer_stats,697037953979662,PAPI_L3_TCM,5, 36.54028320,  2.73393249,end
timer_stats,697037955128032,PAPI_L3_TCM,1, 36.76104736,  2.75378418,end
timer_stats,697037956280147,PAPI_L3_TCM,1, 36.96960449,  2.77302551,end
timer_stats,697037957410924,PAPI_L3_TCM,2, 37.10424805,  2.78495788,end
timer_stats,697037958564351,PAPI_L3_TCM,1, 37.22656250,  2.79692078,end
timer_stats,697037959711675,PAPI_L3_TCM,3, 37.35662842,  2.80862427,end
timer_stats,697037960861520,PAPI_L3_TCM,1, 37.46899414,  2.82019043,end
timer_stats,697037962020956,PAPI_L3_TCM,3, 37.59698486,  2.83119202,end
timer_stats,697037963185980,PAPI_L3_TCM,1, 37.76385498,  2.84861755,end
timer_stats,697037964350376,PAPI_L3_TCM,2, 37.93572998,  2.86555481,end
timer_stats,697037965523667,PAPI_L3_TCM,2, 38.04248047,  2.87672424,end
timer_stats,697037966678819,PAPI_L3_TCM,2, 38.15997314,  2.89018249,end
timer_stats,697037967831978,PAPI_L3_TCM,1, 38.27056885,  2.90196228,end
timer_stats,697037968984884,PAPI_L3_TCM,3, 38.38824463,  2.91445923,end
timer_stats,697037970141251,PAPI_L3_TCM,0, 38.49438476,  2.92518616,end
timer_stats,697037971303807,PAPI_L3_TCM,1, 38.71203613,  2.94766235,end
timer_stats,697037972460440,PAPI_L3_TCM,0, 38.81610107,  2.95928955,end
timer_stats,697037973615680,PAPI_L3_TCM,2, 38.91821289,  2.97045898,end
timer_stats,697037974769899,PAPI_L3_TCM,1, 39.02465820,  2.98182678,end
timer_stats,697037975921287,PAPI_L3_TCM,2, 39.12127685,  2.99253845,end
timer_stats,697037977079468,PAPI_L3_TCM,1, 39.21948242,  3.00346374,end
timer_stats,697037978239808,PAPI_L3_TCM,2, 39.36560059,  3.02049255,end
timer_stats,697037979394024,PAPI_L3_TCM,0, 39.50488281,  3.03709412,end
timer_stats,697037980550519,PAPI_L3_TCM,1, 39.60296631,  3.04829407,end
timer_stats,697037981702364,PAPI_L3_TCM,1, 39.70251465,  3.05854797,end
timer_stats,697037982856055,PAPI_L3_TCM,1, 39.79095459,  3.06887817,end
timer_stats,697037984014811,PAPI_L3_TCM,5, 39.87994385,  3.08062744,end
timer_stats,697037985172855,PAPI_L3_TCM,2, 40.02508545,  3.09664917,end
timer_stats,697037986362216,PAPI_L3_TCM,0, 40.16522217,  3.11303711,end
timer_stats,697037987544426,PAPI_L3_TCM,8, 40.26068115,  3.12445068,end
timer_stats,697037988719720,PAPI_L3_TCM,2, 40.35021973,  3.13568115,end
