timer_stats,696995739522015,PAPI_L3_TCM,333,  0.09368896,  0.01025391,end
timer_stats,696995740648059,PAPI_L3_TCM,40,  0.27020264,  0.03202820,end
timer_stats,696995741780591,PAPI_L3_TCM,6,  0.35778808,  0.04179382,end
timer_stats,696995742942136,PAPI_L3_TCM,9,  0.45239258,  0.05209350,end
timer_stats,696995744202964,PAPI_L3_TCM,38,  0.55285644,  0.06378174,end
timer_stats,696995745371906,PAPI_L3_TCM,4,  0.65417480,  0.07446289,end
timer_stats,696995746558171,PAPI_L3_TCM,4,  0.74121094,  0.08499145,end
timer_stats,696995747744876,PAPI_L3_TCM,4,  0.92315674,  0.10577393,end
timer_stats,696995748943538,PAPI_L3_TCM,7,  1.01672363,  0.11650085,end
timer_stats,696995750081545,PAPI_L3_TCM,16,  1.11151123,  0.12692261,end
timer_stats,696995751205737,PAPI_L3_TCM,15,  1.20996094,  0.13879394,end
timer_stats,696995752317222,PAPI_L3_TCM,4,  1.31927490,  0.15130615,end
timer_stats,696995753405369,PAPI_L3_TCM,11,  1.43957519,  0.16508484,end
timer_stats,696995754744712,PAPI_L3_TCM,14,  1.69464111,  0.18960571,end
timer_stats,696995756066673,PAPI_L3_TCM,9,  1.80999756,  0.19956970,end
timer_stats,696995757184282,PAPI_L3_TCM,1,  1.92675781,  0.21240234,end
timer_stats,696995758292255,PAPI_L3_TCM,1,  2.07409668,  0.22486877,end
timer_stats,696995759407027,PAPI_L3_TCM,0,  2.22052002,  0.23666382,end
timer_stats,696995760525919,PAPI_L3_TCM,0,  2.36871338,  0.24868774,end
timer_stats,696995761630493,PAPI_L3_TCM,2,  2.58190918,  0.26647949,end
timer_stats,696995763559314,PAPI_L3_TCM,2,  2.82470703,  0.28611755,end
timer_stats,696995764646748,PAPI_L3_TCM,3,  3.19921875,  0.31053161,end
timer_stats,696995765729652,PAPI_L3_TCM,0,  3.41094971,  0.32342529,end
timer_stats,696995766808938,PAPI_L3_TCM,0,  3.62487793,  0.33673096,end
timer_stats,696995767887511,PAPI_L3_TCM,4,  3.85028076,  0.35000610,end
timer_stats,696995769040801,PAPI_L3_TCM,8,  4.04302978,  0.36361694,end
timer_stats,696995770118292,PAPI_L3_TCM,1,  4.22955322,  0.37680054,end
timer_stats,696995771206744,PAPI_L3_TCM,4,  4.44549560,  0.39050293,end
timer_stats,696995778127850,PAPI_L3_TCM,34,  5.70306396,  0.47750854,end
timer_stats,696995779206595,PAPI_L3_TCM,10,  5.86932373,  0.49237061,end
timer_stats,696995780289341,PAPI_L3_TCM,0,  6.07482910,  0.50794983,end
timer_stats,696995781365590,PAPI_L3_TCM,3,  6.28997803,  0.52230835,end
timer_stats,696995782443881,PAPI_L3_TCM,5,  6.51104736,  0.53491211,end
timer_stats,696995783533865,PAPI_L3_TCM,0,  6.75701904,  0.54861450,end
timer_stats,696995784622981,PAPI_L3_TCM,0,  6.97625732,  0.56211853,end
timer_stats,696995785712414,PAPI_L3_TCM,3,  7.46673584,  0.59014893,end
timer_stats,696995786797165,PAPI_L3_TCM,5,  7.71319580,  0.60446167,end
timer_stats,696995787880088,PAPI_L3_TCM,4,  7.94281006,  0.61880493,end
timer_stats,696995788966128,PAPI_L3_TCM,27,  8.16522217,  0.63006592,end
timer_stats,696995790058199,PAPI_L3_TCM,14,  8.38214111,  0.64486694,end
timer_stats,696995791142957,PAPI_L3_TCM,7,  8.63348389,  0.65985107,end
timer_stats,696995792228143,PAPI_L3_TCM,8,  8.88854980,  0.67396545,end
timer_stats,696995793307759,PAPI_L3_TCM,2,  9.13867187,  0.68873596,end
timer_stats,696995794385887,PAPI_L3_TCM,4,  9.40032959,  0.70301819,end
timer_stats,696995795474458,PAPI_L3_TCM,13,  9.66296387,  0.71800232,end
timer_stats,696995796559758,PAPI_L3_TCM,5,  9.91125488,  0.73251343,end
timer_stats,696995797641247,PAPI_L3_TCM,1, 10.29296875,  0.75431824,end
timer_stats,696995798721393,PAPI_L3_TCM,3, 10.69500732,  0.77566528,end
timer_stats,696995799806322,PAPI_L3_TCM,3, 10.95062256,  0.78997803,end
timer_stats,696995800887309,PAPI_L3_TCM,6, 11.22412109,  0.80456543,end
timer_stats,696995801968892,PAPI_L3_TCM,4, 11.46655273,  0.81910705,end
timer_stats,696995803054728,PAPI_L3_TCM,5, 11.74914551,  0.83357239,end
timer_stats,696995804133662,PAPI_L3_TCM,2, 12.00616455,  0.84803772,end
timer_stats,696995805218620,PAPI_L3_TCM,8, 12.24267578,  0.86372375,end
timer_stats,696995806299935,PAPI_L3_TCM,3, 12.51647949,  0.87904358,end
timer_stats,696995807379894,PAPI_L3_TCM,5, 12.76531982,  0.89353943,end
timer_stats,696995808459900,PAPI_L3_TCM,6, 13.03247070,  0.90846252,end
timer_stats,696995809539913,PAPI_L3_TCM,6, 13.29003906,  0.92297363,end
timer_stats,696995810622215,PAPI_L3_TCM,4, 13.55352783,  0.93797302,end
timer_stats,696995811711332,PAPI_L3_TCM,3, 14.07238769,  0.96632385,end
timer_stats,696995812791197,PAPI_L3_TCM,9, 14.33673096,  0.98037720,end
timer_stats,696995815831584,PAPI_L3_TCM,65, 14.94073486,  1.01800537,end
timer_stats,696995816916055,PAPI_L3_TCM,28, 15.17163086,  1.03471374,end
timer_stats,696995817997110,PAPI_L3_TCM,8, 15.45843506,  1.05200195,end
timer_stats,696995819076828,PAPI_L3_TCM,1, 15.71905517,  1.06988525,end
timer_stats,696995820155771,PAPI_L3_TCM,4, 15.98815918,  1.08613586,end
timer_stats,696995821235402,PAPI_L3_TCM,1, 16.26959228,  1.09387207,end
timer_stats,696995822316666,PAPI_L3_TCM,3, 16.54339600,  1.11099243,end
timer_stats,696995823396338,PAPI_L3_TCM,4, 16.80957031,  1.12791443,end
timer_stats,696995824475784,PAPI_L3_TCM,4, 17.07757568,  1.14462280,end
timer_stats,696995825555468,PAPI_L3_TCM,1, 17.34381103,  1.16183472,end
timer_stats,696995826635589,PAPI_L3_TCM,3, 17.62719726,  1.17050171,end
timer_stats,696995827714770,PAPI_L3_TCM,6, 18.01251221,  1.19622803,end
timer_stats,696995828793889,PAPI_L3_TCM,9, 18.42846680,  1.22184753,end
timer_stats,696995829873394,PAPI_L3_TCM,4, 18.69476318,  1.23857117,end
timer_stats,696995830953660,PAPI_L3_TCM,15, 18.97247314,  1.25596618,end
timer_stats,696995832019033,PAPI_L3_TCM,15, 19.25524902,  1.27378845,end
timer_stats,696995833099406,PAPI_L3_TCM,10, 19.51470947,  1.29188537,end
timer_stats,696995834178790,PAPI_L3_TCM,4, 19.79803467,  1.30027771,end
timer_stats,696995835258596,PAPI_L3_TCM,8, 20.06225586,  1.31742859,end
timer_stats,696995836337935,PAPI_L3_TCM,6, 20.32501221,  1.33438110,end
timer_stats,696995837417530,PAPI_L3_TCM,8, 20.59564209,  1.35110474,end
timer_stats,696995838496461,PAPI_L3_TCM,3, 20.86499023,  1.36828613,end
timer_stats,696995839575807,PAPI_L3_TCM,6, 21.14654541,  1.38520813,end
timer_stats,696995840656537,PAPI_L3_TCM,4, 21.41156006,  1.40193176,end
timer_stats,696995844076724,PAPI_L3_TCM,313, 22.32666015,  1.46302795,end
timer_stats,696995845166330,PAPI_L3_TCM,128, 22.55029297,  1.48083496,end
timer_stats,696995846248649,PAPI_L3_TCM,7, 22.81140137,  1.49732971,end
timer_stats,696995847328915,PAPI_L3_TCM,4, 23.07391357,  1.51405334,end
timer_stats,696995848408559,PAPI_L3_TCM,6, 23.33996582,  1.53079224,end
timer_stats,696995849488708,PAPI_L3_TCM,4, 23.62213135,  1.54748535,end
timer_stats,696995850568800,PAPI_L3_TCM,5, 23.88677978,  1.56419372,end
timer_stats,696995851648662,PAPI_L3_TCM,3, 24.15954590,  1.58058166,end
timer_stats,696995852731414,PAPI_L3_TCM,20, 24.69055176,  1.61509704,end
timer_stats,696995853815556,PAPI_L3_TCM,14, 24.95428467,  1.63288879,end
timer_stats,696995854893491,PAPI_L3_TCM,3, 25.23181152,  1.65003967,end
timer_stats,696995855971676,PAPI_L3_TCM,21, 25.48956299,  1.66674805,end
timer_stats,696995857052117,PAPI_L3_TCM,28, 25.75860596,  1.68267822,end
timer_stats,696995858129588,PAPI_L3_TCM,10, 26.00915527,  1.69837952,end
timer_stats,696995859204337,PAPI_L3_TCM,9, 26.25714111,  1.71333313,end
timer_stats,696995860276961,PAPI_L3_TCM,1, 26.50555420,  1.72944641,end
timer_stats,696995861360507,PAPI_L3_TCM,7, 26.74761963,  1.74583435,end
timer_stats,696995862446661,PAPI_L3_TCM,1, 26.98681640,  1.76052856,end
timer_stats,696995863525716,PAPI_L3_TCM,2, 27.22027588,  1.77528381,end
timer_stats,696995864605373,PAPI_L3_TCM,5, 27.43304443,  1.79035950,end
timer_stats,696995865682927,PAPI_L3_TCM,4, 27.64916992,  1.80480957,end
timer_stats,696995866760149,PAPI_L3_TCM,1, 28.02374268,  1.83317566,end
timer_stats,696995867836916,PAPI_L3_TCM,2, 28.20538330,  1.84684753,end
timer_stats,696995868913210,PAPI_L3_TCM,7, 28.39105225,  1.86027527,end
timer_stats,696995869994482,PAPI_L3_TCM,19, 28.55645752,  1.87351990,end
timer_stats,696995871067085,PAPI_L3_TCM,4, 28.73089600,  1.88612366,end
timer_stats,696995872136049,PAPI_L3_TCM,4, 28.89123535,  1.89895630,end
timer_stats,696995873206635,PAPI_L3_TCM,1, 29.05548096,  1.91226196,end
timer_stats,696995874275354,PAPI_L3_TCM,1, 29.21911621,  1.92507935,end
timer_stats,696995875344591,PAPI_L3_TCM,0, 29.36676025,  1.93795776,end
timer_stats,696995876443114,PAPI_L3_TCM,4, 29.52801514,  1.95079040,end
timer_stats,696995877555288,PAPI_L3_TCM,2, 29.67675781,  1.96319580,end
timer_stats,696995878671274,PAPI_L3_TCM,2, 29.90240478,  1.97610474,end
timer_stats,696995879784978,PAPI_L3_TCM,2, 30.11547851,  2.00117493,end
timer_stats,696995880898211,PAPI_L3_TCM,2, 30.26867676,  2.01380920,end
timer_stats,696995882012729,PAPI_L3_TCM,8, 30.41198730,  2.02571106,end
timer_stats,696995883129704,PAPI_L3_TCM,6, 30.55859375,  2.03860473,end
timer_stats,696995884219241,PAPI_L3_TCM,6, 30.68682861,  2.05108642,end
timer_stats,696995885344421,PAPI_L3_TCM,2, 30.83514404,  2.06350708,end
timer_stats,696995886467411,PAPI_L3_TCM,0, 30.97650146,  2.07571411,end
timer_stats,696995887594072,PAPI_L3_TCM,4, 31.11407471,  2.08789062,end
timer_stats,696995888716807,PAPI_L3_TCM,1, 31.32452393,  2.10635376,end
timer_stats,696995890950950,PAPI_L3_TCM,107, 31.65478515,  2.13467407,end
timer_stats,696995892042470,PAPI_L3_TCM,4, 31.79766846,  2.14813232,end
timer_stats,696995893143567,PAPI_L3_TCM,7, 31.93920898,  2.16098022,end
timer_stats,696995894263136,PAPI_L3_TCM,2, 32.07928467,  2.17358398,end
timer_stats,696995895383160,PAPI_L3_TCM,4, 32.21984863,  2.18621826,end
timer_stats,696995896490865,PAPI_L3_TCM,2, 32.36212158,  2.19906616,end
timer_stats,696995897616494,PAPI_L3_TCM,2, 32.50665283,  2.21173096,end
timer_stats,696995898739174,PAPI_L3_TCM,0, 32.65374756,  2.22434997,end
timer_stats,696995899867663,PAPI_L3_TCM,1, 32.93218994,  2.24974060,end
timer_stats,696995900993368,PAPI_L3_TCM,0, 33.06317138,  2.26176452,end
timer_stats,696995902122830,PAPI_L3_TCM,1, 33.20220947,  2.27394104,end
timer_stats,696995903251107,PAPI_L3_TCM,0, 33.33087158,  2.28646851,end
timer_stats,696995904354822,PAPI_L3_TCM,4, 33.45635986,  2.29803467,end
timer_stats,696995905481454,PAPI_L3_TCM,0, 33.58776855,  2.31033325,end
timer_stats,696995906620839,PAPI_L3_TCM,3, 33.70220947,  2.32168579,end
timer_stats,696995907768421,PAPI_L3_TCM,1, 33.91229248,  2.34216309,end
timer_stats,696995908914616,PAPI_L3_TCM,2, 34.01538086,  2.35243225,end
timer_stats,696995910064515,PAPI_L3_TCM,0, 34.11212158,  2.36293030,end
timer_stats,696995911192578,PAPI_L3_TCM,2, 34.21313476,  2.37345886,end
timer_stats,696995912294298,PAPI_L3_TCM,8, 34.31610107,  2.38508606,end
