timer_stats,698880369671986,PAPI_L3_TCM,348,  0.07305908,  0.01028442,end
timer_stats,698880370773040,PAPI_L3_TCM,37,  0.14965820,  0.02055359,end
timer_stats,698880371918896,PAPI_L3_TCM,5,  0.22723389,  0.03169250,end
timer_stats,698880373054164,PAPI_L3_TCM,5,  0.34045410,  0.04737854,end
timer_stats,698880374196277,PAPI_L3_TCM,7,  0.45721435,  0.06346130,end
timer_stats,698880375460896,PAPI_L3_TCM,35,  0.53295898,  0.07420349,end
timer_stats,698880376597231,PAPI_L3_TCM,23,  0.61718750,  0.08509827,end
timer_stats,698880377780578,PAPI_L3_TCM,2,  0.69171143,  0.09538269,end
timer_stats,698880378965446,PAPI_L3_TCM,9,  0.76965332,  0.10484314,end
timer_stats,698880380125211,PAPI_L3_TCM,12,  0.91912842,  0.12638855,end
timer_stats,698880381267872,PAPI_L3_TCM,1,  0.99578857,  0.13832092,end
timer_stats,698880382399630,PAPI_L3_TCM,4,  1.07293701,  0.14897156,end
timer_stats,698880383540991,PAPI_L3_TCM,1,  1.15704346,  0.15989685,end
timer_stats,698880384663549,PAPI_L3_TCM,2,  1.23895264,  0.17082214,end
timer_stats,698880385790809,PAPI_L3_TCM,0,  1.32043457,  0.18156433,end
timer_stats,698880386930321,PAPI_L3_TCM,5,  1.39721680,  0.19206238,end
timer_stats,698880388048858,PAPI_L3_TCM,3,  1.53466797,  0.20767212,end
timer_stats,698880389202820,PAPI_L3_TCM,2,  1.65014648,  0.22311401,end
timer_stats,698880390362457,PAPI_L3_TCM,0,  1.72814941,  0.23190307,end
timer_stats,698880391537406,PAPI_L3_TCM,7,  1.80737305,  0.24066162,end
timer_stats,698880392715396,PAPI_L3_TCM,0,  1.88323975,  0.24926758,end
timer_stats,698880393898021,PAPI_L3_TCM,1,  1.96380615,  0.25976562,end
timer_stats,698880395079015,PAPI_L3_TCM,0,  2.09301758,  0.27389526,end
timer_stats,698880396254836,PAPI_L3_TCM,1,  2.20068359,  0.28964233,end
timer_stats,698880397421808,PAPI_L3_TCM,0,  2.28210449,  0.29995727,end
timer_stats,698880398581155,PAPI_L3_TCM,2,  2.36285400,  0.30853271,end
timer_stats,698880399741260,PAPI_L3_TCM,0,  2.44403076,  0.31857300,end
timer_stats,698880400901491,PAPI_L3_TCM,3,  2.52563476,  0.32934570,end
timer_stats,698880402068669,PAPI_L3_TCM,1,  2.65985107,  0.34539795,end
timer_stats,698880403197750,PAPI_L3_TCM,1,  2.79907226,  0.36296081,end
timer_stats,698880404329885,PAPI_L3_TCM,1,  2.89880371,  0.37525940,end
timer_stats,698880405454120,PAPI_L3_TCM,0,  3.00836182,  0.38749695,end
timer_stats,698880406666254,PAPI_L3_TCM,0,  3.11352539,  0.39862061,end
timer_stats,698880407953945,PAPI_L3_TCM,1,  3.22357178,  0.40994263,end
timer_stats,698880409127742,PAPI_L3_TCM,7,  3.43878174,  0.43458557,end
timer_stats,698880410310897,PAPI_L3_TCM,3,  3.55480957,  0.44070434,end
timer_stats,698880411588106,PAPI_L3_TCM,1,  3.66888428,  0.45245361,end
timer_stats,698880412733947,PAPI_L3_TCM,5,  3.78094482,  0.46382141,end
timer_stats,698880413954528,PAPI_L3_TCM,0,  3.90374756,  0.47515869,end
timer_stats,698880415141637,PAPI_L3_TCM,0,  4.14868164,  0.49874878,end
timer_stats,698880416304983,PAPI_L3_TCM,1,  4.27789306,  0.51029968,end
timer_stats,698880417512470,PAPI_L3_TCM,1,  4.41662598,  0.52203369,end
timer_stats,698880418766783,PAPI_L3_TCM,0,  4.57507324,  0.53450012,end
timer_stats,698880419894023,PAPI_L3_TCM,5,  4.73138428,  0.54696655,end
timer_stats,698880421006864,PAPI_L3_TCM,4,  4.88732910,  0.55984497,end
timer_stats,698880422146230,PAPI_L3_TCM,1,  5.18853760,  0.58341980,end
timer_stats,698880423350318,PAPI_L3_TCM,2,  5.35552978,  0.59654236,end
timer_stats,698880424524676,PAPI_L3_TCM,0,  5.51068115,  0.60968017,end
timer_stats,698880425673491,PAPI_L3_TCM,0,  5.68029785,  0.62347412,end
timer_stats,698880426791354,PAPI_L3_TCM,1,  5.83654785,  0.63609314,end
timer_stats,698880427926618,PAPI_L3_TCM,0,  5.99548340,  0.64892578,end
timer_stats,698880429180103,PAPI_L3_TCM,7,  6.25512695,  0.67012024,end
timer_stats,698880430310238,PAPI_L3_TCM,3,  6.49456787,  0.68832397,end
timer_stats,698880431487413,PAPI_L3_TCM,4,  6.65539551,  0.70234680,end
timer_stats,698880432699067,PAPI_L3_TCM,1,  6.83905029,  0.71733093,end
timer_stats,698880433867678,PAPI_L3_TCM,0,  7.00030518,  0.73051453,end
timer_stats,698880434988245,PAPI_L3_TCM,0,  7.17889404,  0.74342346,end
timer_stats,698880436115515,PAPI_L3_TCM,3,  7.35540771,  0.75782776,end
timer_stats,698880437216997,PAPI_L3_TCM,4,  7.71960449,  0.78840637,end
timer_stats,698880438310244,PAPI_L3_TCM,5,  7.91278076,  0.80488586,end
timer_stats,698880439401648,PAPI_L3_TCM,5,  8.09564209,  0.82044983,end
timer_stats,698880440484168,PAPI_L3_TCM,3,  8.27954101,  0.83387756,end
timer_stats,698880441561437,PAPI_L3_TCM,2,  8.46038818,  0.84762573,end
timer_stats,698880442640747,PAPI_L3_TCM,1,  8.62426758,  0.86262512,end
timer_stats,698880443727700,PAPI_L3_TCM,5,  8.80328369,  0.87886047,end
timer_stats,698880447526187,PAPI_L3_TCM,29,  9.32495117,  0.92800903,end
timer_stats,698880448637683,PAPI_L3_TCM,5,  9.47241211,  0.94236755,end
timer_stats,698880449736298,PAPI_L3_TCM,2,  9.62713623,  0.95695496,end
timer_stats,698880450853163,PAPI_L3_TCM,4,  9.80480957,  0.97076416,end
timer_stats,698880451942909,PAPI_L3_TCM,6,  9.96575928,  0.98442078,end
timer_stats,698880453051694,PAPI_L3_TCM,2, 10.13372803,  0.99847412,end
timer_stats,698880454150816,PAPI_L3_TCM,0, 10.45373535,  1.02806091,end
timer_stats,698880455239981,PAPI_L3_TCM,0, 10.63018799,  1.04122925,end
timer_stats,698880456331566,PAPI_L3_TCM,7, 10.78930664,  1.05596924,end
timer_stats,698880457431835,PAPI_L3_TCM,1, 10.95642090,  1.06974792,end
timer_stats,698880458514785,PAPI_L3_TCM,6, 11.10418701,  1.08332825,end
timer_stats,698880459592088,PAPI_L3_TCM,1, 11.26153564,  1.09713745,end
timer_stats,698880460669423,PAPI_L3_TCM,3, 11.41662598,  1.11193848,end
timer_stats,698880461772318,PAPI_L3_TCM,3, 11.57397461,  1.12628174,end
timer_stats,698880462865364,PAPI_L3_TCM,0, 11.73486328,  1.13993835,end
timer_stats,698880463987527,PAPI_L3_TCM,2, 11.88677978,  1.15446472,end
timer_stats,698880465117861,PAPI_L3_TCM,6, 12.12695312,  1.17756653,end
timer_stats,698880466258815,PAPI_L3_TCM,3, 12.34570312,  1.19168091,end
timer_stats,698880467350305,PAPI_L3_TCM,5, 12.49664307,  1.20457458,end
timer_stats,698880468652736,PAPI_L3_TCM,24, 12.66223144,  1.21815491,end
timer_stats,698880477152028,PAPI_L3_TCM,41, 13.95721435,  1.33050537,end
timer_stats,698880478243638,PAPI_L3_TCM,10, 14.15740967,  1.35079956,end
timer_stats,698880479340145,PAPI_L3_TCM,8, 14.28289795,  1.36235046,end
timer_stats,698880480447051,PAPI_L3_TCM,4, 14.41143799,  1.37541199,end
timer_stats,698880481571126,PAPI_L3_TCM,5, 14.55096435,  1.38836670,end
timer_stats,698880482697531,PAPI_L3_TCM,1, 14.67614746,  1.40029907,end
timer_stats,698880483832002,PAPI_L3_TCM,4, 14.80676269,  1.41197204,end
timer_stats,698880484969794,PAPI_L3_TCM,1, 14.92913818,  1.42523193,end
timer_stats,698880486113260,PAPI_L3_TCM,2, 15.05725098,  1.43742371,end
timer_stats,698880487247848,PAPI_L3_TCM,4, 15.31970215,  1.46075439,end
timer_stats,698880488348124,PAPI_L3_TCM,0, 15.45159912,  1.47416687,end
timer_stats,698880489476636,PAPI_L3_TCM,0, 15.59173584,  1.48837280,end
timer_stats,698880490609989,PAPI_L3_TCM,5, 15.72558594,  1.50102234,end
timer_stats,698880491721197,PAPI_L3_TCM,2, 15.85626221,  1.51312256,end
timer_stats,698880492856955,PAPI_L3_TCM,6, 15.98822021,  1.52713013,end
timer_stats,698880493997035,PAPI_L3_TCM,2, 16.11889648,  1.53878784,end
timer_stats,698880495094390,PAPI_L3_TCM,1, 16.24151611,  1.55000305,end
timer_stats,698880496204886,PAPI_L3_TCM,0, 16.49841308,  1.57409668,end
timer_stats,698880497334342,PAPI_L3_TCM,1, 16.63330078,  1.58584595,end
timer_stats,698880498452620,PAPI_L3_TCM,0, 16.77270508,  1.59951782,end
timer_stats,698880499567337,PAPI_L3_TCM,6, 16.91455078,  1.61141968,end
timer_stats,698880500687133,PAPI_L3_TCM,1, 17.04571533,  1.62326050,end
timer_stats,698880501825071,PAPI_L3_TCM,5, 17.18597412,  1.63526916,end
timer_stats,698880502947030,PAPI_L3_TCM,4, 17.31811523,  1.64866638,end
timer_stats,698880504039829,PAPI_L3_TCM,5, 17.45465088,  1.66027832,end
timer_stats,698880505130024,PAPI_L3_TCM,1, 17.59545898,  1.67315674,end
timer_stats,698880506225846,PAPI_L3_TCM,1, 17.80096435,  1.69580078,end
timer_stats,698880507321869,PAPI_L3_TCM,2, 18.00561523,  1.71487427,end
timer_stats,698880508425969,PAPI_L3_TCM,2, 18.13677979,  1.72756958,end
timer_stats,698880509544783,PAPI_L3_TCM,0, 18.28625488,  1.74118042,end
timer_stats,698880510680160,PAPI_L3_TCM,3, 18.41931152,  1.75558472,end
timer_stats,698880511801227,PAPI_L3_TCM,2, 18.56005859,  1.76890564,end
timer_stats,698880512923996,PAPI_L3_TCM,2, 18.70214844,  1.78219604,end
timer_stats,698880514030132,PAPI_L3_TCM,2, 18.84307861,  1.79576111,end
timer_stats,698880515152312,PAPI_L3_TCM,2, 19.06451416,  1.81350708,end
timer_stats,698880516296672,PAPI_L3_TCM,2, 19.19641113,  1.82546997,end
timer_stats,698880517468105,PAPI_L3_TCM,3, 19.37609863,  1.84288025,end
timer_stats,698880518599420,PAPI_L3_TCM,2, 19.50799560,  1.85466003,end
timer_stats,698880519733989,PAPI_L3_TCM,3, 19.63433838,  1.86643982,end
timer_stats,698880520860088,PAPI_L3_TCM,0, 19.77081299,  1.87844849,end
timer_stats,698880521995358,PAPI_L3_TCM,7, 19.90527344,  1.88963318,end
timer_stats,698880523137667,PAPI_L3_TCM,1, 20.02880859,  1.90093994,end
timer_stats,698880524263920,PAPI_L3_TCM,8, 20.29003906,  1.92053223,end
timer_stats,698880525406053,PAPI_L3_TCM,1, 20.41778564,  1.93960571,end
timer_stats,698880526559808,PAPI_L3_TCM,2, 20.54614258,  1.95240784,end
timer_stats,698880527696248,PAPI_L3_TCM,1, 20.68023682,  1.96499634,end
timer_stats,698880528838694,PAPI_L3_TCM,5, 20.81939697,  1.97822571,end
timer_stats,698880529996941,PAPI_L3_TCM,2, 20.94726562,  1.99174499,end
timer_stats,698880531168352,PAPI_L3_TCM,2, 21.14892578,  2.01144409,end
timer_stats,698880532288567,PAPI_L3_TCM,0, 21.33905029,  2.03131103,end
timer_stats,698880533427307,PAPI_L3_TCM,0, 21.47448730,  2.04335022,end
timer_stats,698880534581688,PAPI_L3_TCM,0, 21.60858154,  2.05596924,end
timer_stats,698880535731360,PAPI_L3_TCM,2, 21.74224853,  2.06852722,end
timer_stats,698880536914261,PAPI_L3_TCM,0, 21.87225342,  2.08193970,end
timer_stats,698880538074937,PAPI_L3_TCM,6, 22.01361084,  2.09548950,end
timer_stats,698880539230911,PAPI_L3_TCM,2, 22.13763428,  2.10852051,end
timer_stats,698880540340041,PAPI_L3_TCM,5, 22.40826416,  2.13528442,end
timer_stats,698880541508078,PAPI_L3_TCM,4, 22.53479004,  2.14765930,end
timer_stats,698880542647770,PAPI_L3_TCM,0, 22.66027832,  2.15876770,end
timer_stats,698880543794507,PAPI_L3_TCM,1, 22.78765869,  2.17210388,end
timer_stats,698880544947482,PAPI_L3_TCM,3, 22.92108154,  2.18519592,end
timer_stats,698880546114175,PAPI_L3_TCM,1, 23.04980469,  2.19728088,end
timer_stats,698880547231797,PAPI_L3_TCM,5, 23.25329590,  2.21566772,end
timer_stats,698880548317466,PAPI_L3_TCM,4, 23.44055176,  2.23490906,end
timer_stats,698880549444963,PAPI_L3_TCM,1, 23.58044433,  2.24755859,end
timer_stats,698880550593570,PAPI_L3_TCM,0, 23.71673584,  2.26177978,end
timer_stats,698880551788422,PAPI_L3_TCM,1, 23.85003662,  2.27526855,end
timer_stats,698880552950189,PAPI_L3_TCM,1, 23.99517822,  2.28860473,end
timer_stats,698880554109814,PAPI_L3_TCM,2, 24.12835693,  2.30226135,end
timer_stats,698880555271721,PAPI_L3_TCM,0, 24.35491943,  2.32347107,end
timer_stats,698880556392549,PAPI_L3_TCM,4, 24.55139160,  2.34362793,end
timer_stats,698880570932385,PAPI_L3_TCM,81, 26.65783691,  2.52471924,end
timer_stats,698880572036269,PAPI_L3_TCM,33, 26.77795410,  2.54165649,end
timer_stats,698880573200810,PAPI_L3_TCM,11, 26.93463135,  2.55656433,end
timer_stats,698880574293034,PAPI_L3_TCM,0, 27.19091797,  2.58166504,end
timer_stats,698880575407383,PAPI_L3_TCM,7, 27.43511963,  2.60469055,end
timer_stats,698880576503682,PAPI_L3_TCM,6, 27.59967041,  2.61891174,end
timer_stats,698880577621262,PAPI_L3_TCM,2, 27.75811768,  2.63316345,end
timer_stats,698880578713138,PAPI_L3_TCM,5, 27.90966797,  2.64700317,end
timer_stats,698880579830331,PAPI_L3_TCM,5, 28.07141113,  2.66180420,end
timer_stats,698880580945266,PAPI_L3_TCM,1, 28.22796631,  2.67567444,end
timer_stats,698880582064610,PAPI_L3_TCM,1, 28.38287353,  2.68984985,end
timer_stats,698880583203639,PAPI_L3_TCM,5, 28.53985596,  2.70442200,end
timer_stats,698880584307580,PAPI_L3_TCM,3, 28.84118652,  2.72871399,end
timer_stats,698880585453824,PAPI_L3_TCM,8, 28.99505615,  2.74946594,end
timer_stats,698880586590196,PAPI_L3_TCM,6, 29.15722656,  2.76495361,end
timer_stats,698880587700757,PAPI_L3_TCM,12, 29.31280518,  2.77876282,end
timer_stats,698880588797669,PAPI_L3_TCM,3, 29.47119140,  2.79388428,end
timer_stats,698880589904757,PAPI_L3_TCM,4, 29.63958740,  2.80938721,end
timer_stats,698880591002678,PAPI_L3_TCM,1, 29.79510498,  2.82339478,end
timer_stats,698880592089280,PAPI_L3_TCM,1, 29.95208740,  2.83740234,end
timer_stats,698880593193700,PAPI_L3_TCM,2, 30.12249756,  2.85227966,end
timer_stats,698880594295893,PAPI_L3_TCM,5, 30.38726807,  2.86909485,end
timer_stats,698880595385232,PAPI_L3_TCM,4, 30.61639404,  2.89779663,end
timer_stats,698880596499035,PAPI_L3_TCM,9, 30.77832031,  2.91278076,end
timer_stats,698880597621972,PAPI_L3_TCM,1, 30.94915771,  2.92706299,end
timer_stats,698880598716254,PAPI_L3_TCM,1, 31.10211182,  2.93995666,end
timer_stats,698880599812356,PAPI_L3_TCM,1, 31.24938965,  2.95278931,end
timer_stats,698880600929372,PAPI_L3_TCM,1, 31.40869140,  2.96604919,end
timer_stats,698880602046922,PAPI_L3_TCM,3, 31.56524658,  2.97976684,end
timer_stats,698880603148683,PAPI_L3_TCM,3, 31.72460937,  2.99310303,end
timer_stats,698880604233021,PAPI_L3_TCM,1, 31.88385010,  3.00592041,end
timer_stats,698880605347452,PAPI_L3_TCM,14, 32.19183349,  3.03099060,end
timer_stats,698880606455938,PAPI_L3_TCM,5, 32.34313965,  3.04362488,end
timer_stats,698880607559770,PAPI_L3_TCM,2, 32.49310303,  3.05522156,end
timer_stats,698880608680125,PAPI_L3_TCM,0, 32.64337158,  3.06718445,end
timer_stats,698880609807109,PAPI_L3_TCM,2, 32.78991699,  3.08012390,end
timer_stats,698880610915800,PAPI_L3_TCM,1, 32.94580078,  3.09252930,end
timer_stats,698880612023937,PAPI_L3_TCM,6, 33.09155273,  3.10400390,end
timer_stats,698880613149624,PAPI_L3_TCM,1, 33.24755859,  3.11790466,end
timer_stats,698880614264938,PAPI_L3_TCM,7, 33.48126221,  3.13902283,end
timer_stats,698880615374017,PAPI_L3_TCM,1, 33.71636963,  3.15882874,end
timer_stats,698880616497731,PAPI_L3_TCM,2, 33.88055420,  3.17395019,end
timer_stats,698880617631093,PAPI_L3_TCM,0, 34.03302002,  3.18879700,end
timer_stats,698880618730113,PAPI_L3_TCM,4, 34.19232178,  3.20298767,end
timer_stats,698880619859902,PAPI_L3_TCM,0, 34.35327148,  3.21655273,end
timer_stats,698880620992060,PAPI_L3_TCM,2, 34.50598145,  3.23037720,end
timer_stats,698880622127155,PAPI_L3_TCM,1, 34.66003418,  3.24563599,end
timer_stats,698880623259969,PAPI_L3_TCM,5, 34.81140137,  3.25984192,end
timer_stats,698880624367477,PAPI_L3_TCM,3, 35.11212158,  3.28771973,end
timer_stats,698880625499904,PAPI_L3_TCM,1, 35.27301025,  3.30146790,end
timer_stats,698880626639154,PAPI_L3_TCM,0, 35.43383789,  3.31434631,end
timer_stats,698880627792389,PAPI_L3_TCM,7, 35.58093262,  3.32833862,end
timer_stats,698880628933074,PAPI_L3_TCM,3, 35.73858643,  3.34265137,end
timer_stats,698880630035339,PAPI_L3_TCM,5, 35.88958740,  3.35688782,end
timer_stats,698880631171026,PAPI_L3_TCM,5, 36.03991699,  3.37202453,end
timer_stats,698880632285997,PAPI_L3_TCM,6, 36.28228760,  3.39556885,end
timer_stats,698880633426519,PAPI_L3_TCM,2, 36.51300049,  3.41743469,end
timer_stats,698880634572516,PAPI_L3_TCM,3, 36.65875244,  3.43151855,end
timer_stats,698880635721071,PAPI_L3_TCM,0, 36.80499267,  3.44506836,end
timer_stats,698880636835619,PAPI_L3_TCM,3, 36.95654297,  3.45887756,end
timer_stats,698880637958713,PAPI_L3_TCM,2, 37.10809326,  3.47302246,end
timer_stats,698880639054950,PAPI_L3_TCM,10, 37.26446533,  3.48768616,end
timer_stats,698880640162817,PAPI_L3_TCM,1, 37.39923096,  3.50109863,end
timer_stats,698880641269342,PAPI_L3_TCM,6, 37.61871338,  3.52346802,end
timer_stats,698880642395946,PAPI_L3_TCM,9, 37.83105469,  3.54301453,end
timer_stats,698880643512438,PAPI_L3_TCM,3, 37.97900390,  3.54884338,end
timer_stats,698880644649585,PAPI_L3_TCM,5, 38.11102295,  3.56469726,end
timer_stats,698880645811460,PAPI_L3_TCM,4, 38.25500488,  3.57852173,end
timer_stats,698880646954401,PAPI_L3_TCM,1, 38.38726807,  3.59178162,end
timer_stats,698880648037775,PAPI_L3_TCM,4, 38.52380371,  3.60498047,end
timer_stats,698880649176113,PAPI_L3_TCM,1, 38.67828369,  3.61903381,end
timer_stats,698880650322657,PAPI_L3_TCM,3, 38.89416504,  3.64094543,end
timer_stats,698880651478698,PAPI_L3_TCM,3, 39.09704590,  3.66188049,end
timer_stats,698880652616962,PAPI_L3_TCM,5, 39.25360107,  3.67555237,end
timer_stats,698880653761964,PAPI_L3_TCM,0, 39.39947510,  3.69021606,end
timer_stats,698880654887994,PAPI_L3_TCM,3, 39.53680420,  3.70474243,end
timer_stats,698880656028583,PAPI_L3_TCM,3, 39.69195557,  3.71739197,end
timer_stats,698880657149273,PAPI_L3_TCM,7, 39.83941650,  3.73120117,end
timer_stats,698880658291324,PAPI_L3_TCM,1, 40.06378174,  3.75549316,end
timer_stats,698880659432486,PAPI_L3_TCM,6, 40.27539062,  3.77838135,end
timer_stats,698880660568916,PAPI_L3_TCM,15, 40.43695068,  3.79273987,end
timer_stats,698880661744488,PAPI_L3_TCM,8, 40.59576416,  3.80825806,end
timer_stats,698880662899145,PAPI_L3_TCM,1, 40.74774170,  3.82461548,end
timer_stats,698880664053310,PAPI_L3_TCM,3, 40.89257812,  3.83926392,end
timer_stats,698880665194634,PAPI_L3_TCM,4, 41.04870605,  3.85472107,end
timer_stats,698880666358768,PAPI_L3_TCM,3, 41.28942871,  3.88017273,end
timer_stats,698880667498553,PAPI_L3_TCM,5, 41.51336670,  3.90037536,end
timer_stats,698880668636417,PAPI_L3_TCM,4, 41.66882324,  3.91566467,end
timer_stats,698880669791918,PAPI_L3_TCM,3, 41.83001709,  3.92965698,end
timer_stats,698880670908632,PAPI_L3_TCM,3, 41.98846435,  3.94476318,end
timer_stats,698880672019054,PAPI_L3_TCM,7, 42.15020752,  3.95942688,end
timer_stats,698880673115864,PAPI_L3_TCM,4, 42.31817627,  3.97491455,end
timer_stats,698880674244362,PAPI_L3_TCM,2, 42.48645019,  3.99032593,end
timer_stats,698880675342601,PAPI_L3_TCM,8, 42.73718262,  4.01242065,end
timer_stats,698880676463445,PAPI_L3_TCM,2, 42.96710205,  4.03251648,end
timer_stats,698880677609416,PAPI_L3_TCM,11, 43.11523437,  4.04609680,end
timer_stats,698880678758544,PAPI_L3_TCM,2, 43.27453613,  4.06089783,end
timer_stats,698880679878936,PAPI_L3_TCM,3, 43.42846679,  4.07443237,end
timer_stats,698880681009248,PAPI_L3_TCM,1, 43.57409668,  4.08863830,end
timer_stats,698880682697567,PAPI_L3_TCM,2057, 43.87957764,  4.11598205,end
timer_stats,698880683821332,PAPI_L3_TCM,32, 44.02770996,  4.13050842,end
timer_stats,698880684980962,PAPI_L3_TCM,13, 44.19384765,  4.13661194,end
timer_stats,698880686083917,PAPI_L3_TCM,5, 44.33831787,  4.15208435,end
timer_stats,698880687212606,PAPI_L3_TCM,8, 44.49645996,  4.16485596,end
timer_stats,698880688351661,PAPI_L3_TCM,2, 44.73242188,  4.17799377,end
timer_stats,698880689483623,PAPI_L3_TCM,6, 44.88305664,  4.19876099,end
timer_stats,698880690579651,PAPI_L3_TCM,0, 45.08270264,  4.21827698,end
timer_stats,698880691720249,PAPI_L3_TCM,1, 45.21868896,  4.23170471,end
timer_stats,698880692859974,PAPI_L3_TCM,1, 45.37182617,  4.24507141,end
timer_stats,698880693997455,PAPI_L3_TCM,4, 45.51416016,  4.25819397,end
timer_stats,698880695124814,PAPI_L3_TCM,7, 45.65887451,  4.27117920,end
timer_stats,698880696236060,PAPI_L3_TCM,3, 45.79724121,  4.28558350,end
timer_stats,698880697371805,PAPI_L3_TCM,3, 46.03607178,  4.29986572,end
timer_stats,698880698526847,PAPI_L3_TCM,1, 46.24139404,  4.32826233,end
timer_stats,698880699656191,PAPI_L3_TCM,0, 46.37921143,  4.34063721,end
timer_stats,698880700812768,PAPI_L3_TCM,0, 46.53796387,  4.35444641,end
timer_stats,698880701963853,PAPI_L3_TCM,2, 46.67565918,  4.36669922,end
timer_stats,698880703085485,PAPI_L3_TCM,2, 46.83258057,  4.38058472,end
timer_stats,698880704213894,PAPI_L3_TCM,4, 46.96533203,  4.39630127,end
timer_stats,698880705339128,PAPI_L3_TCM,7, 47.11523437,  4.41134643,end
timer_stats,698880706456701,PAPI_L3_TCM,1, 47.36315918,  4.43211365,end
timer_stats,698880707597869,PAPI_L3_TCM,2, 47.56274414,  4.45294189,end
timer_stats,698880708765548,PAPI_L3_TCM,0, 47.70953369,  4.46609497,end
timer_stats,698880709899566,PAPI_L3_TCM,2, 47.85406494,  4.48167419,end
timer_stats,698880711021460,PAPI_L3_TCM,0, 48.00756836,  4.49903870,end
timer_stats,698880712148001,PAPI_L3_TCM,2, 48.15319824,  4.51239014,end
timer_stats,698880713290233,PAPI_L3_TCM,1, 48.32659912,  4.51942444,end
timer_stats,698880714405143,PAPI_L3_TCM,4, 48.54382324,  4.53872680,end
timer_stats,698880715574945,PAPI_L3_TCM,1, 48.75744629,  4.55905151,end
timer_stats,698880716712959,PAPI_L3_TCM,5, 48.91339111,  4.57411194,end
timer_stats,698880717862471,PAPI_L3_TCM,0, 49.06176758,  4.58668518,end
timer_stats,698880718961868,PAPI_L3_TCM,0, 49.20019531,  4.60157776,end
timer_stats,698880720101339,PAPI_L3_TCM,3, 49.35223389,  4.61392212,end
timer_stats,698880721240170,PAPI_L3_TCM,3, 49.49920654,  4.62696838,end
timer_stats,698880722365441,PAPI_L3_TCM,3, 49.74658203,  4.64149475,end
timer_stats,698880723484838,PAPI_L3_TCM,3, 49.94152832,  4.66864014,end
timer_stats,698880724626023,PAPI_L3_TCM,1, 50.09484863,  4.68354797,end
timer_stats,698880725785287,PAPI_L3_TCM,1, 50.25604248,  4.69657898,end
timer_stats,698880726935311,PAPI_L3_TCM,0, 50.39233398,  4.71014404,end
timer_stats,698880728083773,PAPI_L3_TCM,1, 50.54437256,  4.72317505,end
timer_stats,698880729219227,PAPI_L3_TCM,0, 50.69952392,  4.73603821,end
timer_stats,698880730378865,PAPI_L3_TCM,3, 50.85388184,  4.74903870,end
timer_stats,698880731481216,PAPI_L3_TCM,3, 51.08044434,  4.77014160,end
timer_stats,698880732620387,PAPI_L3_TCM,4, 51.28253174,  4.79037476,end
timer_stats,698880733773235,PAPI_L3_TCM,1, 51.42736816,  4.80575561,end
timer_stats,698880734922819,PAPI_L3_TCM,1, 51.58764648,  4.82124329,end
timer_stats,698880736073427,PAPI_L3_TCM,0, 51.74334717,  4.83375549,end
timer_stats,698880737207008,PAPI_L3_TCM,2, 51.87878418,  4.84704590,end
timer_stats,698880738335045,PAPI_L3_TCM,2, 52.02777099,  4.86109924,end
timer_stats,698880739475214,PAPI_L3_TCM,2, 52.27410889,  4.88264465,end
timer_stats,698880740614458,PAPI_L3_TCM,0, 52.40869140,  4.89460754,end
timer_stats,698880741751816,PAPI_L3_TCM,3, 52.62451172,  4.91308594,end
timer_stats,698880742855690,PAPI_L3_TCM,2, 52.76635742,  4.92509460,end
timer_stats,698880743985604,PAPI_L3_TCM,4, 52.92779541,  4.93608093,end
timer_stats,698880745119569,PAPI_L3_TCM,1, 53.06408691,  4.94956970,end
timer_stats,698880746219576,PAPI_L3_TCM,1, 53.21496582,  4.96286011,end
timer_stats,698880747317678,PAPI_L3_TCM,2, 53.37683105,  4.97761536,end
timer_stats,698880748434734,PAPI_L3_TCM,2, 53.61602783,  4.99790954,end
timer_stats,698880749548882,PAPI_L3_TCM,1, 53.81579590,  5.01742554,end
timer_stats,698880750665367,PAPI_L3_TCM,3, 53.97186279,  5.03128052,end
timer_stats,698880751794841,PAPI_L3_TCM,0, 54.14459228,  5.04638672,end
timer_stats,698880752929935,PAPI_L3_TCM,6, 54.29626465,  5.06118774,end
timer_stats,698880754064413,PAPI_L3_TCM,1, 54.43408203,  5.07504272,end
timer_stats,698880755198844,PAPI_L3_TCM,0, 54.58642578,  5.09020996,end
timer_stats,698880756301214,PAPI_L3_TCM,12, 54.72106934,  5.10485840,end
timer_stats,698880757435609,PAPI_L3_TCM,5, 54.87884521,  5.11828613,end
timer_stats,698880758548100,PAPI_L3_TCM,0, 55.12054443,  5.14073181,end
timer_stats,698880759689745,PAPI_L3_TCM,3, 55.32122803,  5.16175842,end
timer_stats,698880760827836,PAPI_L3_TCM,0, 55.46044922,  5.17788696,end
timer_stats,698880761964220,PAPI_L3_TCM,1, 55.59722900,  5.19021606,end
timer_stats,698880763102038,PAPI_L3_TCM,0, 55.75909424,  5.20442200,end
timer_stats,698880764495960,PAPI_L3_TCM,13, 55.97082519,  5.21896362,end
timer_stats,698880765608947,PAPI_L3_TCM,4, 56.12567139,  5.24188232,end
timer_stats,698880766724241,PAPI_L3_TCM,17, 56.33990478,  5.26263428,end
timer_stats,698880767827996,PAPI_L3_TCM,18, 56.47448730,  5.27610779,end
timer_stats,698880768967490,PAPI_L3_TCM,7, 56.63049316,  5.28901672,end
timer_stats,698880770096391,PAPI_L3_TCM,16, 56.76159668,  5.30268860,end
timer_stats,698880771241646,PAPI_L3_TCM,3, 56.89459228,  5.31614685,end
timer_stats,698880772535581,PAPI_L3_TCM,27, 57.17523193,  5.34225464,end
timer_stats,698880773680231,PAPI_L3_TCM,2, 57.32110596,  5.35568237,end
timer_stats,698880774824083,PAPI_L3_TCM,1, 57.46209717,  5.36891174,end
timer_stats,698880775970487,PAPI_L3_TCM,2, 57.60388184,  5.38168335,end
timer_stats,698880777088514,PAPI_L3_TCM,5, 57.74584961,  5.39387512,end
timer_stats,698880778226209,PAPI_L3_TCM,4, 57.88641357,  5.40821838,end
timer_stats,698880779359640,PAPI_L3_TCM,0, 58.02075195,  5.42314148,end
timer_stats,698880780499912,PAPI_L3_TCM,22, 58.24725342,  5.44439697,end
timer_stats,698880781604412,PAPI_L3_TCM,2, 58.39666748,  5.45948791,end
timer_stats,698880782705770,PAPI_L3_TCM,2, 58.54809570,  5.47230530,end
timer_stats,698880783840911,PAPI_L3_TCM,1, 58.74121094,  5.49311829,end
timer_stats,698880784961682,PAPI_L3_TCM,4, 58.86840820,  5.50785828,end
timer_stats,698880786094506,PAPI_L3_TCM,0, 59.02398682,  5.52229309,end
timer_stats,698880787227173,PAPI_L3_TCM,3, 59.16467285,  5.53660583,end
timer_stats,698880788371298,PAPI_L3_TCM,3, 59.29858398,  5.55250549,end
timer_stats,698880789503212,PAPI_L3_TCM,2, 59.53076172,  5.57614136,end
timer_stats,698880790636243,PAPI_L3_TCM,0, 59.72332764,  5.59645080,end
timer_stats,698880791769628,PAPI_L3_TCM,0, 59.87707520,  5.61111450,end
timer_stats,698880792907645,PAPI_L3_TCM,0, 60.01562500,  5.62535095,end
timer_stats,698880794039510,PAPI_L3_TCM,2, 60.16528320,  5.63830566,end
timer_stats,698880795155328,PAPI_L3_TCM,1, 60.30596924,  5.65106201,end
timer_stats,698880796292838,PAPI_L3_TCM,4, 60.45251465,  5.66423035,end
timer_stats,698880797435620,PAPI_L3_TCM,1, 60.58984375,  5.67654419,end
timer_stats,698880798569347,PAPI_L3_TCM,2, 60.80621338,  5.69464111,end
timer_stats,698880799710569,PAPI_L3_TCM,2, 61.00085449,  5.71452331,end
timer_stats,698880800843493,PAPI_L3_TCM,0, 61.14318848,  5.72798157,end
timer_stats,698880802105985,PAPI_L3_TCM,9, 61.29638672,  5.74154663,end
timer_stats,698880803244339,PAPI_L3_TCM,9, 61.44000244,  5.75590515,end
timer_stats,698880804346269,PAPI_L3_TCM,1, 61.58227539,  5.76809692,end
timer_stats,698880805462478,PAPI_L3_TCM,20, 61.73358154,  5.78518677,end
timer_stats,698880806608472,PAPI_L3_TCM,15, 61.95019531,  5.80711365,end
timer_stats,698880807779626,PAPI_L3_TCM,5, 62.13775635,  5.82641601,end
timer_stats,698880808879510,PAPI_L3_TCM,3, 62.28051758,  5.84077454,end
timer_stats,698880809978238,PAPI_L3_TCM,3, 62.42858887,  5.85643005,end
timer_stats,698880811083292,PAPI_L3_TCM,10, 62.56933594,  5.87091064,end
timer_stats,698880812307367,PAPI_L3_TCM,16, 62.71984863,  5.88838196,end
timer_stats,698880813443688,PAPI_L3_TCM,2, 62.86901855,  5.90411377,end
timer_stats,698880814577196,PAPI_L3_TCM,3, 63.09033203,  5.92912292,end
timer_stats,698880815694623,PAPI_L3_TCM,7, 63.29217529,  5.95265198,end
timer_stats,698880816807121,PAPI_L3_TCM,13, 63.43811035,  5.96934509,end
timer_stats,698880817940506,PAPI_L3_TCM,4, 63.58325195,  5.98629761,end
timer_stats,698880819075656,PAPI_L3_TCM,1, 63.73376465,  5.99914551,end
timer_stats,698880820206600,PAPI_L3_TCM,0, 63.87524414,  6.01542663,end
timer_stats,698880821340382,PAPI_L3_TCM,3, 64.02563477,  6.02990723,end
timer_stats,698880822537846,PAPI_L3_TCM,16, 64.25628662,  6.04591370,end
timer_stats,698880823672158,PAPI_L3_TCM,8, 64.41040039,  6.06726074,end
timer_stats,698880824803798,PAPI_L3_TCM,0, 64.62103271,  6.08938598,end
timer_stats,698880826000743,PAPI_L3_TCM,15, 64.76965332,  6.10498047,end
timer_stats,698880827118774,PAPI_L3_TCM,1, 64.91735840,  6.12263489,end
timer_stats,698880828250968,PAPI_L3_TCM,7, 65.06878662,  6.13751221,end
timer_stats,698880829381142,PAPI_L3_TCM,1, 65.21533203,  6.15492249,end
timer_stats,698880830487817,PAPI_L3_TCM,4, 65.35632324,  6.16796875,end
timer_stats,698880831618128,PAPI_L3_TCM,0, 65.57318115,  6.19447327,end
timer_stats,698880832753052,PAPI_L3_TCM,3, 65.71929932,  6.20930481,end
timer_stats,698880833887877,PAPI_L3_TCM,0, 65.93780517,  6.22854614,end
timer_stats,698880835019024,PAPI_L3_TCM,1, 66.07855224,  6.24163818,end
timer_stats,698880836151629,PAPI_L3_TCM,1, 66.22222900,  6.25492859,end
timer_stats,698880837254626,PAPI_L3_TCM,1, 66.36712646,  6.26933288,end
timer_stats,698880838355577,PAPI_L3_TCM,1, 66.50689697,  6.28295898,end
timer_stats,698880839487658,PAPI_L3_TCM,3, 66.65350342,  6.29739380,end
timer_stats,698880840618769,PAPI_L3_TCM,1, 66.88482666,  6.31968689,end
timer_stats,698880841750673,PAPI_L3_TCM,3, 67.09027099,  6.34088135,end
timer_stats,698880843024765,PAPI_L3_TCM,10, 67.24127197,  6.35742187,end
timer_stats,698880844155789,PAPI_L3_TCM,4, 67.39556885,  6.37263489,end
timer_stats,698880845289053,PAPI_L3_TCM,1, 67.53192139,  6.38760376,end
timer_stats,698880846421358,PAPI_L3_TCM,0, 67.68133545,  6.40170288,end
timer_stats,698880847554435,PAPI_L3_TCM,0, 67.82513428,  6.41552734,end
timer_stats,698880848693627,PAPI_L3_TCM,2, 68.05010986,  6.43458557,end
timer_stats,698880849800231,PAPI_L3_TCM,11, 68.25878906,  6.45526123,end
timer_stats,698880850933515,PAPI_L3_TCM,5, 68.40985107,  6.47132874,end
timer_stats,698880852070240,PAPI_L3_TCM,4, 68.54949951,  6.48701477,end
timer_stats,698880853188927,PAPI_L3_TCM,6, 68.68591308,  6.50146484,end
timer_stats,698880854290748,PAPI_L3_TCM,4, 68.84082031,  6.51429749,end
timer_stats,698880865568438,PAPI_L3_TCM,180, 70.37518310,  6.65946960,end
timer_stats,698880866718246,PAPI_L3_TCM,101, 70.66491699,  6.68041992,end
timer_stats,698880867856880,PAPI_L3_TCM,6, 70.81408691,  6.70033264,end
timer_stats,698880868989575,PAPI_L3_TCM,0, 70.96093750,  6.71609497,end
timer_stats,698880870121469,PAPI_L3_TCM,5, 71.10791015,  6.72859192,end
timer_stats,698880871253437,PAPI_L3_TCM,0, 71.24780273,  6.74284363,end
timer_stats,698880872392851,PAPI_L3_TCM,1, 71.39270020,  6.75732422,end
timer_stats,698880873505345,PAPI_L3_TCM,8, 71.53234863,  6.77082825,end
timer_stats,698880874651177,PAPI_L3_TCM,7, 71.76916504,  6.79243469,end
timer_stats,698880875789298,PAPI_L3_TCM,0, 71.91357422,  6.80548096,end
timer_stats,698880876924289,PAPI_L3_TCM,3, 72.11486816,  6.82524109,end
timer_stats,698880878057553,PAPI_L3_TCM,0, 72.25207519,  6.84014892,end
timer_stats,698880879190914,PAPI_L3_TCM,4, 72.39367676,  6.85592651,end
timer_stats,698880880324746,PAPI_L3_TCM,3, 72.53698730,  6.86990356,end
timer_stats,698880881465840,PAPI_L3_TCM,1, 72.67834473,  6.88276672,end
timer_stats,698880882601534,PAPI_L3_TCM,0, 72.91412354,  6.90319824,end
timer_stats,698880883733394,PAPI_L3_TCM,1, 73.11688232,  6.92237854,end
timer_stats,698880884881166,PAPI_L3_TCM,0, 73.25878906,  6.93644714,end
timer_stats,698880886014920,PAPI_L3_TCM,2, 73.39794922,  6.94877624,end
timer_stats,698880887147415,PAPI_L3_TCM,0, 73.54443359,  6.96463013,end
timer_stats,698880888284399,PAPI_L3_TCM,3, 73.68670654,  6.97769165,end
timer_stats,698880889424093,PAPI_L3_TCM,1, 73.83294678,  6.99188232,end
timer_stats,698880890558098,PAPI_L3_TCM,1, 73.97515869,  7.00837707,end
timer_stats,698880891693239,PAPI_L3_TCM,0, 74.20086670,  7.03013611,end
timer_stats,698880892828220,PAPI_L3_TCM,0, 74.40600586,  7.05259704,end
timer_stats,698880893964014,PAPI_L3_TCM,2, 74.54937744,  7.06907654,end
timer_stats,698880895096515,PAPI_L3_TCM,3, 74.69879150,  7.08354187,end
timer_stats,698880896230877,PAPI_L3_TCM,0, 74.84222412,  7.09750366,end
timer_stats,698880897371484,PAPI_L3_TCM,4, 74.98272705,  7.10943603,end
timer_stats,698880898504579,PAPI_L3_TCM,0, 75.12628174,  7.12428284,end
timer_stats,698880899642063,PAPI_L3_TCM,4, 75.35034180,  7.14593506,end
timer_stats,698880900777210,PAPI_L3_TCM,0, 75.56353760,  7.16218567,end
timer_stats,698880901911405,PAPI_L3_TCM,3, 75.71331787,  7.18286133,end
timer_stats,698880903043979,PAPI_L3_TCM,0, 75.84368896,  7.19799805,end
timer_stats,698880904175397,PAPI_L3_TCM,2, 75.99621582,  7.21365356,end
timer_stats,698880905307161,PAPI_L3_TCM,2, 76.13958740,  7.22698975,end
timer_stats,698880906449429,PAPI_L3_TCM,3, 76.29083252,  7.23918152,end
timer_stats,698880907583773,PAPI_L3_TCM,0, 76.50982666,  7.26103210,end
timer_stats,698880908719925,PAPI_L3_TCM,1, 76.65307617,  7.27375793,end
timer_stats,698880909858392,PAPI_L3_TCM,0, 76.85400390,  7.29336548,end
timer_stats,698880910996706,PAPI_L3_TCM,1, 76.99279785,  7.30690002,end
timer_stats,698880912129774,PAPI_L3_TCM,0, 77.14758301,  7.31898499,end
timer_stats,698880913262045,PAPI_L3_TCM,2, 77.28692627,  7.33036804,end
timer_stats,698880914394963,PAPI_L3_TCM,0, 77.42602539,  7.34362793,end
timer_stats,698880915528441,PAPI_L3_TCM,3, 77.57232666,  7.35762024,end
timer_stats,698880916663941,PAPI_L3_TCM,1, 77.80871582,  7.37983704,end
timer_stats,698880917803606,PAPI_L3_TCM,1, 78.01562500,  7.39933777,end
timer_stats,698880918941004,PAPI_L3_TCM,0, 78.16027832,  7.41371155,end
timer_stats,698880920072575,PAPI_L3_TCM,0, 78.30761719,  7.42649841,end
timer_stats,698880921208263,PAPI_L3_TCM,0, 78.46008301,  7.44180298,end
timer_stats,698880922343827,PAPI_L3_TCM,2, 78.59460449,  7.45443726,end
timer_stats,698880923443967,PAPI_L3_TCM,6, 78.73834228,  7.46772766,end
timer_stats,698880924551875,PAPI_L3_TCM,4, 78.88653564,  7.48071289,end
timer_stats,698880925692003,PAPI_L3_TCM,0, 79.10815430,  7.50079346,end
timer_stats,698880926828480,PAPI_L3_TCM,1, 79.31439209,  7.52453613,end
timer_stats,698880927960449,PAPI_L3_TCM,0, 79.46282959,  7.54034424,end
timer_stats,698880929095289,PAPI_L3_TCM,0, 79.60418701,  7.55348205,end
timer_stats,698880930233390,PAPI_L3_TCM,0, 79.75305176,  7.56748962,end
timer_stats,698880931360965,PAPI_L3_TCM,5, 79.88824463,  7.58419800,end
timer_stats,698880932464676,PAPI_L3_TCM,3, 80.03326416,  7.59893799,end
timer_stats,698880933605166,PAPI_L3_TCM,4, 80.18212891,  7.61325073,end
timer_stats,698880934744065,PAPI_L3_TCM,0, 80.40264892,  7.63391113,end
timer_stats,698880935893322,PAPI_L3_TCM,1, 80.59979248,  7.65472412,end
timer_stats,698880937029897,PAPI_L3_TCM,2, 80.73712158,  7.66857910,end
timer_stats,698880938164844,PAPI_L3_TCM,0, 80.88293457,  7.68231201,end
timer_stats,698880939298395,PAPI_L3_TCM,0, 81.02386475,  7.69593811,end
timer_stats,698880940433790,PAPI_L3_TCM,2, 81.15979004,  7.70826721,end
timer_stats,698880941569931,PAPI_L3_TCM,0, 81.29852295,  7.72171020,end
timer_stats,698880942711161,PAPI_L3_TCM,3, 81.51647949,  7.74308777,end
timer_stats,698880943847086,PAPI_L3_TCM,0, 81.71954346,  7.76303101,end
timer_stats,698880944982977,PAPI_L3_TCM,1, 81.85089111,  7.77764892,end
timer_stats,698880946120881,PAPI_L3_TCM,0, 81.98840332,  7.79179382,end
timer_stats,698880947254359,PAPI_L3_TCM,0, 82.12860107,  7.80699158,end
timer_stats,698880948413543,PAPI_L3_TCM,0, 82.27124023,  7.82426453,end
timer_stats,698880949553752,PAPI_L3_TCM,3, 82.41418457,  7.83879089,end
timer_stats,698880950693166,PAPI_L3_TCM,0, 82.64337158,  7.86537170,end
timer_stats,698880951829627,PAPI_L3_TCM,3, 82.83349609,  7.88700867,end
timer_stats,698880952973435,PAPI_L3_TCM,1, 82.98101807,  7.90284729,end
timer_stats,698880954109512,PAPI_L3_TCM,3, 83.12139892,  7.91935730,end
timer_stats,698880955246030,PAPI_L3_TCM,0, 83.26177978,  7.93461609,end
timer_stats,698880956395014,PAPI_L3_TCM,0, 83.40832519,  7.95005798,end
timer_stats,698880957532936,PAPI_L3_TCM,0, 83.54803467,  7.96537781,end
timer_stats,698880958671983,PAPI_L3_TCM,2, 83.76739502,  7.98759460,end
timer_stats,698880959803757,PAPI_L3_TCM,1, 83.95886230,  8.00854492,end
timer_stats,698880961214980,PAPI_L3_TCM,101, 84.10156250,  8.02217102,end
timer_stats,698880962476571,PAPI_L3_TCM,6, 84.23565674,  8.03681946,end
timer_stats,698880963640316,PAPI_L3_TCM,6, 84.45172119,  8.05642700,end
timer_stats,698880964809796,PAPI_L3_TCM,5, 84.65100098,  8.07594299,end
timer_stats,698880965957741,PAPI_L3_TCM,13, 84.79345703,  8.08808899,end
timer_stats,698880967100499,PAPI_L3_TCM,2, 84.93988037,  8.10137939,end
timer_stats,698880968238957,PAPI_L3_TCM,5, 85.08184814,  8.11509705,end
timer_stats,698880969349351,PAPI_L3_TCM,5, 85.22558594,  8.12840271,end
timer_stats,698880970483948,PAPI_L3_TCM,7, 85.37774658,  8.14161682,end
timer_stats,698880971596103,PAPI_L3_TCM,0, 85.51684570,  8.15495300,end
timer_stats,698880972723391,PAPI_L3_TCM,2, 85.75872803,  8.17605591,end
timer_stats,698880973853338,PAPI_L3_TCM,0, 85.95648193,  8.19584656,end
timer_stats,698880974981766,PAPI_L3_TCM,0, 86.11157227,  8.20941162,end
timer_stats,698880976115570,PAPI_L3_TCM,0, 86.25738525,  8.22323608,end
timer_stats,698880977225148,PAPI_L3_TCM,2, 86.41351318,  8.23547363,end
timer_stats,698880978377623,PAPI_L3_TCM,1, 86.56231689,  8.24856567,end
timer_stats,698880979527987,PAPI_L3_TCM,7, 86.70642090,  8.26130676,end
timer_stats,698880980664848,PAPI_L3_TCM,0, 86.93585205,  8.28189087,end
timer_stats,698880981814139,PAPI_L3_TCM,6, 87.13397217,  8.29486084,end
timer_stats,698880982999106,PAPI_L3_TCM,0, 87.28320312,  8.31399536,end
timer_stats,698880984149585,PAPI_L3_TCM,1, 87.42413330,  8.32971191,end
timer_stats,698880985287115,PAPI_L3_TCM,0, 87.56982422,  8.34309387,end
timer_stats,698880986428609,PAPI_L3_TCM,2, 87.70751953,  8.35835266,end
timer_stats,698880987568544,PAPI_L3_TCM,1, 87.85144043,  8.37174988,end
timer_stats,698880988728998,PAPI_L3_TCM,5, 88.09020996,  8.39591980,end
timer_stats,698880989913133,PAPI_L3_TCM,0, 88.23571777,  8.41024780,end
timer_stats,698880991053371,PAPI_L3_TCM,5, 88.43951416,  8.43292236,end
timer_stats,698880992191052,PAPI_L3_TCM,1, 88.57879639,  8.44808960,end
timer_stats,698880993329013,PAPI_L3_TCM,0, 88.73791504,  8.46243286,end
timer_stats,698880994497635,PAPI_L3_TCM,0, 88.87506103,  8.47817993,end
timer_stats,698880995674299,PAPI_L3_TCM,4, 89.02618408,  8.49099731,end
timer_stats,698880996815270,PAPI_L3_TCM,0, 89.30712890,  8.51867676,end
timer_stats,698880997977571,PAPI_L3_TCM,3, 89.45550537,  8.53393555,end
timer_stats,698880999134453,PAPI_L3_TCM,0, 89.59814453,  8.54948425,end
timer_stats,698881000270133,PAPI_L3_TCM,1, 89.73950195,  8.56292725,end
timer_stats,698881001409427,PAPI_L3_TCM,0, 89.88250732,  8.57580566,end
timer_stats,698881002547502,PAPI_L3_TCM,0, 90.03405762,  8.58956909,end
timer_stats,698881003713113,PAPI_L3_TCM,0, 90.25988769,  8.60989380,end
timer_stats,698881004868070,PAPI_L3_TCM,3, 90.40972900,  8.62367248,end
timer_stats,698881006027292,PAPI_L3_TCM,0, 90.61114502,  8.64356994,end
timer_stats,698881007178046,PAPI_L3_TCM,3, 90.75085449,  8.65870666,end
timer_stats,698881008328558,PAPI_L3_TCM,0, 90.89703369,  8.67279053,end
timer_stats,698881009469772,PAPI_L3_TCM,1, 91.03747558,  8.68649292,end
timer_stats,698881010613067,PAPI_L3_TCM,0, 91.18731689,  8.70251465,end
timer_stats,698881011755261,PAPI_L3_TCM,1, 91.41467285,  8.72393799,end
timer_stats,698881012904942,PAPI_L3_TCM,0, 91.61462402,  8.74372864,end
timer_stats,698881014045063,PAPI_L3_TCM,1, 91.76062012,  8.75740051,end
timer_stats,698881015181227,PAPI_L3_TCM,0, 91.90356445,  8.77076721,end
timer_stats,698881016314955,PAPI_L3_TCM,3, 92.04644775,  8.78450012,end
timer_stats,698881017453606,PAPI_L3_TCM,5, 92.18798828,  8.79835510,end
timer_stats,698881018591620,PAPI_L3_TCM,2, 92.33276367,  8.81149292,end
timer_stats,698881019694787,PAPI_L3_TCM,2, 92.47613525,  8.82263183,end
timer_stats,698881020844716,PAPI_L3_TCM,1, 92.69958496,  8.84167480,end
timer_stats,698881021967040,PAPI_L3_TCM,0, 92.90570068,  8.86016846,end
timer_stats,698881023112561,PAPI_L3_TCM,1, 93.03576660,  8.87338257,end
timer_stats,698881024262432,PAPI_L3_TCM,2, 93.18957520,  8.88546753,end
timer_stats,698881025398373,PAPI_L3_TCM,4, 93.32617187,  8.89768982,end
timer_stats,698881026536124,PAPI_L3_TCM,0, 93.47802734,  8.91006470,end
timer_stats,698881027686698,PAPI_L3_TCM,1, 93.70159912,  8.92321777,end
timer_stats,698881028831527,PAPI_L3_TCM,0, 93.84625244,  8.94369507,end
timer_stats,698881029968481,PAPI_L3_TCM,0, 94.05590820,  8.96566772,end
timer_stats,698881031122755,PAPI_L3_TCM,0, 94.19311523,  8.98083496,end
timer_stats,698881032269313,PAPI_L3_TCM,2, 94.34320068,  8.99537659,end
timer_stats,698881033407234,PAPI_L3_TCM,0, 94.48712158,  9.00743103,end
timer_stats,698881034580229,PAPI_L3_TCM,3, 94.62091064,  9.02143860,end
timer_stats,698881035744763,PAPI_L3_TCM,0, 94.85455322,  9.04039001,end
timer_stats,698881036884164,PAPI_L3_TCM,1, 94.99591064,  9.05386352,end
timer_stats,698881038035188,PAPI_L3_TCM,0, 95.18359375,  9.07591248,end
timer_stats,698881039191382,PAPI_L3_TCM,0, 95.32720947,  9.09289551,end
timer_stats,698881040325754,PAPI_L3_TCM,0, 95.47796631,  9.10966492,end
timer_stats,698881041494138,PAPI_L3_TCM,2, 95.62103271,  9.12339783,end
timer_stats,698881042646926,PAPI_L3_TCM,1, 95.76464844,  9.13835144,end
timer_stats,698881043803127,PAPI_L3_TCM,9, 95.99713135,  9.16169739,end
timer_stats,698881044947565,PAPI_L3_TCM,4, 96.20440674,  9.17636108,end
timer_stats,698881046078153,PAPI_L3_TCM,3, 96.34014892,  9.19691467,end
timer_stats,698881047215117,PAPI_L3_TCM,1, 96.48284912,  9.20997619,end
timer_stats,698881048336272,PAPI_L3_TCM,0, 96.62512207,  9.22447205,end
timer_stats,698881049480209,PAPI_L3_TCM,0, 96.76031494,  9.23789978,end
timer_stats,698881050591916,PAPI_L3_TCM,8, 96.90014648,  9.25541687,end
timer_stats,698881051750875,PAPI_L3_TCM,4, 97.05401611,  9.26831055,end
timer_stats,698881052900975,PAPI_L3_TCM,2, 97.26562500,  9.28889465,end
timer_stats,698881054054564,PAPI_L3_TCM,0, 97.45422363,  9.30990601,end
timer_stats,698881055203891,PAPI_L3_TCM,1, 97.59509277,  9.32450867,end
timer_stats,698881056309925,PAPI_L3_TCM,1, 97.73828125,  9.33708191,end
timer_stats,698881057453530,PAPI_L3_TCM,1, 97.88049316,  9.35014343,end
timer_stats,698881058635921,PAPI_L3_TCM,0, 98.00750732,  9.36039734,end
timer_stats,698881059777855,PAPI_L3_TCM,2, 98.22424316,  9.38056946,end
timer_stats,698881060930696,PAPI_L3_TCM,0, 98.36779785,  9.39292908,end
timer_stats,698881062070620,PAPI_L3_TCM,2, 98.57244873,  9.41165161,end
timer_stats,698881063182522,PAPI_L3_TCM,2, 98.71435547,  9.42442322,end
timer_stats,698881064294509,PAPI_L3_TCM,4, 98.85852051,  9.43678284,end
timer_stats,698881065429067,PAPI_L3_TCM,0, 98.99957275,  9.45042419,end
timer_stats,698881066530062,PAPI_L3_TCM,0, 99.14312744,  9.46308899,end
timer_stats,698881067670572,PAPI_L3_TCM,0, 99.29156494,  9.47549438,end
timer_stats,698881068813470,PAPI_L3_TCM,2, 99.52581787,  9.49554443,end
timer_stats,698881069916028,PAPI_L3_TCM,1, 99.66638183,  9.50796509,end
timer_stats,698881071051995,PAPI_L3_TCM,6, 99.87530517,  9.52569580,end
timer_stats,698881072174580,PAPI_L3_TCM,2,100.02276611,  9.53720093,end
timer_stats,698881073309604,PAPI_L3_TCM,1,100.16894531,  9.54859924,end
timer_stats,698881074441952,PAPI_L3_TCM,1,100.30914307,  9.56095886,end
timer_stats,698881075586367,PAPI_L3_TCM,1,100.45483398,  9.57275391,end
timer_stats,698881076742767,PAPI_L3_TCM,0,100.59680176,  9.58325195,end
timer_stats,698881077869781,PAPI_L3_TCM,6,100.82672119,  9.60176086,end
timer_stats,698881078975312,PAPI_L3_TCM,7,101.02880859,  9.62086487,end
timer_stats,698881080071080,PAPI_L3_TCM,6,101.18457031,  9.63189697,end
timer_stats,698881081200824,PAPI_L3_TCM,8,101.33074951,  9.63769531,end
timer_stats,698881082316245,PAPI_L3_TCM,2,101.46917724,  9.64955139,end
timer_stats,698881083412966,PAPI_L3_TCM,1,101.62420654,  9.66131592,end
timer_stats,698881084552367,PAPI_L3_TCM,3,101.77209473,  9.67262268,end
timer_stats,698881085668345,PAPI_L3_TCM,0,101.92340088,  9.68893432,end
timer_stats,698881086770709,PAPI_L3_TCM,2,102.15258789,  9.71310425,end
timer_stats,698881087930067,PAPI_L3_TCM,1,102.29705811,  9.72831726,end
timer_stats,698881089062828,PAPI_L3_TCM,3,102.51782226,  9.75177002,end
timer_stats,698881090229558,PAPI_L3_TCM,0,102.66192627,  9.76589966,end
timer_stats,698881091369567,PAPI_L3_TCM,2,102.80865478,  9.77919006,end
timer_stats,698881092513619,PAPI_L3_TCM,3,102.95062256,  9.79115295,end
timer_stats,698881093647433,PAPI_L3_TCM,1,103.09716797,  9.80310058,end
timer_stats,698881094793074,PAPI_L3_TCM,0,103.32727051,  9.82196045,end
timer_stats,698881095964919,PAPI_L3_TCM,2,103.47698974,  9.83500671,end
timer_stats,698881097098921,PAPI_L3_TCM,0,103.67364502,  9.85345459,end
timer_stats,698881098243307,PAPI_L3_TCM,4,103.81622314,  9.86572266,end
timer_stats,698881099409161,PAPI_L3_TCM,1,103.95056152,  9.87921142,end
timer_stats,698881100572262,PAPI_L3_TCM,1,104.09625244,  9.89157104,end
timer_stats,698881101707175,PAPI_L3_TCM,1,104.23736572,  9.90374756,end
timer_stats,698881102844779,PAPI_L3_TCM,0,104.45263672,  9.92262268,end
timer_stats,698881103983217,PAPI_L3_TCM,0,104.61230469,  9.93428040,end
timer_stats,698881105137920,PAPI_L3_TCM,2,104.79974365,  9.95179749,end
timer_stats,698881106270783,PAPI_L3_TCM,0,104.94049072,  9.96575928,end
timer_stats,698881107402325,PAPI_L3_TCM,3,105.08160400,  9.97651672,end
timer_stats,698881108536289,PAPI_L3_TCM,0,105.22106933,  9.98908996,end
timer_stats,698881109676670,PAPI_L3_TCM,1,105.38818359, 10.00160217,end
timer_stats,698881110808056,PAPI_L3_TCM,2,105.59405517, 10.02256775,end
timer_stats,698881111943251,PAPI_L3_TCM,0,105.74060058, 10.03672790,end
timer_stats,698881113078583,PAPI_L3_TCM,0,105.94104004, 10.05397034,end
timer_stats,698881114228253,PAPI_L3_TCM,4,106.10229492, 10.06675720,end
timer_stats,698881115359210,PAPI_L3_TCM,0,106.22302246, 10.07774353,end
timer_stats,698881116504864,PAPI_L3_TCM,4,106.36950683, 10.08837891,end
timer_stats,698881117659411,PAPI_L3_TCM,0,106.51519775, 10.09970093,end
timer_stats,698881118814995,PAPI_L3_TCM,1,106.74719238, 10.11749267,end
timer_stats,698881119961962,PAPI_L3_TCM,0,106.88507080, 10.12930298,end
timer_stats,698881121120841,PAPI_L3_TCM,1,107.08428955, 10.14752197,end
timer_stats,698881122279207,PAPI_L3_TCM,0,107.21960449, 10.16145325,end
timer_stats,698881123408474,PAPI_L3_TCM,2,107.36706543, 10.17228699,end
timer_stats,698881124553410,PAPI_L3_TCM,0,107.50646973, 10.18406677,end
timer_stats,698881125703741,PAPI_L3_TCM,3,107.66693115, 10.19523621,end
timer_stats,698881126850054,PAPI_L3_TCM,0,107.87408447, 10.21427917,end
timer_stats,698881127999578,PAPI_L3_TCM,1,108.07250977, 10.23120117,end
timer_stats,698881129145386,PAPI_L3_TCM,0,108.22082519, 10.24395752,end
timer_stats,698881130286262,PAPI_L3_TCM,0,108.36273193, 10.25576782,end
timer_stats,698881131443569,PAPI_L3_TCM,0,108.51995849, 10.26702881,end
timer_stats,698881132577378,PAPI_L3_TCM,2,108.65087890, 10.28138733,end
timer_stats,698881133744741,PAPI_L3_TCM,0,108.79003906, 10.29666138,end
timer_stats,698881134875826,PAPI_L3_TCM,3,108.95123291, 10.31028748,end
timer_stats,698881136039469,PAPI_L3_TCM,0,109.23272705, 10.34008789,end
timer_stats,698881137171504,PAPI_L3_TCM,2,109.37530517, 10.35366821,end
timer_stats,698881138333604,PAPI_L3_TCM,0,109.51586914, 10.36735534,end
timer_stats,698881139482037,PAPI_L3_TCM,0,109.65899658, 10.38128662,end
timer_stats,698881140633902,PAPI_L3_TCM,0,109.79547119, 10.39245605,end
timer_stats,698881141793234,PAPI_L3_TCM,2,110.01458740, 10.41316223,end
timer_stats,698881142956272,PAPI_L3_TCM,0,110.15808105, 10.42608642,end
timer_stats,698881144099667,PAPI_L3_TCM,3,110.37286377, 10.44610596,end
timer_stats,698881145232447,PAPI_L3_TCM,0,110.48834228, 10.45907593,end
timer_stats,698881146376393,PAPI_L3_TCM,1,110.64440918, 10.47244263,end
timer_stats,698881147515883,PAPI_L3_TCM,0,110.77600098, 10.48411560,end
timer_stats,698881148684404,PAPI_L3_TCM,0,110.93566894, 10.49670410,end
timer_stats,698881149832951,PAPI_L3_TCM,0,111.05230713, 10.50854492,end
timer_stats,698881150978066,PAPI_L3_TCM,2,111.21234131, 10.52145386,end
timer_stats,698881152124071,PAPI_L3_TCM,0,111.48645020, 10.54667664,end
timer_stats,698881153255336,PAPI_L3_TCM,3,111.63159180, 10.55903625,end
timer_stats,698881154384205,PAPI_L3_TCM,0,111.75122070, 10.57185364,end
timer_stats,698881155517462,PAPI_L3_TCM,1,111.88616943, 10.58624267,end
timer_stats,698881156661467,PAPI_L3_TCM,0,112.01654053, 10.59985351,end
timer_stats,698881157820206,PAPI_L3_TCM,0,112.15350342, 10.61268616,end
timer_stats,698881158953521,PAPI_L3_TCM,0,112.36352539, 10.63415527,end
timer_stats,698881160096491,PAPI_L3_TCM,2,112.56494140, 10.65298462,end
timer_stats,698881161227210,PAPI_L3_TCM,0,112.69897461, 10.66519165,end
timer_stats,698881162364426,PAPI_L3_TCM,3,112.81237793, 10.67807007,end
timer_stats,698881163522798,PAPI_L3_TCM,0,112.96441650, 10.68984985,end
timer_stats,698881164658245,PAPI_L3_TCM,2,113.09661865, 10.70198059,end
timer_stats,698881165808321,PAPI_L3_TCM,0,113.29846191, 10.72352600,end
timer_stats,698881166955668,PAPI_L3_TCM,0,113.43780517, 10.73614502,end
timer_stats,698881168099728,PAPI_L3_TCM,0,113.65093994, 10.75622558,end
timer_stats,698881169233736,PAPI_L3_TCM,2,113.79284668, 10.76846313,end
timer_stats,698881170370101,PAPI_L3_TCM,0,113.92181396, 10.78091430,end
timer_stats,698881171515247,PAPI_L3_TCM,3,114.06188965, 10.79351807,end
timer_stats,698881172642603,PAPI_L3_TCM,4,114.20318603, 10.80633545,end
timer_stats,698881173789701,PAPI_L3_TCM,4,114.34832764, 10.81900024,end
timer_stats,698881174947052,PAPI_L3_TCM,0,114.51885986, 10.83213806,end
timer_stats,698881188427951,PAPI_L3_TCM,164,116.67510986, 11.04486084,end
timer_stats,698881189558382,PAPI_L3_TCM,69,116.80828857, 11.05973816,end
timer_stats,698881190673162,PAPI_L3_TCM,8,116.95758057, 11.07521057,end
timer_stats,698881191796832,PAPI_L3_TCM,5,117.10534668, 11.08995056,end
timer_stats,698881192906143,PAPI_L3_TCM,6,117.26586914, 11.10528564,end
timer_stats,698881194031964,PAPI_L3_TCM,0,117.55139160, 11.12590027,end
timer_stats,698881195168632,PAPI_L3_TCM,3,117.72619629, 11.14520264,end
timer_stats,698881196315898,PAPI_L3_TCM,0,117.88018799, 11.15841675,end
timer_stats,698881197439536,PAPI_L3_TCM,0,118.03112793, 11.17056274,end
timer_stats,698881198576373,PAPI_L3_TCM,0,118.16625977, 11.18252563,end
timer_stats,698881199743109,PAPI_L3_TCM,2,118.30920410, 11.19358825,end
timer_stats,698881200884938,PAPI_L3_TCM,0,118.45843506, 11.20526123,end
timer_stats,698881202034527,PAPI_L3_TCM,4,118.69476318, 11.22373962,end
timer_stats,698881203141215,PAPI_L3_TCM,2,118.89007568, 11.24174499,end
timer_stats,698881204275707,PAPI_L3_TCM,1,119.03717041, 11.25325012,end
timer_stats,698881205416981,PAPI_L3_TCM,0,119.16925049, 11.26646423,end
timer_stats,698881206539115,PAPI_L3_TCM,1,119.32379150, 11.28009033,end
timer_stats,698881207710675,PAPI_L3_TCM,1,119.46618652, 11.29504394,end
timer_stats,698881208869173,PAPI_L3_TCM,2,119.61499023, 11.31207275,end
timer_stats,698881210027575,PAPI_L3_TCM,0,119.83996582, 11.33328247,end
timer_stats,698881211186448,PAPI_L3_TCM,3,120.04803467, 11.35333252,end
timer_stats,698881212350253,PAPI_L3_TCM,0,120.19116211, 11.36639404,end
timer_stats,698881213483576,PAPI_L3_TCM,1,120.33294678, 11.37924194,end
timer_stats,698881214634323,PAPI_L3_TCM,0,120.47656250, 11.39181518,end
timer_stats,698881215799736,PAPI_L3_TCM,0,120.62792969, 11.40634155,end
timer_stats,698881216973055,PAPI_L3_TCM,0,120.76507568, 11.41770935,end
timer_stats,698881218132275,PAPI_L3_TCM,2,121.05834961, 11.44178772,end
timer_stats,698881219287366,PAPI_L3_TCM,0,121.20275879, 11.45350647,end
timer_stats,698881220453420,PAPI_L3_TCM,3,121.34368896, 11.46528625,end
timer_stats,698881221629648,PAPI_L3_TCM,0,121.49530029, 11.47892761,end
timer_stats,698881222777022,PAPI_L3_TCM,1,121.63775635, 11.49259949,end
timer_stats,698881223937673,PAPI_L3_TCM,0,121.78833008, 11.50689697,end
timer_stats,698881225061947,PAPI_L3_TCM,0,122.02520752, 11.52946472,end
timer_stats,698881226245836,PAPI_L3_TCM,0,122.22143555, 11.55099487,end
timer_stats,698881227408882,PAPI_L3_TCM,2,122.37048340, 11.56332397,end
timer_stats,698881228555898,PAPI_L3_TCM,0,122.51403808, 11.57745361,end
timer_stats,698881229719784,PAPI_L3_TCM,3,122.66314697, 11.59082031,end
timer_stats,698881230869349,PAPI_L3_TCM,0,122.80639648, 11.60441589,end
timer_stats,698881232029376,PAPI_L3_TCM,1,123.03387451, 11.62884521,end
timer_stats,698881233135329,PAPI_L3_TCM,1,123.24017334, 11.64224243,end
timer_stats,698881234293552,PAPI_L3_TCM,0,123.38568115, 11.66328430,end
timer_stats,698881235457917,PAPI_L3_TCM,0,123.53466797, 11.67799377,end
timer_stats,698881236628246,PAPI_L3_TCM,2,123.68218994, 11.69036865,end
timer_stats,698881237788766,PAPI_L3_TCM,0,123.81384277, 11.70410156,end
timer_stats,698881238945314,PAPI_L3_TCM,3,123.96069336, 11.71740723,end
timer_stats,698881240114904,PAPI_L3_TCM,0,124.24737549, 11.74400330,end
timer_stats,698881241251557,PAPI_L3_TCM,1,124.39447021, 11.75059509,end
timer_stats,698881242417999,PAPI_L3_TCM,0,124.54132080, 11.76300049,end
timer_stats,698881243572111,PAPI_L3_TCM,0,124.68017578, 11.77604675,end
timer_stats,698881244738250,PAPI_L3_TCM,0,124.82397461, 11.78860473,end
timer_stats,698881245900376,PAPI_L3_TCM,2,124.97357178, 11.80198669,end
timer_stats,698881247060859,PAPI_L3_TCM,0,125.19934082, 11.82289123,end
timer_stats,698881248225654,PAPI_L3_TCM,3,125.40313721, 11.84298706,end
timer_stats,698881249365488,PAPI_L3_TCM,1,125.54437256, 11.85615539,end
timer_stats,698881250527932,PAPI_L3_TCM,1,125.68701172, 11.86921692,end
timer_stats,698881251686588,PAPI_L3_TCM,0,125.83679199, 11.88084412,end
timer_stats,698881252848852,PAPI_L3_TCM,0,125.97973633, 11.89306641,end
timer_stats,698881254037309,PAPI_L3_TCM,0,126.20397949, 11.91238403,end
timer_stats,698881255186827,PAPI_L3_TCM,2,126.39807129, 11.93185425,end
timer_stats,698881256346145,PAPI_L3_TCM,0,126.54638672, 11.94616699,end
timer_stats,698881257481758,PAPI_L3_TCM,3,126.67810058, 11.95826721,end
timer_stats,698881258633883,PAPI_L3_TCM,0,126.81274414, 11.97038269,end
timer_stats,698881259795669,PAPI_L3_TCM,1,126.95678711, 11.98381042,end
timer_stats,698881260956042,PAPI_L3_TCM,0,127.09362793, 11.99577331,end
timer_stats,698881262107921,PAPI_L3_TCM,0,127.35052490, 12.02128601,end
timer_stats,698881263260358,PAPI_L3_TCM,0,127.50006103, 12.03239441,end
timer_stats,698881264419216,PAPI_L3_TCM,2,127.62072754, 12.04373169,end
timer_stats,698881265576980,PAPI_L3_TCM,0,127.75238037, 12.05484009,end
timer_stats,698881266732572,PAPI_L3_TCM,3,127.87640381, 12.06600952,end
timer_stats,698881267906159,PAPI_L3_TCM,0,128.01623535, 12.07711792,end
timer_stats,698881269072493,PAPI_L3_TCM,1,128.20654297, 12.09541321,end
timer_stats,698881270232727,PAPI_L3_TCM,0,128.38952637, 12.11393738,end
timer_stats,698881271390204,PAPI_L3_TCM,0,128.51232910, 12.12533569,end
timer_stats,698881272561377,PAPI_L3_TCM,0,128.63848877, 12.13729858,end
timer_stats,698881273726104,PAPI_L3_TCM,2,128.75262451, 12.14823913,end
timer_stats,698881274877916,PAPI_L3_TCM,0,128.88623047, 12.16050720,end
timer_stats,698881276039273,PAPI_L3_TCM,3,129.00903320, 12.17185974,end
timer_stats,698881277173376,PAPI_L3_TCM,1,129.26049805, 12.18748474,end
timer_stats,698881278352070,PAPI_L3_TCM,1,129.39001465, 12.20397949,end
timer_stats,698881279516601,PAPI_L3_TCM,0,129.51477051, 12.21493530,end
timer_stats,698881280684434,PAPI_L3_TCM,0,129.63763428, 12.22607422,end
timer_stats,698881281851311,PAPI_L3_TCM,0,129.76129150, 12.23699951,end
timer_stats,698881283012488,PAPI_L3_TCM,2,129.95861816, 12.25347900,end
timer_stats,698881284178641,PAPI_L3_TCM,0,130.09008789, 12.26434326,end
timer_stats,698881285314256,PAPI_L3_TCM,3,130.26971435, 12.28106689,end
timer_stats,698881286462768,PAPI_L3_TCM,0,130.38391113, 12.29295349,end
timer_stats,698881287634447,PAPI_L3_TCM,1,130.51599121, 12.30444336,end
timer_stats,698881288793697,PAPI_L3_TCM,0,130.64416504, 12.31553650,end
timer_stats,698881289955921,PAPI_L3_TCM,0,130.76416016, 12.32856750,end
timer_stats,698881291105576,PAPI_L3_TCM,0,130.95043945, 12.34672546,end
timer_stats,698881292260984,PAPI_L3_TCM,2,131.14086914, 12.36428833,end
timer_stats,698881293399856,PAPI_L3_TCM,0,131.25781250, 12.37481689,end
timer_stats,698881294551892,PAPI_L3_TCM,3,131.38055420, 12.38601685,end
timer_stats,698881295706023,PAPI_L3_TCM,0,131.50396728, 12.39810181,end
timer_stats,698881296866094,PAPI_L3_TCM,2,131.62957764, 12.41105652,end
timer_stats,698881298009341,PAPI_L3_TCM,0,131.76495361, 12.42268371,end
timer_stats,698881299176222,PAPI_L3_TCM,0,131.96203613, 12.44229126,end
timer_stats,698881300353090,PAPI_L3_TCM,0,132.14025879, 12.45965576,end
timer_stats,698881301505955,PAPI_L3_TCM,2,132.26184082, 12.47056580,end
timer_stats,698881302670052,PAPI_L3_TCM,0,132.37847900, 12.48175049,end
timer_stats,698881303856545,PAPI_L3_TCM,3,132.49652099, 12.49371338,end
timer_stats,698881305041464,PAPI_L3_TCM,0,132.67919922, 12.51107788,end
timer_stats,698881306208903,PAPI_L3_TCM,1,132.85205078, 12.52270508,end
timer_stats,698881307362735,PAPI_L3_TCM,0,132.96685791, 12.53945923,end
timer_stats,698881308544715,PAPI_L3_TCM,0,133.08673096, 12.55068970,end
timer_stats,698881309722239,PAPI_L3_TCM,0,133.20361328, 12.56161499,end
timer_stats,698881310895679,PAPI_L3_TCM,2,133.32098389, 12.57212830,end
timer_stats,698881312089486,PAPI_L3_TCM,0,133.49365234, 12.58776855,end
timer_stats,698881313220115,PAPI_L3_TCM,3,133.65917969, 12.60392761,end
timer_stats,698881314397605,PAPI_L3_TCM,0,133.77648926, 12.61463928,end
timer_stats,698881315586848,PAPI_L3_TCM,1,133.89532471, 12.62533569,end
timer_stats,698881316772207,PAPI_L3_TCM,0,134.00579834, 12.63586426,end
timer_stats,698881317951368,PAPI_L3_TCM,0,134.11846924, 12.64659119,end
timer_stats,698881319136278,PAPI_L3_TCM,0,134.30041504, 12.66291809,end
timer_stats,698881320309714,PAPI_L3_TCM,2,134.48034668, 12.67857361,end
timer_stats,698881321466722,PAPI_L3_TCM,0,134.60333252, 12.68954468,end
timer_stats,698881322646800,PAPI_L3_TCM,3,134.72137451, 12.70005798,end
timer_stats,698881323832532,PAPI_L3_TCM,1,134.84582519, 12.71055603,end
timer_stats,698881325010165,PAPI_L3_TCM,1,134.95690918, 12.72193909,end
timer_stats,698881326176553,PAPI_L3_TCM,1,135.14453125, 12.73837280,end
timer_stats,698881327340601,PAPI_L3_TCM,0,135.30902100, 12.75506592,end
timer_stats,698881328512916,PAPI_L3_TCM,0,135.43518066, 12.76637268,end
timer_stats,698881329695679,PAPI_L3_TCM,2,135.55285645, 12.77796936,end
timer_stats,698881330863684,PAPI_L3_TCM,3,135.67083740, 12.79020691,end
timer_stats,698881332051067,PAPI_L3_TCM,4,135.79992676, 12.80104065,end
timer_stats,698881333188962,PAPI_L3_TCM,0,136.03198242, 12.82402039,end
timer_stats,698881334367879,PAPI_L3_TCM,1,136.15270996, 12.83439636,end
timer_stats,698881335548746,PAPI_L3_TCM,0,136.27410889, 12.84555054,end
timer_stats,698881336733607,PAPI_L3_TCM,0,136.39422607, 12.85697937,end
timer_stats,698881337919218,PAPI_L3_TCM,0,136.51556396, 12.86723328,end
timer_stats,698881339107826,PAPI_L3_TCM,2,136.69781494, 12.88290405,end
timer_stats,698881340285851,PAPI_L3_TCM,0,136.86840820, 12.89877319,end
timer_stats,698881341442609,PAPI_L3_TCM,3,136.99157715, 12.90945434,end
timer_stats,698881342620221,PAPI_L3_TCM,0,137.10821533, 12.91995239,end
timer_stats,698881343813888,PAPI_L3_TCM,1,137.22784424, 12.93020630,end
timer_stats,698881344993566,PAPI_L3_TCM,0,137.34155273, 12.94024658,end
timer_stats,698881346186888,PAPI_L3_TCM,0,137.50439453, 12.95056152,end
timer_stats,698881347376892,PAPI_L3_TCM,0,137.66314697, 12.96600342,end
timer_stats,698881348568373,PAPI_L3_TCM,2,137.77355957, 12.97764587,end
timer_stats,698881349753086,PAPI_L3_TCM,0,137.88397217, 12.98863220,end
timer_stats,698881350921678,PAPI_L3_TCM,3,137.99743652, 12.99905395,end
timer_stats,698881352090724,PAPI_L3_TCM,0,138.15301514, 13.01560974,end
timer_stats,698881353271636,PAPI_L3_TCM,3,138.31958008, 13.03166199,end
timer_stats,698881354452379,PAPI_L3_TCM,1,138.43664551, 13.04328918,end
timer_stats,698881355651533,PAPI_L3_TCM,0,138.55035400, 13.05470276,end
timer_stats,698881356833014,PAPI_L3_TCM,0,138.66253662, 13.06541443,end
timer_stats,698881358004545,PAPI_L3_TCM,2,138.77569580, 13.07638550,end
timer_stats,698881359185405,PAPI_L3_TCM,0,138.94036865, 13.09762573,end
timer_stats,698881360367154,PAPI_L3_TCM,4,139.10668945, 13.10812378,end
timer_stats,698881361553199,PAPI_L3_TCM,0,139.21289062, 13.11865234,end
timer_stats,698881362751939,PAPI_L3_TCM,1,139.32409668, 13.12893677,end
timer_stats,698881363937008,PAPI_L3_TCM,0,139.43322754, 13.13945007,end
timer_stats,698881365150932,PAPI_L3_TCM,2,139.59429932, 13.15516662,end
timer_stats,698881366325751,PAPI_L3_TCM,0,139.75494385, 13.17063904,end
timer_stats,698881367493698,PAPI_L3_TCM,2,139.86730957, 13.18064880,end
timer_stats,698881368695434,PAPI_L3_TCM,0,139.97711182, 13.19096374,end
timer_stats,698881369883236,PAPI_L3_TCM,3,140.08276367, 13.20129394,end
timer_stats,698881371073393,PAPI_L3_TCM,0,140.19567871, 13.21154785,end
timer_stats,698881372257948,PAPI_L3_TCM,1,140.41552734, 13.23474121,end
timer_stats,698881373415139,PAPI_L3_TCM,0,140.52117920, 13.24652099,end
timer_stats,698881374602363,PAPI_L3_TCM,0,140.63476562, 13.26174927,end
timer_stats,698881375776540,PAPI_L3_TCM,0,140.74237060, 13.27304077,end
timer_stats,698881376946594,PAPI_L3_TCM,3,140.86108398, 13.28385925,end
timer_stats,698881378115890,PAPI_L3_TCM,0,140.96716309, 13.29548645,end
timer_stats,698881379286414,PAPI_L3_TCM,6,141.19268799, 13.31968689,end
timer_stats,698881380460312,PAPI_L3_TCM,5,141.30303955, 13.33055115,end
timer_stats,698881381656682,PAPI_L3_TCM,1,141.41766357, 13.34165955,end
timer_stats,698881382833926,PAPI_L3_TCM,0,141.53295898, 13.35253906,end
timer_stats,698881384016057,PAPI_L3_TCM,4,141.64233398, 13.36384583,end
timer_stats,698881385158376,PAPI_L3_TCM,0,141.82507324, 13.38050842,end
timer_stats,698881386315271,PAPI_L3_TCM,2,142.00585937, 13.39630127,end
timer_stats,698881387478076,PAPI_L3_TCM,0,142.11962891, 13.40655517,end
timer_stats,698881388663343,PAPI_L3_TCM,3,142.23126221, 13.41706848,end
timer_stats,698881389854514,PAPI_L3_TCM,1,142.34161377, 13.42733765,end
timer_stats,698881391030411,PAPI_L3_TCM,1,142.44995117, 13.43786621,end
timer_stats,698881392201970,PAPI_L3_TCM,0,142.61816406, 13.45489502,end
timer_stats,698881393334617,PAPI_L3_TCM,0,142.79394531, 13.47140503,end
timer_stats,698881394508606,PAPI_L3_TCM,0,142.91125488, 13.48364258,end
timer_stats,698881395686484,PAPI_L3_TCM,2,143.02484131, 13.49452209,end
timer_stats,698881396857958,PAPI_L3_TCM,0,143.14343262, 13.50523376,end
timer_stats,698881398032763,PAPI_L3_TCM,3,143.26190185, 13.51593017,end
timer_stats,698881399211992,PAPI_L3_TCM,0,143.48547363, 13.53718567,end
timer_stats,698881400402410,PAPI_L3_TCM,1,143.60638428, 13.54806518,end
timer_stats,698881401573199,PAPI_L3_TCM,1,143.72332764, 13.55964660,end
timer_stats,698881402752367,PAPI_L3_TCM,3,143.83892822, 13.57101440,end
timer_stats,698881403940912,PAPI_L3_TCM,0,143.95947266, 13.58280945,end
timer_stats,698881405139046,PAPI_L3_TCM,4,144.15051269, 13.59465027,end
timer_stats,698881406286682,PAPI_L3_TCM,0,144.33575439, 13.61743164,end
timer_stats,698881407455897,PAPI_L3_TCM,3,144.46185303, 13.62847900,end
timer_stats,698881408624281,PAPI_L3_TCM,1,144.58740234, 13.63983154,end
timer_stats,698881409807425,PAPI_L3_TCM,2,144.70581054, 13.65081787,end
timer_stats,698881410984871,PAPI_L3_TCM,0,144.82244873, 13.66323852,end
timer_stats,698881412142984,PAPI_L3_TCM,3,144.95855713, 13.67500305,end
timer_stats,698881413273684,PAPI_L3_TCM,0,145.14392090, 13.69174194,end
timer_stats,698881414415318,PAPI_L3_TCM,2,145.32299805, 13.70738220,end
timer_stats,698881415558807,PAPI_L3_TCM,0,145.44415283, 13.71791076,end
timer_stats,698881416716011,PAPI_L3_TCM,3,145.56817627, 13.72816467,end
timer_stats,698881417870470,PAPI_L3_TCM,0,145.68402100, 13.73866272,end
timer_stats,698881419021120,PAPI_L3_TCM,3,145.80163574, 13.74917602,end
timer_stats,698881420176053,PAPI_L3_TCM,0,145.91693115, 13.75949097,end
timer_stats,698881421311862,PAPI_L3_TCM,0,146.14947510, 13.77540588,end
timer_stats,698881422458495,PAPI_L3_TCM,0,146.26361084, 13.79106140,end
timer_stats,698881423607459,PAPI_L3_TCM,3,146.37756348, 13.80113220,end
timer_stats,698881424767270,PAPI_L3_TCM,0,146.49426269, 13.81141662,end
timer_stats,698881425928287,PAPI_L3_TCM,3,146.60711670, 13.82151794,end
timer_stats,698881427083149,PAPI_L3_TCM,0,146.73034668, 13.83201599,end
timer_stats,698881428242111,PAPI_L3_TCM,1,146.90264892, 13.84747314,end
timer_stats,698881429377792,PAPI_L3_TCM,0,147.07922363, 13.86291504,end
timer_stats,698881430529332,PAPI_L3_TCM,0,147.19177246, 13.87393188,end
timer_stats,698881431695973,PAPI_L3_TCM,0,147.30871582, 13.88513183,end
timer_stats,698881432862601,PAPI_L3_TCM,2,147.42791748, 13.89556885,end
timer_stats,698881434037410,PAPI_L3_TCM,0,147.54205322, 13.90606689,end
timer_stats,698881435187383,PAPI_L3_TCM,3,147.65783691, 13.91163635,end
timer_stats,698881436346257,PAPI_L3_TCM,0,147.89007568, 13.93299866,end
timer_stats,698881437481637,PAPI_L3_TCM,1,148.00708008, 13.94371033,end
timer_stats,698881438636399,PAPI_L3_TCM,0,148.12164307, 13.95466614,end
timer_stats,698881439800050,PAPI_L3_TCM,0,148.23577881, 13.96611023,end
timer_stats,698881440935303,PAPI_L3_TCM,0,148.35900879, 13.97703552,end
timer_stats,698881442085534,PAPI_L3_TCM,2,148.47296142, 13.98747253,end
timer_stats,698881443235574,PAPI_L3_TCM,0,148.63391113, 14.00341797,end
timer_stats,698881444385941,PAPI_L3_TCM,3,148.80773926, 14.02084350,end
timer_stats,698881445536396,PAPI_L3_TCM,0,148.91790771, 14.03161621,end
timer_stats,698881446737776,PAPI_L3_TCM,1,149.02203369, 14.04284668,end
timer_stats,698881447913250,PAPI_L3_TCM,6,149.12927246, 14.05310058,end
timer_stats,698881449097281,PAPI_L3_TCM,1,149.23779297, 14.06384277,end
timer_stats,698881450291011,PAPI_L3_TCM,0,149.38964844, 14.07997131,end
timer_stats,698881451478381,PAPI_L3_TCM,3,149.54577637, 14.09559631,end
timer_stats,698881452672583,PAPI_L3_TCM,0,149.65551758, 14.10725403,end
timer_stats,698881453865948,PAPI_L3_TCM,3,149.75457764, 14.11753845,end
timer_stats,698881455062810,PAPI_L3_TCM,1,149.85955810, 14.12803650,end
timer_stats,698881456246233,PAPI_L3_TCM,2,150.01733398, 14.14390564,end
timer_stats,698881457404018,PAPI_L3_TCM,0,150.17291260, 14.15957642,end
timer_stats,698881458584596,PAPI_L3_TCM,0,150.27288818, 14.17007446,end
timer_stats,698881459773500,PAPI_L3_TCM,0,150.38220215, 14.18032837,end
timer_stats,698881460961587,PAPI_L3_TCM,2,150.48315430, 14.19085693,end
timer_stats,698881462121413,PAPI_L3_TCM,0,150.58331299, 14.20140076,end
timer_stats,698881463323444,PAPI_L3_TCM,3,150.78973389, 14.22198486,end
timer_stats,698881464515359,PAPI_L3_TCM,0,150.89550781, 14.23248291,end
timer_stats,698881465705272,PAPI_L3_TCM,2,151.00140381, 14.24365234,end
timer_stats,698881466881552,PAPI_L3_TCM,0,151.10394287, 14.25463867,end
timer_stats,698881468079739,PAPI_L3_TCM,0,151.20739746, 14.26513672,end
timer_stats,698881469236168,PAPI_L3_TCM,0,151.36743164, 14.28100586,end
timer_stats,698881470427441,PAPI_L3_TCM,2,151.52056885, 14.29620361,end
timer_stats,698881471614875,PAPI_L3_TCM,0,151.62359619, 14.30671692,end
timer_stats,698881472805160,PAPI_L3_TCM,4,151.72827148, 14.31840515,end
timer_stats,698881473979816,PAPI_L3_TCM,0,151.83123779, 14.32911682,end
timer_stats,698881475155245,PAPI_L3_TCM,1,151.93505859, 14.33985901,end
timer_stats,698881476352871,PAPI_L3_TCM,1,152.09344482, 14.35572815,end
timer_stats,698881477514788,PAPI_L3_TCM,0,152.23852539, 14.37165832,end
timer_stats,698881478685801,PAPI_L3_TCM,0,152.33837891, 14.38038635,end
timer_stats,698881479854611,PAPI_L3_TCM,2,152.43603516, 14.39039612,end
timer_stats,698881481024560,PAPI_L3_TCM,0,152.53704834, 14.39942932,end
timer_stats,698881482193861,PAPI_L3_TCM,3,152.64062500, 14.40843200,end
timer_stats,698881483373275,PAPI_L3_TCM,0,152.83593750, 14.42692566,end
timer_stats,698881484557484,PAPI_L3_TCM,2,152.93450928, 14.43614197,end
timer_stats,698881485739600,PAPI_L3_TCM,0,153.03497314, 14.44462585,end
timer_stats,698881486918244,PAPI_L3_TCM,0,153.12969971, 14.45362854,end
timer_stats,698881488111107,PAPI_L3_TCM,0,153.22406006, 14.46241760,end
timer_stats,698881489292912,PAPI_L3_TCM,2,153.36706543, 14.47610473,end
timer_stats,698881490478708,PAPI_L3_TCM,0,153.50524902, 14.48895264,end
timer_stats,698881491660674,PAPI_L3_TCM,3,153.59521484, 14.49783325,end
timer_stats,698881492856392,PAPI_L3_TCM,0,153.69287109, 14.50656128,end
timer_stats,698881494043488,PAPI_L3_TCM,1,153.78356934, 14.51538086,end
timer_stats,698881495232683,PAPI_L3_TCM,0,153.87976074, 14.52464294,end
timer_stats,698881496411997,PAPI_L3_TCM,0,154.06103516, 14.54222107,end
timer_stats,698881497591918,PAPI_L3_TCM,0,154.15093994, 14.55148315,end
timer_stats,698881498772217,PAPI_L3_TCM,2,154.24658203, 14.56024170,end
timer_stats,698881499953557,PAPI_L3_TCM,0,154.34100342, 14.56924438,end
timer_stats,698881501135029,PAPI_L3_TCM,4,154.43072510, 14.57809448,end
timer_stats,698881502289957,PAPI_L3_TCM,0,154.57489014, 14.59255981,end
timer_stats,698881503471420,PAPI_L3_TCM,1,154.70782471, 14.60540771,end
timer_stats,698881504650699,PAPI_L3_TCM,0,154.80194092, 14.61437988,end
timer_stats,698881505833801,PAPI_L3_TCM,0,154.88946533, 14.62345886,end
timer_stats,698881507036479,PAPI_L3_TCM,0,154.98431396, 14.63243103,end
timer_stats,698881508232617,PAPI_L3_TCM,2,155.12316894, 14.64665222,end
timer_stats,698881509412738,PAPI_L3_TCM,0,155.25610351, 14.65959167,end
timer_stats,698881510598934,PAPI_L3_TCM,3,155.34606934, 14.66838074,end
timer_stats,698881511782354,PAPI_L3_TCM,0,155.43762207, 14.67713928,end
timer_stats,698881512975990,PAPI_L3_TCM,1,155.52801514, 14.68641662,end
timer_stats,698881514170760,PAPI_L3_TCM,0,155.61657715, 14.69526672,end
timer_stats,698881515350574,PAPI_L3_TCM,0,155.75439453, 14.70942688,end
timer_stats,698881516534193,PAPI_L3_TCM,0,155.88659668, 14.72227478,end
timer_stats,698881517692759,PAPI_L3_TCM,2,155.97412109, 14.73106384,end
timer_stats,698881518871868,PAPI_L3_TCM,0,156.06250000, 14.73982239,end
timer_stats,698881520055099,PAPI_L3_TCM,3,156.14831543, 14.74501037,end
timer_stats,698881521234228,PAPI_L3_TCM,0,156.23181152, 14.75354004,end
timer_stats,698881522414477,PAPI_L3_TCM,2,156.39447021, 14.77185058,end
timer_stats,698881523595896,PAPI_L3_TCM,0,156.48034668, 14.78036499,end
timer_stats,698881524777750,PAPI_L3_TCM,0,156.56231689, 14.78890991,end
timer_stats,698881525933534,PAPI_L3_TCM,0,156.64227295, 14.79797363,end
timer_stats,698881527088125,PAPI_L3_TCM,2,156.72943115, 14.80674744,end
timer_stats,698881528272279,PAPI_L3_TCM,0,156.85620117, 14.82069397,end
timer_stats,698881529456692,PAPI_L3_TCM,3,156.97772217, 14.83308411,end
timer_stats,698881530659741,PAPI_L3_TCM,0,157.05975342, 14.84208679,end
timer_stats,698881531841409,PAPI_L3_TCM,1,157.14056396, 14.85087585,end
timer_stats,698881533023251,PAPI_L3_TCM,0,157.22265625, 14.85987854,end
timer_stats,698881534205316,PAPI_L3_TCM,0,157.30560303, 14.86888123,end
timer_stats,698881535389128,PAPI_L3_TCM,0,157.42883301, 14.88619995,end
timer_stats,698881536572609,PAPI_L3_TCM,2,157.54840088, 14.89494324,end
timer_stats,698881537768500,PAPI_L3_TCM,0,157.62792969, 14.90382385,end
timer_stats,698881538948366,PAPI_L3_TCM,3,157.71130371, 14.91304016,end
timer_stats,698881540133349,PAPI_L3_TCM,0,157.79589844, 14.92179871,end
timer_stats,698881541291907,PAPI_L3_TCM,1,157.92456055, 14.93589783,end
timer_stats,698881542477838,PAPI_L3_TCM,0,158.03808594, 14.94854736,end
timer_stats,698881543663367,PAPI_L3_TCM,0,158.11755371, 14.95733642,end
timer_stats,698881544848337,PAPI_L3_TCM,1,158.19873047, 14.96633911,end
timer_stats,698881546030438,PAPI_L3_TCM,2,158.28228760, 14.97531128,end
timer_stats,698881547214867,PAPI_L3_TCM,0,158.36132812, 14.98434448,end
timer_stats,698881548400478,PAPI_L3_TCM,3,158.49114990, 15.00187683,end
timer_stats,698881549586811,PAPI_L3_TCM,1,158.60314941, 15.01068115,end
timer_stats,698881550770419,PAPI_L3_TCM,1,158.68402099, 15.01943970,end
timer_stats,698881551953674,PAPI_L3_TCM,0,158.76312256, 15.02847290,end
timer_stats,698881553136619,PAPI_L3_TCM,0,158.84759521, 15.03744507,end
timer_stats,698881554320309,PAPI_L3_TCM,0,158.97015381, 15.05165100,end
timer_stats,698881555510698,PAPI_L3_TCM,2,159.07836914, 15.06410217,end
timer_stats,698881556703379,PAPI_L3_TCM,0,159.16143799, 15.07283020,end
timer_stats,698881557891973,PAPI_L3_TCM,3,159.24157715, 15.08213806,end
timer_stats,698881559078094,PAPI_L3_TCM,0,159.32214355, 15.09089661,end
timer_stats,698881560268497,PAPI_L3_TCM,1,159.44354248, 15.10462952,end
timer_stats,698881561452267,PAPI_L3_TCM,0,159.55407715, 15.11759949,end
timer_stats,698881562653456,PAPI_L3_TCM,1,159.63629150, 15.12635803,end
timer_stats,698881563831727,PAPI_L3_TCM,0,159.71356201, 15.13514709,end
timer_stats,698881565016825,PAPI_L3_TCM,2,159.79248047, 15.14421081,end
timer_stats,698881566199610,PAPI_L3_TCM,0,159.87274170, 15.15275574,end
timer_stats,698881567386189,PAPI_L3_TCM,3,159.99005127, 15.16697693,end
timer_stats,698881568575963,PAPI_L3_TCM,0,160.10632324, 15.17955017,end
timer_stats,698881569766803,PAPI_L3_TCM,1,160.18389892, 15.18833923,end
timer_stats,698881570952653,PAPI_L3_TCM,0,160.26367187, 15.19712830,end
timer_stats,698881572136540,PAPI_L3_TCM,0,160.34252930, 15.20614624,end
timer_stats,698881573319179,PAPI_L3_TCM,0,160.41888428, 15.21527099,end
timer_stats,698881574501593,PAPI_L3_TCM,2,160.57391357, 15.23286438,end
timer_stats,698881575689815,PAPI_L3_TCM,1,160.65368652, 15.24162292,end
timer_stats,698881576884573,PAPI_L3_TCM,3,160.73364258, 15.25039673,end
timer_stats,698881578069593,PAPI_L3_TCM,0,160.81158447, 15.25918579,end
timer_stats,698881579254158,PAPI_L3_TCM,1,160.88806152, 15.26797485,end
timer_stats,698881580438483,PAPI_L3_TCM,0,161.01049805, 15.28170776,end
timer_stats,698881581626689,PAPI_L3_TCM,0,161.12506103, 15.29461670,end
timer_stats,698881582822901,PAPI_L3_TCM,0,161.20971680, 15.30331421,end
timer_stats,698881584018180,PAPI_L3_TCM,2,161.28179932, 15.31246948,end
timer_stats,698881585188711,PAPI_L3_TCM,0,161.36212158, 15.32147217,end
timer_stats,698881586370461,PAPI_L3_TCM,3,161.48309326, 15.33619690,end
timer_stats,698881587557366,PAPI_L3_TCM,0,161.59283447, 15.34886169,end
timer_stats,698881588746954,PAPI_L3_TCM,1,161.67712402, 15.35734558,end
timer_stats,698881589933618,PAPI_L3_TCM,0,161.75292969, 15.36614990,end
timer_stats,698881591117976,PAPI_L3_TCM,0,161.83007812, 15.37518310,end
timer_stats,698881592314467,PAPI_L3_TCM,170,161.95306396, 15.38964844,end
timer_stats,698881593507657,PAPI_L3_TCM,2,162.06610107, 15.40203857,end
timer_stats,698881594682169,PAPI_L3_TCM,0,162.14416504, 15.41058349,end
timer_stats,698881595869859,PAPI_L3_TCM,3,162.22393799, 15.41958618,end
timer_stats,698881597045551,PAPI_L3_TCM,0,162.30700684, 15.42831421,end
timer_stats,698881598217047,PAPI_L3_TCM,1,162.38092041, 15.43716431,end
timer_stats,698881599393550,PAPI_L3_TCM,0,162.50518799, 15.45132446,end
timer_stats,698881600566684,PAPI_L3_TCM,1,162.61724853, 15.46414185,end
timer_stats,698881601741106,PAPI_L3_TCM,0,162.69714355, 15.47268677,end
timer_stats,698881602922861,PAPI_L3_TCM,4,162.77905273, 15.48144531,end
timer_stats,698881604096054,PAPI_L3_TCM,1,162.85736084, 15.49046326,end
timer_stats,698881605280512,PAPI_L3_TCM,3,162.97863770, 15.50440979,end
timer_stats,698881606468445,PAPI_L3_TCM,0,163.06402588, 15.51310730,end
timer_stats,698881607658566,PAPI_L3_TCM,1,163.16778564, 15.52597046,end
timer_stats,698881608845516,PAPI_L3_TCM,2,163.24768066, 15.53497314,end
timer_stats,698881610032609,PAPI_L3_TCM,0,163.32672119, 15.54400635,end
timer_stats,698881611211080,PAPI_L3_TCM,0,163.40753174, 15.55276489,end
timer_stats,698881612382752,PAPI_L3_TCM,1,163.53039551, 15.56648254,end
timer_stats,698881613570582,PAPI_L3_TCM,0,163.64001465, 15.57916260,end
timer_stats,698881614757604,PAPI_L3_TCM,3,163.72521972, 15.58789062,end
timer_stats,698881615949663,PAPI_L3_TCM,0,163.79766846, 15.59674072,end
timer_stats,698881617134076,PAPI_L3_TCM,1,163.87969971, 15.60546875,end
timer_stats,698881618322050,PAPI_L3_TCM,0,163.99987793, 15.61968994,end
timer_stats,698881619508879,PAPI_L3_TCM,0,164.08929443, 15.62889099,end
timer_stats,698881620696127,PAPI_L3_TCM,0,164.19360352, 15.64175415,end
timer_stats,698881621883178,PAPI_L3_TCM,1,164.26873779, 15.65081787,end
timer_stats,698881623071219,PAPI_L3_TCM,0,164.35119629, 15.65956116,end
timer_stats,698881624260717,PAPI_L3_TCM,3,164.43554687, 15.66871643,end
timer_stats,698881625450428,PAPI_L3_TCM,0,164.55694580, 15.68266296,end
timer_stats,698881626642113,PAPI_L3_TCM,1,164.66632080, 15.69555664,end
timer_stats,698881627827176,PAPI_L3_TCM,0,164.74835205, 15.70404053,end
timer_stats,698881629010788,PAPI_L3_TCM,0,164.82086182, 15.71293640,end
timer_stats,698881630203893,PAPI_L3_TCM,0,164.89630127, 15.72196960,end
timer_stats,698881631390184,PAPI_L3_TCM,1,165.02673340, 15.73606873,end
timer_stats,698881632581045,PAPI_L3_TCM,0,165.10650635, 15.74482727,end
timer_stats,698881633769384,PAPI_L3_TCM,3,165.21966553, 15.75744629,end
timer_stats,698881634964990,PAPI_L3_TCM,0,165.29223633, 15.76690674,end
timer_stats,698881636149869,PAPI_L3_TCM,1,165.37738037, 15.77584839,end
timer_stats,698881637311709,PAPI_L3_TCM,0,165.45544434, 15.78485107,end
timer_stats,698881638497100,PAPI_L3_TCM,0,165.57427978, 15.79862976,end
timer_stats,698881639686259,PAPI_L3_TCM,0,165.69201660, 15.81120300,end
timer_stats,698881640868897,PAPI_L3_TCM,1,165.76348877, 15.82014465,end
timer_stats,698881642049073,PAPI_L3_TCM,0,165.84869385, 15.82887268,end
timer_stats,698881643207932,PAPI_L3_TCM,3,165.92095947, 15.83796692,end
timer_stats,698881644395901,PAPI_L3_TCM,0,166.05072021, 15.85238647,end
timer_stats,698881645582183,PAPI_L3_TCM,1,166.12445068, 15.86129761,end
timer_stats,698881646757141,PAPI_L3_TCM,0,166.24353027, 15.87387085,end
timer_stats,698881647934429,PAPI_L3_TCM,0,166.31829834, 15.88269043,end
timer_stats,698881649120467,PAPI_L3_TCM,0,166.39959717, 15.89169311,end
timer_stats,698881650299654,PAPI_L3_TCM,1,166.47344971, 15.90060425,end
timer_stats,698881651485641,PAPI_L3_TCM,0,166.60455322, 15.91424560,end
timer_stats,698881652706155,PAPI_L3_TCM,4,166.68194580, 15.92666626,end
timer_stats,698881653891593,PAPI_L3_TCM,0,166.78778076, 15.93557739,end
timer_stats,698881655076763,PAPI_L3_TCM,1,166.86804199, 15.94512939,end
timer_stats,698881656263366,PAPI_L3_TCM,0,166.94329834, 15.95391846,end
timer_stats,698881657461218,PAPI_L3_TCM,0,167.07299805, 15.96780395,end
timer_stats,698881658644125,PAPI_L3_TCM,0,167.14843750, 15.97662353,end
timer_stats,698881659825994,PAPI_L3_TCM,1,167.26470947, 15.98968506,end
timer_stats,698881661007221,PAPI_L3_TCM,0,167.34356689, 15.99844360,end
timer_stats,698881662195705,PAPI_L3_TCM,2,167.42095947, 16.00776672,end
timer_stats,698881663391910,PAPI_L3_TCM,0,167.54626465, 16.02178955,end
timer_stats,698881664579087,PAPI_L3_TCM,1,167.62561035, 16.03036499,end
timer_stats,698881665766611,PAPI_L3_TCM,1,167.74273682, 16.04226684,end
timer_stats,698881666927176,PAPI_L3_TCM,0,167.81738281, 16.05108643,end
timer_stats,698881668104701,PAPI_L3_TCM,0,167.90753174, 16.06024170,end
timer_stats,698881669240706,PAPI_L3_TCM,1,167.98608398, 16.06884765,end
timer_stats,698881670426758,PAPI_L3_TCM,0,168.10723877, 16.08259582,end
timer_stats,698881671627085,PAPI_L3_TCM,2,168.18615723, 16.09135437,end
timer_stats,698881672804900,PAPI_L3_TCM,1,168.29974365, 16.10375976,end
timer_stats,698881674001606,PAPI_L3_TCM,1,168.37585449, 16.11236572,end
timer_stats,698881675188526,PAPI_L3_TCM,0,168.45794678, 16.12115478,end
timer_stats,698881676362579,PAPI_L3_TCM,0,168.53411865, 16.12997436,end
timer_stats,698881677555708,PAPI_L3_TCM,0,168.66320801, 16.14407348,end
timer_stats,698881678745710,PAPI_L3_TCM,1,168.77093506, 16.15650940,end
timer_stats,698881679930995,PAPI_L3_TCM,0,168.85266113, 16.16525268,end
timer_stats,698881681131594,PAPI_L3_TCM,2,168.92883301, 16.17431640,end
timer_stats,698881682319915,PAPI_L3_TCM,0,169.00744629, 16.18331909,end
timer_stats,698881683513669,PAPI_L3_TCM,1,169.13568115, 16.19696045,end
timer_stats,698881684692195,PAPI_L3_TCM,0,169.21441650, 16.20959473,end
timer_stats,698881685881135,PAPI_L3_TCM,0,169.32482910, 16.21865845,end
timer_stats,698881687067383,PAPI_L3_TCM,0,169.40631103, 16.22763061,end
timer_stats,698881688255928,PAPI_L3_TCM,1,169.47937012, 16.23672485,end
timer_stats,698881689416459,PAPI_L3_TCM,0,169.60675049, 16.25112915,end
timer_stats,698881690626398,PAPI_L3_TCM,2,169.68725586, 16.26010132,end
timer_stats,698881691828793,PAPI_L3_TCM,0,169.79486084, 16.27276611,end
timer_stats,698881693005280,PAPI_L3_TCM,1,169.87561035, 16.28152466,end
timer_stats,698881694193276,PAPI_L3_TCM,0,169.95697021, 16.29049683,end
timer_stats,698881695384713,PAPI_L3_TCM,0,170.03332520, 16.29930115,end
timer_stats,698881696569558,PAPI_L3_TCM,0,170.16040039, 16.31344604,end
timer_stats,698881697756753,PAPI_L3_TCM,1,170.26831055, 16.32656860,end
timer_stats,698881698942481,PAPI_L3_TCM,0,170.34521484, 16.33537292,end
timer_stats,698881700133100,PAPI_L3_TCM,2,170.42578125, 16.34413147,end
timer_stats,698881701272429,PAPI_L3_TCM,0,170.50854492, 16.35310364,end
timer_stats,698881702471109,PAPI_L3_TCM,1,170.62744141, 16.36732483,end
timer_stats,698881703661495,PAPI_L3_TCM,0,170.70501709, 16.37666321,end
timer_stats,698881704843646,PAPI_L3_TCM,0,170.82446289, 16.39002991,end
timer_stats,698881706020132,PAPI_L3_TCM,0,170.89990234, 16.39863586,end
timer_stats,698881707196567,PAPI_L3_TCM,1,170.97491455, 16.40724182,end
timer_stats,698881708374285,PAPI_L3_TCM,0,171.05670166, 16.41596985,end
timer_stats,698881709565799,PAPI_L3_TCM,2,171.17980957, 16.42967224,end
timer_stats,698881710757002,PAPI_L3_TCM,0,171.28894043, 16.44255066,end
timer_stats,698881711942482,PAPI_L3_TCM,2,171.37402344, 16.45152283,end
timer_stats,698881713103118,PAPI_L3_TCM,0,171.45257568, 16.46247864,end
timer_stats,698881714277909,PAPI_L3_TCM,0,171.53485107, 16.47276306,end
timer_stats,698881715463792,PAPI_L3_TCM,0,171.65863037, 16.48649597,end
timer_stats,698881716645548,PAPI_L3_TCM,1,171.73590088, 16.49571228,end
timer_stats,698881717837582,PAPI_L3_TCM,0,171.84692383, 16.50834656,end
timer_stats,698881719040180,PAPI_L3_TCM,2,171.92718506, 16.51710510,end
timer_stats,698881720227946,PAPI_L3_TCM,0,172.00469971, 16.52589416,end
timer_stats,698881721387148,PAPI_L3_TCM,1,172.12951660, 16.54006958,end
timer_stats,698881722580798,PAPI_L3_TCM,0,172.20953369, 16.54937744,end
timer_stats,698881723771953,PAPI_L3_TCM,0,172.31622314, 16.56210327,end
timer_stats,698881724950704,PAPI_L3_TCM,0,172.39703369, 16.57084656,end
timer_stats,698881726146656,PAPI_L3_TCM,1,172.47875977, 16.57981872,end
timer_stats,698881727337617,PAPI_L3_TCM,0,172.55487060, 16.58888244,end
timer_stats,698881728530708,PAPI_L3_TCM,2,172.67797852, 16.60282898,end
timer_stats,698881729701132,PAPI_L3_TCM,0,172.75531006, 16.61164856,end
timer_stats,698881730893726,PAPI_L3_TCM,1,172.86822510, 16.62403870,end
timer_stats,698881732085255,PAPI_L3_TCM,0,172.94226074, 16.63285828,end
timer_stats,698881733274143,PAPI_L3_TCM,0,173.02130127, 16.64183044,end
timer_stats,698881734469225,PAPI_L3_TCM,0,173.15063477, 16.65568542,end
timer_stats,698881735664391,PAPI_L3_TCM,1,173.22717285, 16.66813659,end
timer_stats,698881736856427,PAPI_L3_TCM,0,173.33874512, 16.67668152,end
timer_stats,698881738046628,PAPI_L3_TCM,2,173.41296387, 16.68577576,end
timer_stats,698881739237992,PAPI_L3_TCM,0,173.49108887, 16.69486999,end
timer_stats,698881740426151,PAPI_L3_TCM,1,173.57360840, 16.70387268,end
timer_stats,698881741622518,PAPI_L3_TCM,0,173.69543457, 16.71827698,end
timer_stats,698881742813407,PAPI_L3_TCM,0,173.80816650, 16.73089600,end
timer_stats,698881744013010,PAPI_L3_TCM,2,173.88482666, 16.73971558,end
timer_stats,698881745190874,PAPI_L3_TCM,1,173.96112060, 16.74876404,end
timer_stats,698881746389857,PAPI_L3_TCM,0,174.04229736, 16.75755310,end
timer_stats,698881747580844,PAPI_L3_TCM,2,174.16241455, 16.77153015,end
timer_stats,698881748771195,PAPI_L3_TCM,0,174.27551269, 16.78413391,end
timer_stats,698881749959575,PAPI_L3_TCM,1,174.35455322, 16.79342651,end
timer_stats,698881751150937,PAPI_L3_TCM,0,174.43225098, 16.80252075,end
timer_stats,698881752342727,PAPI_L3_TCM,0,174.50744629, 16.81155395,end
timer_stats,698881753533195,PAPI_L3_TCM,0,174.63366699, 16.82543945,end
timer_stats,698881754727619,PAPI_L3_TCM,1,174.74420166, 16.83804321,end
timer_stats,698881755891143,PAPI_L3_TCM,0,174.82116699, 16.84683227,end
timer_stats,698881757070139,PAPI_L3_TCM,3,174.90130615, 16.85583496,end
timer_stats,698881758247543,PAPI_L3_TCM,0,174.98394775, 16.86431885,end
timer_stats,698881759426313,PAPI_L3_TCM,1,175.05834961, 16.87341308,end
timer_stats,698881760618218,PAPI_L3_TCM,0,175.18176270, 16.88781738,end
timer_stats,698881761809428,PAPI_L3_TCM,0,175.29541016, 16.90042114,end
timer_stats,698881763013739,PAPI_L3_TCM,0,175.37072754, 16.90945435,end
timer_stats,698881764204470,PAPI_L3_TCM,2,175.45111084, 16.91873169,end
timer_stats,698881765393191,PAPI_L3_TCM,1,175.52770996, 16.92800903,end
timer_stats,698881766588270,PAPI_L3_TCM,2,175.65087891, 16.94223022,end
timer_stats,698881767781265,PAPI_L3_TCM,0,175.76086426, 16.95465088,end
timer_stats,698881768973482,PAPI_L3_TCM,1,175.84240722, 16.96362305,end
timer_stats,698881770168542,PAPI_L3_TCM,0,175.91638184, 16.97247314,end
timer_stats,698881771360263,PAPI_L3_TCM,0,175.99340820, 16.98158264,end
timer_stats,698881772550183,PAPI_L3_TCM,0,176.11724853, 16.99629211,end
timer_stats,698881773742707,PAPI_L3_TCM,1,176.22839355, 17.00944519,end
timer_stats,698881774933188,PAPI_L3_TCM,0,176.31066895, 17.01820374,end
timer_stats,698881776123805,PAPI_L3_TCM,2,176.38665771, 17.02723694,end
timer_stats,698881777313744,PAPI_L3_TCM,0,176.46502685, 17.03627014,end
timer_stats,698881778512230,PAPI_L3_TCM,1,176.59002685, 17.05018616,end
timer_stats,698881779707013,PAPI_L3_TCM,0,176.69836426, 17.06311035,end
timer_stats,698881780900088,PAPI_L3_TCM,0,176.77673340, 17.07211304,end
timer_stats,698881782090674,PAPI_L3_TCM,1,176.85424805, 17.08090210,end
timer_stats,698881783279932,PAPI_L3_TCM,2,176.92956543, 17.08995056,end
timer_stats,698881784480274,PAPI_L3_TCM,0,177.01556396, 17.09886169,end
timer_stats,698881785674299,PAPI_L3_TCM,2,177.16723633, 17.11770630,end
timer_stats,698881786863357,PAPI_L3_TCM,0,177.24609375, 17.12701416,end
timer_stats,698881788068185,PAPI_L3_TCM,1,177.32745361, 17.13577270,end
timer_stats,698881789270424,PAPI_L3_TCM,0,177.40136719, 17.14486694,end
timer_stats,698881790461139,PAPI_L3_TCM,0,177.48095703, 17.15362549,end
timer_stats,698881791653258,PAPI_L3_TCM,1,177.61352539, 17.16894531,end
timer_stats,698881792844709,PAPI_L3_TCM,2,177.72210693, 17.18530273,end
timer_stats,698881794007977,PAPI_L3_TCM,0,177.80639648, 17.19578552,end
timer_stats,698881795184217,PAPI_L3_TCM,3,177.88470459, 17.20475769,end
timer_stats,698881796374519,PAPI_L3_TCM,0,177.96221924, 17.21353149,end
timer_stats,698881797589477,PAPI_L3_TCM,1,178.08874512, 17.22930908,end
timer_stats,698881798741659,PAPI_L3_TCM,0,178.18017578, 17.24020386,end
timer_stats,698881799919340,PAPI_L3_TCM,1,178.30035400, 17.25529480,end
timer_stats,698881801069800,PAPI_L3_TCM,0,178.39031982, 17.26496887,end
timer_stats,698881802219075,PAPI_L3_TCM,2,178.47296142, 17.27423096,end
timer_stats,698881803370536,PAPI_L3_TCM,0,178.55285644, 17.28375244,end
timer_stats,698881804520065,PAPI_L3_TCM,3,178.67706299, 17.29815674,end
timer_stats,698881805671226,PAPI_L3_TCM,0,178.76428222, 17.30764770,end
timer_stats,698881806818750,PAPI_L3_TCM,1,178.88598633, 17.32070923,end
timer_stats,698881807974693,PAPI_L3_TCM,1,178.97216797, 17.32971191,end
timer_stats,698881809135653,PAPI_L3_TCM,3,179.06457520, 17.33848572,end
timer_stats,698881810293163,PAPI_L3_TCM,1,179.15252685, 17.34748840,end
timer_stats,698881811451401,PAPI_L3_TCM,1,179.24707031, 17.35670471,end
timer_stats,698881812614207,PAPI_L3_TCM,0,179.39501953, 17.37062073,end
timer_stats,698881813775097,PAPI_L3_TCM,3,179.51702881, 17.38325500,end
timer_stats,698881814924683,PAPI_L3_TCM,0,179.60656738, 17.39274597,end
timer_stats,698881816075173,PAPI_L3_TCM,2,179.69689941, 17.40202331,end
timer_stats,698881817209717,PAPI_L3_TCM,0,179.79205322, 17.41099548,end
timer_stats,698881818370400,PAPI_L3_TCM,0,179.88940429, 17.42051697,end
timer_stats,698881819535068,PAPI_L3_TCM,1,179.97875976, 17.42961121,end
timer_stats,698881820702575,PAPI_L3_TCM,2,180.17761230, 17.44743347,end
timer_stats,698881821864018,PAPI_L3_TCM,4,180.27954102, 17.45719910,end
timer_stats,698881823026155,PAPI_L3_TCM,3,180.37615967, 17.46672058,end
timer_stats,698881824198212,PAPI_L3_TCM,2,180.47381592, 17.47569275,end
timer_stats,698881825344500,PAPI_L3_TCM,1,180.57824707, 17.48545837,end
timer_stats,698881826508001,PAPI_L3_TCM,0,180.73754883, 17.50157165,end
timer_stats,698881827670938,PAPI_L3_TCM,0,180.84014892, 17.51119995,end
timer_stats,698881828831590,PAPI_L3_TCM,1,180.97161865, 17.52485657,end
timer_stats,698881829989771,PAPI_L3_TCM,2,181.07617187, 17.53431702,end
timer_stats,698881831148191,PAPI_L3_TCM,0,181.16870117, 17.54359436,end
timer_stats,698881832307577,PAPI_L3_TCM,3,181.26861572, 17.55256653,end
timer_stats,698881833446914,PAPI_L3_TCM,0,181.36749267, 17.56301880,end
timer_stats,698881834596133,PAPI_L3_TCM,1,181.52856445, 17.57838440,end
timer_stats,698881835759966,PAPI_L3_TCM,0,181.65997314, 17.59222412,end
timer_stats,698881836921042,PAPI_L3_TCM,1,181.76379395, 17.60168457,end
timer_stats,698881838078791,PAPI_L3_TCM,0,181.86126709, 17.61141968,end
timer_stats,698881839237819,PAPI_L3_TCM,2,181.95861816, 17.62167358,end
timer_stats,698881840396474,PAPI_L3_TCM,2,182.05371094, 17.63143921,end
timer_stats,698881841554946,PAPI_L3_TCM,3,182.22106934, 17.64549255,end
timer_stats,698881842719173,PAPI_L3_TCM,0,182.31549072, 17.65553284,end
timer_stats,698881843885278,PAPI_L3_TCM,1,182.44445801, 17.66964722,end
timer_stats,698881845045154,PAPI_L3_TCM,0,182.53527832, 17.67947388,end
timer_stats,698881846204388,PAPI_L3_TCM,4,182.62921142, 17.68844604,end
timer_stats,698881847364026,PAPI_L3_TCM,0,182.71533203, 17.69796753,end
timer_stats,698881848525695,PAPI_L3_TCM,3,182.84887695, 17.71241760,end
timer_stats,698881849688272,PAPI_L3_TCM,0,182.93530273, 17.72145080,end
timer_stats,698881850847990,PAPI_L3_TCM,3,183.05511474, 17.73507690,end
timer_stats,698881852017949,PAPI_L3_TCM,2,183.14459228, 17.74435425,end
timer_stats,698881853161595,PAPI_L3_TCM,1,183.23382568, 17.75534058,end
timer_stats,698881854331468,PAPI_L3_TCM,0,183.33367920, 17.76602173,end
timer_stats,698881855500409,PAPI_L3_TCM,0,183.42828369, 17.77676392,end
timer_stats,698881856669530,PAPI_L3_TCM,1,183.57958984, 17.79312134,end
timer_stats,698881857837924,PAPI_L3_TCM,2,183.71514892, 17.80941772,end
timer_stats,698881858999596,PAPI_L3_TCM,0,183.80908203, 17.82034302,end
timer_stats,698881860163174,PAPI_L3_TCM,4,183.89849853, 17.83131409,end
timer_stats,698881861324676,PAPI_L3_TCM,0,183.98510742, 17.84135437,end
timer_stats,698881862485570,PAPI_L3_TCM,1,184.08209228, 17.85142517,end
timer_stats,698881863657917,PAPI_L3_TCM,0,184.22717285, 17.86665344,end
timer_stats,698881864831202,PAPI_L3_TCM,0,184.35412597, 17.88217163,end
timer_stats,698881866035776,PAPI_L3_TCM,0,184.44659424, 17.89199829,end
timer_stats,698881867196651,PAPI_L3_TCM,2,184.53930664, 17.90255737,end
timer_stats,698881868375446,PAPI_L3_TCM,2,184.62896728, 17.91288757,end
timer_stats,698881869540926,PAPI_L3_TCM,3,184.77832031, 17.93046570,end
timer_stats,698881870712893,PAPI_L3_TCM,0,184.88092041, 17.94075012,end
timer_stats,698881871873275,PAPI_L3_TCM,3,185.00799560, 17.95579529,end
timer_stats,698881873033181,PAPI_L3_TCM,2,185.09875488, 17.96635437,end
timer_stats,698881874197578,PAPI_L3_TCM,0,185.19177246, 17.97645569,end
timer_stats,698881875358738,PAPI_L3_TCM,0,185.28521728, 17.98655701,end
timer_stats,698881876521977,PAPI_L3_TCM,3,185.37768555, 17.99641418,end
timer_stats,698881877687938,PAPI_L3_TCM,1,185.52581787, 18.01190185,end
timer_stats,698881878853908,PAPI_L3_TCM,4,185.66564941, 18.02734375,end
timer_stats,698881880032509,PAPI_L3_TCM,1,185.76214599, 18.03765869,end
timer_stats,698881881215343,PAPI_L3_TCM,3,185.86529541, 18.04815674,end
timer_stats,698881882350395,PAPI_L3_TCM,0,185.96362305, 18.05917358,end
timer_stats,698881883484860,PAPI_L3_TCM,1,186.05792236, 18.06921387,end
timer_stats,698881884618678,PAPI_L3_TCM,1,186.16009521, 18.07946777,end
timer_stats,698881885753144,PAPI_L3_TCM,5,186.31274414, 18.09515381,end
timer_stats,698881886884615,PAPI_L3_TCM,1,186.44360352, 18.11132812,end
timer_stats,698881888032727,PAPI_L3_TCM,4,186.54528809, 18.12182617,end
timer_stats,698881889170113,PAPI_L3_TCM,0,186.64031982, 18.13220215,end
timer_stats,698881890304372,PAPI_L3_TCM,1,186.74487305, 18.14248657,end
timer_stats,698881891435898,PAPI_L3_TCM,1,186.84429932, 18.15301514,end
timer_stats,698881892566659,PAPI_L3_TCM,1,186.94824219, 18.16308594,end
timer_stats,698881893697596,PAPI_L3_TCM,0,187.11004639, 18.17837524,end
timer_stats,698881894832339,PAPI_L3_TCM,3,187.24389648, 18.19036865,end
timer_stats,698881895962455,PAPI_L3_TCM,1,187.34014892, 18.19894409,end
timer_stats,698881897102646,PAPI_L3_TCM,4,187.43994141, 18.20751953,end
timer_stats,698881898230811,PAPI_L3_TCM,3,187.53936767, 18.21612549,end
timer_stats,698881899371111,PAPI_L3_TCM,2,187.63470459, 18.22445679,end
timer_stats,698881900500872,PAPI_L3_TCM,1,187.73114014, 18.23324585,end
timer_stats,698881901629088,PAPI_L3_TCM,0,187.88452148, 18.24697876,end
timer_stats,698881902756591,PAPI_L3_TCM,0,187.98034668, 18.25578308,end
timer_stats,698881903885013,PAPI_L3_TCM,2,188.10784912, 18.26936340,end
timer_stats,698881905014269,PAPI_L3_TCM,1,188.20050049, 18.27816772,end
timer_stats,698881906145668,PAPI_L3_TCM,3,188.28674316, 18.28698730,end
timer_stats,698881907275186,PAPI_L3_TCM,0,188.38061523, 18.29550171,end
timer_stats,698881908403926,PAPI_L3_TCM,2,188.46618652, 18.30406189,end
timer_stats,698881909532032,PAPI_L3_TCM,0,188.55615234, 18.31263733,end
timer_stats,698881910663602,PAPI_L3_TCM,0,188.69744873, 18.32615661,end
timer_stats,698881911795929,PAPI_L3_TCM,0,188.78631592, 18.33496094,end
timer_stats,698881912925282,PAPI_L3_TCM,3,188.91223145, 18.34739685,end
timer_stats,698881914054468,PAPI_L3_TCM,0,188.99719238, 18.35597229,end
timer_stats,698881915185099,PAPI_L3_TCM,3,189.08404541, 18.36677551,end
timer_stats,698881916315418,PAPI_L3_TCM,1,189.17205810, 18.37577820,end
timer_stats,698881917445853,PAPI_L3_TCM,1,189.26147461, 18.38435364,end
timer_stats,698881918579799,PAPI_L3_TCM,0,189.34613037, 18.39289856,end
timer_stats,698881919708299,PAPI_L3_TCM,0,189.48931885, 18.40682983,end
timer_stats,698881920836956,PAPI_L3_TCM,0,189.57604980, 18.41564941,end
timer_stats,698881921967154,PAPI_L3_TCM,3,189.69897461, 18.42807007,end
timer_stats,698881923095234,PAPI_L3_TCM,0,189.78717041, 18.43710327,end
timer_stats,698881924226773,PAPI_L3_TCM,4,189.87127685, 18.44567871,end
timer_stats,698881925359669,PAPI_L3_TCM,0,189.96258545, 18.45465088,end
timer_stats,698881926489959,PAPI_L3_TCM,1,190.04241943, 18.46350098,end
timer_stats,698881927622565,PAPI_L3_TCM,0,190.12927246, 18.47279358,end
timer_stats,698881928754094,PAPI_L3_TCM,1,190.27001953, 18.48640442,end
timer_stats,698881929884548,PAPI_L3_TCM,0,190.35406494, 18.49540710,end
timer_stats,698881931014587,PAPI_L3_TCM,2,190.46899414, 18.50831604,end
timer_stats,698881932143898,PAPI_L3_TCM,1,190.55395508, 18.51689148,end
timer_stats,698881933273305,PAPI_L3_TCM,3,190.63842773, 18.52571106,end
timer_stats,698881934404723,PAPI_L3_TCM,0,190.72772217, 18.53416443,end
timer_stats,698881935535787,PAPI_L3_TCM,1,190.80798340, 18.54298401,end
timer_stats,698881936667008,PAPI_L3_TCM,0,190.89227295, 18.55177307,end
timer_stats,698881937801046,PAPI_L3_TCM,0,191.02984619, 18.56524658,end
timer_stats,698881938930550,PAPI_L3_TCM,0,191.14276123, 18.57769775,end
timer_stats,698881940072459,PAPI_L3_TCM,3,191.22961426, 18.58602905,end
timer_stats,698881941201766,PAPI_L3_TCM,0,191.31506347, 18.59458923,end
timer_stats,698881942344726,PAPI_L3_TCM,3,191.40026855, 18.60317993,end
timer_stats,698881943477081,PAPI_L3_TCM,0,191.48345947, 18.61175537,end
timer_stats,698881944623536,PAPI_L3_TCM,2,191.61523437, 18.62036133,end
timer_stats,698881945754642,PAPI_L3_TCM,0,191.70007324, 18.63388061,end
timer_stats,698881946887938,PAPI_L3_TCM,1,191.81695557, 18.64393616,end
timer_stats,698881948035294,PAPI_L3_TCM,1,191.90588379, 18.65464783,end
timer_stats,698881949164363,PAPI_L3_TCM,2,191.99450684, 18.66343689,end
timer_stats,698881950294146,PAPI_L3_TCM,0,192.08398437, 18.67199707,end
timer_stats,698881951422695,PAPI_L3_TCM,3,192.17706299, 18.68052673,end
timer_stats,698881952553493,PAPI_L3_TCM,2,192.26165771, 18.68887329,end
timer_stats,698881953681780,PAPI_L3_TCM,1,192.39874267, 18.70216369,end
timer_stats,698881954810806,PAPI_L3_TCM,0,192.48260498, 18.71096802,end
timer_stats,698881955940851,PAPI_L3_TCM,0,192.60009766, 18.72225952,end
timer_stats,698881957071587,PAPI_L3_TCM,3,192.68603516, 18.73104858,end
timer_stats,698881958203015,PAPI_L3_TCM,2,192.77178955, 18.73986816,end
timer_stats,698881959333233,PAPI_L3_TCM,1,192.86138916, 18.74844360,end
timer_stats,698881960464549,PAPI_L3_TCM,4,192.95141601, 18.75695801,end
timer_stats,698881961595958,PAPI_L3_TCM,0,193.03759766, 18.76678467,end
timer_stats,698881962727590,PAPI_L3_TCM,1,193.16955566, 18.78131103,end
timer_stats,698881963858949,PAPI_L3_TCM,0,193.25653076, 18.78985596,end
timer_stats,698881964989983,PAPI_L3_TCM,1,193.37286377, 18.80235290,end
timer_stats,698881966121532,PAPI_L3_TCM,0,193.45697021, 18.81071472,end
timer_stats,698881967264469,PAPI_L3_TCM,2,193.54449463, 18.81945801,end
timer_stats,698881968410840,PAPI_L3_TCM,1,193.62268066, 18.82830811,end
timer_stats,698881969580121,PAPI_L3_TCM,3,193.70855713, 18.83682251,end
timer_stats,698881970739103,PAPI_L3_TCM,0,193.84265137, 18.85058594,end
timer_stats,698881971905407,PAPI_L3_TCM,1,193.95477295, 18.86300659,end
timer_stats,698881973058775,PAPI_L3_TCM,1,194.03460693, 18.87066650,end
timer_stats,698881974226373,PAPI_L3_TCM,0,194.11303711, 18.87759399,end
timer_stats,698881975391001,PAPI_L3_TCM,0,194.19573974, 18.88517761,end
timer_stats,698881976543025,PAPI_L3_TCM,3,194.27832031, 18.89300537,end
timer_stats,698881977703525,PAPI_L3_TCM,0,194.40643310, 18.90707397,end
timer_stats,698881978861767,PAPI_L3_TCM,3,194.48767090, 18.91510010,end
timer_stats,698881980033799,PAPI_L3_TCM,1,194.59448242, 18.92495728,end
timer_stats,698881981178280,PAPI_L3_TCM,1,194.67449951, 18.93257141,end
timer_stats,698881982344130,PAPI_L3_TCM,4,194.75305176, 18.94046020,end
timer_stats,698881983506273,PAPI_L3_TCM,0,194.83020020, 18.94859314,end
timer_stats,698881984654305,PAPI_L3_TCM,0,194.91528320, 18.95687866,end
timer_stats,698881985787208,PAPI_L3_TCM,2,195.04370117, 18.97109985,end
timer_stats,698881986920046,PAPI_L3_TCM,0,195.15429687, 18.97991943,end
timer_stats,698881988062249,PAPI_L3_TCM,4,195.23266602, 18.99237061,end
timer_stats,698881989201157,PAPI_L3_TCM,6,195.31292724, 19.00146484,end
timer_stats,698881990366795,PAPI_L3_TCM,1,195.39642334, 19.01037598,end
timer_stats,698881991529723,PAPI_L3_TCM,4,195.47753906, 19.01919556,end
timer_stats,698881992699107,PAPI_L3_TCM,1,195.61853027, 19.03288269,end
timer_stats,698881993868262,PAPI_L3_TCM,0,195.69799804, 19.04167175,end
timer_stats,698881995038873,PAPI_L3_TCM,2,195.80175781, 19.05412292,end
timer_stats,698881996201676,PAPI_L3_TCM,3,195.88623047, 19.06309509,end
timer_stats,698881997339806,PAPI_L3_TCM,5,195.97094727, 19.07238769,end
timer_stats,698881998494426,PAPI_L3_TCM,0,196.05090332, 19.08161926,end
timer_stats,698881999654424,PAPI_L3_TCM,4,196.13476562, 19.09011841,end
timer_stats,698882000803468,PAPI_L3_TCM,1,196.26403809, 19.10409546,end
timer_stats,698882001946903,PAPI_L3_TCM,0,196.37329102, 19.11837768,end
timer_stats,698882003115030,PAPI_L3_TCM,0,196.46099853, 19.12713623,end
timer_stats,698882004266234,PAPI_L3_TCM,3,196.54473877, 19.13571167,end
timer_stats,698882005436403,PAPI_L3_TCM,0,196.62615967, 19.14431763,end
timer_stats,698882006608321,PAPI_L3_TCM,3,196.70733642, 19.15286255,end
timer_stats,698882007761565,PAPI_L3_TCM,1,196.83551025, 19.16729736,end
timer_stats,698882008914907,PAPI_L3_TCM,7,196.93829346, 19.18270874,end
timer_stats,698882010076118,PAPI_L3_TCM,2,197.01422119, 19.19320679,end
timer_stats,698882011235904,PAPI_L3_TCM,0,197.08880615, 19.20352173,end
timer_stats,698882012408407,PAPI_L3_TCM,2,197.16125488, 19.21365356,end
timer_stats,698882013604156,PAPI_L3_TCM,2,197.23651123, 19.22395325,end
timer_stats,698882014787736,PAPI_L3_TCM,0,197.35229492, 19.23945618,end
