timer_stats,655922667667151,PAPI_L3_TCM,414,  0.13861084,  0.02316284,end
timer_stats,655922668812285,PAPI_L3_TCM,54,  0.22631836,  0.03530884,end
timer_stats,655922669940183,PAPI_L3_TCM,15,  0.31469727,  0.04585266,end
timer_stats,655922671046397,PAPI_L3_TCM,2,  0.40454102,  0.05729675,end
timer_stats,655922672151377,PAPI_L3_TCM,9,  0.50054931,  0.06828308,end
timer_stats,655922673268608,PAPI_L3_TCM,4,  0.59906006,  0.07928467,end
timer_stats,655922674401185,PAPI_L3_TCM,1,  0.69165039,  0.08996582,end
timer_stats,655922675529490,PAPI_L3_TCM,5,  0.77813721,  0.10049438,end
timer_stats,655922676664077,PAPI_L3_TCM,3,  0.95867920,  0.12219238,end
timer_stats,655922677798974,PAPI_L3_TCM,2,  1.05187988,  0.13356018,end
timer_stats,655922678942196,PAPI_L3_TCM,1,  1.14489746,  0.14521790,end
timer_stats,655922680039391,PAPI_L3_TCM,0,  1.24072265,  0.15596008,end
timer_stats,655922681170332,PAPI_L3_TCM,0,  1.34350586,  0.16645813,end
timer_stats,655922682314549,PAPI_L3_TCM,1,  1.44726562,  0.17811584,end
timer_stats,655922683427993,PAPI_L3_TCM,0,  1.56066894,  0.18891907,end
timer_stats,655922684566760,PAPI_L3_TCM,7,  1.66766357,  0.20027160,end
timer_stats,655922685645896,PAPI_L3_TCM,3,  1.83807373,  0.21795654,end
timer_stats,655922686724896,PAPI_L3_TCM,3,  2.01336670,  0.23582458,end
timer_stats,655922687801711,PAPI_L3_TCM,0,  2.12182617,  0.24723816,end
timer_stats,655922688873684,PAPI_L3_TCM,1,  2.23223877,  0.25749206,end
timer_stats,655922689943622,PAPI_L3_TCM,1,  2.34301758,  0.26774597,end
timer_stats,655922691013548,PAPI_L3_TCM,0,  2.44921875,  0.27783203,end
timer_stats,655922692084160,PAPI_L3_TCM,2,  2.55395508,  0.28791809,end
timer_stats,655922693154213,PAPI_L3_TCM,0,  2.66265869,  0.29841614,end
timer_stats,655922694223891,PAPI_L3_TCM,0,  2.76843262,  0.30876159,end
timer_stats,655922695293414,PAPI_L3_TCM,1,  2.87567139,  0.31858826,end
timer_stats,655922696365093,PAPI_L3_TCM,2,  2.98291016,  0.32868958,end
timer_stats,655922697455545,PAPI_L3_TCM,0,  3.08874512,  0.33903503,end
timer_stats,655922698547436,PAPI_L3_TCM,0,  3.19989014,  0.34959411,end
timer_stats,655922699631465,PAPI_L3_TCM,0,  3.31329346,  0.36009216,end
timer_stats,655922700716802,PAPI_L3_TCM,0,  3.53662109,  0.38072204,end
timer_stats,655922701811948,PAPI_L3_TCM,0,  3.65197754,  0.39329529,end
timer_stats,655922702902878,PAPI_L3_TCM,0,  3.77172851,  0.40553284,end
timer_stats,655922703987282,PAPI_L3_TCM,1,  3.88568115,  0.41621399,end
timer_stats,655922705065619,PAPI_L3_TCM,2,  3.99761963,  0.42652893,end
timer_stats,655922706160128,PAPI_L3_TCM,0,  4.10968017,  0.43791199,end
timer_stats,655922707252893,PAPI_L3_TCM,0,  4.21856689,  0.44798279,end
timer_stats,655922708337699,PAPI_L3_TCM,0,  4.33013916,  0.45851135,end
timer_stats,655922709408903,PAPI_L3_TCM,0,  4.44573975,  0.46858215,end
timer_stats,655922710491630,PAPI_L3_TCM,0,  4.55908203,  0.47886658,end
timer_stats,655922711575643,PAPI_L3_TCM,0,  4.66625977,  0.48948669,end
timer_stats,655922712660336,PAPI_L3_TCM,1,  4.83758545,  0.50520325,end
timer_stats,655922713744311,PAPI_L3_TCM,0,  5.00402832,  0.52088928,end
timer_stats,655922714828521,PAPI_L3_TCM,0,  5.12133789,  0.53118896,end
timer_stats,655922715912745,PAPI_L3_TCM,0,  5.23852539,  0.54168701,end
timer_stats,655922717010289,PAPI_L3_TCM,0,  5.34301758,  0.55181885,end
timer_stats,655922718107666,PAPI_L3_TCM,0,  5.46093750,  0.56210327,end
timer_stats,655922719202837,PAPI_L3_TCM,0,  5.57263184,  0.57241821,end
timer_stats,655922720299637,PAPI_L3_TCM,0,  5.68383789,  0.58273315,end
timer_stats,655922721371361,PAPI_L3_TCM,2,  5.79089355,  0.59332275,end
timer_stats,655922722656993,PAPI_L3_TCM,13,  5.91320801,  0.60357666,end
timer_stats,655922724451377,PAPI_L3_TCM,9,  6.15710449,  0.62565613,end
timer_stats,655922725587936,PAPI_L3_TCM,0,  6.32934570,  0.64263916,end
timer_stats,655922726739955,PAPI_L3_TCM,0,  6.50152588,  0.65905762,end
timer_stats,655922727896211,PAPI_L3_TCM,0,  6.61175537,  0.66996765,end
timer_stats,655922729048236,PAPI_L3_TCM,2,  6.72857666,  0.68083191,end
timer_stats,655922730229685,PAPI_L3_TCM,1,  6.82751465,  0.69134521,end
timer_stats,655922731411864,PAPI_L3_TCM,3,  6.93389893,  0.70249939,end
timer_stats,655922732561697,PAPI_L3_TCM,0,  7.04901123,  0.71522522,end
timer_stats,655922733657454,PAPI_L3_TCM,1,  7.23803711,  0.73529053,end
timer_stats,655922734748338,PAPI_L3_TCM,2,  7.44378662,  0.75456238,end
timer_stats,655922735856539,PAPI_L3_TCM,1,  7.58575439,  0.76785278,end
timer_stats,655922736980409,PAPI_L3_TCM,0,  7.72015381,  0.77976990,end
timer_stats,655922738111736,PAPI_L3_TCM,2,  7.86010742,  0.79193115,end
timer_stats,655922739225514,PAPI_L3_TCM,0,  8.00665283,  0.80433655,end
timer_stats,655922740394333,PAPI_L3_TCM,1,  8.14642334,  0.81649780,end
timer_stats,655922741508922,PAPI_L3_TCM,0,  8.29144287,  0.82818603,end
timer_stats,655922742622504,PAPI_L3_TCM,1,  8.49560547,  0.84663391,end
timer_stats,655922743739840,PAPI_L3_TCM,0,  8.71392822,  0.86349487,end
timer_stats,655922744847044,PAPI_L3_TCM,1,  8.87072754,  0.87550354,end
timer_stats,655922745933494,PAPI_L3_TCM,0,  9.04663086,  0.88702393,end
timer_stats,655922747029478,PAPI_L3_TCM,2,  9.21496582,  0.89881897,end
timer_stats,655922748133010,PAPI_L3_TCM,2,  9.39495849,  0.91125488,end
timer_stats,655922749253862,PAPI_L3_TCM,1,  9.58502197,  0.91638184,end
timer_stats,655922750348567,PAPI_L3_TCM,0,  9.77038574,  0.92770386,end
timer_stats,655922751461391,PAPI_L3_TCM,1,  9.95953369,  0.93977356,end
timer_stats,655922752569367,PAPI_L3_TCM,0, 10.16247558,  0.95101929,end
timer_stats,655922753673457,PAPI_L3_TCM,1, 10.44873047,  0.96997070,end
timer_stats,655922754787488,PAPI_L3_TCM,0, 10.74627685,  0.98669434,end
timer_stats,655922755877146,PAPI_L3_TCM,2, 10.93164062,  0.99855041,end
timer_stats,655922756973227,PAPI_L3_TCM,2, 11.13830566,  1.00982666,end
timer_stats,655922758077107,PAPI_L3_TCM,1, 11.32189941,  1.02143860,end
timer_stats,655922759173041,PAPI_L3_TCM,1, 11.52380371,  1.03323364,end
timer_stats,655922760277464,PAPI_L3_TCM,1, 11.71008301,  1.04487610,end
timer_stats,655922761372389,PAPI_L3_TCM,0, 11.91546631,  1.05665588,end
timer_stats,655922762470567,PAPI_L3_TCM,1, 12.10394287,  1.06802368,end
timer_stats,655922763558323,PAPI_L3_TCM,0, 12.29803467,  1.07934570,end
timer_stats,655922764672143,PAPI_L3_TCM,4, 12.58825683,  1.09759521,end
timer_stats,655922765784111,PAPI_L3_TCM,1, 12.88336182,  1.11445618,end
timer_stats,655922766896846,PAPI_L3_TCM,3, 13.07562256,  1.12623596,end
timer_stats,655922768062669,PAPI_L3_TCM,5, 13.26965332,  1.13850403,end
timer_stats,655922769146317,PAPI_L3_TCM,6, 13.48919678,  1.14979553,end
timer_stats,655922770228081,PAPI_L3_TCM,0, 13.70642090,  1.16136169,end
timer_stats,655922771384155,PAPI_L3_TCM,1, 13.91137695,  1.17295837,end
timer_stats,655922772467329,PAPI_L3_TCM,2, 14.12432861,  1.18426514,end
timer_stats,655922773700964,PAPI_L3_TCM,2, 14.46490478,  1.20271301,end
timer_stats,655922774803435,PAPI_L3_TCM,0, 14.80004883,  1.22030639,end
timer_stats,655922775909259,PAPI_L3_TCM,2, 15.01422119,  1.23139953,end
timer_stats,655922777010304,PAPI_L3_TCM,6, 15.22601318,  1.24415588,end
timer_stats,655922778098210,PAPI_L3_TCM,4, 15.44262695,  1.25538635,end
timer_stats,655922779237280,PAPI_L3_TCM,0, 15.65722656,  1.26716614,end
timer_stats,655922780330417,PAPI_L3_TCM,3, 15.87762451,  1.27919006,end
timer_stats,655922781604672,PAPI_L3_TCM,0, 16.09387207,  1.29046631,end
timer_stats,655922782714748,PAPI_L3_TCM,3, 16.40899658,  1.30807495,end
timer_stats,655922783883248,PAPI_L3_TCM,1, 16.73437500,  1.32589722,end
timer_stats,655922785042371,PAPI_L3_TCM,6, 16.94903564,  1.33789062,end
timer_stats,655922786116507,PAPI_L3_TCM,0, 17.16839600,  1.35014343,end
timer_stats,655922787312743,PAPI_L3_TCM,1, 17.39837646,  1.36373901,end
timer_stats,655922788418124,PAPI_L3_TCM,3, 17.61804199,  1.37519836,end
timer_stats,655922789522844,PAPI_L3_TCM,1, 17.82684326,  1.38702393,end
timer_stats,655922790607731,PAPI_L3_TCM,0, 18.04663086,  1.39883423,end
timer_stats,655922800495905,PAPI_L3_TCM,145, 20.08538818,  1.52764893,end
timer_stats,655922801581261,PAPI_L3_TCM,46, 20.23455810,  1.54330444,end
timer_stats,655922802661455,PAPI_L3_TCM,8, 20.62017822,  1.55628967,end
timer_stats,655922803738959,PAPI_L3_TCM,3, 20.89086914,  1.57707214,end
timer_stats,655922804816625,PAPI_L3_TCM,7, 21.28948975,  1.59722900,end
timer_stats,655922805898204,PAPI_L3_TCM,0, 21.55419922,  1.61070251,end
timer_stats,655922806976512,PAPI_L3_TCM,3, 21.81329346,  1.62420654,end
timer_stats,655922808017287,PAPI_L3_TCM,3, 22.07714844,  1.63766479,end
timer_stats,655922809092923,PAPI_L3_TCM,4, 22.33776855,  1.65138245,end
timer_stats,655922810170009,PAPI_L3_TCM,4, 22.60260010,  1.66551208,end
timer_stats,655922811246230,PAPI_L3_TCM,2, 22.85296631,  1.68003845,end
timer_stats,655922812331669,PAPI_L3_TCM,47, 23.12268066,  1.69366455,end
timer_stats,655922813411883,PAPI_L3_TCM,15, 23.38208008,  1.70753479,end
timer_stats,655922814487672,PAPI_L3_TCM,5, 23.63208008,  1.72099304,end
timer_stats,655922815563623,PAPI_L3_TCM,1, 23.89953613,  1.73464966,end
timer_stats,655922816640014,PAPI_L3_TCM,3, 24.16516113,  1.74807739,end
timer_stats,655922817726639,PAPI_L3_TCM,267, 24.56024170,  1.76199341,end
timer_stats,655922818806386,PAPI_L3_TCM,2, 24.82727051,  1.78286743,end
timer_stats,655922819882886,PAPI_L3_TCM,5, 25.21795654,  1.80317688,end
timer_stats,655922820959854,PAPI_L3_TCM,4, 25.49749756,  1.81683350,end
timer_stats,655922822035974,PAPI_L3_TCM,2, 25.74566650,  1.83126831,end
timer_stats,655922823112299,PAPI_L3_TCM,7, 26.02868652,  1.84486389,end
timer_stats,655922824194050,PAPI_L3_TCM,6, 26.29479980,  1.85877991,end
timer_stats,655922825270221,PAPI_L3_TCM,4, 26.55181885,  1.87248230,end
timer_stats,655922826346943,PAPI_L3_TCM,8, 26.81665039,  1.88661194,end
timer_stats,655922827422299,PAPI_L3_TCM,3, 27.07434082,  1.90049743,end
timer_stats,655922828499967,PAPI_L3_TCM,12, 27.34613037,  1.91409302,end
timer_stats,655922829577562,PAPI_L3_TCM,3, 27.61151123,  1.92776489,end
timer_stats,655922830652941,PAPI_L3_TCM,2, 27.86785889,  1.94123840,end
timer_stats,655922831728146,PAPI_L3_TCM,1, 28.27075195,  1.96295166,end
timer_stats,655922832804804,PAPI_L3_TCM,3, 28.67376709,  1.98413086,end
timer_stats,655922833880539,PAPI_L3_TCM,1, 28.93682861,  1.99803161,end
timer_stats,655922834956666,PAPI_L3_TCM,3, 29.20111084,  2.01168823,end
timer_stats,655922836016672,PAPI_L3_TCM,3, 29.46264648,  2.02514648,end
timer_stats,655922837094420,PAPI_L3_TCM,3, 29.72949219,  2.03926086,end
timer_stats,655922838170208,PAPI_L3_TCM,3, 29.99865722,  2.05310059,end
timer_stats,655922839246755,PAPI_L3_TCM,1, 30.26513672,  2.06671142,end
timer_stats,655922840322922,PAPI_L3_TCM,2, 30.53302002,  2.08078003,end
timer_stats,655922841399233,PAPI_L3_TCM,7, 30.78778076,  2.09446716,end
timer_stats,655922842476377,PAPI_L3_TCM,26, 31.04943848,  2.10932922,end
timer_stats,655922843554433,PAPI_L3_TCM,14, 31.31768799,  2.12281799,end
timer_stats,655922844630163,PAPI_L3_TCM,3, 31.57751465,  2.13668823,end
timer_stats,655922845705962,PAPI_L3_TCM,4, 31.84429932,  2.15182495,end
timer_stats,655922846781146,PAPI_L3_TCM,2, 32.25317383,  2.17294311,end
timer_stats,655922847856942,PAPI_L3_TCM,1, 32.64434814,  2.19302368,end
timer_stats,655922851785385,PAPI_L3_TCM,97, 33.45440674,  2.26052856,end
timer_stats,655922852872130,PAPI_L3_TCM,28, 33.80236816,  2.28108215,end
timer_stats,655922853950123,PAPI_L3_TCM,6, 34.07086182,  2.29679871,end
timer_stats,655922855025337,PAPI_L3_TCM,5, 34.34045410,  2.31251526,end
timer_stats,655922856101161,PAPI_L3_TCM,2, 34.60113525,  2.32855225,end
timer_stats,655922857176818,PAPI_L3_TCM,5, 34.87377930,  2.34426880,end
timer_stats,655922858253160,PAPI_L3_TCM,2, 35.13818359,  2.36029053,end
timer_stats,655922859329197,PAPI_L3_TCM,1, 35.41455078,  2.37628174,end
timer_stats,655922860403534,PAPI_L3_TCM,3, 35.67749023,  2.39178467,end
timer_stats,655922861478345,PAPI_L3_TCM,2, 35.95062256,  2.40736389,end
timer_stats,655922862553120,PAPI_L3_TCM,2, 36.23968506,  2.42327881,end
timer_stats,655922863641368,PAPI_L3_TCM,7, 36.49108887,  2.43879700,end
timer_stats,655922864716014,PAPI_L3_TCM,4, 36.88189697,  2.45484924,end
timer_stats,655922865790711,PAPI_L3_TCM,2, 37.02105713,  2.47180176,end
timer_stats,655922866865032,PAPI_L3_TCM,3, 37.43994141,  2.49575806,end
timer_stats,655922867940021,PAPI_L3_TCM,5, 37.83215332,  2.52078247,end
timer_stats,655922869017315,PAPI_L3_TCM,15, 38.11322021,  2.53811645,end
timer_stats,655922870093499,PAPI_L3_TCM,9, 38.38153076,  2.55378723,end
timer_stats,655922871168119,PAPI_L3_TCM,2, 38.64410400,  2.57089233,end
timer_stats,655922872241736,PAPI_L3_TCM,4, 38.94738770,  2.58680725,end
timer_stats,655922873316191,PAPI_L3_TCM,3, 39.19653320,  2.60350036,end
timer_stats,655922874390840,PAPI_L3_TCM,3, 39.45916748,  2.61927795,end
timer_stats,655922875468354,PAPI_L3_TCM,8, 39.73565674,  2.63484192,end
timer_stats,655922876544895,PAPI_L3_TCM,11, 39.99340820,  2.65039062,end
timer_stats,655922877618845,PAPI_L3_TCM,1, 40.26055908,  2.66664124,end
timer_stats,655922878693354,PAPI_L3_TCM,2, 40.53820801,  2.68205261,end
timer_stats,655922879768374,PAPI_L3_TCM,0, 40.96875000,  2.70532226,end
timer_stats,655922880844587,PAPI_L3_TCM,4, 41.33581543,  2.72943115,end
timer_stats,655922881919097,PAPI_L3_TCM,1, 41.61285400,  2.74523926,end
timer_stats,655922882993360,PAPI_L3_TCM,3, 41.88671875,  2.76045227,end
timer_stats,655922884066971,PAPI_L3_TCM,3, 42.15222168,  2.77679443,end
timer_stats,655922885142743,PAPI_L3_TCM,5, 42.41827393,  2.79417419,end
timer_stats,655922886218374,PAPI_L3_TCM,2, 42.68322754,  2.80999756,end
timer_stats,655922887293392,PAPI_L3_TCM,4, 42.96459961,  2.82565307,end
timer_stats,655922888369108,PAPI_L3_TCM,3, 43.22991943,  2.84143066,end
timer_stats,655922889445094,PAPI_L3_TCM,3, 43.51916504,  2.85765076,end
timer_stats,655922890519349,PAPI_L3_TCM,5, 43.76544189,  2.87367248,end
timer_stats,655922891593027,PAPI_L3_TCM,4, 44.03643799,  2.88916015,end
timer_stats,655922892667562,PAPI_L3_TCM,4, 44.30749512,  2.90496826,end
timer_stats,655922893742617,PAPI_L3_TCM,1, 44.60845947,  2.92054748,end
timer_stats,655922894817260,PAPI_L3_TCM,3, 44.97283935,  2.94453430,end
timer_stats,655922895892297,PAPI_L3_TCM,2, 45.38568115,  2.96893311,end
timer_stats,655922899110330,PAPI_L3_TCM,125, 45.94439697,  3.02119446,end
timer_stats,655922900190285,PAPI_L3_TCM,53, 46.29785156,  3.03964233,end
timer_stats,655922901265554,PAPI_L3_TCM,3, 46.50543213,  3.05393982,end
timer_stats,655922902340092,PAPI_L3_TCM,3, 46.77661133,  3.06825256,end
timer_stats,655922903413545,PAPI_L3_TCM,0, 47.01440430,  3.08267212,end
timer_stats,655922904488158,PAPI_L3_TCM,6, 47.26153564,  3.09660339,end
timer_stats,655922905563011,PAPI_L3_TCM,0, 47.49780273,  3.11131286,end
timer_stats,655922906636305,PAPI_L3_TCM,2, 47.74859619,  3.12525940,end
timer_stats,655922907709289,PAPI_L3_TCM,2, 47.95635986,  3.14002991,end
timer_stats,655922908782989,PAPI_L3_TCM,6, 48.20275879,  3.15441894,end
timer_stats,655922909856879,PAPI_L3_TCM,5, 48.58795166,  3.17594910,end
timer_stats,655922910930343,PAPI_L3_TCM,2, 48.84240723,  3.19009399,end
timer_stats,655922912008769,PAPI_L3_TCM,3, 49.08642578,  3.20523071,end
timer_stats,655922913082479,PAPI_L3_TCM,1, 49.43487549,  3.23130798,end
timer_stats,655922914156851,PAPI_L3_TCM,2, 49.68933105,  3.24888611,end
timer_stats,655922915230755,PAPI_L3_TCM,1, 49.93310547,  3.26296997,end
timer_stats,655922916304301,PAPI_L3_TCM,3, 50.14135742,  3.27796936,end
timer_stats,655922917377611,PAPI_L3_TCM,5, 50.41687012,  3.29225159,end
timer_stats,655922918452000,PAPI_L3_TCM,1, 50.65747070,  3.30667114,end
timer_stats,655922919525751,PAPI_L3_TCM,3, 50.86706543,  3.32119751,end
timer_stats,655922920601411,PAPI_L3_TCM,3, 51.12713623,  3.33532715,end
timer_stats,655922921675695,PAPI_L3_TCM,1, 51.34985351,  3.34980774,end
timer_stats,655922922748966,PAPI_L3_TCM,1, 51.61273193,  3.36360168,end
timer_stats,655922923822654,PAPI_L3_TCM,1, 51.96191406,  3.37808227,end
timer_stats,655922924897164,PAPI_L3_TCM,3, 52.22753906,  3.39915466,end
timer_stats,655922925971457,PAPI_L3_TCM,2, 52.56219482,  3.42080688,end
timer_stats,655922927045306,PAPI_L3_TCM,0, 52.68566894,  3.42825317,end
timer_stats,655922928119223,PAPI_L3_TCM,4, 53.07360840,  3.45043945,end
timer_stats,655922929191925,PAPI_L3_TCM,2, 53.31842041,  3.46566772,end
timer_stats,655922930265808,PAPI_L3_TCM,1, 53.56072998,  3.48124695,end
timer_stats,655922931339415,PAPI_L3_TCM,6, 53.78442383,  3.49635315,end
timer_stats,655922932412305,PAPI_L3_TCM,6, 54.04431152,  3.51089478,end
timer_stats,655922933485962,PAPI_L3_TCM,0, 54.27191162,  3.52603149,end
timer_stats,655922934559082,PAPI_L3_TCM,4, 54.54870605,  3.54101562,end
timer_stats,655922935631785,PAPI_L3_TCM,0, 54.77209473,  3.55541992,end
timer_stats,655922936706316,PAPI_L3_TCM,5, 55.02197265,  3.57019043,end
timer_stats,655922937779020,PAPI_L3_TCM,1, 55.26165771,  3.58456421,end
timer_stats,655922938852134,PAPI_L3_TCM,1, 55.51135254,  3.59915161,end
timer_stats,655922939925849,PAPI_L3_TCM,4, 55.88153076,  3.62118530,end
timer_stats,655922941001275,PAPI_L3_TCM,14, 56.21166992,  3.64286804,end
timer_stats,655922942074316,PAPI_L3_TCM,8, 56.47961426,  3.65719604,end
timer_stats,655922943148177,PAPI_L3_TCM,6, 56.71752930,  3.67158508,end
timer_stats,655922944221045,PAPI_L3_TCM,3, 56.97247314,  3.68621826,end
timer_stats,655922945293702,PAPI_L3_TCM,2, 57.21514893,  3.70109558,end
timer_stats,655922946366769,PAPI_L3_TCM,1, 57.45489502,  3.71636963,end
timer_stats,655922947442500,PAPI_L3_TCM,8, 57.68579101,  3.73165894,end
timer_stats,655922948516718,PAPI_L3_TCM,4, 57.92987060,  3.74719238,end
timer_stats,655922949590526,PAPI_L3_TCM,1, 58.17401123,  3.76156616,end
timer_stats,655922950663826,PAPI_L3_TCM,0, 58.42114258,  3.77583313,end
timer_stats,655922951736998,PAPI_L3_TCM,6, 58.65203857,  3.79039001,end
timer_stats,655922952811273,PAPI_L3_TCM,3, 58.90020752,  3.80522156,end
timer_stats,655922953884713,PAPI_L3_TCM,4, 59.35766601,  3.82704163,end
timer_stats,655922954958197,PAPI_L3_TCM,1, 59.48236084,  3.84217834,end
timer_stats,655922956013495,PAPI_L3_TCM,4, 59.75256348,  3.85693359,end
timer_stats,655922957085691,PAPI_L3_TCM,1, 59.98254394,  3.87222290,end
timer_stats,655922958158692,PAPI_L3_TCM,5, 60.35461426,  3.89431763,end
timer_stats,655922959231500,PAPI_L3_TCM,2, 60.59954834,  3.90884399,end
timer_stats,655922960635805,PAPI_L3_TCM,4360, 60.83038330,  3.92320251,end
timer_stats,655922961714664,PAPI_L3_TCM,48, 61.07879639,  3.93733215,end
timer_stats,655922962788159,PAPI_L3_TCM,8, 61.32476807,  3.95193481,end
timer_stats,655922963862470,PAPI_L3_TCM,0, 61.67993164,  3.97399902,end
timer_stats,655922964936587,PAPI_L3_TCM,4, 61.92718506,  3.98876953,end
timer_stats,655922968154055,PAPI_L3_TCM,115, 62.68969726,  4.06359863,end
timer_stats,655922969235179,PAPI_L3_TCM,48, 62.92126465,  4.07949829,end
timer_stats,655922970311027,PAPI_L3_TCM,1, 63.19207764,  4.09494018,end
timer_stats,655922971386164,PAPI_L3_TCM,4, 63.45300293,  4.11022949,end
timer_stats,655922972461865,PAPI_L3_TCM,4, 63.71936035,  4.12620544,end
timer_stats,655922973536598,PAPI_L3_TCM,3, 63.97619629,  4.14195251,end
timer_stats,655922974613087,PAPI_L3_TCM,1, 64.25567627,  4.15765381,end
timer_stats,655922975688566,PAPI_L3_TCM,3, 64.49505615,  4.17314148,end
timer_stats,655922976767371,PAPI_L3_TCM,11, 64.77661133,  4.18937683,end
timer_stats,655922977843958,PAPI_L3_TCM,3, 65.03057861,  4.20535278,end
timer_stats,655922978920138,PAPI_L3_TCM,3, 65.42480469,  4.22901916,end
timer_stats,655922979995738,PAPI_L3_TCM,4, 65.69537353,  4.24520874,end
timer_stats,655922981081237,PAPI_L3_TCM,9, 66.08581543,  4.26089477,end
timer_stats,655922982156541,PAPI_L3_TCM,3, 66.35449219,  4.28457642,end
timer_stats,655922983230329,PAPI_L3_TCM,5, 66.62188721,  4.30027771,end
timer_stats,655922984306177,PAPI_L3_TCM,2, 66.87841797,  4.31626892,end
timer_stats,655922985383691,PAPI_L3_TCM,3, 67.14227295,  4.33248901,end
timer_stats,655922986459051,PAPI_L3_TCM,6, 67.41632080,  4.34837341,end
timer_stats,655922987533804,PAPI_L3_TCM,3, 67.67431640,  4.36430359,end
timer_stats,655922988609634,PAPI_L3_TCM,5, 67.93389892,  4.38023376,end
timer_stats,655922989684866,PAPI_L3_TCM,1, 68.20574951,  4.39617920,end
timer_stats,655922990760688,PAPI_L3_TCM,3, 68.45745849,  4.41192627,end
timer_stats,655922991835188,PAPI_L3_TCM,3, 68.73132324,  4.42727661,end
timer_stats,655922992910727,PAPI_L3_TCM,8, 69.12786865,  4.45150757,end
timer_stats,655922993985533,PAPI_L3_TCM,1, 69.38861084,  4.46723938,end
timer_stats,655922995059911,PAPI_L3_TCM,6, 69.66070557,  4.48321533,end
timer_stats,655922996133780,PAPI_L3_TCM,4, 70.05633545,  4.50761413,end
timer_stats,655922997207932,PAPI_L3_TCM,4, 70.31121826,  4.52357483,end
timer_stats,655922998281273,PAPI_L3_TCM,1, 70.57464599,  4.53952026,end
timer_stats,655922999355921,PAPI_L3_TCM,3, 70.83905029,  4.55520630,end
timer_stats,655923000429627,PAPI_L3_TCM,5, 71.10864258,  4.57089233,end
timer_stats,655923001503525,PAPI_L3_TCM,6, 71.37475586,  4.58686829,end
timer_stats,655923002576867,PAPI_L3_TCM,4, 71.63305664,  4.60282898,end
timer_stats,655923003650444,PAPI_L3_TCM,4, 71.89630127,  4.61851501,end
timer_stats,655923004724496,PAPI_L3_TCM,6, 72.16088867,  4.63444519,end
timer_stats,655923005797818,PAPI_L3_TCM,5, 72.43292236,  4.65007019,end
timer_stats,655923006872172,PAPI_L3_TCM,3, 72.82061767,  4.66606140,end
timer_stats,655923007946549,PAPI_L3_TCM,6, 73.08685303,  4.69073486,end
timer_stats,655923009022331,PAPI_L3_TCM,7, 73.34490967,  4.70692444,end
timer_stats,655923010097489,PAPI_L3_TCM,6, 73.75146484,  4.73028564,end
timer_stats,655923011172287,PAPI_L3_TCM,3, 74.00286865,  4.74632263,end
timer_stats,655923012246686,PAPI_L3_TCM,9, 74.27246094,  4.76203918,end
timer_stats,655923016322609,PAPI_L3_TCM,260, 75.01770020,  4.81977844,end
timer_stats,655923017418613,PAPI_L3_TCM,121, 75.17553711,  4.83258056,end
timer_stats,655923018497661,PAPI_L3_TCM,13, 75.42498779,  4.84529114,end
timer_stats,655923019577383,PAPI_L3_TCM,9, 75.67749023,  4.85786438,end
timer_stats,655923020656357,PAPI_L3_TCM,7, 75.91827392,  4.87246704,end
timer_stats,655923021732148,PAPI_L3_TCM,2, 76.17108154,  4.88705444,end
timer_stats,655923022806605,PAPI_L3_TCM,4, 76.43078613,  4.90133667,end
timer_stats,655923023881065,PAPI_L3_TCM,1, 76.69512939,  4.91627502,end
timer_stats,655923024956932,PAPI_L3_TCM,2, 77.10626221,  4.93742370,end
timer_stats,655923026031541,PAPI_L3_TCM,3, 77.37512207,  4.95195007,end
timer_stats,655923027106194,PAPI_L3_TCM,4, 77.63592529,  4.96650696,end
timer_stats,655923028181058,PAPI_L3_TCM,5, 78.04211426,  4.98847961,end
timer_stats,655923029256067,PAPI_L3_TCM,2, 78.30157471,  5.00260925,end
timer_stats,655923030329822,PAPI_L3_TCM,1, 78.56903076,  5.01692200,end
timer_stats,655923031403793,PAPI_L3_TCM,3, 78.84558105,  5.03099060,end
timer_stats,655923032478237,PAPI_L3_TCM,6, 79.12005615,  5.04504394,end
timer_stats,655923033553093,PAPI_L3_TCM,9, 79.37023926,  5.05941772,end
timer_stats,655923034628270,PAPI_L3_TCM,9, 79.63952637,  5.07371521,end
timer_stats,655923035702942,PAPI_L3_TCM,6, 79.90179443,  5.08750915,end
timer_stats,655923036777630,PAPI_L3_TCM,5, 80.15521240,  5.10409546,end
timer_stats,655923037851166,PAPI_L3_TCM,2, 80.43988037,  5.11973572,end
timer_stats,655923038924846,PAPI_L3_TCM,3, 80.70373535,  5.13562012,end
timer_stats,655923039998540,PAPI_L3_TCM,2, 81.10955811,  5.16000366,end
timer_stats,655923041100678,PAPI_L3_TCM,6, 81.37713623,  5.17561340,end
timer_stats,655923042173502,PAPI_L3_TCM,2, 81.77148437,  5.19976807,end
timer_stats,655923043247202,PAPI_L3_TCM,2, 82.04046631,  5.21533203,end
timer_stats,655923044320724,PAPI_L3_TCM,7, 82.29974365,  5.23155212,end
timer_stats,655923045394506,PAPI_L3_TCM,3, 82.55603027,  5.24777222,end
timer_stats,655923046467873,PAPI_L3_TCM,1, 82.83068848,  5.26336670,end
timer_stats,655923047541225,PAPI_L3_TCM,4, 83.10278320,  5.27905273,end
timer_stats,655923048615209,PAPI_L3_TCM,3, 83.37493896,  5.29472351,end
timer_stats,655923049689538,PAPI_L3_TCM,2, 83.62133789,  5.31100464,end
timer_stats,655923050764401,PAPI_L3_TCM,1, 83.90209961,  5.32658386,end
timer_stats,655923051839133,PAPI_L3_TCM,11, 84.16638183,  5.34277344,end
timer_stats,655923052914808,PAPI_L3_TCM,4, 84.43420410,  5.35900879,end
timer_stats,655923053990855,PAPI_L3_TCM,11, 84.83496094,  5.38391113,end
timer_stats,655923055064778,PAPI_L3_TCM,4, 85.10662842,  5.40000916,end
timer_stats,655923056139382,PAPI_L3_TCM,9, 85.50201416,  5.42424011,end
timer_stats,655923057213406,PAPI_L3_TCM,5, 85.77307129,  5.44041443,end
timer_stats,655923058288053,PAPI_L3_TCM,4, 86.02758789,  5.45645142,end
timer_stats,655923059362953,PAPI_L3_TCM,1, 86.29577637,  5.47210693,end
timer_stats,655923060437124,PAPI_L3_TCM,4, 86.57330322,  5.48768616,end
timer_stats,655923061512321,PAPI_L3_TCM,1, 86.83258057,  5.50361633,end
timer_stats,655923062586461,PAPI_L3_TCM,4, 87.10418701,  5.51904297,end
timer_stats,655923063660371,PAPI_L3_TCM,8, 87.37811279,  5.53471374,end
timer_stats,655923064734024,PAPI_L3_TCM,5, 87.63385010,  5.55091858,end
timer_stats,655923065808262,PAPI_L3_TCM,4, 87.90643311,  5.56730652,end
timer_stats,655923066882435,PAPI_L3_TCM,5, 88.17401123,  5.58349609,end
timer_stats,655923067955968,PAPI_L3_TCM,0, 88.56921387,  5.60714722,end
timer_stats,655923069030984,PAPI_L3_TCM,4, 88.84600830,  5.62304687,end
timer_stats,655923070104941,PAPI_L3_TCM,3, 89.10717773,  5.63977051,end
timer_stats,655923071179313,PAPI_L3_TCM,6, 89.50860596,  5.66426086,end
timer_stats,655923072253693,PAPI_L3_TCM,2, 89.77178955,  5.68045044,end
timer_stats,655923076157611,PAPI_L3_TCM,336, 90.67572021,  5.76261902,end
timer_stats,655923077245027,PAPI_L3_TCM,141, 90.91900635,  5.77888489,end
timer_stats,655923078321691,PAPI_L3_TCM,5, 91.18322754,  5.79463196,end
timer_stats,655923079397449,PAPI_L3_TCM,1, 91.45263672,  5.81037903,end
timer_stats,655923080473480,PAPI_L3_TCM,10, 91.70666504,  5.82666015,end
timer_stats,655923081549034,PAPI_L3_TCM,2, 91.98272705,  5.84233093,end
timer_stats,655923082624364,PAPI_L3_TCM,3, 92.26007080,  5.85830688,end
timer_stats,655923083698474,PAPI_L3_TCM,1, 92.52630615,  5.87425232,end
timer_stats,655923084773168,PAPI_L3_TCM,6, 92.79089355,  5.89019775,end
timer_stats,655923085847422,PAPI_L3_TCM,0, 93.05261230,  5.90618896,end
timer_stats,655923086921625,PAPI_L3_TCM,2, 93.32995605,  5.92233276,end
timer_stats,655923087995760,PAPI_L3_TCM,0, 93.73376465,  5.94633484,end
timer_stats,655923089079787,PAPI_L3_TCM,6, 94.13812256,  5.96244812,end
timer_stats,655923090155219,PAPI_L3_TCM,4, 94.40441895,  5.98704529,end
timer_stats,655923091231616,PAPI_L3_TCM,10, 94.67401123,  6.00341797,end
timer_stats,655923092307168,PAPI_L3_TCM,6, 94.95483398,  6.01884460,end
timer_stats,655923093382510,PAPI_L3_TCM,1, 95.22589111,  6.03482056,end
timer_stats,655923094456856,PAPI_L3_TCM,3, 95.48474121,  6.05097961,end
timer_stats,655923095530945,PAPI_L3_TCM,5, 95.76306152,  6.06736755,end
timer_stats,655923096605525,PAPI_L3_TCM,2, 96.01989746,  6.08306885,end
timer_stats,655923097679415,PAPI_L3_TCM,9, 96.29687500,  6.09877014,end
timer_stats,655923098753844,PAPI_L3_TCM,4, 96.56518555,  6.11451721,end
timer_stats,655923099829223,PAPI_L3_TCM,7, 96.82995605,  6.13098144,end
timer_stats,655923100905240,PAPI_L3_TCM,6, 97.10363769,  6.14695740,end
timer_stats,655923101980273,PAPI_L3_TCM,2, 97.37469482,  6.16342163,end
timer_stats,655923103053414,PAPI_L3_TCM,2, 97.76806641,  6.18692017,end
timer_stats,655923104128486,PAPI_L3_TCM,5, 98.18658447,  6.20275879,end
timer_stats,655923105202880,PAPI_L3_TCM,1, 98.46203613,  6.21846008,end
timer_stats,655923106277581,PAPI_L3_TCM,2, 98.72991943,  6.24227905,end
timer_stats,655923107351421,PAPI_L3_TCM,0, 98.99206543,  6.25801086,end
timer_stats,655923108426304,PAPI_L3_TCM,5, 99.26171875,  6.27346802,end
timer_stats,655923109500676,PAPI_L3_TCM,0, 99.52459717,  6.28921509,end
timer_stats,655923110574997,PAPI_L3_TCM,4, 99.79425049,  6.30541992,end
timer_stats,655923111649664,PAPI_L3_TCM,3,100.06195068,  6.32110596,end
timer_stats,655923112724849,PAPI_L3_TCM,5,100.33306885,  6.33657837,end
timer_stats,655923113798998,PAPI_L3_TCM,1,100.60723877,  6.35227966,end
timer_stats,655923114873857,PAPI_L3_TCM,2,100.86956787,  6.36824036,end
timer_stats,655923115947986,PAPI_L3_TCM,7,101.13531494,  6.38388061,end
timer_stats,655923117023562,PAPI_L3_TCM,5,101.55462646,  6.40711975,end
timer_stats,655923118098655,PAPI_L3_TCM,3,101.82849121,  6.42254639,end
timer_stats,655923119173181,PAPI_L3_TCM,4,102.21899414,  6.44282532,end
timer_stats,655923120247899,PAPI_L3_TCM,6,102.48999023,  6.46257019,end
timer_stats,655923121322637,PAPI_L3_TCM,2,102.75604248,  6.47851562,end
timer_stats,655923122396345,PAPI_L3_TCM,1,103.02716064,  6.49472046,end
timer_stats,655923123470709,PAPI_L3_TCM,5,103.29571533,  6.51071167,end
timer_stats,655923124544617,PAPI_L3_TCM,3,103.56414795,  6.52641296,end
timer_stats,655923125620153,PAPI_L3_TCM,3,103.82879639,  6.54217529,end
timer_stats,655923126695438,PAPI_L3_TCM,5,104.10772705,  6.55787658,end
timer_stats,655923127770292,PAPI_L3_TCM,8,104.37524414,  6.57411194,end
timer_stats,655923128844944,PAPI_L3_TCM,6,104.63873291,  6.58935547,end
timer_stats,655923129919668,PAPI_L3_TCM,7,104.90667724,  6.60536194,end
timer_stats,655923133490422,PAPI_L3_TCM,114,105.81872558,  6.68133545,end
timer_stats,655923134570578,PAPI_L3_TCM,53,106.02630615,  6.69747925,end
timer_stats,655923135647405,PAPI_L3_TCM,5,106.28961182,  6.71284485,end
timer_stats,655923136724976,PAPI_L3_TCM,7,106.55371094,  6.72871399,end
timer_stats,655923137801745,PAPI_L3_TCM,2,106.81665039,  6.74404907,end
timer_stats,655923138878011,PAPI_L3_TCM,3,107.08416748,  6.75914001,end
timer_stats,655923139953280,PAPI_L3_TCM,2,107.34088135,  6.77496338,end
timer_stats,655923141030508,PAPI_L3_TCM,2,107.74945068,  6.79022217,end
timer_stats,655923142106820,PAPI_L3_TCM,3,108.01422119,  6.81347656,end
timer_stats,655923143182955,PAPI_L3_TCM,5,108.27905273,  6.82948303,end
timer_stats,655923144258117,PAPI_L3_TCM,0,108.67877197,  6.85255432,end
timer_stats,655923145332814,PAPI_L3_TCM,8,108.93164062,  6.86842346,end
timer_stats,655923146409116,PAPI_L3_TCM,4,109.20855713,  6.88423157,end
timer_stats,655923147484758,PAPI_L3_TCM,7,109.47802734,  6.89976501,end
timer_stats,655923148560686,PAPI_L3_TCM,1,109.71740723,  6.91516113,end
timer_stats,655923149635860,PAPI_L3_TCM,2,109.99151611,  6.93045044,end
timer_stats,655923150710047,PAPI_L3_TCM,3,110.26171875,  6.94596863,end
timer_stats,655923151786935,PAPI_L3_TCM,5,110.51702881,  6.96183777,end
timer_stats,655923152861435,PAPI_L3_TCM,2,110.78753662,  6.97735596,end
timer_stats,655923153936492,PAPI_L3_TCM,7,111.03778076,  6.99291992,end
timer_stats,655923155010308,PAPI_L3_TCM,3,111.31243896,  7.00840759,end
timer_stats,655923156083707,PAPI_L3_TCM,3,111.70404053,  7.03086853,end
timer_stats,655923157157296,PAPI_L3_TCM,1,111.97088623,  7.04614258,end
timer_stats,655923158231324,PAPI_L3_TCM,5,112.37750244,  7.06240845,end
timer_stats,655923159306659,PAPI_L3_TCM,0,112.63726807,  7.08605957,end
timer_stats,655923160382467,PAPI_L3_TCM,2,112.89459228,  7.10139465,end
timer_stats,655923161456385,PAPI_L3_TCM,1,113.15582275,  7.11697388,end
timer_stats,655923162531351,PAPI_L3_TCM,6,113.42504883,  7.13253784,end
timer_stats,655923163606662,PAPI_L3_TCM,6,113.68188476,  7.14840698,end
timer_stats,655923164683529,PAPI_L3_TCM,12,113.95629883,  7.16366577,end
timer_stats,655923165759235,PAPI_L3_TCM,2,114.22711182,  7.17916870,end
timer_stats,655923166833791,PAPI_L3_TCM,1,114.47521973,  7.19476318,end
timer_stats,655923167907885,PAPI_L3_TCM,1,114.75982666,  7.21080017,end
timer_stats,655923168984470,PAPI_L3_TCM,4,115.00994873,  7.22639465,end
timer_stats,655923170059189,PAPI_L3_TCM,6,115.41021728,  7.24909973,end
timer_stats,655923171133844,PAPI_L3_TCM,7,115.67266846,  7.26568603,end
timer_stats,655923172209081,PAPI_L3_TCM,2,115.95043945,  7.28114319,end
timer_stats,655923173284783,PAPI_L3_TCM,1,116.33093262,  7.30514526,end
timer_stats,655923174359521,PAPI_L3_TCM,11,116.59765625,  7.32174682,end
timer_stats,655923175434887,PAPI_L3_TCM,3,116.86340332,  7.33757019,end
timer_stats,655923176509825,PAPI_L3_TCM,3,117.13238525,  7.35290527,end
timer_stats,655923177585071,PAPI_L3_TCM,2,117.39746094,  7.36856079,end
timer_stats,655923178660226,PAPI_L3_TCM,6,117.66729736,  7.38389587,end
timer_stats,655923179734858,PAPI_L3_TCM,6,117.93719482,  7.39921570,end
timer_stats,655923180810013,PAPI_L3_TCM,4,118.19256592,  7.41459656,end
timer_stats,655923181885289,PAPI_L3_TCM,1,118.45770264,  7.43017578,end
timer_stats,655923182961816,PAPI_L3_TCM,8,118.72222900,  7.44529724,end
timer_stats,655923184019978,PAPI_L3_TCM,5,119.11517334,  7.46850586,end
timer_stats,655923185095232,PAPI_L3_TCM,2,119.39245605,  7.48377991,end
timer_stats,655923186170612,PAPI_L3_TCM,3,119.65655517,  7.49911499,end
timer_stats,655923187245140,PAPI_L3_TCM,2,120.05004883,  7.52310181,end
timer_stats,655923188320326,PAPI_L3_TCM,3,120.32501221,  7.53842163,end
timer_stats,655923189393617,PAPI_L3_TCM,1,120.59014892,  7.55375671,end
timer_stats,655923190467636,PAPI_L3_TCM,1,120.84747314,  7.56936645,end
timer_stats,655923191542415,PAPI_L3_TCM,0,121.10931396,  7.58479309,end
timer_stats,655923192617225,PAPI_L3_TCM,1,121.36956787,  7.60017395,end
timer_stats,655923193693142,PAPI_L3_TCM,4,121.63861084,  7.61572265,end
timer_stats,655923194769486,PAPI_L3_TCM,6,121.89440918,  7.63180542,end
timer_stats,655923198228551,PAPI_L3_TCM,119,122.69555664,  7.70594787,end
timer_stats,655923199316549,PAPI_L3_TCM,46,123.03631592,  7.72645569,end
timer_stats,655923200395831,PAPI_L3_TCM,7,123.30999756,  7.74205017,end
timer_stats,655923201473236,PAPI_L3_TCM,4,123.57745361,  7.75810242,end
timer_stats,655923202548573,PAPI_L3_TCM,0,123.85723877,  7.77340698,end
timer_stats,655923203624038,PAPI_L3_TCM,5,124.13861084,  7.78919983,end
timer_stats,655923204699872,PAPI_L3_TCM,0,124.41058349,  7.80455017,end
timer_stats,655923205776874,PAPI_L3_TCM,3,124.68457031,  7.81962585,end
timer_stats,655923206852327,PAPI_L3_TCM,1,124.93902588,  7.83451843,end
timer_stats,655923207927320,PAPI_L3_TCM,3,125.21972656,  7.85009766,end
timer_stats,655923209002568,PAPI_L3_TCM,2,125.49609375,  7.86518860,end
timer_stats,655923210078817,PAPI_L3_TCM,1,125.89843750,  7.88764954,end
timer_stats,655923211153664,PAPI_L3_TCM,2,126.18310547,  7.90269470,end
timer_stats,655923212227541,PAPI_L3_TCM,7,126.57769775,  7.92526245,end
timer_stats,655923213303921,PAPI_L3_TCM,3,126.86901855,  7.94084167,end
timer_stats,655923214379542,PAPI_L3_TCM,5,127.13873291,  7.95671081,end
timer_stats,655923215453803,PAPI_L3_TCM,0,127.41546631,  7.97181702,end
timer_stats,655923216527928,PAPI_L3_TCM,6,127.67755127,  7.98768616,end
timer_stats,655923217602977,PAPI_L3_TCM,5,127.94915771,  8.00276184,end
timer_stats,655923218678580,PAPI_L3_TCM,7,128.22991943,  8.01855469,end
timer_stats,655923219753874,PAPI_L3_TCM,0,128.49969482,  8.03388977,end
timer_stats,655923220828638,PAPI_L3_TCM,2,128.78283691,  8.04914856,end
timer_stats,655923221902869,PAPI_L3_TCM,4,129.06250000,  8.06474304,end
timer_stats,655923222977679,PAPI_L3_TCM,7,129.33465576,  8.08111572,end
timer_stats,655923224015299,PAPI_L3_TCM,1,129.58917236,  8.09622192,end
timer_stats,655923225090705,PAPI_L3_TCM,3,130.01068115,  8.11882019,end
timer_stats,655923226165823,PAPI_L3_TCM,4,130.28015137,  8.13490295,end
timer_stats,655923227240535,PAPI_L3_TCM,1,130.55120849,  8.15052795,end
timer_stats,655923228314692,PAPI_L3_TCM,1,130.96905517,  8.17399597,end
timer_stats,655923229389370,PAPI_L3_TCM,6,131.24151611,  8.18959045,end
timer_stats,655923230463860,PAPI_L3_TCM,3,131.50915527,  8.20538330,end
timer_stats,655923231538196,PAPI_L3_TCM,6,131.77862549,  8.22096252,end
timer_stats,655923232612473,PAPI_L3_TCM,8,132.05456543,  8.23622131,end
timer_stats,655923233687438,PAPI_L3_TCM,4,132.33300781,  8.25152588,end
timer_stats,655923234762369,PAPI_L3_TCM,4,132.60723877,  8.26705932,end
timer_stats,655923235837733,PAPI_L3_TCM,3,132.88848877,  8.28283691,end
timer_stats,655923236913207,PAPI_L3_TCM,6,133.15502930,  8.29747009,end
timer_stats,655923237988317,PAPI_L3_TCM,1,133.42797852,  8.31291199,end
timer_stats,655923239063513,PAPI_L3_TCM,0,133.70703125,  8.32826233,end
timer_stats,655923240136909,PAPI_L3_TCM,3,134.11993408,  8.35131836,end
timer_stats,655923241211356,PAPI_L3_TCM,3,134.38958740,  8.36695862,end
timer_stats,655923242285926,PAPI_L3_TCM,4,134.65838623,  8.38256836,end
timer_stats,655923243360783,PAPI_L3_TCM,3,135.07641601,  8.40553284,end
timer_stats,655923244434860,PAPI_L3_TCM,6,135.34558105,  8.42062378,end
timer_stats,655923245509966,PAPI_L3_TCM,1,135.63098144,  8.43684387,end
timer_stats,655923246584509,PAPI_L3_TCM,1,135.89685059,  8.45233154,end
timer_stats,655923247659152,PAPI_L3_TCM,1,136.17462158,  8.46792602,end
timer_stats,655923248734505,PAPI_L3_TCM,9,136.44006347,  8.48355102,end
timer_stats,655923249810610,PAPI_L3_TCM,1,136.72070312,  8.49858093,end
timer_stats,655923250886011,PAPI_L3_TCM,5,136.98394775,  8.51438904,end
timer_stats,655923255511988,PAPI_L3_TCM,122,138.13830566,  8.60569763,end
timer_stats,655923256627009,PAPI_L3_TCM,67,138.33374023,  8.61940002,end
timer_stats,655923257704513,PAPI_L3_TCM,5,138.59039307,  8.63310242,end
timer_stats,655923258779665,PAPI_L3_TCM,1,138.86199951,  8.64675903,end
timer_stats,655923259856862,PAPI_L3_TCM,1,139.12487793,  8.66044617,end
timer_stats,655923260934042,PAPI_L3_TCM,8,139.37817383,  8.67417908,end
timer_stats,655923262011174,PAPI_L3_TCM,1,139.63110352,  8.68768310,end
timer_stats,655923263086864,PAPI_L3_TCM,4,140.02044678,  8.70805359,end
timer_stats,655923264163082,PAPI_L3_TCM,2,140.28912353,  8.72171020,end
timer_stats,655923265238376,PAPI_L3_TCM,5,140.55468750,  8.73582458,end
timer_stats,655923266313801,PAPI_L3_TCM,0,140.94555664,  8.75669861,end
timer_stats,655923267390063,PAPI_L3_TCM,2,141.20141602,  8.77015686,end
timer_stats,655923268466470,PAPI_L3_TCM,6,141.47106934,  8.78355408,end
timer_stats,655923269542344,PAPI_L3_TCM,4,141.72668457,  8.79701233,end
timer_stats,655923270617638,PAPI_L3_TCM,1,142.00732422,  8.81062317,end
timer_stats,655923271692569,PAPI_L3_TCM,3,142.26373291,  8.82431030,end
timer_stats,655923272769222,PAPI_L3_TCM,4,142.51074219,  8.83850098,end
timer_stats,655923273844736,PAPI_L3_TCM,7,142.78582764,  8.85238647,end
timer_stats,655923274919730,PAPI_L3_TCM,1,143.05377197,  8.86666870,end
timer_stats,655923275994522,PAPI_L3_TCM,3,143.32324219,  8.88053894,end
timer_stats,655923277075508,PAPI_L3_TCM,4,143.70776367,  8.89520264,end
timer_stats,655923278149934,PAPI_L3_TCM,3,143.83074951,  8.90884399,end
timer_stats,655923279225103,PAPI_L3_TCM,1,144.23779297,  8.93130493,end
timer_stats,655923280299831,PAPI_L3_TCM,8,144.63317871,  8.95487976,end
timer_stats,655923281374455,PAPI_L3_TCM,0,144.89971924,  8.97042847,end
timer_stats,655923282449825,PAPI_L3_TCM,3,145.17852783,  8.98619080,end
timer_stats,655923283525198,PAPI_L3_TCM,1,145.43542480,  9.00141907,end
timer_stats,655923284600465,PAPI_L3_TCM,8,145.69268799,  9.01724243,end
timer_stats,655923285675199,PAPI_L3_TCM,4,145.95910644,  9.03254700,end
timer_stats,655923286758238,PAPI_L3_TCM,3,146.23010254,  9.04856873,end
timer_stats,655923287833869,PAPI_L3_TCM,4,146.50128174,  9.06414795,end
timer_stats,655923288909190,PAPI_L3_TCM,4,146.77062988,  9.07986450,end
timer_stats,655923289984465,PAPI_L3_TCM,4,147.03869629,  9.09542847,end
timer_stats,655923291058922,PAPI_L3_TCM,5,147.29876709,  9.11096191,end
timer_stats,655923292133023,PAPI_L3_TCM,5,147.56738281,  9.12648010,end
timer_stats,655923293208268,PAPI_L3_TCM,4,147.96960449,  9.14938354,end
timer_stats,655923294283596,PAPI_L3_TCM,2,148.24072266,  9.16441345,end
timer_stats,655923295360825,PAPI_L3_TCM,7,148.63568115,  9.18768310,end
timer_stats,655923296436000,PAPI_L3_TCM,2,148.90197754,  9.20301819,end
timer_stats,655923297511659,PAPI_L3_TCM,2,149.15875244,  9.21858215,end
timer_stats,655923298588485,PAPI_L3_TCM,5,149.43072510,  9.23437500,end
timer_stats,655923299665593,PAPI_L3_TCM,3,149.68151855,  9.25016785,end
timer_stats,655923300740510,PAPI_L3_TCM,2,149.95471191,  9.26570129,end
timer_stats,655923301815723,PAPI_L3_TCM,8,150.22473145,  9.28071594,end
timer_stats,655923302890698,PAPI_L3_TCM,1,150.50225830,  9.28941345,end
timer_stats,655923303964992,PAPI_L3_TCM,3,150.75537109,  9.30523682,end
timer_stats,655923305040454,PAPI_L3_TCM,3,151.01751709,  9.32083130,end
timer_stats,655923306115390,PAPI_L3_TCM,6,151.29089355,  9.33662415,end
timer_stats,655923307190124,PAPI_L3_TCM,1,151.68469238,  9.35980225,end
timer_stats,655923308265498,PAPI_L3_TCM,4,151.94799805,  9.37535095,end
timer_stats,655923309341038,PAPI_L3_TCM,1,152.35205078,  9.39878845,end
timer_stats,655923310414810,PAPI_L3_TCM,1,152.62719727,  9.41380310,end
timer_stats,655923311490834,PAPI_L3_TCM,0,152.88885498,  9.42912292,end
timer_stats,655923312566397,PAPI_L3_TCM,7,153.16149902,  9.44512939,end
timer_stats,655923313640995,PAPI_L3_TCM,1,153.42230225,  9.46115112,end
timer_stats,655923314715499,PAPI_L3_TCM,2,153.69140625,  9.47691345,end
timer_stats,655923315790530,PAPI_L3_TCM,0,153.94757080,  9.49246216,end
timer_stats,655923316866342,PAPI_L3_TCM,6,154.22088623,  9.50796509,end
timer_stats,655923317939872,PAPI_L3_TCM,1,154.48352051,  9.52395630,end
timer_stats,655923319013941,PAPI_L3_TCM,1,154.75634766,  9.53991699,end
timer_stats,655923320087737,PAPI_L3_TCM,6,155.02539062,  9.55566406,end
timer_stats,655923321161988,PAPI_L3_TCM,2,155.29913330,  9.57142639,end
timer_stats,655923322236769,PAPI_L3_TCM,2,155.69226074,  9.59573364,end
timer_stats,655923323319781,PAPI_L3_TCM,6,155.95886230,  9.61193848,end
timer_stats,655923324395022,PAPI_L3_TCM,10,156.35150146,  9.63587951,end
timer_stats,655923325471337,PAPI_L3_TCM,9,156.62347412,  9.65165710,end
timer_stats,655923326546675,PAPI_L3_TCM,0,156.88903809,  9.66741943,end
timer_stats,655923330475190,PAPI_L3_TCM,151,157.77941894,  9.74243164,end
timer_stats,655923331557361,PAPI_L3_TCM,74,158.01123047,  9.75857544,end
timer_stats,655923332632769,PAPI_L3_TCM,9,158.28100586,  9.77383423,end
timer_stats,655923333707310,PAPI_L3_TCM,2,158.54968262,  9.78981018,end
timer_stats,655923334781682,PAPI_L3_TCM,3,158.81561279,  9.80534363,end
timer_stats,655923335856434,PAPI_L3_TCM,3,159.08593750,  9.82136535,end
timer_stats,655923336930667,PAPI_L3_TCM,3,159.35186767,  9.83689880,end
timer_stats,655923338004698,PAPI_L3_TCM,1,159.61981201,  9.85246277,end
timer_stats,655923339077700,PAPI_L3_TCM,1,159.89605713,  9.86840820,end
timer_stats,655923340151312,PAPI_L3_TCM,5,160.29388428,  9.89265442,end
timer_stats,655923341224568,PAPI_L3_TCM,2,160.57336426,  9.90068054,end
timer_stats,655923342297290,PAPI_L3_TCM,0,160.84259033,  9.91627502,end
timer_stats,655923343370301,PAPI_L3_TCM,3,161.11608887,  9.93293762,end
timer_stats,655923344444087,PAPI_L3_TCM,3,161.51892090,  9.95628357,end
timer_stats,655923345517325,PAPI_L3_TCM,1,161.78936767,  9.97171020,end
timer_stats,655923346591141,PAPI_L3_TCM,0,162.05810547,  9.98818970,end
timer_stats,655923347664396,PAPI_L3_TCM,3,162.32214355, 10.00389099,end
timer_stats,655923348737310,PAPI_L3_TCM,2,162.58959961, 10.01986694,end
timer_stats,655923349811560,PAPI_L3_TCM,2,162.86224365, 10.03605652,end
timer_stats,655923350885492,PAPI_L3_TCM,1,163.13818359, 10.05227661,end
timer_stats,655923351959045,PAPI_L3_TCM,9,163.40960693, 10.06871033,end
timer_stats,655923353033718,PAPI_L3_TCM,9,163.70660400, 10.08430481,end
timer_stats,655923354106957,PAPI_L3_TCM,2,163.94635010, 10.10028076,end
timer_stats,655923355179273,PAPI_L3_TCM,0,164.35321045, 10.12448120,end
timer_stats,655923356252662,PAPI_L3_TCM,5,164.63201904, 10.14045715,end
timer_stats,655923357326337,PAPI_L3_TCM,0,164.76605224, 10.14840698,end
timer_stats,655923358399815,PAPI_L3_TCM,3,165.29870605, 10.18115234,end
timer_stats,655923359472805,PAPI_L3_TCM,6,165.57098389, 10.19683838,end
timer_stats,655923360547301,PAPI_L3_TCM,8,165.83874512, 10.21258545,end
timer_stats,655923361621045,PAPI_L3_TCM,1,166.11450195, 10.22856140,end
timer_stats,655923362705892,PAPI_L3_TCM,11,166.38983154, 10.24481201,end
timer_stats,655923363779187,PAPI_L3_TCM,1,166.64410400, 10.26110840,end
timer_stats,655923364853976,PAPI_L3_TCM,4,166.93804932, 10.27703857,end
timer_stats,655923365926779,PAPI_L3_TCM,1,167.18853760, 10.29258728,end
timer_stats,655923366999537,PAPI_L3_TCM,3,167.46972656, 10.30923462,end
timer_stats,655923368072413,PAPI_L3_TCM,7,167.75500488, 10.32513428,end
timer_stats,655923369145487,PAPI_L3_TCM,7,168.03057861, 10.34057617,end
timer_stats,655923370218026,PAPI_L3_TCM,0,168.41503906, 10.36418152,end
timer_stats,655923371291406,PAPI_L3_TCM,4,168.67639160, 10.37959290,end
timer_stats,655923372365278,PAPI_L3_TCM,3,168.94879150, 10.39501953,end
timer_stats,655923373440205,PAPI_L3_TCM,4,169.35260010, 10.41970825,end
timer_stats,655923374513461,PAPI_L3_TCM,4,169.62750244, 10.43609619,end
timer_stats,655923375587058,PAPI_L3_TCM,3,169.89447021, 10.45201111,end
timer_stats,655923376659973,PAPI_L3_TCM,2,170.16931152, 10.46801758,end
timer_stats,655923377733604,PAPI_L3_TCM,3,170.45941162, 10.48387146,end
timer_stats,655923378806478,PAPI_L3_TCM,0,170.72509766, 10.50003052,end
timer_stats,655923379880530,PAPI_L3_TCM,2,170.98144531, 10.51602173,end
timer_stats,655923380955093,PAPI_L3_TCM,8,171.26666260, 10.53195190,end
timer_stats,655923382029383,PAPI_L3_TCM,11,171.53216553, 10.54821777,end
timer_stats,655923383102838,PAPI_L3_TCM,2,171.81225586, 10.56414795,end
timer_stats,655923384176029,PAPI_L3_TCM,4,172.06585693, 10.58010864,end
timer_stats,655923385250241,PAPI_L3_TCM,8,172.46203613, 10.60386658,end
timer_stats,655923386323156,PAPI_L3_TCM,4,172.73657226, 10.61958313,end
timer_stats,655923387396478,PAPI_L3_TCM,4,173.00695801, 10.63533020,end
timer_stats,655923388470430,PAPI_L3_TCM,4,173.43945312, 10.65863037,end
timer_stats,655923389543601,PAPI_L3_TCM,2,173.71667480, 10.67431641,end
timer_stats,655923390616799,PAPI_L3_TCM,6,173.94464111, 10.69065857,end
timer_stats,655923391689628,PAPI_L3_TCM,0,174.24664307, 10.70620728,end
timer_stats,655923392763913,PAPI_L3_TCM,7,174.51873779, 10.72187805,end
timer_stats,655923396629097,PAPI_L3_TCM,144,175.42443848, 10.79864502,end
timer_stats,655923397715511,PAPI_L3_TCM,95,175.64813232, 10.80708313,end
timer_stats,655923398790855,PAPI_L3_TCM,5,175.92425537, 10.82333374,end
timer_stats,655923399864589,PAPI_L3_TCM,1,176.18981934, 10.83911133,end
timer_stats,655923400939504,PAPI_L3_TCM,1,176.45117187, 10.85426330,end
timer_stats,655923402019045,PAPI_L3_TCM,1,176.70220947, 10.86990356,end
timer_stats,655923403092054,PAPI_L3_TCM,0,176.98126221, 10.88569641,end
timer_stats,655923404165314,PAPI_L3_TCM,4,177.23937988, 10.90101623,end
timer_stats,655923405239255,PAPI_L3_TCM,3,177.51129150, 10.91629028,end
timer_stats,655923406314593,PAPI_L3_TCM,4,177.81640625, 10.93176269,end
timer_stats,655923407388579,PAPI_L3_TCM,4,178.08813476, 10.94712830,end
timer_stats,655923408463587,PAPI_L3_TCM,1,178.46704102, 10.97006226,end
timer_stats,655923409537459,PAPI_L3_TCM,1,178.87426758, 10.99446106,end
timer_stats,655923410612029,PAPI_L3_TCM,2,179.16558838, 11.01020813,end
timer_stats,655923411687843,PAPI_L3_TCM,1,179.41644287, 11.02632141,end
timer_stats,655923412763462,PAPI_L3_TCM,9,179.70715332, 11.04161072,end
timer_stats,655923413837406,PAPI_L3_TCM,4,179.95764160, 11.05744934,end
timer_stats,655923414911651,PAPI_L3_TCM,2,180.24920654, 11.07289123,end
timer_stats,655923415986420,PAPI_L3_TCM,3,180.52209473, 11.08816528,end
timer_stats,655923417061170,PAPI_L3_TCM,1,180.77294922, 11.10379028,end
timer_stats,655923418136343,PAPI_L3_TCM,8,181.06774902, 11.11949158,end
timer_stats,655923419209994,PAPI_L3_TCM,9,181.34545898, 11.13523865,end
timer_stats,655923420283045,PAPI_L3_TCM,5,181.60760498, 11.15043640,end
timer_stats,655923421356123,PAPI_L3_TCM,3,181.88885498, 11.16586304,end
timer_stats,655923422429093,PAPI_L3_TCM,1,182.41729736, 11.19017029,end
timer_stats,655923423502619,PAPI_L3_TCM,3,182.69024658, 11.21363830,end
timer_stats,655923424577469,PAPI_L3_TCM,2,182.93634033, 11.22879028,end
timer_stats,655923425652298,PAPI_L3_TCM,2,183.24145508, 11.24499512,end
timer_stats,655923426727835,PAPI_L3_TCM,1,183.48144531, 11.26057434,end
timer_stats,655923427802417,PAPI_L3_TCM,4,183.78527832, 11.27595520,end
timer_stats,655923428877997,PAPI_L3_TCM,7,184.05743408, 11.29112244,end
timer_stats,655923429953019,PAPI_L3_TCM,11,184.32281494, 11.30622864,end
timer_stats,655923431027371,PAPI_L3_TCM,6,184.60180664, 11.32174682,end
timer_stats,655923432101541,PAPI_L3_TCM,2,184.83587646, 11.33715820,end
timer_stats,655923433175469,PAPI_L3_TCM,1,185.13110351, 11.35261535,end
timer_stats,655923434248470,PAPI_L3_TCM,7,185.39654541, 11.36796570,end
timer_stats,655923435324503,PAPI_L3_TCM,7,185.67913818, 11.38369751,end
timer_stats,655923436399201,PAPI_L3_TCM,10,186.07757568, 11.40707397,end
timer_stats,655923437472932,PAPI_L3_TCM,0,186.47863769, 11.43150330,end
timer_stats,655923438561831,PAPI_L3_TCM,2,186.78009033, 11.44622803,end
timer_stats,655923439636840,PAPI_L3_TCM,1,187.03271484, 11.46231079,end
timer_stats,655923440711426,PAPI_L3_TCM,4,187.31518555, 11.47731018,end
timer_stats,655923441786232,PAPI_L3_TCM,3,187.58001709, 11.49288940,end
timer_stats,655923442860281,PAPI_L3_TCM,3,187.84594727, 11.50842285,end
timer_stats,655923443934260,PAPI_L3_TCM,0,188.10766601, 11.52377319,end
timer_stats,655923445009218,PAPI_L3_TCM,4,188.38812256, 11.53955078,end
timer_stats,655923446083490,PAPI_L3_TCM,0,188.64715576, 11.55490112,end
timer_stats,655923447156901,PAPI_L3_TCM,3,188.94036865, 11.57037353,end
timer_stats,655923448230223,PAPI_L3_TCM,1,189.20410156, 11.58593750,end
timer_stats,655923449306121,PAPI_L3_TCM,8,189.45922852, 11.60179138,end
timer_stats,655923450382401,PAPI_L3_TCM,5,189.74664307, 11.61747742,end
timer_stats,655923451456489,PAPI_L3_TCM,1,190.14886474, 11.64106750,end
timer_stats,655923452530696,PAPI_L3_TCM,4,190.55462646, 11.66436767,end
timer_stats,655923453605157,PAPI_L3_TCM,1,190.82305908, 11.68016052,end
timer_stats,655923454679655,PAPI_L3_TCM,3,191.09039307, 11.69566345,end
timer_stats,655923455754580,PAPI_L3_TCM,6,191.35925293, 11.71124267,end
timer_stats,655923456828606,PAPI_L3_TCM,0,191.62121582, 11.72703552,end
timer_stats,655923457903150,PAPI_L3_TCM,3,191.92315674, 11.74270630,end
timer_stats,655923458977111,PAPI_L3_TCM,1,192.17333984, 11.75904846,end
timer_stats,655923462829356,PAPI_L3_TCM,368,193.10107422, 11.83451843,end
timer_stats,655923463925806,PAPI_L3_TCM,136,193.29705810, 11.85043335,end
timer_stats,655923465008034,PAPI_L3_TCM,4,193.54968262, 11.86608887,end
timer_stats,655923466085591,PAPI_L3_TCM,1,193.78924560, 11.88125610,end
timer_stats,655923467159643,PAPI_L3_TCM,2,194.04351807, 11.89636230,end
timer_stats,655923468233503,PAPI_L3_TCM,2,194.29888916, 11.91127014,end
timer_stats,655923469309117,PAPI_L3_TCM,3,194.55523682, 11.92637634,end
timer_stats,655923470384390,PAPI_L3_TCM,0,194.80432129, 11.94174194,end
timer_stats,655923471458873,PAPI_L3_TCM,1,195.29803467, 11.96453857,end
timer_stats,655923472534275,PAPI_L3_TCM,1,195.55023193, 11.98658752,end
timer_stats,655923473610202,PAPI_L3_TCM,2,195.80468750, 12.00170898,end
timer_stats,655923474685429,PAPI_L3_TCM,1,196.04394531, 12.01686096,end
timer_stats,655923475759828,PAPI_L3_TCM,4,196.30706787, 12.03266907,end
timer_stats,655923476834720,PAPI_L3_TCM,2,196.55554199, 12.04783630,end
timer_stats,655923477910759,PAPI_L3_TCM,3,196.80297851, 12.06300354,end
timer_stats,655923478985509,PAPI_L3_TCM,1,197.05889892, 12.07803345,end
timer_stats,655923480029728,PAPI_L3_TCM,4,197.31195068, 12.09297180,end
timer_stats,655923481105173,PAPI_L3_TCM,1,197.55615234, 12.10815430,end
timer_stats,655923482180090,PAPI_L3_TCM,1,197.82550049, 12.12397766,end
timer_stats,655923483255171,PAPI_L3_TCM,4,198.07867432, 12.13903808,end
timer_stats,655923484331382,PAPI_L3_TCM,8,198.31610107, 12.15422058,end
timer_stats,655923485407466,PAPI_L3_TCM,4,198.57159424, 12.16935730,end
timer_stats,655923486482417,PAPI_L3_TCM,3,198.94519043, 12.19163513,end
timer_stats,655923487556744,PAPI_L3_TCM,0,199.32336426, 12.21446228,end
timer_stats,655923488631636,PAPI_L3_TCM,1,199.57812500, 12.22959900,end
timer_stats,655923489705476,PAPI_L3_TCM,2,199.82312012, 12.24501037,end
timer_stats,655923490779075,PAPI_L3_TCM,1,200.07263184, 12.26040649,end
timer_stats,655923491853650,PAPI_L3_TCM,0,200.31835937, 12.27600098,end
timer_stats,655923492929644,PAPI_L3_TCM,6,200.58789062, 12.29176330,end
timer_stats,655923494004320,PAPI_L3_TCM,4,200.83764648, 12.30656433,end
timer_stats,655923495079539,PAPI_L3_TCM,5,201.09790039, 12.32170105,end
timer_stats,655923496154459,PAPI_L3_TCM,1,201.34381103, 12.33683777,end
timer_stats,655923497228828,PAPI_L3_TCM,2,201.59539795, 12.35221863,end
timer_stats,655923498303190,PAPI_L3_TCM,3,201.85272217, 12.36708069,end
timer_stats,655923499377224,PAPI_L3_TCM,1,202.10339355, 12.38223267,end
timer_stats,655923500452625,PAPI_L3_TCM,4,202.46984863, 12.40521240,end
timer_stats,655923501526970,PAPI_L3_TCM,4,202.85601807, 12.42768860,end
timer_stats,655923502601293,PAPI_L3_TCM,1,203.09954834, 12.44255066,end
timer_stats,655923503675657,PAPI_L3_TCM,3,203.36077881, 12.45722961,end
timer_stats,655923504750703,PAPI_L3_TCM,1,203.60589599, 12.47196960,end
timer_stats,655923505826155,PAPI_L3_TCM,3,203.85321045, 12.48669433,end
timer_stats,655923506899879,PAPI_L3_TCM,0,204.09655762, 12.50186157,end
timer_stats,655923507973052,PAPI_L3_TCM,5,204.35375977, 12.51702881,end
timer_stats,655923509047598,PAPI_L3_TCM,7,204.58612060, 12.53225708,end
timer_stats,655923510122262,PAPI_L3_TCM,2,204.85150146, 12.54734802,end
timer_stats,655923511196562,PAPI_L3_TCM,2,205.09313965, 12.56283569,end
timer_stats,655923512271930,PAPI_L3_TCM,6,205.34442139, 12.57794189,end
timer_stats,655923513345837,PAPI_L3_TCM,0,205.59686279, 12.59309387,end
timer_stats,655923514421746,PAPI_L3_TCM,6,205.97161865, 12.60820007,end
timer_stats,655923515496670,PAPI_L3_TCM,4,206.22088623, 12.63107300,end
timer_stats,655923516571826,PAPI_L3_TCM,1,206.47290039, 12.64575195,end
timer_stats,655923517647375,PAPI_L3_TCM,4,206.84881592, 12.66802978,end
timer_stats,655923518723231,PAPI_L3_TCM,2,207.09613037, 12.68318176,end
timer_stats,655923519798230,PAPI_L3_TCM,1,207.35260010, 12.69812012,end
timer_stats,655923520872838,PAPI_L3_TCM,6,207.59667969, 12.71328735,end
timer_stats,655923521947929,PAPI_L3_TCM,0,207.85070801, 12.72871399,end
timer_stats,655923523022728,PAPI_L3_TCM,5,208.09252930, 12.74426269,end
timer_stats,655923524097136,PAPI_L3_TCM,1,208.36120605, 12.75909424,end
timer_stats,655923525172076,PAPI_L3_TCM,1,208.60473633, 12.77383423,end
timer_stats,655923526246739,PAPI_L3_TCM,1,208.85827637, 12.78878784,end
timer_stats,655923527321316,PAPI_L3_TCM,2,209.10388184, 12.80393982,end
timer_stats,655923528396539,PAPI_L3_TCM,1,209.35852051, 12.81935119,end
timer_stats,655923529472465,PAPI_L3_TCM,2,209.73919678, 12.84205627,end
timer_stats,655923530546413,PAPI_L3_TCM,1,209.99353027, 12.85693359,end
timer_stats,655923531620918,PAPI_L3_TCM,2,210.36627197, 12.87918091,end
timer_stats,655923532696093,PAPI_L3_TCM,1,210.60876465, 12.89462280,end
timer_stats,655923533769232,PAPI_L3_TCM,2,210.86059570, 12.90977478,end
timer_stats,655923534842265,PAPI_L3_TCM,2,211.13165283, 12.92488098,end
timer_stats,655923535916166,PAPI_L3_TCM,3,211.37640381, 12.94006348,end
timer_stats,655923536992217,PAPI_L3_TCM,1,211.62725830, 12.95503235,end
timer_stats,655923538066924,PAPI_L3_TCM,10,211.87823486, 12.97019958,end
timer_stats,655923539143681,PAPI_L3_TCM,10,212.12561035, 12.98562622,end
timer_stats,655923540219813,PAPI_L3_TCM,7,212.38763428, 13.00021362,end
timer_stats,655923541294073,PAPI_L3_TCM,4,212.64239502, 13.01513672,end
timer_stats,655923542368689,PAPI_L3_TCM,4,212.89605713, 13.03031921,end
timer_stats,655923543443465,PAPI_L3_TCM,1,213.14697266, 13.04479980,end
timer_stats,655923544517511,PAPI_L3_TCM,4,213.52758789, 13.06767273,end
timer_stats,655923545591886,PAPI_L3_TCM,2,213.89483642, 13.09001160,end
timer_stats,655923546666111,PAPI_L3_TCM,2,214.14752197, 13.10520935,end
timer_stats,655923547741142,PAPI_L3_TCM,1,214.38635254, 13.12042236,end
timer_stats,655923548816776,PAPI_L3_TCM,6,214.64935303, 13.13531494,end
timer_stats,655923549891307,PAPI_L3_TCM,1,214.89105225, 13.15025330,end
timer_stats,655923554989540,PAPI_L3_TCM,211,215.99206543, 13.23539734,end
timer_stats,655923556078254,PAPI_L3_TCM,102,216.16583252, 13.24948120,end
timer_stats,655923557154359,PAPI_L3_TCM,5,216.43066406, 13.26277161,end
timer_stats,655923558231415,PAPI_L3_TCM,0,216.69372559, 13.27609253,end
timer_stats,655923559307647,PAPI_L3_TCM,3,216.96765137, 13.28982544,end
timer_stats,655923560383287,PAPI_L3_TCM,5,217.22900391, 13.30307007,end
timer_stats,655923561459126,PAPI_L3_TCM,4,217.49487304, 13.31660461,end
timer_stats,655923562535219,PAPI_L3_TCM,1,217.89147949, 13.33720398,end
timer_stats,655923563609821,PAPI_L3_TCM,1,218.29876709, 13.35684204,end
timer_stats,655923564685671,PAPI_L3_TCM,2,218.55749512, 13.37014770,end
timer_stats,655923565761808,PAPI_L3_TCM,9,218.83276367, 13.38383484,end
timer_stats,655923566836977,PAPI_L3_TCM,1,219.10156250, 13.39732361,end
timer_stats,655923567913255,PAPI_L3_TCM,2,219.36895752, 13.41075134,end
timer_stats,655923568990361,PAPI_L3_TCM,3,219.62695312, 13.42405700,end
timer_stats,655923570066417,PAPI_L3_TCM,7,219.89453125, 13.44010925,end
timer_stats,655923571142715,PAPI_L3_TCM,4,220.15942383, 13.45312500,end
timer_stats,655923572218206,PAPI_L3_TCM,6,220.42401123, 13.46643066,end
timer_stats,655923573293542,PAPI_L3_TCM,7,220.69744873, 13.47970581,end
timer_stats,655923574369075,PAPI_L3_TCM,4,220.95318603, 13.49299621,end
timer_stats,655923575443610,PAPI_L3_TCM,2,221.35589599, 13.51312256,end
timer_stats,655923576519159,PAPI_L3_TCM,4,221.63665771, 13.51953125,end
timer_stats,655923577594755,PAPI_L3_TCM,0,222.01867676, 13.53900146,end
timer_stats,655923578669761,PAPI_L3_TCM,2,222.28729248, 13.55249023,end
timer_stats,655923579745301,PAPI_L3_TCM,3,222.56146240, 13.56661987,end
timer_stats,655923580820997,PAPI_L3_TCM,10,222.82470703, 13.57984924,end
timer_stats,655923581896371,PAPI_L3_TCM,1,223.08593750, 13.59313965,end
timer_stats,655923582971746,PAPI_L3_TCM,3,223.35778809, 13.60639953,end
timer_stats,655923584017462,PAPI_L3_TCM,8,223.62530517, 13.61968994,end
timer_stats,655923585093647,PAPI_L3_TCM,2,223.88745117, 13.63298034,end
timer_stats,655923586168089,PAPI_L3_TCM,8,224.15277099, 13.64627075,end
timer_stats,655923587243130,PAPI_L3_TCM,3,224.41912842, 13.65956116,end
timer_stats,655923588319492,PAPI_L3_TCM,5,224.68371582, 13.67286682,end
timer_stats,655923589395437,PAPI_L3_TCM,2,224.95697021, 13.68614197,end
timer_stats,655923590472264,PAPI_L3_TCM,0,225.34832764, 13.70759582,end
timer_stats,655923591547333,PAPI_L3_TCM,3,225.61401367, 13.72064209,end
timer_stats,655923592622969,PAPI_L3_TCM,4,226.01110840, 13.74049377,end
timer_stats,655923593698446,PAPI_L3_TCM,5,226.28369141, 13.75373840,end
timer_stats,655923594773440,PAPI_L3_TCM,1,226.55688477, 13.76721191,end
timer_stats,655923595849472,PAPI_L3_TCM,8,226.82580566, 13.78071594,end
timer_stats,655923596927169,PAPI_L3_TCM,6,227.09320068, 13.79420471,end
timer_stats,655923598002814,PAPI_L3_TCM,6,227.35607910, 13.80744934,end
timer_stats,655923599078166,PAPI_L3_TCM,0,227.62579346, 13.82070923,end
timer_stats,655923600153303,PAPI_L3_TCM,7,227.89184570, 13.83422851,end
timer_stats,655923601229408,PAPI_L3_TCM,4,228.14697266, 13.84754944,end
timer_stats,655923602304299,PAPI_L3_TCM,3,228.41833496, 13.86172485,end
timer_stats,655923603379949,PAPI_L3_TCM,1,228.68542480, 13.87495422,end
timer_stats,655923604454691,PAPI_L3_TCM,4,228.95098877, 13.88845825,end
timer_stats,655923605530155,PAPI_L3_TCM,2,229.36285400, 13.90856933,end
timer_stats,655923606605382,PAPI_L3_TCM,2,229.75366211, 13.92210388,end
timer_stats,655923607680987,PAPI_L3_TCM,0,230.02301025, 13.94390869,end
timer_stats,655923608759192,PAPI_L3_TCM,10,230.29724121, 13.96102905,end
timer_stats,655923609834431,PAPI_L3_TCM,0,230.57135010, 13.97734070,end
timer_stats,655923610909164,PAPI_L3_TCM,2,230.83306885, 13.99264526,end
timer_stats,655923611984062,PAPI_L3_TCM,0,231.09503174, 14.00801086,end
timer_stats,655923613059264,PAPI_L3_TCM,8,231.38354492, 14.02346802,end
timer_stats,655923614133888,PAPI_L3_TCM,1,231.64764404, 14.04003906,end
timer_stats,655923615209449,PAPI_L3_TCM,1,231.91052246, 14.05632019,end
timer_stats,655923616284504,PAPI_L3_TCM,3,232.18310547, 14.07150269,end
timer_stats,655923617359142,PAPI_L3_TCM,4,232.45806885, 14.08732605,end
timer_stats,655923618433316,PAPI_L3_TCM,1,232.71728516, 14.10314941,end
timer_stats,655923619507523,PAPI_L3_TCM,4,233.13220215, 14.11965942,end
timer_stats,655923620581775,PAPI_L3_TCM,2,233.52337646, 14.14276123,end
timer_stats,655923621656371,PAPI_L3_TCM,1,233.80377197, 14.15083313,end
timer_stats,655923622730767,PAPI_L3_TCM,1,234.07464599, 14.16613769,end
timer_stats,655923623805949,PAPI_L3_TCM,5,234.34161377, 14.18171692,end
timer_stats,655923624882735,PAPI_L3_TCM,13,234.60437012, 14.19804382,end
timer_stats,655923625964590,PAPI_L3_TCM,46,234.84869385, 14.20986938,end
timer_stats,655923627043451,PAPI_L3_TCM,30,235.11737060, 14.22521973,end
timer_stats,655923628116374,PAPI_L3_TCM,14,235.37994385, 14.24063110,end
timer_stats,655923629464308,PAPI_L3_TCM,75,235.64599609, 14.25601196,end
timer_stats,655923630549362,PAPI_L3_TCM,32,236.02990723, 14.27592468,end
timer_stats,655923631631943,PAPI_L3_TCM,3,236.40612793, 14.30012512,end
timer_stats,655923632711810,PAPI_L3_TCM,7,236.68566895, 14.31726074,end
timer_stats,655923633792493,PAPI_L3_TCM,7,236.92108154, 14.33314514,end
timer_stats,655923634988841,PAPI_L3_TCM,20,237.17968750, 14.34895325,end
timer_stats,655923636066394,PAPI_L3_TCM,8,237.42706299, 14.36454773,end
timer_stats,655923637139594,PAPI_L3_TCM,4,237.69818115, 14.37968445,end
timer_stats,655923638212327,PAPI_L3_TCM,0,237.96691894, 14.39480591,end
timer_stats,655923639287468,PAPI_L3_TCM,1,238.21746826, 14.40783691,end
timer_stats,655923640361409,PAPI_L3_TCM,2,238.46343994, 14.42315674,end
timer_stats,655923641433354,PAPI_L3_TCM,1,238.73315429, 14.43876648,end
timer_stats,655923642507090,PAPI_L3_TCM,10,239.11779785, 14.45945740,end
timer_stats,655923643581488,PAPI_L3_TCM,3,239.38555908, 14.47442627,end
timer_stats,655923644655189,PAPI_L3_TCM,1,239.75793457, 14.49157715,end
timer_stats,655923645730880,PAPI_L3_TCM,14,239.99786377, 14.50137329,end
timer_stats,655923646811285,PAPI_L3_TCM,0,240.22320557, 14.51756287,end
timer_stats,655923647886739,PAPI_L3_TCM,2,240.48205566, 14.53253174,end
timer_stats,655923648961241,PAPI_L3_TCM,2,240.72033691, 14.54113769,end
timer_stats,655923650034491,PAPI_L3_TCM,2,240.97729492, 14.55656433,end
timer_stats,655923651105682,PAPI_L3_TCM,1,241.23004150, 14.57151794,end
timer_stats,655923652307851,PAPI_L3_TCM,3,241.47735596, 14.58648682,end
timer_stats,655923653382827,PAPI_L3_TCM,2,241.71710205, 14.60185242,end
timer_stats,655923654458312,PAPI_L3_TCM,2,241.96313477, 14.61732483,end
timer_stats,655923658658209,PAPI_L3_TCM,108,242.93438721, 14.70181274,end
timer_stats,655923659795437,PAPI_L3_TCM,69,243.23419189, 14.72265625,end
timer_stats,655923660871832,PAPI_L3_TCM,8,243.44488525, 14.73768616,end
timer_stats,655923662502078,PAPI_L3_TCM,23,243.65545654, 14.74903869,end
timer_stats,655923663583700,PAPI_L3_TCM,17,243.88330078, 14.76892090,end
timer_stats,655923664658168,PAPI_L3_TCM,4,244.22436523, 14.79046631,end
timer_stats,655923665729548,PAPI_L3_TCM,1,244.44714355, 14.80456543,end
timer_stats,655923666801786,PAPI_L3_TCM,5,244.66369629, 14.81867981,end
timer_stats,655923667873379,PAPI_L3_TCM,4,244.88409424, 14.83308411,end
timer_stats,655923668945815,PAPI_L3_TCM,2,245.10174560, 14.84770203,end
timer_stats,655923670019170,PAPI_L3_TCM,2,245.32153320, 14.86184692,end
timer_stats,655923671094198,PAPI_L3_TCM,1,245.52191162, 14.87582397,end
timer_stats,655923672168618,PAPI_L3_TCM,4,245.73504639, 14.89045715,end
timer_stats,655923673242796,PAPI_L3_TCM,2,245.94494629, 14.90464783,end
timer_stats,655923674324506,PAPI_L3_TCM,1,246.15252685, 14.91876221,end
timer_stats,655923675399583,PAPI_L3_TCM,2,246.35247803, 14.93298340,end
timer_stats,655923676473445,PAPI_L3_TCM,1,246.55609131, 14.94692993,end
timer_stats,655923677548408,PAPI_L3_TCM,7,246.76312256, 14.96134949,end
timer_stats,655923678621222,PAPI_L3_TCM,0,247.05670166, 14.97576904,end
timer_stats,655923679693745,PAPI_L3_TCM,1,247.36303711, 15.00425720,end
timer_stats,655923680768794,PAPI_L3_TCM,1,247.56719971, 15.01821899,end
timer_stats,655923681844129,PAPI_L3_TCM,2,247.76611328, 15.03242493,end
timer_stats,655923682918186,PAPI_L3_TCM,0,247.95275879, 15.04620361,end
timer_stats,655923683992993,PAPI_L3_TCM,2,248.14459228, 15.06022644,end
timer_stats,655923685071988,PAPI_L3_TCM,5,248.34075928, 15.07406616,end
timer_stats,655923686143832,PAPI_L3_TCM,1,248.53118896, 15.08741760,end
timer_stats,655923687215692,PAPI_L3_TCM,0,248.71844482, 15.10101318,end
timer_stats,655923688288658,PAPI_L3_TCM,3,248.90228271, 15.11485290,end
timer_stats,655923689361622,PAPI_L3_TCM,1,249.10302734, 15.12889099,end
timer_stats,655923690433638,PAPI_L3_TCM,2,249.28338623, 15.14271545,end
timer_stats,655923691504981,PAPI_L3_TCM,0,249.47137451, 15.15653992,end
timer_stats,655923692578669,PAPI_L3_TCM,5,249.66369629, 15.17033386,end
timer_stats,655923693652813,PAPI_L3_TCM,4,249.93780517, 15.19142151,end
timer_stats,655923694725125,PAPI_L3_TCM,6,250.22467041, 15.21272278,end
timer_stats,655923695796670,PAPI_L3_TCM,0,250.41955566, 15.22695923,end
timer_stats,655923696869543,PAPI_L3_TCM,4,250.60150146, 15.24079895,end
timer_stats,655923697942061,PAPI_L3_TCM,1,250.78649902, 15.25512695,end
timer_stats,655923699013957,PAPI_L3_TCM,2,250.97460937, 15.26893616,end
timer_stats,655923700088855,PAPI_L3_TCM,2,251.16546631, 15.28363037,end
timer_stats,655923701162042,PAPI_L3_TCM,2,251.35552978, 15.29745483,end
timer_stats,655923702235694,PAPI_L3_TCM,0,251.52899170, 15.31109619,end
timer_stats,655923703308660,PAPI_L3_TCM,1,251.71746826, 15.32487488,end
timer_stats,655923704380166,PAPI_L3_TCM,0,251.89813232, 15.33941650,end
timer_stats,655923705453207,PAPI_L3_TCM,1,252.08703613, 15.35348511,end
timer_stats,655923706526127,PAPI_L3_TCM,0,252.26849365, 15.36708069,end
timer_stats,655923707598361,PAPI_L3_TCM,2,252.53704834, 15.38092041,end
timer_stats,655923708673357,PAPI_L3_TCM,10,252.72149658, 15.40223694,end
timer_stats,655923709772978,PAPI_L3_TCM,54,252.99475098, 15.42240906,end
timer_stats,655923710868445,PAPI_L3_TCM,24,253.17156982, 15.43670654,end
timer_stats,655923711961366,PAPI_L3_TCM,4,253.35363769, 15.45059204,end
timer_stats,655923713065022,PAPI_L3_TCM,36,253.54254150, 15.46443176,end
timer_stats,655923714179715,PAPI_L3_TCM,44,253.72460937, 15.47827148,end
timer_stats,655923715282649,PAPI_L3_TCM,8,253.90179443, 15.49214172,end
timer_stats,655923716389826,PAPI_L3_TCM,4,254.07592773, 15.50627136,end
timer_stats,655923717498063,PAPI_L3_TCM,1,254.26440430, 15.52032471,end
timer_stats,655923718606060,PAPI_L3_TCM,2,254.53674316, 15.54101562,end
timer_stats,655923719714167,PAPI_L3_TCM,2,254.71783447, 15.55479431,end
timer_stats,655923720821706,PAPI_L3_TCM,3,254.98571777, 15.57485962,end
timer_stats,655923721932413,PAPI_L3_TCM,0,255.17089844, 15.58871460,end
timer_stats,655923723043036,PAPI_L3_TCM,1,255.35852051, 15.60255432,end
timer_stats,655923724129368,PAPI_L3_TCM,1,255.54547119, 15.61639404,end
timer_stats,655923725236354,PAPI_L3_TCM,4,255.72320557, 15.62951660,end
timer_stats,655923726343823,PAPI_L3_TCM,12,255.90655517, 15.64363098,end
timer_stats,655923727454151,PAPI_L3_TCM,2,256.08477783, 15.65724182,end
timer_stats,655923728568291,PAPI_L3_TCM,3,256.27404785, 15.67063904,end
timer_stats,655923729685066,PAPI_L3_TCM,2,256.62902832, 15.69844055,end
timer_stats,655923730821041,PAPI_L3_TCM,0,256.80419922, 15.71209717,end
timer_stats,655923731954035,PAPI_L3_TCM,1,256.98266601, 15.71846008,end
timer_stats,655923733088762,PAPI_L3_TCM,1,257.15716553, 15.73188782,end
timer_stats,655923734221037,PAPI_L3_TCM,3,257.32775879, 15.74534607,end
timer_stats,655923735355900,PAPI_L3_TCM,1,257.50164795, 15.75851440,end
timer_stats,655923736491537,PAPI_L3_TCM,2,257.67486572, 15.77218628,end
timer_stats,655923737626732,PAPI_L3_TCM,1,257.94049072, 15.79356384,end
timer_stats,655923738772866,PAPI_L3_TCM,1,258.12329101, 15.81336975,end
timer_stats,655923739907302,PAPI_L3_TCM,0,258.38104248, 15.82728577,end
timer_stats,655923741042862,PAPI_L3_TCM,1,258.54870605, 15.84100342,end
timer_stats,655923742181359,PAPI_L3_TCM,0,258.73083496, 15.85440063,end
timer_stats,655923743314899,PAPI_L3_TCM,2,258.90289307, 15.86810303,end
timer_stats,655923744452168,PAPI_L3_TCM,0,259.07543945, 15.88150024,end
timer_stats,655923745588203,PAPI_L3_TCM,2,259.24389648, 15.89472961,end
timer_stats,655923746723278,PAPI_L3_TCM,0,259.50250244, 15.91534424,end
timer_stats,655923747858605,PAPI_L3_TCM,1,259.74951172, 15.93525696,end
timer_stats,655923748995770,PAPI_L3_TCM,0,259.91558838, 15.94831848,end
timer_stats,655923750135708,PAPI_L3_TCM,1,260.08337402, 15.96154785,end
timer_stats,655923751268840,PAPI_L3_TCM,0,260.25048828, 15.97431946,end
timer_stats,655923752401575,PAPI_L3_TCM,2,260.40979004, 15.98785400,end
timer_stats,655923753534215,PAPI_L3_TCM,3,260.57946777, 16.00132751,end
timer_stats,655923754666828,PAPI_L3_TCM,2,260.83416748, 16.02215576,end
timer_stats,655923755800095,PAPI_L3_TCM,1,261.08050537, 16.04200745,end
timer_stats,655923756936582,PAPI_L3_TCM,2,261.24682617, 16.05474853,end
timer_stats,655923758073929,PAPI_L3_TCM,0,261.39923096, 16.06761169,end
timer_stats,655923759209097,PAPI_L3_TCM,1,261.55688476, 16.08073425,end
timer_stats,655923760350059,PAPI_L3_TCM,0,261.70770264, 16.09289551,end
timer_stats,655923761497701,PAPI_L3_TCM,2,261.86676025, 16.10600281,end
timer_stats,655923762632634,PAPI_L3_TCM,0,262.02496338, 16.11932373,end
timer_stats,655923763769546,PAPI_L3_TCM,2,262.33471680, 16.14640808,end
timer_stats,655923764902893,PAPI_L3_TCM,0,262.49755859, 16.15925598,end
timer_stats,655923766040326,PAPI_L3_TCM,1,262.64471436, 16.17166138,end
timer_stats,655923767173425,PAPI_L3_TCM,0,262.80316162, 16.18452454,end
timer_stats,655923768307218,PAPI_L3_TCM,1,262.95593262, 16.19741821,end
timer_stats,655923769426275,PAPI_L3_TCM,0,263.11193848, 16.21032715,end
timer_stats,655923770558355,PAPI_L3_TCM,2,263.26922607, 16.22389221,end
timer_stats,655923771697070,PAPI_L3_TCM,2,263.48962402, 16.24246216,end
timer_stats,655923772834755,PAPI_L3_TCM,3,263.71203613, 16.26084900,end
timer_stats,655923773972594,PAPI_L3_TCM,0,263.85662842, 16.27351379,end
timer_stats,655923775109297,PAPI_L3_TCM,1,264.00866699, 16.28538513,end
timer_stats,655923776242124,PAPI_L3_TCM,2,264.15325928, 16.29806518,end
timer_stats,655923777381271,PAPI_L3_TCM,2,264.30267334, 16.31025696,end
timer_stats,655923778524472,PAPI_L3_TCM,0,264.44317627, 16.32192993,end
timer_stats,655923779673066,PAPI_L3_TCM,2,264.66107178, 16.33418274,end
timer_stats,655923780814196,PAPI_L3_TCM,0,264.86352539, 16.35847473,end
timer_stats,655923781953228,PAPI_L3_TCM,2,265.00201416, 16.37075806,end
timer_stats,655923783090255,PAPI_L3_TCM,0,265.14556885, 16.38323975,end
timer_stats,655923784223490,PAPI_L3_TCM,1,265.28137207, 16.39552307,end
timer_stats,655923785363695,PAPI_L3_TCM,1,265.42291260, 16.40774536,end
timer_stats,655923786503380,PAPI_L3_TCM,1,265.57037353, 16.42042541,end
timer_stats,655923787649048,PAPI_L3_TCM,0,265.70446777, 16.43243408,end
timer_stats,655923788804587,PAPI_L3_TCM,2,265.98925781, 16.45712280,end
timer_stats,655923789952164,PAPI_L3_TCM,0,266.12982178, 16.46914673,end
timer_stats,655923791099917,PAPI_L3_TCM,2,266.27069092, 16.48115539,end
timer_stats,655923792238620,PAPI_L3_TCM,0,266.40942383, 16.49316406,end
timer_stats,655923793378623,PAPI_L3_TCM,8,266.54443359, 16.50509643,end
timer_stats,655923794523248,PAPI_L3_TCM,0,266.66448975, 16.51686096,end
timer_stats,655923795664767,PAPI_L3_TCM,1,266.84509277, 16.53489685,end
timer_stats,655923796807804,PAPI_L3_TCM,0,267.02593994, 16.55322266,end
timer_stats,655923797966582,PAPI_L3_TCM,2,267.14831543, 16.56553650,end
timer_stats,655923799125252,PAPI_L3_TCM,3,267.28051758, 16.57749939,end
timer_stats,655923800276834,PAPI_L3_TCM,3,267.40612793, 16.58947754,end
timer_stats,655923801450211,PAPI_L3_TCM,6,267.53314209, 16.60128784,end
timer_stats,655923802597652,PAPI_L3_TCM,2,267.66113281, 16.61305237,end
timer_stats,655923803739987,PAPI_L3_TCM,0,267.84497070, 16.63009643,end
timer_stats,655923804883126,PAPI_L3_TCM,1,268.03088379, 16.64709473,end
timer_stats,655923806028561,PAPI_L3_TCM,0,268.15362549, 16.65846252,end
timer_stats,655923807171666,PAPI_L3_TCM,2,268.27789307, 16.66957092,end
timer_stats,655923808310418,PAPI_L3_TCM,0,268.39636230, 16.68093872,end
timer_stats,655923809460815,PAPI_L3_TCM,2,268.51782227, 16.69206238,end
timer_stats,655923810603986,PAPI_L3_TCM,1,268.63806152, 16.70321655,end
timer_stats,655923811746457,PAPI_L3_TCM,1,268.81695557, 16.71990967,end
timer_stats,655923812891346,PAPI_L3_TCM,2,269.01049805, 16.73657226,end
timer_stats,655923814041873,PAPI_L3_TCM,1,269.12408447, 16.74818420,end
timer_stats,655923815187248,PAPI_L3_TCM,1,269.24859619, 16.75993347,end
timer_stats,655923816332955,PAPI_L3_TCM,2,269.36248779, 16.77085876,end
timer_stats,655923817474375,PAPI_L3_TCM,0,269.48693847, 16.78172302,end
timer_stats,655923818616782,PAPI_L3_TCM,2,269.59930420, 16.79292297,end
timer_stats,655923819757675,PAPI_L3_TCM,0,269.76751709, 16.80967712,end
timer_stats,655923820900712,PAPI_L3_TCM,1,269.94915771, 16.82640076,end
timer_stats,655923822043101,PAPI_L3_TCM,0,270.06323242, 16.83802795,end
timer_stats,655923823187769,PAPI_L3_TCM,1,270.18585205, 16.84889221,end
timer_stats,655923824339929,PAPI_L3_TCM,0,270.29937744, 16.86027527,end
timer_stats,655923825484819,PAPI_L3_TCM,4,270.41040039, 16.87170410,end
timer_stats,655923826649704,PAPI_L3_TCM,445,270.52514648, 16.88281250,end
timer_stats,655923827801916,PAPI_L3_TCM,2,270.69207764, 16.89950561,end
timer_stats,655923828948374,PAPI_L3_TCM,0,270.86657715, 16.91577148,end
timer_stats,655923830056079,PAPI_L3_TCM,28,270.98889160, 16.92716980,end
timer_stats,655923831155265,PAPI_L3_TCM,9,271.10266113, 16.93806457,end
timer_stats,655923832247554,PAPI_L3_TCM,4,271.20880127, 16.94905090,end
timer_stats,655923833360133,PAPI_L3_TCM,1,271.32287598, 16.96020508,end
timer_stats,655923834478419,PAPI_L3_TCM,2,271.43182373, 16.97094726,end
timer_stats,655923835600378,PAPI_L3_TCM,1,271.54138183, 16.98165893,end
timer_stats,655923836729027,PAPI_L3_TCM,2,271.70086670, 16.99839783,end
timer_stats,655923837861465,PAPI_L3_TCM,0,271.86944580, 17.01487732,end
timer_stats,655923838996952,PAPI_L3_TCM,1,271.98107910, 17.02555847,end
timer_stats,655923840103668,PAPI_L3_TCM,0,272.08990478, 17.03674316,end
timer_stats,655923841237043,PAPI_L3_TCM,2,272.20013428, 17.04791260,end
timer_stats,655923842382516,PAPI_L3_TCM,0,272.31219482, 17.05882263,end
timer_stats,655923843525546,PAPI_L3_TCM,2,272.41748047, 17.07023621,end
timer_stats,655923844668425,PAPI_L3_TCM,0,272.52734375, 17.08073425,end
timer_stats,655923845804429,PAPI_L3_TCM,2,272.68286133, 17.09707642,end
timer_stats,655923846937984,PAPI_L3_TCM,0,272.85198975, 17.11355591,end
timer_stats,655923848049985,PAPI_L3_TCM,1,272.96130371, 17.12405395,end
timer_stats,655923849185317,PAPI_L3_TCM,0,273.07110596, 17.13500976,end
timer_stats,655923850321455,PAPI_L3_TCM,1,273.17956543, 17.14593506,end
timer_stats,655923851465513,PAPI_L3_TCM,0,273.28955078, 17.15707397,end
timer_stats,655923852610410,PAPI_L3_TCM,2,273.39807129, 17.16806030,end
timer_stats,655923853752666,PAPI_L3_TCM,0,273.55664062, 17.18440247,end
timer_stats,655923854898421,PAPI_L3_TCM,2,273.66259766, 17.19534302,end
timer_stats,655923856051500,PAPI_L3_TCM,0,273.78686523, 17.21173096,end
timer_stats,655923857200063,PAPI_L3_TCM,2,273.94152832, 17.22276306,end
timer_stats,655923858341441,PAPI_L3_TCM,0,274.04986572, 17.23393249,end
timer_stats,655923859484215,PAPI_L3_TCM,1,274.16088867, 17.24487305,end
timer_stats,655923860629973,PAPI_L3_TCM,1,274.26959228, 17.25607300,end
timer_stats,655923861792243,PAPI_L3_TCM,3,274.42468262, 17.27880859,end
timer_stats,655923862939585,PAPI_L3_TCM,1,274.53228760, 17.28483582,end
timer_stats,655923864083800,PAPI_L3_TCM,3,274.70233154, 17.30084229,end
timer_stats,655923865226161,PAPI_L3_TCM,0,274.79394531, 17.31143188,end
timer_stats,655923866388720,PAPI_L3_TCM,1,274.89929199, 17.32214355,end
timer_stats,655923867564205,PAPI_L3_TCM,0,274.99938965, 17.33264160,end
timer_stats,655923868752771,PAPI_L3_TCM,2,275.15484619, 17.34336853,end
timer_stats,655923869919470,PAPI_L3_TCM,0,275.31036377, 17.36482239,end
timer_stats,655923871084764,PAPI_L3_TCM,1,275.41418457, 17.37580872,end
timer_stats,655923872248866,PAPI_L3_TCM,1,275.51184082, 17.38684082,end
timer_stats,655923873393334,PAPI_L3_TCM,2,275.62011719, 17.39727783,end
timer_stats,655923874559747,PAPI_L3_TCM,0,275.72094727, 17.40803528,end
timer_stats,655923875737641,PAPI_L3_TCM,1,275.83361816, 17.41847229,end
timer_stats,655923876905632,PAPI_L3_TCM,1,276.02484131, 17.44073486,end
timer_stats,655923878071979,PAPI_L3_TCM,1,276.13891602, 17.45187378,end
timer_stats,655923879236285,PAPI_L3_TCM,0,276.23059082, 17.46316528,end
timer_stats,655923880402642,PAPI_L3_TCM,2,276.33166504, 17.47390747,end
timer_stats,655923881566540,PAPI_L3_TCM,0,276.43469238, 17.48461914,end
timer_stats,655923882730844,PAPI_L3_TCM,2,276.53643799, 17.49511719,end
timer_stats,655923883895045,PAPI_L3_TCM,0,276.68701172, 17.51121521,end
timer_stats,655923885044286,PAPI_L3_TCM,2,276.84515381, 17.52201843,end
timer_stats,655923886208044,PAPI_L3_TCM,0,276.95111084, 17.53297424,end
timer_stats,655923887375182,PAPI_L3_TCM,1,277.05621338, 17.54368591,end
timer_stats,655923888545692,PAPI_L3_TCM,3,277.14672852, 17.55473328,end
timer_stats,655923889712998,PAPI_L3_TCM,2,277.24957275, 17.56539917,end
timer_stats,655923890873323,PAPI_L3_TCM,0,277.43646240, 17.58644104,end
timer_stats,655923892037403,PAPI_L3_TCM,2,277.54016113, 17.59687805,end
timer_stats,655923893214226,PAPI_L3_TCM,0,277.62164307, 17.60725403,end
timer_stats,655923894375657,PAPI_L3_TCM,1,277.71429443, 17.61755371,end
timer_stats,655923895537309,PAPI_L3_TCM,0,277.81652832, 17.62800598,end
timer_stats,655923896697824,PAPI_L3_TCM,2,277.89599609, 17.63838196,end
timer_stats,655923897862348,PAPI_L3_TCM,0,278.03887939, 17.65397644,end
timer_stats,655923899025291,PAPI_L3_TCM,1,278.17187500, 17.66944885,end
timer_stats,655923900187568,PAPI_L3_TCM,1,278.27539062, 17.67988586,end
timer_stats,655923901356448,PAPI_L3_TCM,2,278.36425781, 17.69023132,end
timer_stats,655923902516658,PAPI_L3_TCM,0,278.45593262, 17.70072937,end
timer_stats,655923903676323,PAPI_L3_TCM,1,278.55047607, 17.71080017,end
timer_stats,655923904837978,PAPI_L3_TCM,1,278.67071533, 17.72631836,end
timer_stats,655923906000985,PAPI_L3_TCM,1,278.77337646, 17.73675537,end
timer_stats,655923907161806,PAPI_L3_TCM,0,278.90380859, 17.75253296,end
timer_stats,655923908322958,PAPI_L3_TCM,1,278.99108887, 17.76312256,end
timer_stats,655923909471237,PAPI_L3_TCM,0,279.08508301, 17.77362060,end
timer_stats,655923910610706,PAPI_L3_TCM,1,279.18395996, 17.78408813,end
timer_stats,655923911747865,PAPI_L3_TCM,0,279.30566406, 17.79421997,end
timer_stats,655923912908922,PAPI_L3_TCM,1,279.44812012, 17.81491089,end
timer_stats,655923914072812,PAPI_L3_TCM,0,279.54370117, 17.82540893,end
timer_stats,655923915235120,PAPI_L3_TCM,1,279.63043213, 17.83596802,end
timer_stats,655923916415414,PAPI_L3_TCM,0,279.72320557, 17.84625244,end
timer_stats,655923917579027,PAPI_L3_TCM,1,279.81604004, 17.85678100,end
timer_stats,655923918739580,PAPI_L3_TCM,0,279.92083740, 17.86697388,end
timer_stats,655923919898399,PAPI_L3_TCM,1,280.08471680, 17.88790893,end
timer_stats,655923921036935,PAPI_L3_TCM,0,280.17962646, 17.89840698,end
timer_stats,655923922197559,PAPI_L3_TCM,1,280.27758789, 17.90887451,end
timer_stats,655923923334859,PAPI_L3_TCM,0,280.35906982, 17.91970825,end
timer_stats,655923924495904,PAPI_L3_TCM,1,280.45550537, 17.93019104,end
timer_stats,655923925658202,PAPI_L3_TCM,0,280.54730225, 17.94047546,end
timer_stats,655923926818175,PAPI_L3_TCM,1,280.64196777, 17.95097351,end
timer_stats,655923927980884,PAPI_L3_TCM,0,280.76831055, 17.96669006,end
timer_stats,655923929150417,PAPI_L3_TCM,5,280.91320801, 17.98182678,end
timer_stats,655923930312849,PAPI_L3_TCM,0,280.99432373, 17.99244690,end
timer_stats,655923931476603,PAPI_L3_TCM,1,281.08251953, 18.00276184,end
timer_stats,655923932650841,PAPI_L3_TCM,0,281.18182373, 18.01322937,end
timer_stats,655923933825069,PAPI_L3_TCM,1,281.31005859, 18.02909851,end
timer_stats,655923935013861,PAPI_L3_TCM,0,281.44958496, 18.04408264,end
timer_stats,655923936189356,PAPI_L3_TCM,1,281.53155517, 18.05467224,end
timer_stats,655923937363711,PAPI_L3_TCM,0,281.61804199, 18.06474304,end
timer_stats,655923938535837,PAPI_L3_TCM,1,281.72204590, 18.07518005,end
timer_stats,655923939711321,PAPI_L3_TCM,0,281.81311035, 18.08546448,end
timer_stats,655923940907931,PAPI_L3_TCM,0,281.94030762, 18.10118103,end
timer_stats,655923942081203,PAPI_L3_TCM,0,282.07702637, 18.11692810,end
timer_stats,655923943254248,PAPI_L3_TCM,1,282.16943359, 18.12718201,end
timer_stats,655923944432052,PAPI_L3_TCM,0,282.26110840, 18.13768005,end
timer_stats,655923945606314,PAPI_L3_TCM,1,282.34570312, 18.14799499,end
timer_stats,655923946780586,PAPI_L3_TCM,0,282.43560791, 18.15850830,end
timer_stats,655923947955646,PAPI_L3_TCM,1,282.56213379, 18.17416382,end
timer_stats,655923949116982,PAPI_L3_TCM,1,282.69805908, 18.18960571,end
timer_stats,655923950270422,PAPI_L3_TCM,0,282.78857422, 18.19989014,end
timer_stats,655923951450107,PAPI_L3_TCM,0,282.87799072, 18.21040344,end
timer_stats,655923952624039,PAPI_L3_TCM,1,282.96313477, 18.22050476,end
timer_stats,655923953798176,PAPI_L3_TCM,0,283.08721924, 18.23616028,end
timer_stats,655923954974206,PAPI_L3_TCM,2,283.17163086, 18.24668884,end
timer_stats,655923956143537,PAPI_L3_TCM,0,283.30096435, 18.26245117,end
timer_stats,655923957318825,PAPI_L3_TCM,1,283.39593506, 18.27268982,end
timer_stats,655923958499654,PAPI_L3_TCM,0,283.48339844, 18.28297424,end
timer_stats,655923959673097,PAPI_L3_TCM,0,283.57049561, 18.29325867,end
timer_stats,655923960847595,PAPI_L3_TCM,0,283.69213867, 18.30335999,end
timer_stats,655923962023040,PAPI_L3_TCM,1,283.76971435, 18.32395935,end
timer_stats,655923963193306,PAPI_L3_TCM,0,283.91491699, 18.33406067,end
timer_stats,655923964369405,PAPI_L3_TCM,2,284.00378418, 18.34455872,end
timer_stats,655923965515934,PAPI_L3_TCM,0,284.09631348, 18.35481262,end
timer_stats,655923966689537,PAPI_L3_TCM,1,284.18054199, 18.36515808,end
timer_stats,655923967863374,PAPI_L3_TCM,0,284.30303955, 18.38059997,end
timer_stats,655923969041504,PAPI_L3_TCM,0,284.38549805, 18.39143372,end
timer_stats,655923970217914,PAPI_L3_TCM,0,284.53204346, 18.40773010,end
timer_stats,655923971393341,PAPI_L3_TCM,1,284.61352539, 18.41828918,end
timer_stats,655923972563922,PAPI_L3_TCM,0,284.70526123, 18.42878723,end
timer_stats,655923973737868,PAPI_L3_TCM,2,284.79296875, 18.43910217,end
timer_stats,655923974911964,PAPI_L3_TCM,0,284.90979004, 18.45481872,end
timer_stats,655923976088564,PAPI_L3_TCM,1,284.99902344, 18.46507263,end
timer_stats,655923977266049,PAPI_L3_TCM,0,285.13525391, 18.48052978,end
timer_stats,655923978438656,PAPI_L3_TCM,0,285.22357178, 18.49108887,end
timer_stats,655923979613261,PAPI_L3_TCM,0,285.30975342, 18.50164795,end
timer_stats,655923980797984,PAPI_L3_TCM,0,285.39660644, 18.51214600,end
timer_stats,655923981951397,PAPI_L3_TCM,0,285.52288818, 18.52807617,end
timer_stats,655923983102377,PAPI_L3_TCM,2,285.66387939, 18.54347229,end
timer_stats,655923984274407,PAPI_L3_TCM,0,285.74932861, 18.55354309,end
timer_stats,655923985450777,PAPI_L3_TCM,1,285.83319092, 18.56410217,end
timer_stats,655923986629259,PAPI_L3_TCM,1,285.91906738, 18.57441711,end
timer_stats,655923987790124,PAPI_L3_TCM,0,286.00415039, 18.58497619,end
timer_stats,655923988952472,PAPI_L3_TCM,0,286.12933350, 18.60063171,end
timer_stats,655923990126703,PAPI_L3_TCM,0,286.26690674, 18.61630249,end
timer_stats,655923991302252,PAPI_L3_TCM,0,286.34967041, 18.62683105,end
timer_stats,655923992477361,PAPI_L3_TCM,2,286.44445801, 18.63729858,end
timer_stats,655923993647932,PAPI_L3_TCM,0,286.52923584, 18.64761352,end
timer_stats,655923994824124,PAPI_L3_TCM,1,286.65045166, 18.66326904,end
timer_stats,655923996025161,PAPI_L3_TCM,0,286.73864746, 18.67352295,end
timer_stats,655923997177361,PAPI_L3_TCM,0,286.87268066, 18.68896484,end
timer_stats,655923998352437,PAPI_L3_TCM,0,286.95758057, 18.69926453,end
timer_stats,655923999525639,PAPI_L3_TCM,0,287.04504394, 18.70979309,end
timer_stats,655924000702717,PAPI_L3_TCM,0,287.13171387, 18.72029114,end
timer_stats,655924001878747,PAPI_L3_TCM,2,287.24670410, 18.73603821,end
timer_stats,655924003066684,PAPI_L3_TCM,0,287.38494873, 18.75144958,end
timer_stats,655924004242842,PAPI_L3_TCM,2,287.46813965, 18.76199341,end
timer_stats,655924005415856,PAPI_L3_TCM,0,287.55908203, 18.77224731,end
timer_stats,655924006590109,PAPI_L3_TCM,0,287.63842773, 18.78280640,end
timer_stats,655924007762186,PAPI_L3_TCM,0,287.72167969, 18.79338074,end
timer_stats,655924008949131,PAPI_L3_TCM,1,287.84600830, 18.80900574,end
timer_stats,655924010127234,PAPI_L3_TCM,0,287.97912598, 18.82470703,end
timer_stats,655924011300937,PAPI_L3_TCM,2,288.06512451, 18.83523560,end
timer_stats,655924012477542,PAPI_L3_TCM,0,288.14746094, 18.84582519,end
timer_stats,655924013655086,PAPI_L3_TCM,2,288.23443603, 18.85632324,end
timer_stats,655924014831749,PAPI_L3_TCM,0,288.32012939, 18.86721802,end
timer_stats,655924015997351,PAPI_L3_TCM,4,288.43420410, 18.88540649,end
timer_stats,655924017142169,PAPI_L3_TCM,6,288.56988525, 18.90164185,end
timer_stats,655924018318291,PAPI_L3_TCM,5,288.65161133, 18.91201782,end
