timer_stats,696970775565554,PAPI_L3_TCM,497,  0.19116211,  0.01684570,end
timer_stats,696970776689639,PAPI_L3_TCM,43,  0.28985596,  0.02728271,end
timer_stats,696970777816904,PAPI_L3_TCM,6,  0.38317871,  0.03842163,end
timer_stats,696970778942272,PAPI_L3_TCM,4,  0.47583008,  0.04867554,end
timer_stats,696970780070070,PAPI_L3_TCM,9,  0.57843018,  0.05960083,end
timer_stats,696970781196162,PAPI_L3_TCM,13,  0.67999268,  0.07226562,end
timer_stats,696970782360832,PAPI_L3_TCM,2,  0.83325195,  0.08831787,end
timer_stats,696970783543097,PAPI_L3_TCM,2,  0.97894287,  0.10443115,end
timer_stats,696970784704106,PAPI_L3_TCM,6,  1.07995605,  0.11492920,end
timer_stats,696970785905354,PAPI_L3_TCM,4,  1.17785644,  0.12393188,end
timer_stats,696970787084239,PAPI_L3_TCM,1,  1.28179932,  0.13482666,end
timer_stats,696970788382921,PAPI_L3_TCM,6,  1.42889404,  0.15109253,end
timer_stats,696970789667860,PAPI_L3_TCM,0,  1.60974121,  0.17109680,end
timer_stats,696970790772181,PAPI_L3_TCM,3,  1.73657226,  0.18533325,end
timer_stats,696970792157223,PAPI_L3_TCM,54,  1.85504150,  0.19920349,end
timer_stats,696970793603283,PAPI_L3_TCM,14,  2.12194824,  0.22581482,end
timer_stats,696970795050392,PAPI_L3_TCM,9,  2.24444580,  0.23609924,end
timer_stats,696970796165290,PAPI_L3_TCM,2,  2.36303711,  0.24879455,end
timer_stats,696970797292064,PAPI_L3_TCM,1,  2.51086426,  0.26303100,end
timer_stats,696970798397573,PAPI_L3_TCM,7,  2.64819336,  0.27650452,end
timer_stats,696970804100903,PAPI_L3_TCM,30,  3.59838867,  0.35717773,end
timer_stats,696970807848327,PAPI_L3_TCM,44,  4.18963623,  0.39894104,end
timer_stats,696970809005502,PAPI_L3_TCM,33,  4.35552978,  0.41300964,end
timer_stats,696970810681667,PAPI_L3_TCM,8,  4.79174805,  0.43920898,end
timer_stats,696970813372406,PAPI_L3_TCM,6,  5.24621582,  0.46842956,end
timer_stats,696970826432027,PAPI_L3_TCM,149,  7.68127441,  0.63006592,end
timer_stats,696970827516786,PAPI_L3_TCM,66,  7.99932861,  0.65538025,end
timer_stats,696970828604836,PAPI_L3_TCM,13,  8.22686767,  0.66242981,end
timer_stats,696970829695114,PAPI_L3_TCM,0,  8.45251465,  0.67701721,end
timer_stats,696970830777423,PAPI_L3_TCM,3,  8.69226074,  0.69082641,end
timer_stats,696970831856365,PAPI_L3_TCM,2,  8.93829346,  0.70507812,end
timer_stats,696970832937148,PAPI_L3_TCM,3,  9.17730713,  0.71934509,end
timer_stats,696970834017852,PAPI_L3_TCM,2,  9.41766357,  0.73457336,end
timer_stats,696970835102635,PAPI_L3_TCM,7,  9.65832519,  0.74906921,end
timer_stats,696970836181668,PAPI_L3_TCM,6,  9.89727783,  0.76373291,end
timer_stats,696970837264286,PAPI_L3_TCM,5, 10.13836670,  0.77909851,end
timer_stats,696970838346688,PAPI_L3_TCM,5, 10.34509277,  0.79458618,end
timer_stats,696970839429708,PAPI_L3_TCM,4, 10.69940185,  0.81735229,end
timer_stats,696970840509701,PAPI_L3_TCM,2, 10.94085693,  0.83198547,end
timer_stats,696970841596570,PAPI_L3_TCM,7, 11.31085205,  0.85377502,end
timer_stats,696970842675867,PAPI_L3_TCM,3, 11.55999756,  0.86882019,end
timer_stats,696970843755289,PAPI_L3_TCM,6, 11.80657959,  0.88363647,end
timer_stats,696970844837219,PAPI_L3_TCM,6, 12.03747558,  0.89846802,end
timer_stats,696970845915409,PAPI_L3_TCM,27, 12.23712158,  0.90985107,end
timer_stats,696970846995095,PAPI_L3_TCM,13, 12.44879150,  0.92562866,end
timer_stats,696970848086867,PAPI_L3_TCM,5, 12.68737793,  0.94067383,end
timer_stats,696970849167564,PAPI_L3_TCM,7, 12.93695068,  0.95661926,end
timer_stats,696970850250824,PAPI_L3_TCM,8, 13.18371582,  0.97210693,end
timer_stats,696970851330798,PAPI_L3_TCM,0, 13.43768310,  0.98794556,end
timer_stats,696970852410409,PAPI_L3_TCM,3, 13.67736816,  1.00376892,end
timer_stats,696970853500527,PAPI_L3_TCM,5, 14.04968262,  1.02679443,end
timer_stats,696970854584826,PAPI_L3_TCM,6, 14.42108154,  1.05174255,end
timer_stats,696970855663936,PAPI_L3_TCM,4, 14.67150879,  1.06785583,end
timer_stats,696970856743483,PAPI_L3_TCM,10, 14.91131592,  1.08305359,end
timer_stats,696970857830738,PAPI_L3_TCM,19, 15.16931152,  1.09844971,end
timer_stats,696970858910592,PAPI_L3_TCM,7, 15.41564941,  1.11466980,end
timer_stats,696970860010750,PAPI_L3_TCM,18, 15.65435791,  1.12997436,end
timer_stats,696970872471832,PAPI_L3_TCM,271, 18.56622314,  1.32034302,end
timer_stats,696970873568400,PAPI_L3_TCM,106, 18.94335937,  1.34613037,end
timer_stats,696970874657160,PAPI_L3_TCM,32, 19.19238281,  1.36396790,end
timer_stats,696970875738518,PAPI_L3_TCM,8, 19.44506836,  1.38188171,end
timer_stats,696970876820491,PAPI_L3_TCM,12, 19.70172119,  1.39837646,end
timer_stats,696970877908588,PAPI_L3_TCM,4, 19.95751953,  1.41587829,end
timer_stats,696970878992813,PAPI_L3_TCM,5, 20.20050049,  1.43295288,end
timer_stats,696970880072897,PAPI_L3_TCM,10, 20.45953369,  1.45202637,end
timer_stats,696970881153818,PAPI_L3_TCM,13, 20.71075439,  1.47064209,end
timer_stats,696970882234714,PAPI_L3_TCM,8, 20.95916748,  1.48796081,end
timer_stats,696970883317648,PAPI_L3_TCM,9, 21.20092773,  1.50471497,end
timer_stats,696970884397291,PAPI_L3_TCM,8, 21.45794678,  1.52288818,end
timer_stats,696970885477793,PAPI_L3_TCM,5, 21.71411133,  1.54046631,end
timer_stats,696970886557586,PAPI_L3_TCM,6, 22.08959961,  1.56539917,end
timer_stats,696970887639237,PAPI_L3_TCM,22, 22.46539307,  1.59329224,end
timer_stats,696970888721415,PAPI_L3_TCM,15, 22.72595215,  1.60848999,end
timer_stats,696970889803891,PAPI_L3_TCM,7, 22.96606445,  1.62736511,end
timer_stats,696970890883182,PAPI_L3_TCM,9, 23.21575928,  1.64408874,end
timer_stats,696970891970044,PAPI_L3_TCM,10, 23.46228027,  1.66184997,end
timer_stats,696970893051361,PAPI_L3_TCM,10, 23.73541260,  1.67993164,end
timer_stats,696970894130229,PAPI_L3_TCM,1, 23.98175049,  1.69757080,end
timer_stats,696970895211380,PAPI_L3_TCM,13, 24.23712158,  1.71539306,end
timer_stats,696970896291213,PAPI_L3_TCM,12, 24.48760986,  1.73205566,end
timer_stats,696970897372778,PAPI_L3_TCM,6, 24.72845459,  1.74946594,end
timer_stats,696970898452690,PAPI_L3_TCM,7, 24.98315430,  1.76731872,end
timer_stats,696970901251337,PAPI_L3_TCM,163, 25.64154053,  1.82487488,end
timer_stats,696970902345363,PAPI_L3_TCM,117, 25.81372070,  1.84391785,end
timer_stats,696970903433523,PAPI_L3_TCM,13, 26.06878662,  1.86111450,end
timer_stats,696970904515526,PAPI_L3_TCM,5, 26.44757080,  1.88677978,end
timer_stats,696970905595479,PAPI_L3_TCM,5, 26.82489014,  1.91236877,end
timer_stats,696970906677994,PAPI_L3_TCM,8, 27.08270264,  1.92918396,end
timer_stats,696970907758996,PAPI_L3_TCM,6, 27.32165527,  1.94625854,end
timer_stats,696970908840247,PAPI_L3_TCM,13, 27.58355713,  1.96295166,end
timer_stats,696970909921017,PAPI_L3_TCM,3, 27.83032226,  1.98046875,end
timer_stats,696970911001583,PAPI_L3_TCM,6, 28.08508301,  1.99748230,end
timer_stats,696970912084355,PAPI_L3_TCM,8, 28.34875488,  2.01493835,end
timer_stats,696970913166717,PAPI_L3_TCM,4, 28.59985351,  2.03266907,end
timer_stats,696970914247116,PAPI_L3_TCM,8, 28.85046387,  2.05017090,end
timer_stats,696970915331837,PAPI_L3_TCM,4, 29.10400390,  2.06761169,end
timer_stats,696970916413975,PAPI_L3_TCM,5, 29.34930420,  2.08486938,end
timer_stats,696970917495030,PAPI_L3_TCM,12, 29.71569824,  2.10366821,end
timer_stats,696970918581517,PAPI_L3_TCM,4, 30.09661865,  2.12782288,end
timer_stats,696970919660090,PAPI_L3_TCM,9, 30.34045410,  2.15403747,end
timer_stats,696970920739779,PAPI_L3_TCM,3, 30.57275390,  2.17060852,end
timer_stats,696970921816745,PAPI_L3_TCM,4, 30.78924561,  2.18710327,end
timer_stats,696970922913947,PAPI_L3_TCM,1, 31.01947021,  2.20475769,end
timer_stats,696970924020954,PAPI_L3_TCM,15, 31.23748779,  2.22099304,end
timer_stats,696970925123599,PAPI_L3_TCM,59, 31.46185303,  2.23722839,end
timer_stats,696970926251146,PAPI_L3_TCM,21, 31.66955566,  2.25396728,end
timer_stats,696970927343163,PAPI_L3_TCM,6, 31.87548828,  2.26985168,end
timer_stats,696970928412873,PAPI_L3_TCM,3, 32.09338379,  2.27868652,end
timer_stats,696970929499894,PAPI_L3_TCM,1, 32.40307617,  2.29257202,end
timer_stats,696970930589150,PAPI_L3_TCM,2, 32.69665527,  2.32264709,end
timer_stats,696970931688381,PAPI_L3_TCM,9, 32.88848877,  2.33769226,end
timer_stats,696970932781011,PAPI_L3_TCM,5, 33.08563232,  2.35206604,end
timer_stats,696970933882727,PAPI_L3_TCM,5, 33.27465820,  2.36564636,end
timer_stats,696970934989125,PAPI_L3_TCM,2, 33.43878174,  2.37936401,end
timer_stats,696970936046406,PAPI_L3_TCM,5, 33.61450195,  2.39277649,end
timer_stats,696970937155839,PAPI_L3_TCM,3, 33.79144287,  2.40774536,end
timer_stats,696970938286307,PAPI_L3_TCM,3, 33.95648193,  2.42152405,end
timer_stats,696970939412736,PAPI_L3_TCM,2, 34.11810303,  2.43612671,end
timer_stats,696970940506585,PAPI_L3_TCM,3, 34.29003906,  2.45201111,end
timer_stats,696970943235757,PAPI_L3_TCM,13, 34.77490234,  2.49728394,end
timer_stats,696970944324516,PAPI_L3_TCM,7, 34.91937256,  2.51211548,end
timer_stats,696970945460943,PAPI_L3_TCM,2, 35.09497070,  2.52566528,end
timer_stats,696970946600644,PAPI_L3_TCM,0, 35.39630127,  2.55168152,end
timer_stats,696970947733608,PAPI_L3_TCM,1, 35.54840088,  2.56559753,end
timer_stats,696970948865133,PAPI_L3_TCM,2, 35.70068359,  2.57815552,end
timer_stats,696970950002923,PAPI_L3_TCM,1, 35.85870361,  2.59162903,end
timer_stats,696970951142189,PAPI_L3_TCM,4, 36.00616455,  2.60447693,end
timer_stats,696970952259876,PAPI_L3_TCM,13, 36.16131592,  2.61724853,end
timer_stats,696970953378410,PAPI_L3_TCM,6, 36.30389404,  2.62959289,end
timer_stats,696970954519975,PAPI_L3_TCM,3, 36.53424072,  2.64965820,end
timer_stats,696970955660294,PAPI_L3_TCM,0, 36.74847412,  2.66842651,end
timer_stats,696970956805889,PAPI_L3_TCM,2, 36.89996338,  2.68103027,end
timer_stats,696970957987470,PAPI_L3_TCM,1, 37.04058838,  2.69577026,end
timer_stats,696970959165473,PAPI_L3_TCM,6, 37.17700195,  2.70883179,end
timer_stats,696970960290743,PAPI_L3_TCM,4, 37.32202148,  2.72129822,end
timer_stats,696970961457688,PAPI_L3_TCM,5, 37.47277832,  2.73599243,end
timer_stats,696970962627166,PAPI_L3_TCM,1, 37.75921631,  2.76348877,end
timer_stats,696970963790340,PAPI_L3_TCM,2, 37.90557861,  2.77621460,end
timer_stats,696970964937989,PAPI_L3_TCM,3, 38.05291748,  2.78901672,end
timer_stats,696970966105258,PAPI_L3_TCM,1, 38.19873047,  2.80273437,end
timer_stats,696970967278482,PAPI_L3_TCM,4, 38.34344482,  2.81484985,end
timer_stats,696970968423267,PAPI_L3_TCM,3, 38.48675537,  2.82652283,end
timer_stats,696970969601823,PAPI_L3_TCM,3, 38.69573974,  2.84454346,end
timer_stats,696970970779293,PAPI_L3_TCM,2, 38.88555908,  2.86373901,end
timer_stats,696970971955778,PAPI_L3_TCM,0, 39.02215576,  2.87709045,end
timer_stats,696970973126951,PAPI_L3_TCM,4, 39.15911865,  2.88880920,end
timer_stats,696970974263232,PAPI_L3_TCM,1, 39.29541016,  2.90124512,end
timer_stats,696970975423129,PAPI_L3_TCM,1, 39.43713379,  2.91394043,end
timer_stats,696970976560086,PAPI_L3_TCM,2, 39.69757080,  2.93928528,end
timer_stats,696970977718934,PAPI_L3_TCM,5, 39.82775879,  2.95053101,end
timer_stats,696970978870553,PAPI_L3_TCM,1, 39.95068359,  2.96260071,end
timer_stats,696970980040964,PAPI_L3_TCM,5, 40.07257080,  2.97366333,end
timer_stats,696970981176293,PAPI_L3_TCM,1, 40.19793701,  2.98452759,end
timer_stats,696970982327258,PAPI_L3_TCM,3, 40.31066894,  2.99526977,end
timer_stats,696970983478956,PAPI_L3_TCM,0, 40.41540527,  3.00556946,end
timer_stats,696970984629884,PAPI_L3_TCM,2, 40.58691406,  3.02165222,end
timer_stats,696970985780612,PAPI_L3_TCM,0, 40.75543213,  3.03752136,end
timer_stats,696970986932074,PAPI_L3_TCM,3, 40.86492920,  3.04823303,end
timer_stats,696970988065705,PAPI_L3_TCM,4, 40.97399902,  3.05944824,end
timer_stats,696970989197849,PAPI_L3_TCM,2, 41.09143066,  3.07159424,end
timer_stats,696970990358271,PAPI_L3_TCM,0, 41.20648193,  3.08296203,end
timer_stats,696970991525196,PAPI_L3_TCM,5, 41.32391357,  3.09339905,end
timer_stats,696970992691684,PAPI_L3_TCM,2, 41.55401611,  3.11499023,end
timer_stats,696970993855609,PAPI_L3_TCM,1, 41.66473389,  3.12594604,end
timer_stats,696970995018324,PAPI_L3_TCM,0, 41.77600098,  3.13713074,end
timer_stats,696970996156398,PAPI_L3_TCM,3, 41.89813232,  3.14825439,end
timer_stats,696970997295037,PAPI_L3_TCM,0, 42.01074219,  3.15863037,end
timer_stats,696970998447882,PAPI_L3_TCM,2, 42.12371826,  3.16906738,end
timer_stats,696970999608497,PAPI_L3_TCM,0, 42.33770752,  3.19123840,end
timer_stats,696971000771644,PAPI_L3_TCM,3, 42.45385742,  3.20149231,end
timer_stats,696971001933292,PAPI_L3_TCM,0, 42.55743408,  3.21292114,end
timer_stats,696971003085337,PAPI_L3_TCM,1, 42.66833496,  3.22482300,end
timer_stats,696971004223136,PAPI_L3_TCM,8, 42.78161621,  3.23706055,end
timer_stats,696971005361463,PAPI_L3_TCM,5, 42.88897705,  3.24720764,end
timer_stats,696971006514931,PAPI_L3_TCM,2, 42.98266601,  3.25776672,end
timer_stats,696971007650516,PAPI_L3_TCM,10, 43.19012451,  3.27976990,end
timer_stats,696971008787891,PAPI_L3_TCM,8, 43.29473877,  3.29025269,end
