timer_stats,696691097437765,PAPI_L3_TCM,174,  0.18627930,  0.02078247,end
timer_stats,696691098571767,PAPI_L3_TCM,23,  0.28259277,  0.03192139,end
timer_stats,696691099684738,PAPI_L3_TCM,0,  0.37097168,  0.04431152,end
timer_stats,696691100823166,PAPI_L3_TCM,5,  0.46484375,  0.05645752,end
timer_stats,696691101991525,PAPI_L3_TCM,1,  0.56738281,  0.06777954,end
timer_stats,696691103128048,PAPI_L3_TCM,15,  0.66149902,  0.07849121,end
timer_stats,696691104262754,PAPI_L3_TCM,13,  0.75799560,  0.08987427,end
timer_stats,696691105399119,PAPI_L3_TCM,0,  0.90118408,  0.10585022,end
timer_stats,696691106556454,PAPI_L3_TCM,0,  1.04205322,  0.12236023,end
timer_stats,696691107713612,PAPI_L3_TCM,0,  1.12988281,  0.13259888,end
timer_stats,696691108882413,PAPI_L3_TCM,1,  1.21942138,  0.14382934,end
timer_stats,696691110025336,PAPI_L3_TCM,1,  1.31335449,  0.15451050,end
timer_stats,696691111188055,PAPI_L3_TCM,3,  1.40155029,  0.16619873,end
timer_stats,696691112312006,PAPI_L3_TCM,4,  1.48889160,  0.17645264,end
timer_stats,696691113485852,PAPI_L3_TCM,3,  1.67004394,  0.19903564,end
timer_stats,696691114625090,PAPI_L3_TCM,1,  1.78210449,  0.21295166,end
timer_stats,696691116206901,PAPI_L3_TCM,4,  1.90979004,  0.22758484,end
timer_stats,696691117558182,PAPI_L3_TCM,13,  2.16271973,  0.25300598,end
timer_stats,696691118679131,PAPI_L3_TCM,17,  2.28643799,  0.26678467,end
timer_stats,696691120090297,PAPI_L3_TCM,31,  2.41491699,  0.27735901,end
timer_stats,696691121204082,PAPI_L3_TCM,2,  2.53753662,  0.29055786,end
timer_stats,696691122310653,PAPI_L3_TCM,1,  2.67462158,  0.30346680,end
timer_stats,696691123399547,PAPI_L3_TCM,4,  2.81915283,  0.31559753,end
timer_stats,696691124490702,PAPI_L3_TCM,1,  3.12615967,  0.33396911,end
timer_stats,696691125580458,PAPI_L3_TCM,1,  3.29736328,  0.35289001,end
timer_stats,696691126672442,PAPI_L3_TCM,2,  3.46105957,  0.36529541,end
timer_stats,696691127764346,PAPI_L3_TCM,0,  3.63983154,  0.37796020,end
timer_stats,696691128854741,PAPI_L3_TCM,13,  3.81335449,  0.39131164,end
timer_stats,696691129943544,PAPI_L3_TCM,4,  4.00073242,  0.40304565,end
timer_stats,696691131031409,PAPI_L3_TCM,4,  4.20892334,  0.41738892,end
timer_stats,696691132117643,PAPI_L3_TCM,6,  4.42742920,  0.43150330,end
timer_stats,696691133206399,PAPI_L3_TCM,4,  4.65710449,  0.44575500,end
timer_stats,696691134295964,PAPI_L3_TCM,2,  4.87219238,  0.46052551,end
timer_stats,696691138480913,PAPI_L3_TCM,46,  5.71197510,  0.52423096,end
timer_stats,696691139569218,PAPI_L3_TCM,12,  5.99285889,  0.54518127,end
timer_stats,696691140656741,PAPI_L3_TCM,5,  6.19683838,  0.55690002,end
timer_stats,696691141744903,PAPI_L3_TCM,21,  6.39318848,  0.57106018,end
timer_stats,696691142832171,PAPI_L3_TCM,10,  6.60778809,  0.58355713,end
timer_stats,696691143914148,PAPI_L3_TCM,2,  6.81744385,  0.59788513,end
timer_stats,696691144996830,PAPI_L3_TCM,3,  7.03002930,  0.60841369,end
timer_stats,696691146078046,PAPI_L3_TCM,1,  7.24621582,  0.62345886,end
timer_stats,696691147160998,PAPI_L3_TCM,3,  7.47137451,  0.63796997,end
timer_stats,696691148241429,PAPI_L3_TCM,2,  7.69891357,  0.65267944,end
timer_stats,696691149322852,PAPI_L3_TCM,28,  7.92163086,  0.66740417,end
timer_stats,696691150404414,PAPI_L3_TCM,13,  8.14312744,  0.68043518,end
timer_stats,696691151485111,PAPI_L3_TCM,6,  8.58007812,  0.70314026,end
timer_stats,696691152563217,PAPI_L3_TCM,1,  8.80273437,  0.72523499,end
timer_stats,696691153642543,PAPI_L3_TCM,6,  9.03485107,  0.73965454,end
timer_stats,696691154719901,PAPI_L3_TCM,0,  9.25659180,  0.75413513,end
timer_stats,696691155797139,PAPI_L3_TCM,4,  9.47229004,  0.76884460,end
timer_stats,696691156877303,PAPI_L3_TCM,10,  9.70910644,  0.78413391,end
timer_stats,696691157958657,PAPI_L3_TCM,11,  9.92987060,  0.79858398,end
timer_stats,696691159039841,PAPI_L3_TCM,9, 10.16625976,  0.81300354,end
timer_stats,696691160119722,PAPI_L3_TCM,6, 10.38452148,  0.82797241,end
timer_stats,696691161200769,PAPI_L3_TCM,6, 10.62445068,  0.84236145,end
timer_stats,696691162281095,PAPI_L3_TCM,4, 10.85260010,  0.85658264,end
timer_stats,696691163362637,PAPI_L3_TCM,5, 11.07055664,  0.87178039,end
timer_stats,696691164443295,PAPI_L3_TCM,2, 11.30938721,  0.88691711,end
timer_stats,696691165526049,PAPI_L3_TCM,19, 11.72741699,  0.90951538,end
timer_stats,696691166606464,PAPI_L3_TCM,3, 11.94427490,  0.93261719,end
timer_stats,696691167685530,PAPI_L3_TCM,0, 12.16967773,  0.94747925,end
timer_stats,696691168770715,PAPI_L3_TCM,22, 12.39892578,  0.96232605,end
timer_stats,696691169854795,PAPI_L3_TCM,5, 12.63024902,  0.97744751,end
timer_stats,696691170937521,PAPI_L3_TCM,6, 12.86206055,  0.99188232,end
timer_stats,696691172022364,PAPI_L3_TCM,6, 13.08312988,  1.00634765,end
timer_stats,696691173104403,PAPI_L3_TCM,2, 13.31036377,  1.02148437,end
timer_stats,696691174185418,PAPI_L3_TCM,6, 13.54168701,  1.03572082,end
timer_stats,696691175268363,PAPI_L3_TCM,7, 13.77105713,  1.05191040,end
timer_stats,696691176352987,PAPI_L3_TCM,8, 13.99542236,  1.06652832,end
timer_stats,696691180024383,PAPI_L3_TCM,105, 14.75543213,  1.12022400,end
timer_stats,696691181111721,PAPI_L3_TCM,8, 14.92913818,  1.13801575,end
timer_stats,696691182192542,PAPI_L3_TCM,2, 15.16333008,  1.15440368,end
timer_stats,696691183273238,PAPI_L3_TCM,2, 15.39013672,  1.17037964,end
timer_stats,696691184353388,PAPI_L3_TCM,7, 15.62792969,  1.18658447,end
timer_stats,696691185433384,PAPI_L3_TCM,7, 15.88647461,  1.20298767,end
timer_stats,696691186513782,PAPI_L3_TCM,10, 16.20922851,  1.22862243,end
timer_stats,696691187594139,PAPI_L3_TCM,4, 16.55706787,  1.25450134,end
timer_stats,696691188673515,PAPI_L3_TCM,7, 16.78503418,  1.27192688,end
timer_stats,696691189752198,PAPI_L3_TCM,4, 17.02386475,  1.28875732,end
timer_stats,696691190832056,PAPI_L3_TCM,3, 17.25720215,  1.30589294,end
timer_stats,696691191912854,PAPI_L3_TCM,4, 17.48901367,  1.32234192,end
timer_stats,696691192992621,PAPI_L3_TCM,13, 17.71746826,  1.33975220,end
timer_stats,696691194072253,PAPI_L3_TCM,4, 17.97271728,  1.35682678,end
timer_stats,696691195152261,PAPI_L3_TCM,6, 18.19909668,  1.37370300,end
timer_stats,696691196231354,PAPI_L3_TCM,11, 18.42535400,  1.39013672,end
timer_stats,696691197310741,PAPI_L3_TCM,6, 18.65948486,  1.40730286,end
timer_stats,696691198390763,PAPI_L3_TCM,5, 18.89849853,  1.42446899,end
timer_stats,696691199470594,PAPI_L3_TCM,13, 19.12951660,  1.44161987,end
timer_stats,696691200550902,PAPI_L3_TCM,13, 19.59643555,  1.47592163,end
timer_stats,696691201630731,PAPI_L3_TCM,2, 19.71984863,  1.48458862,end
timer_stats,696691202711403,PAPI_L3_TCM,4, 20.06091308,  1.50982666,end
timer_stats,696691203791318,PAPI_L3_TCM,11, 20.30065918,  1.52595520,end
timer_stats,696691204871788,PAPI_L3_TCM,10, 20.52716064,  1.54115295,end
timer_stats,696691205952188,PAPI_L3_TCM,4, 20.75195312,  1.55897522,end
timer_stats,696691207031015,PAPI_L3_TCM,5, 20.99053955,  1.57601929,end
timer_stats,696691208110147,PAPI_L3_TCM,7, 21.22967529,  1.58464050,end
timer_stats,696691209192818,PAPI_L3_TCM,3, 21.45605469,  1.60174561,end
timer_stats,696691210289773,PAPI_L3_TCM,8, 21.65808105,  1.61289978,end
timer_stats,696691211375337,PAPI_L3_TCM,3, 21.86706543,  1.62519836,end
timer_stats,696691212480491,PAPI_L3_TCM,7, 22.06573486,  1.63995361,end
timer_stats,696691216785853,PAPI_L3_TCM,72, 22.93627930,  1.71023560,end
timer_stats,696691217874939,PAPI_L3_TCM,38, 23.11022949,  1.72688293,end
timer_stats,696691218959234,PAPI_L3_TCM,6, 23.34637451,  1.74279785,end
timer_stats,696691220044861,PAPI_L3_TCM,6, 23.58233643,  1.75907898,end
timer_stats,696691221128592,PAPI_L3_TCM,1, 23.82940674,  1.77474975,end
timer_stats,696691222212588,PAPI_L3_TCM,3, 24.06713867,  1.79147339,end
timer_stats,696691223294977,PAPI_L3_TCM,4, 24.29962158,  1.80816650,end
timer_stats,696691224377114,PAPI_L3_TCM,8, 24.53051758,  1.82458496,end
timer_stats,696691225462831,PAPI_L3_TCM,11, 24.76318359,  1.84092712,end
timer_stats,696691226546331,PAPI_L3_TCM,9, 25.20190430,  1.87413025,end
timer_stats,696691227629116,PAPI_L3_TCM,8, 25.32653808,  1.88238525,end
timer_stats,696691228702054,PAPI_L3_TCM,30, 25.67352295,  1.90757751,end
timer_stats,696691229778960,PAPI_L3_TCM,5, 25.88891601,  1.92390442,end
timer_stats,696691230861413,PAPI_L3_TCM,10, 26.09161377,  1.94009399,end
timer_stats,696691231930291,PAPI_L3_TCM,3, 26.33312988,  1.95600891,end
timer_stats,696691232999348,PAPI_L3_TCM,11, 26.55322265,  1.97178650,end
timer_stats,696691234068627,PAPI_L3_TCM,1, 26.75988769,  1.98715210,end
timer_stats,696691235137096,PAPI_L3_TCM,7, 26.93542480,  2.00242615,end
timer_stats,696691236206145,PAPI_L3_TCM,6, 27.16253662,  2.01701355,end
timer_stats,696691237274111,PAPI_L3_TCM,3, 27.33459472,  2.03166199,end
timer_stats,696691238341929,PAPI_L3_TCM,3, 27.54614258,  2.04656982,end
timer_stats,696691239409606,PAPI_L3_TCM,8, 27.70806885,  2.06083679,end
timer_stats,696691240496835,PAPI_L3_TCM,7, 27.87915039,  2.07487488,end
timer_stats,696691241605758,PAPI_L3_TCM,4, 28.14105225,  2.08889770,end
timer_stats,696691242727382,PAPI_L3_TCM,52, 28.36560058,  2.10964966,end
timer_stats,696691243852906,PAPI_L3_TCM,48, 28.51452637,  2.12307739,end
timer_stats,696691244950012,PAPI_L3_TCM,6, 28.69165039,  2.13623047,end
timer_stats,696691246053736,PAPI_L3_TCM,79, 28.84149170,  2.14906311,end
timer_stats,696691247167527,PAPI_L3_TCM,1, 28.99462890,  2.16203308,end
timer_stats,696691248266145,PAPI_L3_TCM,5, 29.13311768,  2.17488098,end
timer_stats,696691249379478,PAPI_L3_TCM,3, 29.27178955,  2.18774414,end
timer_stats,696691250487582,PAPI_L3_TCM,8, 29.41448975,  2.20082092,end
timer_stats,696691251623055,PAPI_L3_TCM,1, 29.69677734,  2.22625732,end
timer_stats,696691252723598,PAPI_L3_TCM,2, 29.85809326,  2.24063110,end
timer_stats,696691253858804,PAPI_L3_TCM,0, 29.99298096,  2.25390625,end
timer_stats,696691254996919,PAPI_L3_TCM,1, 30.12207031,  2.26705932,end
timer_stats,696691256094697,PAPI_L3_TCM,2, 30.27331543,  2.27964783,end
timer_stats,696691257211714,PAPI_L3_TCM,4, 30.42193603,  2.29199219,end
timer_stats,696691258352557,PAPI_L3_TCM,0, 30.55950928,  2.30439758,end
timer_stats,696691259465346,PAPI_L3_TCM,6, 30.68298340,  2.31687927,end
timer_stats,696691260602299,PAPI_L3_TCM,1, 30.88732910,  2.33554077,end
timer_stats,696691261716567,PAPI_L3_TCM,1, 31.10406494,  2.35366821,end
timer_stats,696691262862678,PAPI_L3_TCM,0, 31.24462890,  2.36561584,end
timer_stats,696691264010756,PAPI_L3_TCM,1, 31.37725830,  2.37811279,end
timer_stats,696691265146565,PAPI_L3_TCM,1, 31.51171875,  2.39059448,end
timer_stats,696691266293938,PAPI_L3_TCM,2, 31.65368652,  2.40301514,end
timer_stats,696691267440090,PAPI_L3_TCM,1, 31.78326416,  2.41549683,end
timer_stats,696691268580629,PAPI_L3_TCM,5, 31.98645019,  2.43414307,end
timer_stats,696691269731736,PAPI_L3_TCM,0, 32.18792724,  2.45260620,end
timer_stats,696691270892841,PAPI_L3_TCM,3, 32.31872559,  2.46487427,end
timer_stats,696691272060290,PAPI_L3_TCM,3, 32.44628906,  2.47662353,end
timer_stats,696691274953960,PAPI_L3_TCM,21, 32.82122803,  2.50682068,end
timer_stats,696691276082735,PAPI_L3_TCM,2, 32.94122314,  2.52026367,end
timer_stats,696691277182955,PAPI_L3_TCM,3, 33.06549072,  2.53204346,end
timer_stats,696691278343342,PAPI_L3_TCM,0, 33.18548584,  2.54283142,end
timer_stats,696691279492377,PAPI_L3_TCM,3, 33.28277588,  2.55308533,end
timer_stats,696691280633436,PAPI_L3_TCM,0, 33.43273926,  2.56956482,end
timer_stats,696691281785121,PAPI_L3_TCM,2, 33.61138916,  2.58622742,end
timer_stats,696691282938966,PAPI_L3_TCM,0, 33.70794678,  2.59645080,end
timer_stats,696691284080460,PAPI_L3_TCM,1, 33.81475830,  2.60578918,end
timer_stats,696691285206868,PAPI_L3_TCM,0, 33.91436768,  2.61521911,end
timer_stats,696691286364885,PAPI_L3_TCM,1, 34.00769043,  2.62448120,end
timer_stats,696691287519395,PAPI_L3_TCM,0, 34.11529541,  2.63417053,end
timer_stats,696691288667215,PAPI_L3_TCM,2, 34.31420898,  2.65586853,end
timer_stats,696691289812340,PAPI_L3_TCM,0, 34.41815185,  2.66584778,end
timer_stats,696691290960257,PAPI_L3_TCM,1, 34.51782226,  2.67581177,end
timer_stats,696691292104470,PAPI_L3_TCM,1, 34.62792969,  2.68551636,end
timer_stats,696691293244547,PAPI_L3_TCM,2, 34.72766113,  2.69476318,end
timer_stats,696691294397731,PAPI_L3_TCM,0, 34.82513428,  2.70419311,end
timer_stats,696691295551588,PAPI_L3_TCM,1, 34.92523193,  2.71392822,end
timer_stats,696691296707056,PAPI_L3_TCM,1, 35.06738281,  2.73162842,end
timer_stats,696691297864578,PAPI_L3_TCM,2, 35.22943115,  2.74658203,end
timer_stats,696691299008663,PAPI_L3_TCM,0, 35.32421875,  2.75582886,end
timer_stats,696691300178748,PAPI_L3_TCM,2, 35.41998291,  2.76530457,end
timer_stats,696691301331440,PAPI_L3_TCM,0, 35.50622559,  2.77586365,end
timer_stats,696691302484193,PAPI_L3_TCM,1, 35.60021973,  2.78898621,end
timer_stats,696691303637745,PAPI_L3_TCM,10, 35.73999023,  2.80039978,end
