timer_stats,697710874079737,PAPI_L3_TCM,309,  0.07849121,  0.01028442,end
timer_stats,697710875182471,PAPI_L3_TCM,39,  0.15649414,  0.02102661,end
timer_stats,697710876287367,PAPI_L3_TCM,6,  0.23052978,  0.03244019,end
timer_stats,697710877439348,PAPI_L3_TCM,6,  0.34667969,  0.04824829,end
timer_stats,697710878913066,PAPI_L3_TCM,51,  0.46978760,  0.06343079,end
timer_stats,697710880068319,PAPI_L3_TCM,25,  0.54986572,  0.07392883,end
timer_stats,697710881202390,PAPI_L3_TCM,6,  0.62213135,  0.08445740,end
timer_stats,697710882362354,PAPI_L3_TCM,5,  0.70007324,  0.09495544,end
timer_stats,697710883523420,PAPI_L3_TCM,6,  0.82312012,  0.11058044,end
timer_stats,697710884648468,PAPI_L3_TCM,5,  0.93792725,  0.12721252,end
timer_stats,697710885782285,PAPI_L3_TCM,9,  1.02172851,  0.13883972,end
timer_stats,697710886917895,PAPI_L3_TCM,0,  1.10705566,  0.15022278,end
timer_stats,697710888067595,PAPI_L3_TCM,3,  1.18457031,  0.16165161,end
timer_stats,697710889200905,PAPI_L3_TCM,5,  1.26324463,  0.17193603,end
timer_stats,697710890380616,PAPI_L3_TCM,1,  1.34002686,  0.18222046,end
timer_stats,697710891569796,PAPI_L3_TCM,1,  1.45629883,  0.19793701,end
timer_stats,697710892745147,PAPI_L3_TCM,1,  1.56579590,  0.21319580,end
timer_stats,697710893930694,PAPI_L3_TCM,1,  1.64031982,  0.22354126,end
timer_stats,697710895092611,PAPI_L3_TCM,3,  1.71893311,  0.23382568,end
timer_stats,697710896225355,PAPI_L3_TCM,1,  1.80450439,  0.24475098,end
timer_stats,697710897365908,PAPI_L3_TCM,0,  1.88873291,  0.25526428,end
timer_stats,697710898528878,PAPI_L3_TCM,0,  2.01483154,  0.27072144,end
timer_stats,697710899679479,PAPI_L3_TCM,0,  2.12860107,  0.28686523,end
timer_stats,697710900840840,PAPI_L3_TCM,0,  2.21337890,  0.29739380,end
timer_stats,697710902001856,PAPI_L3_TCM,0,  2.29718017,  0.30789184,end
timer_stats,697710903163253,PAPI_L3_TCM,1,  2.37652588,  0.31817627,end
timer_stats,697710904324621,PAPI_L3_TCM,1,  2.45593262,  0.32870483,end
timer_stats,697710905464904,PAPI_L3_TCM,0,  2.59356689,  0.34385681,end
timer_stats,697710906617178,PAPI_L3_TCM,0,  2.71014404,  0.35972595,end
timer_stats,697710907778958,PAPI_L3_TCM,0,  2.79504394,  0.37025452,end
timer_stats,697710908942088,PAPI_L3_TCM,1,  2.87554932,  0.38035583,end
timer_stats,697710910106252,PAPI_L3_TCM,0,  2.96374512,  0.39108276,end
timer_stats,697710911256689,PAPI_L3_TCM,0,  3.05462646,  0.40161133,end
timer_stats,697710912419673,PAPI_L3_TCM,2,  3.14019775,  0.41217041,end
timer_stats,697710913582886,PAPI_L3_TCM,0,  3.29199219,  0.43174744,end
timer_stats,697710914706847,PAPI_L3_TCM,1,  3.41119385,  0.44929504,end
timer_stats,697710915870087,PAPI_L3_TCM,1,  3.50866699,  0.45912170,end
timer_stats,697710917012357,PAPI_L3_TCM,1,  3.59600830,  0.46792602,end
timer_stats,697710918167058,PAPI_L3_TCM,0,  3.69140625,  0.47808838,end
timer_stats,697710919323195,PAPI_L3_TCM,0,  3.78173828,  0.48760986,end
timer_stats,697710920488828,PAPI_L3_TCM,1,  3.93762207,  0.50222778,end
timer_stats,697710921655142,PAPI_L3_TCM,1,  4.04876709,  0.51490784,end
timer_stats,697710922809046,PAPI_L3_TCM,0,  4.14044189,  0.52366638,end
timer_stats,697710923977646,PAPI_L3_TCM,1,  4.21990967,  0.53227234,end
timer_stats,697710925153073,PAPI_L3_TCM,1,  4.30322266,  0.54130554,end
timer_stats,697710926325244,PAPI_L3_TCM,0,  4.38629150,  0.54991150,end
timer_stats,697710927492171,PAPI_L3_TCM,0,  4.52111816,  0.56382751,end
timer_stats,697710928661474,PAPI_L3_TCM,1,  4.62622070,  0.57624817,end
timer_stats,697710929831668,PAPI_L3_TCM,0,  4.70397949,  0.58506775,end
timer_stats,697710930989422,PAPI_L3_TCM,1,  4.77929687,  0.59388733,end
timer_stats,697710932152792,PAPI_L3_TCM,1,  4.85504150,  0.60243225,end
timer_stats,697710933310023,PAPI_L3_TCM,0,  4.92895508,  0.61079407,end
timer_stats,697710934466980,PAPI_L3_TCM,0,  5.00946045,  0.61930847,end
timer_stats,697710935641607,PAPI_L3_TCM,0,  5.15734863,  0.63667297,end
timer_stats,697710936813117,PAPI_L3_TCM,1,  5.23291015,  0.64549255,end
timer_stats,697710937982718,PAPI_L3_TCM,0,  5.31066894,  0.65400696,end
timer_stats,697710939140482,PAPI_L3_TCM,0,  5.38616943,  0.66281128,end
timer_stats,697710940304518,PAPI_L3_TCM,1,  5.46295166,  0.67160034,end
timer_stats,697710941455759,PAPI_L3_TCM,0,  5.54437256,  0.68060303,end
timer_stats,697710942613813,PAPI_L3_TCM,0,  5.67132568,  0.69519043,end
timer_stats,697710943780833,PAPI_L3_TCM,0,  5.77416992,  0.70831299,end
timer_stats,697710944948826,PAPI_L3_TCM,1,  5.84771728,  0.71708679,end
timer_stats,697710946105564,PAPI_L3_TCM,0,  5.92150879,  0.72587585,end
timer_stats,697710947261641,PAPI_L3_TCM,1,  5.99652100,  0.73513794,end
timer_stats,697710948430224,PAPI_L3_TCM,1,  6.07519531,  0.74414062,end
timer_stats,697710949602955,PAPI_L3_TCM,1,  6.20330810,  0.75827026,end
timer_stats,697710950762875,PAPI_L3_TCM,0,  6.30023193,  0.77046203,end
timer_stats,697710951921185,PAPI_L3_TCM,0,  6.37713623,  0.77920532,end
timer_stats,697710953091569,PAPI_L3_TCM,2,  6.44909668,  0.78778076,end
timer_stats,697710954251276,PAPI_L3_TCM,0,  6.52514648,  0.79655456,end
timer_stats,697710955414240,PAPI_L3_TCM,0,  6.59857178,  0.80554199,end
timer_stats,697710956582493,PAPI_L3_TCM,1,  6.72692871,  0.81942749,end
timer_stats,697710957756607,PAPI_L3_TCM,0,  6.82159424,  0.83169556,end
timer_stats,697710958912958,PAPI_L3_TCM,1,  6.89648437,  0.84024048,end
timer_stats,697710960080028,PAPI_L3_TCM,1,  6.97198486,  0.84904480,end
timer_stats,697710961222498,PAPI_L3_TCM,0,  7.04663086,  0.85783386,end
timer_stats,697710962397066,PAPI_L3_TCM,0,  7.12017822,  0.86662292,end
timer_stats,697710963543856,PAPI_L3_TCM,0,  7.24926758,  0.88053894,end
timer_stats,697710964717090,PAPI_L3_TCM,1,  7.34704590,  0.89295959,end
timer_stats,697710965887968,PAPI_L3_TCM,0,  7.41632080,  0.90155029,end
timer_stats,697710967057874,PAPI_L3_TCM,0,  7.49377441,  0.91006470,end
timer_stats,697710968224178,PAPI_L3_TCM,2,  7.56408691,  0.91912842,end
timer_stats,697710969376712,PAPI_L3_TCM,0,  7.64056396,  0.92793274,end
timer_stats,697710970552012,PAPI_L3_TCM,0,  7.76379394,  0.94169617,end
timer_stats,697710971722272,PAPI_L3_TCM,0,  7.85650635,  0.95321655,end
timer_stats,697710972899923,PAPI_L3_TCM,1,  7.94342041,  0.96192932,end
timer_stats,697710974071024,PAPI_L3_TCM,0,  8.00366211,  0.97106934,end
timer_stats,697710975246270,PAPI_L3_TCM,0,  8.07946777,  0.97979736,end
timer_stats,697710976419627,PAPI_L3_TCM,2,  8.15161133,  0.98838806,end
timer_stats,697710977594355,PAPI_L3_TCM,1,  8.27423096,  0.99961853,end
timer_stats,697710978772725,PAPI_L3_TCM,0,  8.36993408,  1.00796509,end
timer_stats,697710979944458,PAPI_L3_TCM,0,  8.44152832,  1.01655578,end
timer_stats,697710981127929,PAPI_L3_TCM,1,  8.51489258,  1.02555847,end
timer_stats,697710982305433,PAPI_L3_TCM,0,  8.58758545,  1.03457642,end
timer_stats,697710983486534,PAPI_L3_TCM,0,  8.70989990,  1.04339600,end
timer_stats,697710984660287,PAPI_L3_TCM,1,  8.78027344,  1.05694580,end
timer_stats,697710985828427,PAPI_L3_TCM,0,  8.88653564,  1.06881714,end
timer_stats,697710986989461,PAPI_L3_TCM,1,  8.95227051,  1.07768249,end
timer_stats,697710988158875,PAPI_L3_TCM,1,  9.02441406,  1.08691406,end
timer_stats,697710989306195,PAPI_L3_TCM,0,  9.09924316,  1.09594726,end
timer_stats,697710990466586,PAPI_L3_TCM,0,  9.17083740,  1.10473633,end
timer_stats,697710991642473,PAPI_L3_TCM,0,  9.31683349,  1.12225342,end
timer_stats,697710992820123,PAPI_L3_TCM,1,  9.39068603,  1.13104248,end
timer_stats,697710993998130,PAPI_L3_TCM,0,  9.47369385,  1.13952637,end
timer_stats,697710995160291,PAPI_L3_TCM,0,  9.54583740,  1.14787292,end
timer_stats,697710996330745,PAPI_L3_TCM,2,  9.60504150,  1.15675354,end
timer_stats,697710997484671,PAPI_L3_TCM,0,  9.68969726,  1.16566467,end
timer_stats,697710998646708,PAPI_L3_TCM,0,  9.76104736,  1.17424011,end
timer_stats,697710999810759,PAPI_L3_TCM,0,  9.89526367,  1.19099426,end
timer_stats,697711000987356,PAPI_L3_TCM,1,  9.96826172,  1.19978332,end
timer_stats,697711002153676,PAPI_L3_TCM,0, 10.04083252,  1.20860290,end
timer_stats,697711003318967,PAPI_L3_TCM,0, 10.11376953,  1.21737671,end
timer_stats,697711004492397,PAPI_L3_TCM,3, 10.23406982,  1.23114014,end
timer_stats,697711005668334,PAPI_L3_TCM,2, 10.30596924,  1.23971557,end
timer_stats,697711006830841,PAPI_L3_TCM,0, 10.40191650,  1.25195312,end
timer_stats,697711007995055,PAPI_L3_TCM,0, 10.47381592,  1.25958252,end
timer_stats,697711009184902,PAPI_L3_TCM,1, 10.54998779,  1.26808166,end
timer_stats,697711010364912,PAPI_L3_TCM,0, 10.63000488,  1.27680969,end
timer_stats,697711011539023,PAPI_L3_TCM,0, 10.69433594,  1.28544617,end
timer_stats,697711012722920,PAPI_L3_TCM,1, 10.79699707,  1.29760742,end
timer_stats,697711013897304,PAPI_L3_TCM,0, 10.90991211,  1.31137085,end
timer_stats,697711015060084,PAPI_L3_TCM,1, 10.99005127,  1.32012939,end
timer_stats,697711016229988,PAPI_L3_TCM,1, 11.05401611,  1.32879639,end
timer_stats,697711017386045,PAPI_L3_TCM,0, 11.12725830,  1.33755493,end
timer_stats,697711018549492,PAPI_L3_TCM,0, 11.24694824,  1.35128784,end
timer_stats,697711019717022,PAPI_L3_TCM,0, 11.35089111,  1.36341858,end
timer_stats,697711020893386,PAPI_L3_TCM,1, 11.41571045,  1.37207031,end
timer_stats,697711022068920,PAPI_L3_TCM,4, 11.48925781,  1.38064575,end
timer_stats,697711023231866,PAPI_L3_TCM,0, 11.56109619,  1.38897705,end
timer_stats,697711024398417,PAPI_L3_TCM,2, 11.64117432,  1.39700317,end
timer_stats,697711025574754,PAPI_L3_TCM,0, 11.76251221,  1.41162109,end
timer_stats,697711026741202,PAPI_L3_TCM,0, 11.85894775,  1.42448425,end
timer_stats,697711027905785,PAPI_L3_TCM,0, 11.93493652,  1.43371582,end
timer_stats,697711029080409,PAPI_L3_TCM,1, 12.01782226,  1.44265747,end
timer_stats,697711030239133,PAPI_L3_TCM,0, 12.08294678,  1.45173645,end
timer_stats,697711031420240,PAPI_L3_TCM,0, 12.17132568,  1.46064758,end
timer_stats,697711032588366,PAPI_L3_TCM,1, 12.28588867,  1.47416687,end
timer_stats,697711033760674,PAPI_L3_TCM,0, 12.30725098,  1.47782898,end
timer_stats,697711034926911,PAPI_L3_TCM,0, 12.45751953,  1.49537659,end
timer_stats,697711036089334,PAPI_L3_TCM,1, 12.52954101,  1.50370788,end
timer_stats,697711037236918,PAPI_L3_TCM,0, 12.60272217,  1.51249695,end
timer_stats,697711038420239,PAPI_L3_TCM,0, 12.67523193,  1.52082825,end
timer_stats,697711039595099,PAPI_L3_TCM,0, 12.74896240,  1.52980041,end
timer_stats,697711040770279,PAPI_L3_TCM,1, 12.90319824,  1.54782104,end
timer_stats,697711041932993,PAPI_L3_TCM,0, 12.97070312,  1.55645752,end
timer_stats,697711043099177,PAPI_L3_TCM,1, 13.05346680,  1.56494140,end
timer_stats,697711044256807,PAPI_L3_TCM,1, 13.12695312,  1.57351685,end
timer_stats,697711045403464,PAPI_L3_TCM,0, 13.19146728,  1.58218384,end
timer_stats,697711046550925,PAPI_L3_TCM,0, 13.27453613,  1.59066772,end
timer_stats,697711047698448,PAPI_L3_TCM,0, 13.39782715,  1.60488892,end
timer_stats,697711048846725,PAPI_L3_TCM,1, 13.49829101,  1.61752319,end
timer_stats,697711049992796,PAPI_L3_TCM,1, 13.57568359,  1.62628174,end
timer_stats,697711051139255,PAPI_L3_TCM,0, 13.65106201,  1.63531494,end
timer_stats,697711052286383,PAPI_L3_TCM,1, 13.72943115,  1.64453125,end
timer_stats,697711053446277,PAPI_L3_TCM,0, 13.80340576,  1.65356445,end
timer_stats,697711054612600,PAPI_L3_TCM,0, 13.93334961,  1.66766357,end
timer_stats,697711055777577,PAPI_L3_TCM,0, 14.03912353,  1.68051147,end
timer_stats,697711056954908,PAPI_L3_TCM,1, 14.11212158,  1.68931579,end
timer_stats,697711058132282,PAPI_L3_TCM,0, 14.17852783,  1.69837952,end
timer_stats,697711059307085,PAPI_L3_TCM,0, 14.26159668,  1.70689392,end
timer_stats,697711060488109,PAPI_L3_TCM,1, 14.32635498,  1.71577453,end
timer_stats,697711061662093,PAPI_L3_TCM,0, 14.45758057,  1.72990417,end
timer_stats,697711062840393,PAPI_L3_TCM,0, 14.56201172,  1.74223328,end
timer_stats,697711064015543,PAPI_L3_TCM,0, 14.62127685,  1.75114441,end
timer_stats,697711065165270,PAPI_L3_TCM,0, 14.70129394,  1.75965881,end
timer_stats,697711066341294,PAPI_L3_TCM,0, 14.77819824,  1.76860046,end
timer_stats,697711067520315,PAPI_L3_TCM,0, 14.84820557,  1.77745056,end
timer_stats,697711068696865,PAPI_L3_TCM,1, 14.91333008,  1.78694153,end
timer_stats,697711069875629,PAPI_L3_TCM,0, 15.06689453,  1.80442810,end
timer_stats,697711071049623,PAPI_L3_TCM,0, 15.15417480,  1.81315613,end
timer_stats,697711072218593,PAPI_L3_TCM,1, 15.23577881,  1.82237243,end
timer_stats,697711073376633,PAPI_L3_TCM,0, 15.30163574,  1.83123779,end
timer_stats,697711074547714,PAPI_L3_TCM,2, 15.39166260,  1.83995056,end
timer_stats,697711075701058,PAPI_L3_TCM,2, 15.51953125,  1.85411072,end
timer_stats,697711076877404,PAPI_L3_TCM,1, 15.61871338,  1.86653137,end
timer_stats,697711078099401,PAPI_L3_TCM,3, 15.71044922,  1.87522888,end
timer_stats,697711079236082,PAPI_L3_TCM,0, 15.79113769,  1.88423157,end
timer_stats,697711080380063,PAPI_L3_TCM,3, 15.86834717,  1.89326477,end
timer_stats,697711081526619,PAPI_L3_TCM,0, 15.94470215,  1.90185547,end
timer_stats,697711082687136,PAPI_L3_TCM,0, 16.02142334,  1.91040039,end
timer_stats,697711083867300,PAPI_L3_TCM,0, 16.18457031,  1.93495178,end
timer_stats,697711085048054,PAPI_L3_TCM,1, 16.26275635,  1.94371033,end
timer_stats,697711086212307,PAPI_L3_TCM,0, 16.34130859,  1.95246887,end
timer_stats,697711087364241,PAPI_L3_TCM,0, 16.41894531,  1.96144104,end
timer_stats,697711088544265,PAPI_L3_TCM,1, 16.50042725,  1.97041321,end
timer_stats,697711089721395,PAPI_L3_TCM,2, 16.57623291,  1.97923279,end
timer_stats,697711090896299,PAPI_L3_TCM,0, 16.74328613,  1.99931335,end
timer_stats,697711092075953,PAPI_L3_TCM,1, 16.80786133,  2.00846863,end
timer_stats,697711093232200,PAPI_L3_TCM,0, 16.90032959,  2.01713562,end
timer_stats,697711094414630,PAPI_L3_TCM,0, 16.98120117,  2.02574158,end
timer_stats,697711095591734,PAPI_L3_TCM,0, 17.06744385,  2.03401184,end
timer_stats,697711096754339,PAPI_L3_TCM,0, 17.16729736,  2.04800415,end
timer_stats,697711097923445,PAPI_L3_TCM,0, 17.31695557,  2.06365967,end
timer_stats,697711099082124,PAPI_L3_TCM,1, 17.39215088,  2.07290649,end
timer_stats,697711100242190,PAPI_L3_TCM,1, 17.48107910,  2.08184814,end
timer_stats,697711101377639,PAPI_L3_TCM,0, 17.55706787,  2.09045410,end
timer_stats,697711102524489,PAPI_L3_TCM,0, 17.63745117,  2.09948730,end
timer_stats,697711103687111,PAPI_L3_TCM,0, 17.72717285,  2.10820007,end
timer_stats,697711104861415,PAPI_L3_TCM,3, 17.88482666,  2.12757873,end
timer_stats,697711105996040,PAPI_L3_TCM,1, 17.96954346,  2.13676453,end
timer_stats,697711107131204,PAPI_L3_TCM,0, 18.04858398,  2.14573669,end
timer_stats,697711108264165,PAPI_L3_TCM,1, 18.12854004,  2.15449524,end
timer_stats,697711109389679,PAPI_L3_TCM,1, 18.20452881,  2.16371155,end
timer_stats,697711110522595,PAPI_L3_TCM,1, 18.29315185,  2.17247009,end
timer_stats,697711111683582,PAPI_L3_TCM,0, 18.37939453,  2.18125915,end
timer_stats,697711112830452,PAPI_L3_TCM,1, 18.54730225,  2.20191955,end
timer_stats,697711113984284,PAPI_L3_TCM,0, 18.63244629,  2.21090698,end
timer_stats,697711115150980,PAPI_L3_TCM,0, 18.71472168,  2.21972656,end
timer_stats,697711116308587,PAPI_L3_TCM,0, 18.79602051,  2.22875976,end
timer_stats,697711117446580,PAPI_L3_TCM,0, 18.88854980,  2.23825073,end
timer_stats,697711118611013,PAPI_L3_TCM,0, 18.97790527,  2.24676514,end
timer_stats,697711119773072,PAPI_L3_TCM,0, 19.08367920,  2.26074219,end
timer_stats,697711120923214,PAPI_L3_TCM,1, 19.22064209,  2.27575684,end
timer_stats,697711122077255,PAPI_L3_TCM,0, 19.29492187,  2.28414917,end
timer_stats,697711123231963,PAPI_L3_TCM,0, 19.37805176,  2.29220581,end
timer_stats,697711124380912,PAPI_L3_TCM,1, 19.45898437,  2.30097961,end
timer_stats,697711125538971,PAPI_L3_TCM,0, 19.53546143,  2.30981445,end
timer_stats,697711126711187,PAPI_L3_TCM,0, 19.60943603,  2.31864929,end
timer_stats,697711127872558,PAPI_L3_TCM,0, 19.77130127,  2.33723450,end
timer_stats,697711129018567,PAPI_L3_TCM,1, 19.84783936,  2.34580994,end
timer_stats,697711130175905,PAPI_L3_TCM,0, 19.92382812,  2.35415649,end
timer_stats,697711131336651,PAPI_L3_TCM,0, 19.99658203,  2.36276245,end
timer_stats,697711132485083,PAPI_L3_TCM,1, 20.07171631,  2.37136841,end
timer_stats,697711133619702,PAPI_L3_TCM,1, 20.15277100,  2.38012695,end
timer_stats,697711134729275,PAPI_L3_TCM,1, 20.23541260,  2.38885498,end
timer_stats,697711135861516,PAPI_L3_TCM,0, 20.38592529,  2.40847778,end
timer_stats,697711136995473,PAPI_L3_TCM,1, 20.45983887,  2.41702270,end
timer_stats,697711138127288,PAPI_L3_TCM,0, 20.53277588,  2.42602539,end
timer_stats,697711139275404,PAPI_L3_TCM,0, 20.60070801,  2.43484497,end
timer_stats,697711140413656,PAPI_L3_TCM,1, 20.67199707,  2.44384765,end
timer_stats,697711146313957,PAPI_L3_TCM,45, 21.07666015,  2.49662781,end
timer_stats,697711147450147,PAPI_L3_TCM,5, 21.14514160,  2.50517273,end
timer_stats,697711148610847,PAPI_L3_TCM,1, 21.21557617,  2.51394653,end
timer_stats,697711149779146,PAPI_L3_TCM,0, 21.28637695,  2.52272034,end
timer_stats,697711150940194,PAPI_L3_TCM,0, 21.42303467,  2.54298401,end
timer_stats,697711152104222,PAPI_L3_TCM,1, 21.49670410,  2.55130005,end
timer_stats,697711153246752,PAPI_L3_TCM,0, 21.56695557,  2.56008911,end
timer_stats,697711154417859,PAPI_L3_TCM,0, 21.63470459,  2.56893921,end
timer_stats,697711155594156,PAPI_L3_TCM,0, 21.70172119,  2.57777405,end
timer_stats,697711156758363,PAPI_L3_TCM,2, 21.77197265,  2.58636475,end
timer_stats,697711157963211,PAPI_L3_TCM,0, 21.91381836,  2.60548401,end
timer_stats,697711159137970,PAPI_L3_TCM,0, 21.98028564,  2.61408996,end
timer_stats,697711160310571,PAPI_L3_TCM,1, 22.04864502,  2.62287903,end
timer_stats,697711161492442,PAPI_L3_TCM,0, 22.11767578,  2.63122559,end
timer_stats,697711162667822,PAPI_L3_TCM,0, 22.18481445,  2.64002991,end
timer_stats,697711163842145,PAPI_L3_TCM,0, 22.30377197,  2.65348816,end
timer_stats,697711165005523,PAPI_L3_TCM,1, 22.39025879,  2.66902161,end
timer_stats,697711166168153,PAPI_L3_TCM,1, 22.46276855,  2.67803955,end
timer_stats,697711167313880,PAPI_L3_TCM,0, 22.53314209,  2.68684387,end
timer_stats,697711168462598,PAPI_L3_TCM,1, 22.60803223,  2.69537353,end
timer_stats,697711169634684,PAPI_L3_TCM,0, 22.67291260,  2.70420837,end
timer_stats,697711170808168,PAPI_L3_TCM,0, 22.79010010,  2.71817017,end
timer_stats,697711171970217,PAPI_L3_TCM,0, 22.88696289,  2.73361206,end
timer_stats,697711173159402,PAPI_L3_TCM,1, 22.95739746,  2.74220276,end
timer_stats,697711174341286,PAPI_L3_TCM,0, 23.02227783,  2.75053406,end
timer_stats,697711175921784,PAPI_L3_TCM,988, 23.15972900,  2.76812744,end
timer_stats,697711177069901,PAPI_L3_TCM,26, 23.22991943,  2.77825928,end
timer_stats,697711178215988,PAPI_L3_TCM,4, 23.29864502,  2.78659057,end
timer_stats,697711179387778,PAPI_L3_TCM,0, 23.37042236,  2.79513550,end
timer_stats,697711180536303,PAPI_L3_TCM,2, 23.43841553,  2.80371094,end
timer_stats,697711181705309,PAPI_L3_TCM,1, 23.50427246,  2.81250000,end
timer_stats,697711182870430,PAPI_L3_TCM,0, 23.62200928,  2.82621765,end
timer_stats,697711184041483,PAPI_L3_TCM,1, 23.71276855,  2.84150696,end
timer_stats,697711185187667,PAPI_L3_TCM,0, 23.78289795,  2.85032654,end
timer_stats,697711186359561,PAPI_L3_TCM,0, 23.85156250,  2.85890198,end
timer_stats,697711187530911,PAPI_L3_TCM,0, 23.91802978,  2.86799621,end
timer_stats,697711188679110,PAPI_L3_TCM,2, 23.98870850,  2.87678528,end
timer_stats,697711189845602,PAPI_L3_TCM,0, 24.10711670,  2.89022827,end
timer_stats,697711191007282,PAPI_L3_TCM,0, 24.19665527,  2.90574646,end
timer_stats,697711192091415,PAPI_L3_TCM,1, 24.26635742,  2.91410827,end
timer_stats,697711193263983,PAPI_L3_TCM,0, 24.33807373,  2.92221069,end
timer_stats,697711194439186,PAPI_L3_TCM,0, 24.40704346,  2.93075561,end
timer_stats,697711195609937,PAPI_L3_TCM,0, 24.47448730,  2.93931580,end
timer_stats,697711196789560,PAPI_L3_TCM,1, 24.59124756,  2.95301819,end
timer_stats,697711197963461,PAPI_L3_TCM,0, 24.67901611,  2.96704101,end
timer_stats,697711199138732,PAPI_L3_TCM,0, 24.74670410,  2.97563171,end
timer_stats,697711200311789,PAPI_L3_TCM,1, 24.81860351,  2.98414612,end
timer_stats,697711201479939,PAPI_L3_TCM,0, 24.88677978,  2.99317932,end
timer_stats,697711202655836,PAPI_L3_TCM,5, 24.95727539,  3.00175476,end
timer_stats,697711203832917,PAPI_L3_TCM,1, 25.09552002,  3.01545715,end
timer_stats,697711205002607,PAPI_L3_TCM,1, 25.16619873,  3.03074646,end
timer_stats,697711206173404,PAPI_L3_TCM,0, 25.23461914,  3.03956604,end
timer_stats,697711207347020,PAPI_L3_TCM,0, 25.30169678,  3.04815674,end
timer_stats,697711208519395,PAPI_L3_TCM,1, 25.36822510,  3.05697632,end
timer_stats,697711209686769,PAPI_L3_TCM,0, 25.44042969,  3.06575012,end
timer_stats,697711210850551,PAPI_L3_TCM,0, 25.55688476,  3.07922363,end
timer_stats,697711212037376,PAPI_L3_TCM,1, 25.64624023,  3.09477234,end
timer_stats,697711213213253,PAPI_L3_TCM,0, 25.71728516,  3.10330200,end
timer_stats,697711214387082,PAPI_L3_TCM,0, 25.78265381,  3.11213684,end
timer_stats,697711215562667,PAPI_L3_TCM,0, 25.85058594,  3.12071228,end
timer_stats,697711216742271,PAPI_L3_TCM,1, 25.91955566,  3.12928772,end
timer_stats,697711217881715,PAPI_L3_TCM,0, 26.03082275,  3.14353943,end
timer_stats,697711219032538,PAPI_L3_TCM,0, 26.13836670,  3.15942383,end
timer_stats,697711220185865,PAPI_L3_TCM,1, 26.21838379,  3.16818237,end
timer_stats,697711221334146,PAPI_L3_TCM,0, 26.29101562,  3.17720032,end
timer_stats,697711222496612,PAPI_L3_TCM,1, 26.36468506,  3.18576050,end
timer_stats,697711223656000,PAPI_L3_TCM,0, 26.43890381,  3.19430542,end
timer_stats,697711224825977,PAPI_L3_TCM,0, 26.55999756,  3.20877075,end
timer_stats,697711225974834,PAPI_L3_TCM,0, 26.66473389,  3.22402954,end
timer_stats,697711227125307,PAPI_L3_TCM,0, 26.73864746,  3.23236084,end
timer_stats,697711228273868,PAPI_L3_TCM,0, 26.80645752,  3.24145508,end
timer_stats,697711231470201,PAPI_L3_TCM,33, 27.03204346,  3.26943970,end
timer_stats,697711232618529,PAPI_L3_TCM,4, 27.10412598,  3.27845764,end
timer_stats,697711233797145,PAPI_L3_TCM,0, 27.17846680,  3.28678894,end
timer_stats,697711234960539,PAPI_L3_TCM,0, 27.32061767,  3.30566406,end
timer_stats,697711236123786,PAPI_L3_TCM,1, 27.39245605,  3.31425476,end
timer_stats,697711237270223,PAPI_L3_TCM,0, 27.46368408,  3.32284546,end
timer_stats,697711238440770,PAPI_L3_TCM,0, 27.53564453,  3.33140564,end
timer_stats,697711239607227,PAPI_L3_TCM,0, 27.60534668,  3.34020996,end
timer_stats,697711240773218,PAPI_L3_TCM,1, 27.72094726,  3.35397339,end
timer_stats,697711241940851,PAPI_L3_TCM,0, 27.79394531,  3.36231994,end
timer_stats,697711243098158,PAPI_L3_TCM,1, 27.89147949,  3.37712097,end
timer_stats,697711244256509,PAPI_L3_TCM,1, 27.96191406,  3.38571167,end
timer_stats,697711245406785,PAPI_L3_TCM,0, 28.03399658,  3.39425659,end
timer_stats,697711246574449,PAPI_L3_TCM,0, 28.10119629,  3.40261841,end
timer_stats,697711247731013,PAPI_L3_TCM,0, 28.17102051,  3.41123962,end
timer_stats,697711248898174,PAPI_L3_TCM,1, 28.29089355,  3.42471313,end
timer_stats,697711250056260,PAPI_L3_TCM,0, 28.38842773,  3.44023132,end
timer_stats,697711251221344,PAPI_L3_TCM,0, 28.46154785,  3.44882202,end
timer_stats,697711252384808,PAPI_L3_TCM,2, 28.53088379,  3.45764160,end
timer_stats,697711253542995,PAPI_L3_TCM,0, 28.60144043,  3.46623230,end
timer_stats,697711254701015,PAPI_L3_TCM,0, 28.67187500,  3.47483826,end
timer_stats,697711255859239,PAPI_L3_TCM,0, 28.78814697,  3.48855591,end
timer_stats,697711257020159,PAPI_L3_TCM,1, 28.88763428,  3.50357056,end
timer_stats,697711258178556,PAPI_L3_TCM,0, 28.95709228,  3.51370239,end
timer_stats,697711259337160,PAPI_L3_TCM,0, 29.02941894,  3.52204895,end
timer_stats,697711260512118,PAPI_L3_TCM,1, 29.09973144,  3.53062439,end
timer_stats,697711261682857,PAPI_L3_TCM,1, 29.16979980,  3.53923035,end
timer_stats,697711262851518,PAPI_L3_TCM,0, 29.28900146,  3.55293274,end
timer_stats,697711264031339,PAPI_L3_TCM,1, 29.38500976,  3.56816101,end
timer_stats,697711265178109,PAPI_L3_TCM,0, 29.45831299,  3.57823181,end
timer_stats,697711266348232,PAPI_L3_TCM,0, 29.52661133,  3.58702087,end
timer_stats,697711267509116,PAPI_L3_TCM,0, 29.59704590,  3.59538269,end
timer_stats,697711268669377,PAPI_L3_TCM,1, 29.66723633,  3.60420227,end
timer_stats,697711269838683,PAPI_L3_TCM,0, 29.78930664,  3.61770630,end
timer_stats,697711270982384,PAPI_L3_TCM,1, 29.85656738,  3.62654114,end
timer_stats,697711272133071,PAPI_L3_TCM,1, 29.95477295,  3.64154053,end
timer_stats,697711273285071,PAPI_L3_TCM,0, 30.02630615,  3.64984131,end
timer_stats,697711274465298,PAPI_L3_TCM,0, 30.09405518,  3.65817261,end
timer_stats,697711275638542,PAPI_L3_TCM,0, 30.16265869,  3.66650390,end
timer_stats,697711276818190,PAPI_L3_TCM,1, 30.27673340,  3.68026733,end
timer_stats,697711277992110,PAPI_L3_TCM,0, 30.37310791,  3.69418335,end
timer_stats,697711279165354,PAPI_L3_TCM,0, 30.44201660,  3.70277405,end
timer_stats,697711280339547,PAPI_L3_TCM,1, 30.50994873,  3.71134949,end
timer_stats,697711281497328,PAPI_L3_TCM,0, 30.58367920,  3.72035217,end
timer_stats,697711282676205,PAPI_L3_TCM,0, 30.65087890,  3.72938538,end
timer_stats,697711283852573,PAPI_L3_TCM,0, 30.76733398,  3.74334717,end
timer_stats,697711285032822,PAPI_L3_TCM,2, 30.86230469,  3.75727844,end
timer_stats,697711286209736,PAPI_L3_TCM,0, 30.93212891,  3.76585388,end
timer_stats,697711287394800,PAPI_L3_TCM,0, 31.00109863,  3.77442932,end
timer_stats,697711288579368,PAPI_L3_TCM,1, 31.07147217,  3.78324890,end
timer_stats,697711289755021,PAPI_L3_TCM,0, 31.13909912,  3.79206848,end
timer_stats,697711290926988,PAPI_L3_TCM,0, 31.25506592,  3.80604553,end
timer_stats,697711292085965,PAPI_L3_TCM,1, 31.35388183,  3.82124328,end
timer_stats,697711293235199,PAPI_L3_TCM,0, 31.41949463,  3.83009338,end
timer_stats,697711294418579,PAPI_L3_TCM,0, 31.49053955,  3.83863830,end
timer_stats,697711295589326,PAPI_L3_TCM,0, 31.55963135,  3.84745788,end
timer_stats,697711296743310,PAPI_L3_TCM,1, 31.62939453,  3.85626221,end
timer_stats,697711297921270,PAPI_L3_TCM,0, 31.75531006,  3.87066650,end
timer_stats,697711299096887,PAPI_L3_TCM,0, 31.85260010,  3.88589477,end
timer_stats,697711300270475,PAPI_L3_TCM,1, 31.92150879,  3.89425659,end
timer_stats,697711301461185,PAPI_L3_TCM,1, 31.99188232,  3.90281677,end
timer_stats,697711302634512,PAPI_L3_TCM,0, 32.05920410,  3.91165161,end
timer_stats,697711303812112,PAPI_L3_TCM,0, 32.12811279,  3.92047119,end
timer_stats,697711304938840,PAPI_L3_TCM,2, 32.24755859,  3.93519592,end
timer_stats,697711306051366,PAPI_L3_TCM,0, 32.36224365,  3.95109558,end
timer_stats,697711307159643,PAPI_L3_TCM,0, 32.44311523,  3.96162415,end
timer_stats,697711308268823,PAPI_L3_TCM,3, 32.52514648,  3.97259521,end
timer_stats,697711309351267,PAPI_L3_TCM,0, 32.60760498,  3.98269653,end
timer_stats,697711310449153,PAPI_L3_TCM,0, 32.69061279,  3.99276733,end
timer_stats,697711311558407,PAPI_L3_TCM,0, 32.77197265,  4.00283813,end
timer_stats,697711312666981,PAPI_L3_TCM,2, 32.85858154,  4.01287842,end
timer_stats,697711313775178,PAPI_L3_TCM,0, 32.93725586,  4.02349853,end
timer_stats,697711314870041,PAPI_L3_TCM,0, 33.02111816,  4.03350830,end
timer_stats,697711315978058,PAPI_L3_TCM,0, 33.15246582,  4.04902649,end
timer_stats,697711317096562,PAPI_L3_TCM,3, 33.26495361,  4.06449890,end
timer_stats,697711318204932,PAPI_L3_TCM,0, 33.34606934,  4.07484436,end
timer_stats,697711319312882,PAPI_L3_TCM,1, 33.42742920,  4.08534241,end
timer_stats,697711321032391,PAPI_L3_TCM,39, 33.59149170,  4.10551453,end
timer_stats,697711322141695,PAPI_L3_TCM,1, 33.67254639,  4.11581421,end
timer_stats,697711323249958,PAPI_L3_TCM,0, 33.75720215,  4.12564087,end
timer_stats,697711324361325,PAPI_L3_TCM,1, 33.84234619,  4.13595581,end
timer_stats,697711325445745,PAPI_L3_TCM,1, 33.92822266,  4.14648437,end
timer_stats,697711326541202,PAPI_L3_TCM,1, 34.01318359,  4.15679932,end
timer_stats,697711327637195,PAPI_L3_TCM,0, 34.09759521,  4.16687012,end
timer_stats,697711328745372,PAPI_L3_TCM,0, 34.18157959,  4.17741394,end
timer_stats,697711329840239,PAPI_L3_TCM,0, 34.26251221,  4.18778992,end
timer_stats,697711330934576,PAPI_L3_TCM,0, 34.40417480,  4.20277405,end
timer_stats,697711332031089,PAPI_L3_TCM,2, 34.48480225,  4.21311950,end
timer_stats,697711333112313,PAPI_L3_TCM,0, 34.60284424,  4.22923279,end
timer_stats,697711334219616,PAPI_L3_TCM,0, 34.68688965,  4.23951721,end
timer_stats,697711335328163,PAPI_L3_TCM,1, 34.76873779,  4.24986267,end
timer_stats,697711336437820,PAPI_L3_TCM,2, 34.85705566,  4.26036072,end
timer_stats,697711337546247,PAPI_L3_TCM,0, 34.93103027,  4.27070618,end
timer_stats,697711338654407,PAPI_L3_TCM,0, 35.01483154,  4.28074646,end
timer_stats,697711339761261,PAPI_L3_TCM,0, 35.09417724,  4.29060364,end
timer_stats,697711340868407,PAPI_L3_TCM,2, 35.17480469,  4.30070495,end
timer_stats,697711341975834,PAPI_L3_TCM,0, 35.30371094,  4.31620788,end
timer_stats,697711343062994,PAPI_L3_TCM,0, 35.41693115,  4.33145142,end
timer_stats,697711344384632,PAPI_L3_TCM,48, 35.49572754,  4.34179687,end
timer_stats,697711345576319,PAPI_L3_TCM,14, 35.57135010,  4.35163879,end
timer_stats,697711346687223,PAPI_L3_TCM,1, 35.65057373,  4.36152649,end
timer_stats,697711347797093,PAPI_L3_TCM,2, 35.72711182,  4.37162781,end
timer_stats,697711348910783,PAPI_L3_TCM,0, 35.85083008,  4.38642883,end
timer_stats,697711350075567,PAPI_L3_TCM,0, 35.96179199,  4.40168762,end
timer_stats,697711351242267,PAPI_L3_TCM,0, 36.03967285,  4.41198730,end
timer_stats,697711352412494,PAPI_L3_TCM,1, 36.11419678,  4.42077637,end
timer_stats,697711353554208,PAPI_L3_TCM,5, 36.18945312,  4.42912292,end
timer_stats,697711354708922,PAPI_L3_TCM,1, 36.26672363,  4.43788147,end
timer_stats,697711355875192,PAPI_L3_TCM,0, 36.34393310,  4.44764709,end
timer_stats,697711357041416,PAPI_L3_TCM,0, 36.46087646,  4.45652771,end
timer_stats,697711358197380,PAPI_L3_TCM,0, 36.57537842,  4.47171020,end
timer_stats,697711359354243,PAPI_L3_TCM,1, 36.65783691,  4.48019409,end
timer_stats,697711360524787,PAPI_L3_TCM,2, 36.74163818,  4.48843384,end
timer_stats,697711361694241,PAPI_L3_TCM,0, 36.81176758,  4.49728393,end
timer_stats,697711362851401,PAPI_L3_TCM,1, 36.88500976,  4.50604248,end
timer_stats,697711364032304,PAPI_L3_TCM,1, 37.00073242,  4.52005005,end
timer_stats,697711365205908,PAPI_L3_TCM,0, 37.10009766,  4.53532410,end
timer_stats,697711366382752,PAPI_L3_TCM,0, 37.17163086,  4.54389954,end
timer_stats,697711367553463,PAPI_L3_TCM,0, 37.24182129,  4.55247497,end
timer_stats,697711368727359,PAPI_L3_TCM,0, 37.31011963,  4.56132507,end
timer_stats,697711369895487,PAPI_L3_TCM,1, 37.38580322,  4.57032776,end
timer_stats,697711371061177,PAPI_L3_TCM,0, 37.53240967,  4.58992004,end
timer_stats,697711372227110,PAPI_L3_TCM,3, 37.60968017,  4.59997559,end
timer_stats,697711373396161,PAPI_L3_TCM,0, 37.68341064,  4.60858154,end
timer_stats,697711374561788,PAPI_L3_TCM,0, 37.75439453,  4.61715698,end
timer_stats,697711375725516,PAPI_L3_TCM,1, 37.83245849,  4.62637329,end
timer_stats,697711376891285,PAPI_L3_TCM,1, 37.90722656,  4.63519287,end
timer_stats,697711378055946,PAPI_L3_TCM,0, 38.02856445,  4.64920044,end
timer_stats,697711379219717,PAPI_L3_TCM,0, 38.13305664,  4.66426086,end
timer_stats,697711380354096,PAPI_L3_TCM,0, 38.20947265,  4.67304993,end
timer_stats,697711381494670,PAPI_L3_TCM,2, 38.29113770,  4.68336487,end
timer_stats,697711382659724,PAPI_L3_TCM,0, 38.36920166,  4.69264221,end
timer_stats,697711383797967,PAPI_L3_TCM,0, 38.44561768,  4.70146179,end
timer_stats,697711384936921,PAPI_L3_TCM,1, 38.52044678,  4.71028137,end
timer_stats,697711386078135,PAPI_L3_TCM,0, 38.68164062,  4.72547912,end
timer_stats,697711387218785,PAPI_L3_TCM,0, 38.75811768,  4.74101257,end
timer_stats,697711388373716,PAPI_L3_TCM,1, 38.83514404,  4.74960327,end
timer_stats,697711389513359,PAPI_L3_TCM,0, 38.91125488,  4.75820923,end
timer_stats,697711390654893,PAPI_L3_TCM,2, 38.99279785,  4.76695251,end
timer_stats,697711391794507,PAPI_L3_TCM,0, 39.07220459,  4.77549744,end
timer_stats,697711392936513,PAPI_L3_TCM,1, 39.14923096,  4.78410339,end
timer_stats,697711394079620,PAPI_L3_TCM,0, 39.27429199,  4.79936218,end
timer_stats,697711395219171,PAPI_L3_TCM,0, 39.38708496,  4.81462097,end
timer_stats,697711396362914,PAPI_L3_TCM,1, 39.46990967,  4.82315063,end
timer_stats,697711397503091,PAPI_L3_TCM,0, 39.55181885,  4.83193970,end
timer_stats,697711398641439,PAPI_L3_TCM,0, 39.63244629,  4.84176636,end
timer_stats,697711399792685,PAPI_L3_TCM,2, 39.71057129,  4.85058594,end
timer_stats,697711400931206,PAPI_L3_TCM,0, 39.79144287,  4.85940552,end
timer_stats,697711402072460,PAPI_L3_TCM,2, 39.91949463,  4.87315369,end
timer_stats,697711403206226,PAPI_L3_TCM,0, 40.03698730,  4.88951111,end
timer_stats,697711404315280,PAPI_L3_TCM,3, 40.12030029,  4.90007019,end
timer_stats,697711405426156,PAPI_L3_TCM,3, 40.20819092,  4.91007995,end
timer_stats,697711406828231,PAPI_L3_TCM,34, 40.28997803,  4.91979980,end
timer_stats,697711407968701,PAPI_L3_TCM,3, 40.36499023,  4.92858887,end
timer_stats,697711409076798,PAPI_L3_TCM,2, 40.51721191,  4.94921875,end
timer_stats,697711410246206,PAPI_L3_TCM,0, 40.59320068,  4.95904541,end
timer_stats,697711411416040,PAPI_L3_TCM,1, 40.66613769,  4.96630859,end
timer_stats,697711412554644,PAPI_L3_TCM,0, 40.73535156,  4.97579956,end
timer_stats,697711413726243,PAPI_L3_TCM,2, 40.81195068,  4.98510742,end
timer_stats,697711414880677,PAPI_L3_TCM,1, 40.88830566,  4.99365234,end
timer_stats,697711416021958,PAPI_L3_TCM,4, 41.00897217,  5.00912476,end
timer_stats,697711417129684,PAPI_L3_TCM,2, 41.12322998,  5.02458191,end
timer_stats,697711418267705,PAPI_L3_TCM,3, 41.20446777,  5.03486633,end
timer_stats,697711419405328,PAPI_L3_TCM,0, 41.28491211,  5.04518127,end
timer_stats,697711420557592,PAPI_L3_TCM,1, 41.36413574,  5.05506897,end
timer_stats,697711421724353,PAPI_L3_TCM,2, 41.45172119,  5.06463623,end
timer_stats,697711422882509,PAPI_L3_TCM,0, 41.52941895,  5.07191467,end
timer_stats,697711424035446,PAPI_L3_TCM,2, 41.64575195,  5.08592224,end
timer_stats,697711425166634,PAPI_L3_TCM,0, 41.76501465,  5.09962463,end
timer_stats,697711426309530,PAPI_L3_TCM,0, 41.84234619,  5.10691833,end
timer_stats,697711428249920,PAPI_L3_TCM,32, 41.99914551,  5.12338257,end
timer_stats,697711429379059,PAPI_L3_TCM,5, 42.07885742,  5.13375854,end
timer_stats,697711430524384,PAPI_L3_TCM,1, 42.16094971,  5.14404297,end
timer_stats,697711431657155,PAPI_L3_TCM,0, 42.24121094,  5.15281677,end
timer_stats,697711432795491,PAPI_L3_TCM,1, 42.32098389,  5.16134643,end
timer_stats,697711433889765,PAPI_L3_TCM,0, 42.40521240,  5.17163086,end
timer_stats,697711434996550,PAPI_L3_TCM,0, 42.53924560,  5.18801880,end
timer_stats,697711436101184,PAPI_L3_TCM,2, 42.63067627,  5.19921875,end
timer_stats,697711437225818,PAPI_L3_TCM,2, 42.76068115,  5.21601868,end
timer_stats,697711438356309,PAPI_L3_TCM,0, 42.84515381,  5.22528076,end
timer_stats,697711439492115,PAPI_L3_TCM,1, 42.93597412,  5.23472595,end
timer_stats,697711440635087,PAPI_L3_TCM,0, 43.02252197,  5.24504089,end
timer_stats,697711441775560,PAPI_L3_TCM,1, 43.11462402,  5.25462341,end
timer_stats,697711442912786,PAPI_L3_TCM,0, 43.20825195,  5.26359558,end
timer_stats,697711444027847,PAPI_L3_TCM,3, 43.29748535,  5.27217102,end
timer_stats,697711445147976,PAPI_L3_TCM,0, 43.48205566,  5.29251098,end
timer_stats,697711446303674,PAPI_L3_TCM,2, 43.57073974,  5.30154419,end
timer_stats,697711447456712,PAPI_L3_TCM,0, 43.65527344,  5.31082153,end
timer_stats,697711448574012,PAPI_L3_TCM,1, 43.73907471,  5.31781006,end
timer_stats,697711449721630,PAPI_L3_TCM,0, 43.82720947,  5.32836914,end
timer_stats,697711450861612,PAPI_L3_TCM,1, 43.91625976,  5.33560181,end
timer_stats,697711452022307,PAPI_L3_TCM,3, 44.00054932,  5.34288025,end
timer_stats,697711453155354,PAPI_L3_TCM,1, 44.17114258,  5.36126709,end
timer_stats,697711454310539,PAPI_L3_TCM,0, 44.25158691,  5.36857605,end
timer_stats,697711455461780,PAPI_L3_TCM,2, 44.33319092,  5.37561035,end
timer_stats,697711456613910,PAPI_L3_TCM,0, 44.41949463,  5.38284302,end
timer_stats,697711457766518,PAPI_L3_TCM,1, 44.50592041,  5.39294434,end
timer_stats,697711458932294,PAPI_L3_TCM,0, 44.58660889,  5.40025329,end
timer_stats,697711460091328,PAPI_L3_TCM,2, 44.71466064,  5.41244507,end
timer_stats,697711461229149,PAPI_L3_TCM,0, 44.84442139,  5.42721557,end
timer_stats,697711462401042,PAPI_L3_TCM,1, 44.92657471,  5.43449402,end
timer_stats,697711463561389,PAPI_L3_TCM,0, 45.00683594,  5.44178772,end
timer_stats,697711464741380,PAPI_L3_TCM,3, 45.09301758,  5.44880676,end
timer_stats,697711465894720,PAPI_L3_TCM,0, 45.17626953,  5.45608520,end
timer_stats,697711467071207,PAPI_L3_TCM,0, 45.29992676,  5.46905517,end
timer_stats,697711468223927,PAPI_L3_TCM,1, 45.42547607,  5.48301697,end
timer_stats,697711469364575,PAPI_L3_TCM,1, 45.50646973,  5.49008179,end
timer_stats,697711470529088,PAPI_L3_TCM,0, 45.59136963,  5.49731445,end
timer_stats,697711471691618,PAPI_L3_TCM,1, 45.67395020,  5.50488281,end
timer_stats,697711472848119,PAPI_L3_TCM,1, 45.75671387,  5.51214600,end
timer_stats,697711474010956,PAPI_L3_TCM,2, 45.87945557,  5.52484131,end
timer_stats,697711475193279,PAPI_L3_TCM,0, 46.01104736,  5.53767395,end
timer_stats,697711476385757,PAPI_L3_TCM,3, 46.08850098,  5.54675293,end
timer_stats,697711477547547,PAPI_L3_TCM,0, 46.16906738,  5.55474853,end
timer_stats,697711478703324,PAPI_L3_TCM,1, 46.25103760,  5.56219482,end
timer_stats,697711479822818,PAPI_L3_TCM,0, 46.33264160,  5.57075500,end
timer_stats,697711480970695,PAPI_L3_TCM,1, 46.41351318,  5.58103943,end
timer_stats,697711482107388,PAPI_L3_TCM,0, 46.54040527,  5.59518432,end
timer_stats,697711483242842,PAPI_L3_TCM,2, 46.64984131,  5.61068726,end
timer_stats,697711484394359,PAPI_L3_TCM,1, 46.73028564,  5.61943054,end
timer_stats,697711485532562,PAPI_L3_TCM,0, 46.80334473,  5.62825012,end
timer_stats,697711486682350,PAPI_L3_TCM,0, 46.88189697,  5.63700867,end
timer_stats,697711487828797,PAPI_L3_TCM,1, 46.95587158,  5.64582825,end
timer_stats,697711488977980,PAPI_L3_TCM,1, 47.03204346,  5.65461731,end
timer_stats,697711490128691,PAPI_L3_TCM,1, 47.15527344,  5.66809082,end
timer_stats,697711491265658,PAPI_L3_TCM,0, 47.26519775,  5.68386841,end
timer_stats,697711492407251,PAPI_L3_TCM,3, 47.34667969,  5.69262695,end
timer_stats,697711493556338,PAPI_L3_TCM,0, 47.42822266,  5.70141601,end
timer_stats,697711494712552,PAPI_L3_TCM,0, 47.51446533,  5.71018982,end
timer_stats,697711495847995,PAPI_L3_TCM,0, 47.59893799,  5.71878052,end
timer_stats,697711496983703,PAPI_L3_TCM,0, 47.67773437,  5.72738647,end
timer_stats,697711498131459,PAPI_L3_TCM,0, 47.85040283,  5.74131775,end
timer_stats,697711499264560,PAPI_L3_TCM,1, 47.93621826,  5.75653076,end
timer_stats,697711500401857,PAPI_L3_TCM,1, 48.02606201,  5.76574707,end
timer_stats,697711501538140,PAPI_L3_TCM,2, 48.10583496,  5.77435303,end
timer_stats,697711502673447,PAPI_L3_TCM,0, 48.19213867,  5.78385925,end
timer_stats,697711503805778,PAPI_L3_TCM,0, 48.27508545,  5.79283142,end
timer_stats,697711504940368,PAPI_L3_TCM,1, 48.36236572,  5.80183411,end
timer_stats,697711506089925,PAPI_L3_TCM,1, 48.49426269,  5.81628418,end
timer_stats,697711507226101,PAPI_L3_TCM,0, 48.61706543,  5.83145142,end
timer_stats,697711508376145,PAPI_L3_TCM,2, 48.70068359,  5.84098816,end
timer_stats,697711509512496,PAPI_L3_TCM,0, 48.78405762,  5.84977722,end
timer_stats,697711510648019,PAPI_L3_TCM,2, 48.86975098,  5.85850525,end
timer_stats,697711511794220,PAPI_L3_TCM,0, 48.95477295,  5.86729431,end
timer_stats,697711513109510,PAPI_L3_TCM,258, 49.09051514,  5.88168335,end
timer_stats,697711514275161,PAPI_L3_TCM,77, 49.20770263,  5.89564514,end
timer_stats,697711515410785,PAPI_L3_TCM,4, 49.29473877,  5.90417480,end
timer_stats,697711516549748,PAPI_L3_TCM,1, 49.38195801,  5.91291809,end
timer_stats,697711517684295,PAPI_L3_TCM,3, 49.46685791,  5.92347717,end
timer_stats,697711518821022,PAPI_L3_TCM,0, 49.55212402,  5.93246460,end
timer_stats,697711519971346,PAPI_L3_TCM,2, 49.63574219,  5.94146728,end
timer_stats,697711521138863,PAPI_L3_TCM,1, 49.76275635,  5.95629883,end
timer_stats,697711522301747,PAPI_L3_TCM,2, 49.87225342,  5.97047424,end
timer_stats,697711523464770,PAPI_L3_TCM,0, 49.95574951,  5.97895813,end
timer_stats,697711524630084,PAPI_L3_TCM,2, 50.03710937,  5.98872375,end
timer_stats,697711525787761,PAPI_L3_TCM,1, 50.11853027,  5.99928284,end
timer_stats,697711526941548,PAPI_L3_TCM,1, 50.19897461,  6.00880432,end
timer_stats,697711528121592,PAPI_L3_TCM,0, 50.30963135,  6.02235412,end
timer_stats,697711529279516,PAPI_L3_TCM,2, 50.41650390,  6.03684997,end
timer_stats,697711530453479,PAPI_L3_TCM,0, 50.48596191,  6.04367065,end
timer_stats,697711531641466,PAPI_L3_TCM,2, 50.56451416,  6.05084228,end
timer_stats,697711532801640,PAPI_L3_TCM,0, 50.63354492,  6.05853271,end
timer_stats,697711533987947,PAPI_L3_TCM,0, 50.71441650,  6.06857300,end
timer_stats,697711535160328,PAPI_L3_TCM,0, 50.81860351,  6.08245850,end
timer_stats,697711536333661,PAPI_L3_TCM,1, 50.92706299,  6.09486389,end
timer_stats,697711537519915,PAPI_L3_TCM,0, 51.00805664,  6.10466003,end
timer_stats,697711538701332,PAPI_L3_TCM,3, 51.08111572,  6.11323547,end
timer_stats,697711539887153,PAPI_L3_TCM,0, 51.14752197,  6.12142944,end
timer_stats,697711541050019,PAPI_L3_TCM,2, 51.22241211,  6.13044739,end
timer_stats,697711542201317,PAPI_L3_TCM,0, 51.36187744,  6.14604187,end
timer_stats,697711543353777,PAPI_L3_TCM,0, 51.45007324,  6.15632629,end
timer_stats,697711544504434,PAPI_L3_TCM,1, 51.56768799,  6.17185974,end
timer_stats,697711545673074,PAPI_L3_TCM,1, 51.65966797,  6.18235779,end
timer_stats,697711546840725,PAPI_L3_TCM,0, 51.74432373,  6.19270325,end
timer_stats,697711548017386,PAPI_L3_TCM,2, 51.83251953,  6.20254517,end
timer_stats,697711549183520,PAPI_L3_TCM,1, 51.96417236,  6.21780395,end
timer_stats,697711550344580,PAPI_L3_TCM,2, 52.08404541,  6.23284912,end
timer_stats,697711551508577,PAPI_L3_TCM,0, 52.16796875,  6.24313354,end
timer_stats,697711552671814,PAPI_L3_TCM,0, 52.25952148,  6.25335693,end
timer_stats,697711553832618,PAPI_L3_TCM,0, 52.33148193,  6.26354980,end
timer_stats,697711554994138,PAPI_L3_TCM,2, 52.42419434,  6.27374268,end
timer_stats,697711556158888,PAPI_L3_TCM,1, 52.54211426,  6.28930664,end
timer_stats,697711557325909,PAPI_L3_TCM,2, 52.65997314,  6.30480957,end
timer_stats,697711558497816,PAPI_L3_TCM,0, 52.73522949,  6.31387329,end
timer_stats,697711559666136,PAPI_L3_TCM,2, 52.81231689,  6.32315063,end
timer_stats,697711560836583,PAPI_L3_TCM,0, 52.89056396,  6.33236694,end
timer_stats,697711562004227,PAPI_L3_TCM,0, 52.97308349,  6.34309387,end
timer_stats,697711563170134,PAPI_L3_TCM,0, 53.09667969,  6.35719299,end
timer_stats,697711564363564,PAPI_L3_TCM,1, 53.19305420,  6.36634827,end
