timer_stats,697283175106913,PAPI_L3_TCM,285,  0.08721924,  0.01000977,end
timer_stats,697283176207881,PAPI_L3_TCM,35,  0.17803955,  0.02050781,end
timer_stats,697283177308195,PAPI_L3_TCM,9,  0.26153564,  0.03198242,end
timer_stats,697283178438017,PAPI_L3_TCM,10,  0.35321045,  0.04165649,end
timer_stats,697283179595999,PAPI_L3_TCM,3,  0.53131103,  0.06266785,end
timer_stats,697283180729090,PAPI_L3_TCM,1,  0.62353516,  0.07295227,end
timer_stats,697283181901911,PAPI_L3_TCM,11,  0.70782471,  0.08372497,end
timer_stats,697283183057603,PAPI_L3_TCM,9,  0.79687500,  0.09400940,end
timer_stats,697283184185968,PAPI_L3_TCM,4,  0.89062500,  0.10450745,end
timer_stats,697283185320876,PAPI_L3_TCM,6,  0.98309326,  0.11479187,end
timer_stats,697283186459907,PAPI_L3_TCM,2,  1.06994629,  0.12532043,end
timer_stats,697283187623368,PAPI_L3_TCM,4,  1.26184082,  0.14761352,end
timer_stats,697283188779800,PAPI_L3_TCM,5,  1.35278320,  0.15829468,end
timer_stats,697283189937175,PAPI_L3_TCM,1,  1.43444824,  0.16880798,end
timer_stats,697283191094082,PAPI_L3_TCM,1,  1.52655029,  0.17912292,end
timer_stats,697283192225784,PAPI_L3_TCM,5,  1.61444092,  0.18917847,end
timer_stats,697283193358938,PAPI_L3_TCM,1,  1.70507812,  0.19949341,end
timer_stats,697283194508003,PAPI_L3_TCM,1,  1.83953857,  0.21002197,end
timer_stats,697283195662895,PAPI_L3_TCM,0,  1.97662353,  0.23126221,end
timer_stats,697283196817563,PAPI_L3_TCM,1,  2.06188965,  0.24163818,end
timer_stats,697283197974341,PAPI_L3_TCM,0,  2.15130615,  0.25170898,end
timer_stats,697283199120839,PAPI_L3_TCM,0,  2.23931885,  0.26200867,end
timer_stats,697283200253654,PAPI_L3_TCM,0,  2.33074951,  0.27253723,end
timer_stats,697283201400522,PAPI_L3_TCM,2,  2.41876221,  0.28285217,end
timer_stats,697283202547704,PAPI_L3_TCM,0,  2.60388184,  0.30322266,end
timer_stats,697283203717361,PAPI_L3_TCM,1,  2.69750976,  0.31399536,end
timer_stats,697283204879576,PAPI_L3_TCM,0,  2.79559326,  0.32424927,end
timer_stats,697283206039998,PAPI_L3_TCM,1,  2.89501953,  0.33425903,end
timer_stats,697283207190556,PAPI_L3_TCM,0,  2.98107910,  0.34463501,end
timer_stats,697283208325334,PAPI_L3_TCM,2,  3.07604980,  0.35516357,end
timer_stats,697283209464315,PAPI_L3_TCM,0,  3.17828369,  0.36541748,end
timer_stats,697283210612130,PAPI_L3_TCM,2,  3.36914062,  0.38623047,end
timer_stats,697283211774812,PAPI_L3_TCM,0,  3.46472168,  0.39746094,end
timer_stats,697283212937263,PAPI_L3_TCM,2,  3.55902100,  0.40777588,end
timer_stats,697283214084318,PAPI_L3_TCM,0,  3.65234375,  0.41766357,end
timer_stats,697283215232342,PAPI_L3_TCM,1,  3.75067139,  0.42953491,end
timer_stats,697283216363787,PAPI_L3_TCM,2,  3.84625244,  0.44158935,end
timer_stats,697283217470761,PAPI_L3_TCM,0,  3.94439697,  0.45217895,end
timer_stats,697283218608166,PAPI_L3_TCM,0,  4.13977051,  0.46786499,end
timer_stats,697283219756757,PAPI_L3_TCM,1,  4.23071289,  0.48381042,end
timer_stats,697283220906112,PAPI_L3_TCM,1,  4.32385254,  0.49388122,end
timer_stats,697283222053820,PAPI_L3_TCM,1,  4.41851807,  0.50376892,end
timer_stats,697283223198595,PAPI_L3_TCM,1,  4.51190185,  0.51359558,end
timer_stats,697283224372447,PAPI_L3_TCM,2,  4.60339355,  0.52232361,end
timer_stats,697283225538308,PAPI_L3_TCM,0,  4.72619629,  0.53654480,end
timer_stats,697283226701459,PAPI_L3_TCM,0,  4.85919189,  0.55047607,end
timer_stats,697283227872888,PAPI_L3_TCM,0,  4.94458008,  0.55928040,end
timer_stats,697283229046219,PAPI_L3_TCM,3,  5.03442383,  0.56782532,end
timer_stats,697283230212434,PAPI_L3_TCM,0,  5.11883545,  0.57643127,end
timer_stats,697283231386443,PAPI_L3_TCM,1,  5.20233154,  0.58500671,end
timer_stats,697283232563441,PAPI_L3_TCM,1,  5.33312988,  0.59999084,end
timer_stats,697283233738168,PAPI_L3_TCM,1,  5.46673584,  0.61373901,end
timer_stats,697283234899890,PAPI_L3_TCM,0,  5.55657959,  0.62225342,end
timer_stats,697283236086352,PAPI_L3_TCM,1,  5.63928223,  0.63110351,end
timer_stats,697283237218637,PAPI_L3_TCM,0,  5.72473144,  0.63940429,end
timer_stats,697283238397335,PAPI_L3_TCM,2,  5.80926514,  0.64819336,end
timer_stats,697283239579160,PAPI_L3_TCM,0,  5.97985840,  0.66706848,end
timer_stats,697283240752085,PAPI_L3_TCM,2,  6.06909180,  0.67582703,end
timer_stats,697283241935939,PAPI_L3_TCM,0,  6.14916992,  0.68440247,end
timer_stats,697283243113794,PAPI_L3_TCM,0,  6.23486328,  0.69294739,end
timer_stats,697283244298786,PAPI_L3_TCM,1,  6.32196045,  0.70295715,end
timer_stats,697283245454834,PAPI_L3_TCM,0,  6.40368652,  0.71177673,end
timer_stats,697283246623002,PAPI_L3_TCM,3,  6.57501221,  0.73181152,end
timer_stats,697283247783293,PAPI_L3_TCM,2,  6.66162109,  0.74057007,end
timer_stats,697283248955508,PAPI_L3_TCM,1,  6.74652100,  0.74935913,end
timer_stats,697283250139596,PAPI_L3_TCM,1,  6.83050537,  0.75813293,end
timer_stats,697283251324061,PAPI_L3_TCM,0,  6.91040039,  0.76695251,end
timer_stats,697283252500746,PAPI_L3_TCM,1,  7.02679443,  0.77549744,end
timer_stats,697283253684305,PAPI_L3_TCM,0,  7.15789795,  0.79461670,end
timer_stats,697283254868530,PAPI_L3_TCM,0,  7.24206543,  0.80313110,end
timer_stats,697283256053294,PAPI_L3_TCM,1,  7.32348633,  0.81169128,end
timer_stats,697283257187439,PAPI_L3_TCM,2,  7.41058350,  0.82046509,end
timer_stats,697283258371630,PAPI_L3_TCM,0,  7.49072265,  0.82925415,end
timer_stats,697283259553815,PAPI_L3_TCM,1,  7.62060547,  0.83827209,end
timer_stats,697283260714044,PAPI_L3_TCM,1,  7.73858643,  0.85842895,end
timer_stats,697283261886372,PAPI_L3_TCM,0,  7.82141113,  0.86718750,end
timer_stats,697283263059230,PAPI_L3_TCM,0,  7.89971924,  0.87602234,end
timer_stats,697283264247255,PAPI_L3_TCM,1,  7.98468018,  0.88479614,end
timer_stats,697283265408289,PAPI_L3_TCM,0,  8.06823730,  0.89358520,end
timer_stats,697283266602098,PAPI_L3_TCM,2,  8.18676758,  0.90731811,end
timer_stats,697283267762836,PAPI_L3_TCM,0,  8.32507324,  0.91744995,end
timer_stats,697283268939371,PAPI_L3_TCM,2,  8.41156006,  0.92620850,end
timer_stats,697283270113583,PAPI_L3_TCM,0,  8.49353027,  0.93481445,end
timer_stats,697283271289564,PAPI_L3_TCM,0,  8.58007812,  0.94381714,end
timer_stats,697283272467655,PAPI_L3_TCM,1,  8.66143799,  0.95263672,end
timer_stats,697283273643483,PAPI_L3_TCM,0,  8.83129883,  0.97348022,end
timer_stats,697283274807982,PAPI_L3_TCM,0,  8.91479492,  0.98202515,end
timer_stats,697283275988647,PAPI_L3_TCM,2,  8.99487305,  0.99063110,end
timer_stats,697283277166358,PAPI_L3_TCM,1,  9.08239746,  0.99935913,end
timer_stats,697283278341342,PAPI_L3_TCM,1,  9.16308594,  1.00793457,end
timer_stats,697283279521594,PAPI_L3_TCM,0,  9.24578857,  1.01647949,end
timer_stats,697283280700069,PAPI_L3_TCM,1,  9.40991211,  1.03381348,end
timer_stats,697283281891564,PAPI_L3_TCM,0,  9.49438476,  1.04235840,end
timer_stats,697283283057182,PAPI_L3_TCM,0,  9.57727051,  1.05113220,end
timer_stats,697283284234127,PAPI_L3_TCM,2,  9.65429687,  1.05998230,end
timer_stats,697283285387396,PAPI_L3_TCM,3,  9.73535156,  1.06877136,end
timer_stats,697283286556057,PAPI_L3_TCM,0,  9.81561279,  1.07759094,end
timer_stats,697283287721395,PAPI_L3_TCM,1,  9.98297119,  1.09732056,end
timer_stats,697283288899166,PAPI_L3_TCM,1, 10.06530762,  1.10632324,end
timer_stats,697283290063371,PAPI_L3_TCM,0, 10.14556885,  1.11492920,end
timer_stats,697283291231140,PAPI_L3_TCM,0, 10.22729492,  1.12371826,end
timer_stats,697283292396645,PAPI_L3_TCM,1, 10.30920410,  1.13249206,end
timer_stats,697283293549082,PAPI_L3_TCM,0, 10.39044189,  1.14103699,end
timer_stats,697283294716047,PAPI_L3_TCM,2, 10.55371094,  1.16166687,end
timer_stats,697283295882052,PAPI_L3_TCM,0, 10.63568115,  1.17047119,end
timer_stats,697283297059264,PAPI_L3_TCM,2, 10.71575928,  1.17877197,end
timer_stats,697283298239182,PAPI_L3_TCM,0, 10.79638672,  1.18734741,end
timer_stats,697283299420524,PAPI_L3_TCM,0, 10.87609863,  1.19615173,end
timer_stats,697283300616252,PAPI_L3_TCM,1, 11.00732422,  1.21009827,end
timer_stats,697283301804316,PAPI_L3_TCM,0, 11.12048340,  1.22402954,end
timer_stats,697283302983318,PAPI_L3_TCM,0, 11.19769287,  1.23286438,end
timer_stats,697283304164536,PAPI_L3_TCM,3, 11.27746582,  1.24166870,end
timer_stats,697283305328404,PAPI_L3_TCM,0, 11.35473633,  1.25073242,end
timer_stats,697283306508899,PAPI_L3_TCM,1, 11.43127441,  1.25955200,end
timer_stats,697283307686291,PAPI_L3_TCM,0, 11.59356689,  1.27992248,end
timer_stats,697283308878042,PAPI_L3_TCM,1, 11.67541504,  1.28871155,end
timer_stats,697283310056403,PAPI_L3_TCM,0, 11.75097656,  1.29754639,end
timer_stats,697283311237932,PAPI_L3_TCM,0, 11.82788086,  1.30636597,end
timer_stats,697283312424307,PAPI_L3_TCM,1, 11.90972900,  1.31486511,end
timer_stats,697283313589092,PAPI_L3_TCM,2, 11.99066162,  1.32516479,end
timer_stats,697283314742537,PAPI_L3_TCM,0, 12.14697266,  1.34539795,end
timer_stats,697283315921155,PAPI_L3_TCM,1, 12.22418213,  1.35418701,end
timer_stats,697283317101870,PAPI_L3_TCM,1, 12.30426025,  1.36299133,end
timer_stats,697283318281705,PAPI_L3_TCM,0, 12.38970947,  1.37174988,end
timer_stats,697283319465229,PAPI_L3_TCM,0, 12.46881103,  1.38059997,end
timer_stats,697283320644904,PAPI_L3_TCM,1, 12.57843017,  1.39434814,end
timer_stats,697283321824952,PAPI_L3_TCM,0, 12.71478271,  1.40827942,end
timer_stats,697283323016134,PAPI_L3_TCM,20, 12.79071045,  1.41712952,end
timer_stats,697283324196966,PAPI_L3_TCM,2, 12.86968994,  1.42594910,end
timer_stats,697283325361151,PAPI_L3_TCM,1, 12.94921875,  1.43453979,end
timer_stats,697283326543709,PAPI_L3_TCM,0, 13.03179932,  1.44354248,end
timer_stats,697283327724214,PAPI_L3_TCM,0, 13.19409180,  1.46371460,end
timer_stats,697283328904972,PAPI_L3_TCM,1, 13.27740478,  1.47247314,end
timer_stats,697283330087740,PAPI_L3_TCM,0, 13.35583496,  1.48127747,end
timer_stats,697283331268301,PAPI_L3_TCM,0, 13.44085693,  1.48982239,end
timer_stats,697283332453310,PAPI_L3_TCM,2, 13.51867676,  1.49836731,end
timer_stats,697283333634628,PAPI_L3_TCM,0, 13.63214111,  1.51248169,end
timer_stats,697283334817196,PAPI_L3_TCM,1, 13.76617432,  1.52709961,end
timer_stats,697283335998967,PAPI_L3_TCM,0, 13.84790039,  1.53588867,end
timer_stats,697283337200876,PAPI_L3_TCM,1, 13.92968750,  1.54418945,end
timer_stats,697283338394390,PAPI_L3_TCM,0, 14.00958252,  1.55303955,end
timer_stats,697283339576082,PAPI_L3_TCM,0, 14.09155273,  1.56204224,end
timer_stats,697283340770007,PAPI_L3_TCM,1, 14.25384521,  1.58226013,end
timer_stats,697283341963772,PAPI_L3_TCM,2, 14.33435058,  1.59083557,end
timer_stats,697283343157997,PAPI_L3_TCM,0, 14.41802978,  1.60003662,end
timer_stats,697283344351835,PAPI_L3_TCM,2, 14.49566650,  1.60903931,end
timer_stats,697283345520704,PAPI_L3_TCM,0, 14.57543945,  1.61759949,end
timer_stats,697283346703489,PAPI_L3_TCM,0, 14.73510742,  1.63694763,end
timer_stats,697283347888447,PAPI_L3_TCM,0, 14.81439209,  1.64570618,end
timer_stats,697283349069715,PAPI_L3_TCM,1, 14.89318848,  1.65403747,end
timer_stats,697283350265444,PAPI_L3_TCM,0, 14.97235107,  1.66282654,end
timer_stats,697283351463505,PAPI_L3_TCM,2, 15.05114746,  1.67164612,end
timer_stats,697283352659220,PAPI_L3_TCM,1, 15.13104248,  1.68040466,end
timer_stats,697283353821831,PAPI_L3_TCM,1, 15.28289795,  1.70121765,end
timer_stats,697283354982739,PAPI_L3_TCM,0, 15.35675049,  1.71156311,end
timer_stats,697283356148778,PAPI_L3_TCM,1, 15.42987060,  1.72169495,end
timer_stats,697283357314249,PAPI_L3_TCM,0, 15.50561523,  1.73179626,end
timer_stats,697283358477773,PAPI_L3_TCM,0, 15.57727051,  1.74192810,end
timer_stats,697283359640092,PAPI_L3_TCM,0, 15.65295410,  1.75221252,end
timer_stats,697283360831063,PAPI_L3_TCM,2, 15.80572510,  1.76861572,end
timer_stats,697283361992548,PAPI_L3_TCM,0, 15.88244629,  1.77911377,end
timer_stats,697283363155793,PAPI_L3_TCM,1, 15.95745849,  1.78941345,end
timer_stats,697283364322651,PAPI_L3_TCM,0, 16.03344726,  1.79994202,end
timer_stats,697283365489972,PAPI_L3_TCM,0, 16.10943603,  1.81004333,end
timer_stats,697283366654271,PAPI_L3_TCM,0, 16.21447754,  1.82279968,end
timer_stats,697283367817212,PAPI_L3_TCM,0, 16.33325195,  1.84095764,end
timer_stats,697283368987007,PAPI_L3_TCM,0, 16.41296387,  1.85124207,end
timer_stats,697283370154119,PAPI_L3_TCM,2, 16.49523926,  1.86198425,end
timer_stats,697283371318746,PAPI_L3_TCM,0, 16.57958984,  1.87225342,end
timer_stats,697283372487731,PAPI_L3_TCM,1, 16.65759277,  1.88258362,end
timer_stats,697283373655273,PAPI_L3_TCM,0, 16.74139404,  1.89286804,end
timer_stats,697283374821918,PAPI_L3_TCM,0, 16.90563965,  1.91368103,end
timer_stats,697283375988446,PAPI_L3_TCM,0, 16.98425293,  1.92604065,end
timer_stats,697283377164728,PAPI_L3_TCM,0, 17.06793213,  1.93629455,end
timer_stats,697283378330949,PAPI_L3_TCM,0, 17.14575195,  1.94691467,end
timer_stats,697283379499354,PAPI_L3_TCM,2, 17.22869873,  1.95719910,end
timer_stats,697283380667422,PAPI_L3_TCM,0, 17.34362793,  1.97248840,end
timer_stats,697283381831860,PAPI_L3_TCM,1, 17.47570801,  1.98771667,end
timer_stats,697283382996639,PAPI_L3_TCM,0, 17.55706787,  1.99784851,end
timer_stats,697283384161510,PAPI_L3_TCM,0, 17.64300537,  2.00929260,end
timer_stats,697283385301198,PAPI_L3_TCM,0, 17.72540283,  2.01939392,end
timer_stats,697283386467476,PAPI_L3_TCM,0, 17.81018066,  2.02949524,end
timer_stats,697283387632364,PAPI_L3_TCM,0, 17.89013672,  2.03981018,end
timer_stats,697283388798212,PAPI_L3_TCM,2, 18.06207275,  2.06079101,end
timer_stats,697283389963030,PAPI_L3_TCM,0, 18.14892578,  2.07083130,end
timer_stats,697283391128728,PAPI_L3_TCM,1, 18.22839355,  2.08096313,end
timer_stats,697283392297177,PAPI_L3_TCM,0, 18.31304932,  2.09126282,end
timer_stats,697283393438285,PAPI_L3_TCM,0, 18.39758301,  2.10180664,end
timer_stats,697283394589212,PAPI_L3_TCM,0, 18.48559570,  2.11251831,end
timer_stats,697283395739824,PAPI_L3_TCM,0, 18.65667725,  2.13374328,end
timer_stats,697283396886656,PAPI_L3_TCM,0, 18.74365234,  2.14405823,end
timer_stats,697283398021941,PAPI_L3_TCM,2, 18.83062744,  2.15412903,end
timer_stats,697283399159451,PAPI_L3_TCM,0, 18.91662597,  2.16395569,end
timer_stats,697283400296863,PAPI_L3_TCM,1, 19.00036621,  2.17408752,end
timer_stats,697283401434338,PAPI_L3_TCM,0, 19.08642578,  2.18418884,end
timer_stats,697283402571206,PAPI_L3_TCM,0, 19.16986084,  2.19429016,end
timer_stats,697283403708720,PAPI_L3_TCM,0, 19.25762939,  2.20408630,end
timer_stats,697283404846172,PAPI_L3_TCM,0, 19.42926025,  2.22386169,end
timer_stats,697283405983347,PAPI_L3_TCM,0, 19.51861572,  2.23368835,end
timer_stats,697283407120078,PAPI_L3_TCM,2, 19.60131836,  2.24403381,end
timer_stats,697283408256519,PAPI_L3_TCM,0, 19.68469238,  2.25434875,end
timer_stats,697283409396648,PAPI_L3_TCM,1, 19.77166748,  2.26438904,end
timer_stats,697283410535579,PAPI_L3_TCM,0, 19.85595703,  2.27452087,end
timer_stats,697283411671180,PAPI_L3_TCM,0, 19.94073486,  2.28408813,end
timer_stats,697283412806042,PAPI_L3_TCM,0, 20.11437988,  2.30426025,end
timer_stats,697283413940546,PAPI_L3_TCM,0, 20.20007324,  2.31436157,end
timer_stats,697283415075017,PAPI_L3_TCM,0, 20.28332519,  2.32449341,end
timer_stats,697283416210046,PAPI_L3_TCM,2, 20.36981201,  2.33435059,end
timer_stats,697283417345200,PAPI_L3_TCM,0, 20.45721435,  2.34466553,end
timer_stats,697283418484858,PAPI_L3_TCM,1, 20.54003906,  2.35501098,end
timer_stats,697283419621566,PAPI_L3_TCM,0, 20.62225342,  2.36511230,end
timer_stats,697283420758570,PAPI_L3_TCM,0, 20.74890137,  2.37521362,end
timer_stats,697283421893242,PAPI_L3_TCM,0, 20.87329101,  2.39517212,end
timer_stats,697283423029707,PAPI_L3_TCM,0, 20.96240234,  2.40524292,end
timer_stats,697283424163369,PAPI_L3_TCM,1, 21.04626465,  2.41531372,end
timer_stats,697283425297059,PAPI_L3_TCM,3, 21.13391113,  2.42559814,end
timer_stats,697283426434211,PAPI_L3_TCM,3, 21.21923828,  2.43594360,end
timer_stats,697283427585643,PAPI_L3_TCM,1, 21.31109619,  2.44711304,end
timer_stats,697283428743498,PAPI_L3_TCM,0, 21.47381592,  2.46328735,end
timer_stats,697283429895538,PAPI_L3_TCM,0, 21.55487060,  2.47964478,end
timer_stats,697283431067407,PAPI_L3_TCM,0, 21.63781738,  2.49014282,end
timer_stats,697283432205008,PAPI_L3_TCM,0, 21.71899414,  2.50042725,end
timer_stats,697283433343483,PAPI_L3_TCM,0, 21.79852295,  2.51049805,end
timer_stats,697283434464411,PAPI_L3_TCM,3, 21.88018799,  2.52056885,end
timer_stats,697283435616276,PAPI_L3_TCM,0, 21.96197510,  2.53085327,end
timer_stats,697283436787171,PAPI_L3_TCM,1, 22.11425781,  2.54998779,end
timer_stats,697283437955956,PAPI_L3_TCM,0, 22.18798828,  2.55859375,end
timer_stats,697283439112131,PAPI_L3_TCM,0, 22.26000976,  2.56741333,end
timer_stats,697283440298898,PAPI_L3_TCM,1, 22.33679199,  2.57595825,end
timer_stats,697283441438483,PAPI_L3_TCM,0, 22.42028808,  2.58648682,end
timer_stats,697283442593615,PAPI_L3_TCM,0, 22.49346924,  2.59683227,end
timer_stats,697283443760905,PAPI_L3_TCM,2, 22.64300537,  2.61416626,end
timer_stats,697283444926980,PAPI_L3_TCM,0, 22.71789551,  2.62297058,end
timer_stats,697283446082615,PAPI_L3_TCM,1, 22.78961182,  2.63180542,end
timer_stats,697283447240384,PAPI_L3_TCM,0, 22.86718750,  2.64028931,end
timer_stats,697283448407415,PAPI_L3_TCM,0, 22.94012451,  2.64883423,end
timer_stats,697283449574779,PAPI_L3_TCM,0, 23.01385498,  2.65740967,end
timer_stats,697283450740021,PAPI_L3_TCM,0, 23.11932373,  2.66601562,end
timer_stats,697283451905116,PAPI_L3_TCM,0, 23.22283935,  2.68359375,end
timer_stats,697283453068524,PAPI_L3_TCM,2, 23.29467773,  2.69219971,end
timer_stats,697283454237006,PAPI_L3_TCM,0, 23.36676025,  2.70098877,end
timer_stats,697283455399658,PAPI_L3_TCM,1, 23.43853760,  2.70959473,end
timer_stats,697283456565865,PAPI_L3_TCM,0, 23.50720215,  2.71841431,end
timer_stats,697283457729903,PAPI_L3_TCM,0, 23.58178711,  2.72671509,end
timer_stats,697283458895172,PAPI_L3_TCM,0, 23.72033691,  2.74414062,end
timer_stats,697283460084593,PAPI_L3_TCM,0, 23.79382324,  2.75268555,end
timer_stats,697283464971790,PAPI_L3_TCM,1, 24.14208984,  2.79774475,end
timer_stats,697283466139568,PAPI_L3_TCM,2, 24.21301269,  2.80500793,end
timer_stats,697283467306460,PAPI_L3_TCM,0, 24.28204346,  2.81382751,end
timer_stats,697283468478792,PAPI_L3_TCM,1, 24.35461426,  2.82240295,end
timer_stats,697283469646439,PAPI_L3_TCM,0, 24.42919922,  2.83093262,end
timer_stats,697283470816047,PAPI_L3_TCM,0, 24.56677246,  2.84494019,end
timer_stats,697283471983152,PAPI_L3_TCM,0, 24.63891601,  2.85736084,end
timer_stats,697283473158981,PAPI_L3_TCM,0, 24.70721436,  2.86593628,end
timer_stats,697283474326529,PAPI_L3_TCM,0, 24.77795410,  2.87454223,end
timer_stats,697283475853088,PAPI_L3_TCM,1373, 24.92156982,  2.89166260,end
timer_stats,697283477018310,PAPI_L3_TCM,22, 25.00097656,  2.90092468,end
timer_stats,697283478179895,PAPI_L3_TCM,2, 25.07373047,  2.91127014,end
timer_stats,697283479335396,PAPI_L3_TCM,0, 25.14483643,  2.92137146,end
timer_stats,697283480472117,PAPI_L3_TCM,6, 25.22143555,  2.93193054,end
timer_stats,697283481624399,PAPI_L3_TCM,0, 25.29376221,  2.94227600,end
timer_stats,697283482780111,PAPI_L3_TCM,0, 25.40820312,  2.95755005,end
timer_stats,697283483935758,PAPI_L3_TCM,0, 25.51519775,  2.97274780,end
timer_stats,697283485093943,PAPI_L3_TCM,3, 25.59454346,  2.98254394,end
timer_stats,697283486249285,PAPI_L3_TCM,0, 25.66613769,  2.99240112,end
timer_stats,697283487425690,PAPI_L3_TCM,2, 25.74560547,  3.00268555,end
timer_stats,697283488560055,PAPI_L3_TCM,2, 25.82086182,  3.01280212,end
timer_stats,697283489713362,PAPI_L3_TCM,2, 25.89941406,  3.02308655,end
timer_stats,697283490862514,PAPI_L3_TCM,0, 26.05517578,  3.03877258,end
timer_stats,697283492023279,PAPI_L3_TCM,0, 26.12115478,  3.05006409,end
timer_stats,697283493178154,PAPI_L3_TCM,0, 26.19598389,  3.05903625,end
timer_stats,697283494344822,PAPI_L3_TCM,3, 26.27050781,  3.06913757,end
timer_stats,697283495510943,PAPI_L3_TCM,0, 26.34539795,  3.07792663,end
timer_stats,697283496672614,PAPI_L3_TCM,2, 26.41888428,  3.08625793,end
timer_stats,697283497834169,PAPI_L3_TCM,0, 26.51556396,  3.09873962,end
timer_stats,697283498996247,PAPI_L3_TCM,1, 26.63403320,  3.11219788,end
timer_stats,697283500130585,PAPI_L3_TCM,0, 26.70751953,  3.12080383,end
timer_stats,697283501286957,PAPI_L3_TCM,0, 26.77990723,  3.12937927,end
timer_stats,697283502449972,PAPI_L3_TCM,0, 26.85443115,  3.13792419,end
timer_stats,697283503609636,PAPI_L3_TCM,3, 26.92388916,  3.14649963,end
timer_stats,697283504772144,PAPI_L3_TCM,0, 26.99993896,  3.15525818,end
timer_stats,697283505936472,PAPI_L3_TCM,2, 27.14312744,  3.17269897,end
timer_stats,697283507067427,PAPI_L3_TCM,0, 27.21923828,  3.18148804,end
timer_stats,697283508204416,PAPI_L3_TCM,0, 27.29547119,  3.19027710,end
timer_stats,697283509365560,PAPI_L3_TCM,0, 27.36907959,  3.19885254,end
timer_stats,697283510530241,PAPI_L3_TCM,0, 27.44030762,  3.20770263,end
timer_stats,697283511696823,PAPI_L3_TCM,0, 27.51177978,  3.21676636,end
timer_stats,697283512862211,PAPI_L3_TCM,3, 27.66052246,  3.23342895,end
timer_stats,697283514024533,PAPI_L3_TCM,0, 27.73217773,  3.24226379,end
timer_stats,697283515191695,PAPI_L3_TCM,2, 27.80322265,  3.25083923,end
timer_stats,697283516363159,PAPI_L3_TCM,0, 27.87622070,  3.25944519,end
timer_stats,697283517531414,PAPI_L3_TCM,1, 27.94927978,  3.26777649,end
timer_stats,697283518694529,PAPI_L3_TCM,0, 28.02398682,  3.27635193,end
timer_stats,697283519860124,PAPI_L3_TCM,0, 28.16796875,  3.29399109,end
timer_stats,697283521026325,PAPI_L3_TCM,0, 28.24127197,  3.30256653,end
timer_stats,697283522195667,PAPI_L3_TCM,3, 28.31170654,  3.31138611,end
timer_stats,697283523361024,PAPI_L3_TCM,0, 28.38433838,  3.32019043,end
timer_stats,697283524529609,PAPI_L3_TCM,2, 28.45520019,  3.32926941,end
timer_stats,697283525693464,PAPI_L3_TCM,0, 28.53228760,  3.33775330,end
timer_stats,697283526857129,PAPI_L3_TCM,0, 28.67425537,  3.35154724,end
timer_stats,697283528037070,PAPI_L3_TCM,0, 28.74572754,  3.36352539,end
timer_stats,697283529181672,PAPI_L3_TCM,0, 28.81683350,  3.37213135,end
timer_stats,697283530351930,PAPI_L3_TCM,0, 28.88787842,  3.38070679,end
timer_stats,697283531513012,PAPI_L3_TCM,3, 28.96032715,  3.38949585,end
timer_stats,697283532681610,PAPI_L3_TCM,0, 29.03472900,  3.39825439,end
timer_stats,697283533844371,PAPI_L3_TCM,2, 29.17456055,  3.41180420,end
timer_stats,697283535007632,PAPI_L3_TCM,0, 29.24926758,  3.42395019,end
timer_stats,697283536163567,PAPI_L3_TCM,0, 29.31835937,  3.43255615,end
timer_stats,697283537309242,PAPI_L3_TCM,0, 29.39147949,  3.44134521,end
timer_stats,697283538460597,PAPI_L3_TCM,0, 29.46099853,  3.44995117,end
timer_stats,697283539611718,PAPI_L3_TCM,0, 29.53363037,  3.45892334,end
timer_stats,697283540785890,PAPI_L3_TCM,3, 29.60906982,  3.46792603,end
timer_stats,697283541934955,PAPI_L3_TCM,0, 29.76702881,  3.48878479,end
timer_stats,697283543080920,PAPI_L3_TCM,2, 29.83953857,  3.49864197,end
timer_stats,697283544231411,PAPI_L3_TCM,0, 29.91699219,  3.50869751,end
timer_stats,697283545391702,PAPI_L3_TCM,1, 29.99572754,  3.51898193,end
timer_stats,697283546550767,PAPI_L3_TCM,0, 30.06933594,  3.52880859,end
timer_stats,697283547709129,PAPI_L3_TCM,0, 30.14636230,  3.53892517,end
timer_stats,697283548875387,PAPI_L3_TCM,0, 30.26898193,  3.55397034,end
timer_stats,697283550035359,PAPI_L3_TCM,3, 30.37384033,  3.56901550,end
timer_stats,697283553624209,PAPI_L3_TCM,3, 30.61035156,  3.60009766,end
timer_stats,697283554790741,PAPI_L3_TCM,2, 30.68823242,  3.61019897,end
timer_stats,697283555952689,PAPI_L3_TCM,0, 30.83190918,  3.62866211,end
timer_stats,697283557135470,PAPI_L3_TCM,0, 30.90740967,  3.63722229,end
timer_stats,697283558298372,PAPI_L3_TCM,0, 30.97656250,  3.64582825,end
timer_stats,697283559463350,PAPI_L3_TCM,0, 31.04852295,  3.65440369,end
timer_stats,697283560629065,PAPI_L3_TCM,0, 31.11944580,  3.66297913,end
timer_stats,697283561791780,PAPI_L3_TCM,3, 31.19378662,  3.67150879,end
timer_stats,697283562955412,PAPI_L3_TCM,0, 31.33300781,  3.68869018,end
timer_stats,697283564090389,PAPI_L3_TCM,2, 31.40814209,  3.69718933,end
timer_stats,697283565253857,PAPI_L3_TCM,0, 31.47918701,  3.70600891,end
timer_stats,697283566415412,PAPI_L3_TCM,1, 31.55084228,  3.71459961,end
timer_stats,697283567574751,PAPI_L3_TCM,0, 31.62585449,  3.72311401,end
timer_stats,697283568735656,PAPI_L3_TCM,0, 31.69512939,  3.73171997,end
timer_stats,697283569896293,PAPI_L3_TCM,0, 31.83636475,  3.74935913,end
timer_stats,697283571054138,PAPI_L3_TCM,3, 31.90808105,  3.75790405,end
timer_stats,697283572215176,PAPI_L3_TCM,0, 31.97772217,  3.76651001,end
timer_stats,697283573376671,PAPI_L3_TCM,2, 32.05108643,  3.77529907,end
timer_stats,697283574540686,PAPI_L3_TCM,0, 32.12170410,  3.78388977,end
timer_stats,697283575705641,PAPI_L3_TCM,1, 32.19525146,  3.79244995,end
timer_stats,697283576867235,PAPI_L3_TCM,0, 32.30816650,  3.80130005,end
timer_stats,697283578028127,PAPI_L3_TCM,0, 32.40393066,  3.81890869,end
timer_stats,697283579189412,PAPI_L3_TCM,0, 32.47503662,  3.82720947,end
timer_stats,697283580362397,PAPI_L3_TCM,3, 32.54229736,  3.83581543,end
timer_stats,697283581524418,PAPI_L3_TCM,0, 32.61480713,  3.84439087,end
timer_stats,697283582684173,PAPI_L3_TCM,1, 32.68273926,  3.85296631,end
timer_stats,697283583817301,PAPI_L3_TCM,0, 32.75390625,  3.86175537,end
timer_stats,697283584978695,PAPI_L3_TCM,1, 32.89703369,  3.87907410,end
timer_stats,697283586138700,PAPI_L3_TCM,0, 32.96704101,  3.88789368,end
timer_stats,697283587297545,PAPI_L3_TCM,0, 33.03558349,  3.89646911,end
timer_stats,697283588462570,PAPI_L3_TCM,0, 33.10504150,  3.90528870,end
timer_stats,697283589622412,PAPI_L3_TCM,3, 33.17614746,  3.91407776,end
timer_stats,697283590783716,PAPI_L3_TCM,0, 33.24768066,  3.92265320,end
timer_stats,697283591944484,PAPI_L3_TCM,2, 33.38818359,  3.94026184,end
timer_stats,697283593105956,PAPI_L3_TCM,0, 33.45416260,  3.94886780,end
timer_stats,697283594268507,PAPI_L3_TCM,1, 33.52539062,  3.95765686,end
timer_stats,697283595432262,PAPI_L3_TCM,0, 33.59411621,  3.96623230,end
timer_stats,697283596594604,PAPI_L3_TCM,0, 33.66351318,  3.97505188,end
timer_stats,697283597756591,PAPI_L3_TCM,0, 33.73748779,  3.98379517,end
timer_stats,697283598917620,PAPI_L3_TCM,3, 33.85162353,  3.99752808,end
timer_stats,697283600082588,PAPI_L3_TCM,0, 33.94311523,  4.00975037,end
timer_stats,697283601245970,PAPI_L3_TCM,2, 34.01708984,  4.01850891,end
timer_stats,697283602408161,PAPI_L3_TCM,0, 34.08251953,  4.02711487,end
timer_stats,697283603571796,PAPI_L3_TCM,1, 34.15319824,  4.03569031,end
timer_stats,697283604736094,PAPI_L3_TCM,0, 34.22821045,  4.04521179,end
timer_stats,697283605898815,PAPI_L3_TCM,0, 34.34674072,  4.06047058,end
timer_stats,697283607049980,PAPI_L3_TCM,0, 34.44171143,  4.07310486,end
timer_stats,697283608215722,PAPI_L3_TCM,3, 34.51281738,  4.08189392,end
timer_stats,697283609352343,PAPI_L3_TCM,0, 34.58801269,  4.09043884,end
timer_stats,697283610505874,PAPI_L3_TCM,2, 34.65612793,  4.09901428,end
timer_stats,697283611670496,PAPI_L3_TCM,0, 34.72955322,  4.10778809,end
timer_stats,697283612836547,PAPI_L3_TCM,1, 34.80432129,  4.11706543,end
timer_stats,697283614000702,PAPI_L3_TCM,0, 34.94213867,  4.13494873,end
timer_stats,697283615150077,PAPI_L3_TCM,0, 35.01562500,  4.14349365,end
timer_stats,697283616313538,PAPI_L3_TCM,0, 35.08807373,  4.15209961,end
timer_stats,697283617451383,PAPI_L3_TCM,3, 35.16198730,  4.16088867,end
timer_stats,697283618602654,PAPI_L3_TCM,0, 35.23712158,  4.16963196,end
timer_stats,697283619765272,PAPI_L3_TCM,2, 35.30523682,  4.17835999,end
timer_stats,697283620925737,PAPI_L3_TCM,0, 35.44848633,  4.19575500,end
timer_stats,697283622087639,PAPI_L3_TCM,1, 35.52014160,  4.20455932,end
timer_stats,697283623248277,PAPI_L3_TCM,0, 35.58947754,  4.21313477,end
timer_stats,697283624409505,PAPI_L3_TCM,0, 35.65856934,  4.22171020,end
timer_stats,697283625572050,PAPI_L3_TCM,0, 35.73052979,  4.23049927,end
timer_stats,697283626754128,PAPI_L3_TCM,2, 35.80194092,  4.23927307,end
timer_stats,697283627920076,PAPI_L3_TCM,0, 35.94757080,  4.25967407,end
timer_stats,697283629086365,PAPI_L3_TCM,2, 36.00042724,  4.26480102,end
timer_stats,697283630248746,PAPI_L3_TCM,0, 36.09930420,  4.27720642,end
timer_stats,697283631412808,PAPI_L3_TCM,1, 36.17016601,  4.28601074,end
timer_stats,697283632578925,PAPI_L3_TCM,0, 36.24291992,  4.29481506,end
timer_stats,697283633743407,PAPI_L3_TCM,0, 36.31848144,  4.30332947,end
timer_stats,697283634893785,PAPI_L3_TCM,0, 36.39398193,  4.31184387,end
timer_stats,697283636060460,PAPI_L3_TCM,3, 36.53729248,  4.32901001,end
timer_stats,697283637194474,PAPI_L3_TCM,0, 36.61096191,  4.33781433,end
timer_stats,697283638358513,PAPI_L3_TCM,2, 36.68341064,  4.34638977,end
timer_stats,697283639523491,PAPI_L3_TCM,0, 36.75518799,  4.35472107,end
timer_stats,697283640686805,PAPI_L3_TCM,1, 36.82659912,  4.36354065,end
timer_stats,697283641851820,PAPI_L3_TCM,0, 36.90734863,  4.37222290,end
timer_stats,697283643589364,PAPI_L3_TCM,2, 37.05743408,  4.38989258,end
timer_stats,697283644751045,PAPI_L3_TCM,1, 37.13140869,  4.39866638,end
timer_stats,697283645913674,PAPI_L3_TCM,3, 37.21331787,  4.40739441,end
timer_stats,697283647075829,PAPI_L3_TCM,0, 37.36083984,  4.42507934,end
timer_stats,697283648240284,PAPI_L3_TCM,3, 37.44238281,  4.43533325,end
timer_stats,697283649377208,PAPI_L3_TCM,0, 37.51660156,  4.44543457,end
timer_stats,697283650528136,PAPI_L3_TCM,1, 37.59814453,  4.45571899,end
timer_stats,697283651692931,PAPI_L3_TCM,0, 37.68267822,  4.46640015,end
timer_stats,697283652855216,PAPI_L3_TCM,0, 37.75579834,  4.47680664,end
timer_stats,697283654005614,PAPI_L3_TCM,0, 37.83270263,  4.48693848,end
timer_stats,697283655155459,PAPI_L3_TCM,3, 37.97406006,  4.50207519,end
timer_stats,697283656332203,PAPI_L3_TCM,0, 38.07012939,  4.51583862,end
timer_stats,697283657472902,PAPI_L3_TCM,2, 38.14721680,  4.52462768,end
timer_stats,697283658642493,PAPI_L3_TCM,0, 38.22149658,  4.53323364,end
timer_stats,697283659810715,PAPI_L3_TCM,1, 38.30249023,  4.54171753,end
timer_stats,697283660985450,PAPI_L3_TCM,0, 38.42498779,  4.55584717,end
timer_stats,697283662154768,PAPI_L3_TCM,0, 38.52423096,  4.56457519,end
timer_stats,697283663326572,PAPI_L3_TCM,0, 38.60089111,  4.57330322,end
timer_stats,697283664499394,PAPI_L3_TCM,3, 38.68157959,  4.58206177,end
timer_stats,697283665667422,PAPI_L3_TCM,0, 38.75225830,  4.59219360,end
timer_stats,697283666835314,PAPI_L3_TCM,2, 38.83148193,  4.60118103,end
timer_stats,697283668014658,PAPI_L3_TCM,0, 38.95538330,  4.61521912,end
timer_stats,697283669170023,PAPI_L3_TCM,1, 39.03253174,  4.62397766,end
timer_stats,697283670339745,PAPI_L3_TCM,0, 39.12713623,  4.63774109,end
timer_stats,697283671513916,PAPI_L3_TCM,0, 39.19836426,  4.64631653,end
timer_stats,697283672684175,PAPI_L3_TCM,0, 39.26629639,  4.65504455,end
timer_stats,697283673853806,PAPI_L3_TCM,3, 39.34741211,  4.66371155,end
timer_stats,697283675018640,PAPI_L3_TCM,0, 39.46710205,  4.67292786,end
timer_stats,697283676196129,PAPI_L3_TCM,2, 39.56597900,  4.69284057,end
timer_stats,697283677334740,PAPI_L3_TCM,0, 39.63934326,  4.70138550,end
timer_stats,697283678485595,PAPI_L3_TCM,0, 39.71923828,  4.71032715,end
timer_stats,697283679635356,PAPI_L3_TCM,0, 39.78875732,  4.71890259,end
timer_stats,697283680799864,PAPI_L3_TCM,0, 39.86041260,  4.72756958,end
timer_stats,697283681955316,PAPI_L3_TCM,0, 39.93371582,  4.73605347,end
timer_stats,697283683115571,PAPI_L3_TCM,3, 40.06945801,  4.75378418,end
timer_stats,697283684276909,PAPI_L3_TCM,0, 40.14239502,  4.76251221,end
timer_stats,697283685418197,PAPI_L3_TCM,2, 40.21630859,  4.77258301,end
timer_stats,697283686571508,PAPI_L3_TCM,0, 40.28137207,  4.78155518,end
timer_stats,697283687729123,PAPI_L3_TCM,1, 40.35565185,  4.79006958,end
timer_stats,697283688898775,PAPI_L3_TCM,0, 40.43029785,  4.79855347,end
timer_stats,697283690067637,PAPI_L3_TCM,0, 40.55932617,  4.81585693,end
timer_stats,697283691238295,PAPI_L3_TCM,0, 40.63128662,  4.82437134,end
timer_stats,697283692411719,PAPI_L3_TCM,3, 40.69848633,  4.83297729,end
timer_stats,697283693581964,PAPI_L3_TCM,0, 40.77380371,  4.84146118,end
timer_stats,697283694750199,PAPI_L3_TCM,2, 40.83886719,  4.84982300,end
timer_stats,697283695918163,PAPI_L3_TCM,0, 40.90625000,  4.85839844,end
timer_stats,697283697219432,PAPI_L3_TCM,20, 41.04852295,  4.87615967,end
timer_stats,697283698474447,PAPI_L3_TCM,19, 41.11938476,  4.88513184,end
timer_stats,697283699607096,PAPI_L3_TCM,0, 41.18353271,  4.89395142,end
timer_stats,697283700763637,PAPI_L3_TCM,0, 41.25207520,  4.90194702,end
timer_stats,697283701916068,PAPI_L3_TCM,4, 41.32171631,  4.91091919,end
timer_stats,697283703065480,PAPI_L3_TCM,1, 41.42315674,  4.92327881,end
timer_stats,697283704218771,PAPI_L3_TCM,2, 41.51300049,  4.93414306,end
timer_stats,697283705358766,PAPI_L3_TCM,0, 41.58050537,  4.94137573,end
timer_stats,697283706516184,PAPI_L3_TCM,5, 41.64019775,  4.94975281,end
timer_stats,697283707667555,PAPI_L3_TCM,2, 41.71343994,  4.95713806,end
timer_stats,697283708817117,PAPI_L3_TCM,0, 41.77893066,  4.96464538,end
timer_stats,697283709969289,PAPI_L3_TCM,1, 41.84844971,  4.97666931,end
timer_stats,697283711128054,PAPI_L3_TCM,3, 41.98675537,  4.99082947,end
timer_stats,697283712275881,PAPI_L3_TCM,1, 42.06219482,  4.99778747,end
timer_stats,697283713430136,PAPI_L3_TCM,2, 42.12585449,  5.00674438,end
timer_stats,697283714582211,PAPI_L3_TCM,5, 42.20050049,  5.01449585,end
timer_stats,697283715731723,PAPI_L3_TCM,3, 42.27557373,  5.02346802,end
timer_stats,697283716880030,PAPI_L3_TCM,0, 42.34393310,  5.03227234,end
timer_stats,697283718039622,PAPI_L3_TCM,1, 42.46002197,  5.04258728,end
timer_stats,697283719198307,PAPI_L3_TCM,2, 42.52557373,  5.05636597,end
timer_stats,697283720344842,PAPI_L3_TCM,3, 42.62792969,  5.07046509,end
timer_stats,697283721504479,PAPI_L3_TCM,1, 42.69256592,  5.08041382,end
timer_stats,697283722664737,PAPI_L3_TCM,2, 42.76971435,  5.08862305,end
timer_stats,697283723822822,PAPI_L3_TCM,0, 42.84344482,  5.09762573,end
timer_stats,697283724971750,PAPI_L3_TCM,1, 42.91156006,  5.10671997,end
timer_stats,697283726131161,PAPI_L3_TCM,1, 43.02996826,  5.12309265,end
timer_stats,697283727289353,PAPI_L3_TCM,0, 43.12603760,  5.13688659,end
timer_stats,697283728439358,PAPI_L3_TCM,0, 43.20019531,  5.14566040,end
timer_stats,697283729599043,PAPI_L3_TCM,3, 43.27191162,  5.15600586,end
timer_stats,697283730758984,PAPI_L3_TCM,0, 43.34570312,  5.16476440,end
timer_stats,697283731920412,PAPI_L3_TCM,2, 43.41528320,  5.17355347,end
timer_stats,697283733080437,PAPI_L3_TCM,0, 43.52813721,  5.18885803,end
timer_stats,697283734239062,PAPI_L3_TCM,1, 43.64361572,  5.20231628,end
timer_stats,697283735399347,PAPI_L3_TCM,0, 43.72113037,  5.21257019,end
timer_stats,697283736562928,PAPI_L3_TCM,0, 43.79541015,  5.22114563,end
timer_stats,697283737724736,PAPI_L3_TCM,0, 43.87017822,  5.23019409,end
timer_stats,697283738883711,PAPI_L3_TCM,4, 43.95056152,  5.23895264,end
timer_stats,697283740054043,PAPI_L3_TCM,1, 44.06689453,  5.24778747,end
timer_stats,697283741214061,PAPI_L3_TCM,2, 44.17059326,  5.26623535,end
timer_stats,697283742393269,PAPI_L3_TCM,0, 44.24591064,  5.27502441,end
timer_stats,697283743574654,PAPI_L3_TCM,1, 44.32220459,  5.28330994,end
timer_stats,697283744760432,PAPI_L3_TCM,6, 44.39599609,  5.29235840,end
timer_stats,697283745953790,PAPI_L3_TCM,0, 44.47131348,  5.30090332,end
timer_stats,697283747131702,PAPI_L3_TCM,4, 44.58941650,  5.31484985,end
timer_stats,697283748309030,PAPI_L3_TCM,5, 44.69659424,  5.32904053,end
timer_stats,697283749522225,PAPI_L3_TCM,0, 44.77026367,  5.33804321,end
timer_stats,697283750707523,PAPI_L3_TCM,6, 44.84533691,  5.34680176,end
timer_stats,697283752288873,PAPI_L3_TCM,35, 44.98956299,  5.36654663,end
timer_stats,697283753484658,PAPI_L3_TCM,10, 45.05871582,  5.37554931,end
timer_stats,697283754672363,PAPI_L3_TCM,7, 45.13189697,  5.38430786,end
timer_stats,697283755866338,PAPI_L3_TCM,7, 45.20806885,  5.39329529,end
timer_stats,697283757043283,PAPI_L3_TCM,0, 45.31420898,  5.40342712,end
timer_stats,697283758204511,PAPI_L3_TCM,3, 45.42401123,  5.41883850,end
timer_stats,697283759371349,PAPI_L3_TCM,2, 45.50146484,  5.42909241,end
timer_stats,697283760527237,PAPI_L3_TCM,2, 45.57043457,  5.43943787,end
timer_stats,697283761660375,PAPI_L3_TCM,0, 45.64880371,  5.44972229,end
timer_stats,697283762806897,PAPI_L3_TCM,3, 45.72424316,  5.46002197,end
timer_stats,697283763939415,PAPI_L3_TCM,2, 45.79833984,  5.47085571,end
timer_stats,697283765077436,PAPI_L3_TCM,0, 45.92022705,  5.48649597,end
timer_stats,697283766209651,PAPI_L3_TCM,1, 46.03771973,  5.50218201,end
timer_stats,697283767353246,PAPI_L3_TCM,3, 46.11676025,  5.51248169,end
timer_stats,697283768492706,PAPI_L3_TCM,1, 46.19445801,  5.52279663,end
timer_stats,697283769653375,PAPI_L3_TCM,2, 46.27215576,  5.53286743,end
timer_stats,697283770811330,PAPI_L3_TCM,0, 46.34667969,  5.54164123,end
timer_stats,697283774587449,PAPI_L3_TCM,4, 46.65606689,  5.58262634,end
timer_stats,697283775722076,PAPI_L3_TCM,1, 46.74084473,  5.59312439,end
timer_stats,697283776858381,PAPI_L3_TCM,0, 46.82830810,  5.60316467,end
timer_stats,697283777992570,PAPI_L3_TCM,0, 46.91125488,  5.61351013,end
timer_stats,697283779125620,PAPI_L3_TCM,2, 47.04357910,  5.62919617,end
timer_stats,697283780260592,PAPI_L3_TCM,0, 47.17224121,  5.64552307,end
timer_stats,697283781392443,PAPI_L3_TCM,2, 47.26086426,  5.65602112,end
timer_stats,697283782543068,PAPI_L3_TCM,3, 47.35009765,  5.66697693,end
timer_stats,697283783682016,PAPI_L3_TCM,2, 47.43218994,  5.67732239,end
timer_stats,697283784819951,PAPI_L3_TCM,5, 47.52178955,  5.68803406,end
timer_stats,697283785952245,PAPI_L3_TCM,2, 47.61187744,  5.69853210,end
timer_stats,697283787086660,PAPI_L3_TCM,0, 47.70428467,  5.70903015,end
timer_stats,697283788217415,PAPI_L3_TCM,2, 47.87884521,  5.72962952,end
timer_stats,697283789352019,PAPI_L3_TCM,0, 47.97167969,  5.73991394,end
timer_stats,697283790454997,PAPI_L3_TCM,3, 48.05999756,  5.75019836,end
timer_stats,697283791588479,PAPI_L3_TCM,0, 48.14984131,  5.76046753,end
timer_stats,697283792735533,PAPI_L3_TCM,1, 48.23260498,  5.76931763,end
timer_stats,697283793893788,PAPI_L3_TCM,0, 48.32208252,  5.77960205,end
timer_stats,697283795050596,PAPI_L3_TCM,0, 48.40307617,  5.78840637,end
timer_stats,697283796199738,PAPI_L3_TCM,1, 48.53070068,  5.80427551,end
timer_stats,697283797334093,PAPI_L3_TCM,2, 48.65466309,  5.81996155,end
timer_stats,697283798499764,PAPI_L3_TCM,0, 48.72576904,  5.82881164,end
timer_stats,697283799653102,PAPI_L3_TCM,2, 48.80255127,  5.83760071,end
timer_stats,697283800803374,PAPI_L3_TCM,1, 48.88043213,  5.84617615,end
timer_stats,697283801966512,PAPI_L3_TCM,1, 48.95965576,  5.85600281,end
timer_stats,697283803120997,PAPI_L3_TCM,0, 49.04101562,  5.86607361,end
timer_stats,697283804267178,PAPI_L3_TCM,1, 49.19647217,  5.88627624,end
timer_stats,697283805414149,PAPI_L3_TCM,0, 49.27667236,  5.89662170,end
timer_stats,697283806547507,PAPI_L3_TCM,2, 49.35845947,  5.90565491,end
timer_stats,697283807678012,PAPI_L3_TCM,0, 49.44207763,  5.91600037,end
timer_stats,697283808816537,PAPI_L3_TCM,2, 49.53057861,  5.92625427,end
timer_stats,697283809918867,PAPI_L3_TCM,0, 49.61486816,  5.93606567,end
timer_stats,697283811049262,PAPI_L3_TCM,2, 49.69439697,  5.94641113,end
timer_stats,697283812181571,PAPI_L3_TCM,0, 49.81542969,  5.96188354,end
timer_stats,697283813311291,PAPI_L3_TCM,0, 49.93103027,  5.97557068,end
timer_stats,697283814443280,PAPI_L3_TCM,0, 50.00421143,  5.98437500,end
timer_stats,697283815572858,PAPI_L3_TCM,4, 50.08081055,  5.99291992,end
timer_stats,697283816702989,PAPI_L3_TCM,0, 50.15344238,  6.00177002,end
timer_stats,697283817835790,PAPI_L3_TCM,1, 50.22998047,  6.01210022,end
timer_stats,697283818968292,PAPI_L3_TCM,0, 50.30950928,  6.02107239,end
timer_stats,697283820100216,PAPI_L3_TCM,2, 50.38043213,  6.02967834,end
timer_stats,697283821230771,PAPI_L3_TCM,0, 50.53326416,  6.04878235,end
timer_stats,697283822361283,PAPI_L3_TCM,0, 50.61260986,  6.05735779,end
timer_stats,697283823463547,PAPI_L3_TCM,1, 50.69921875,  6.06608581,end
timer_stats,697283824595868,PAPI_L3_TCM,3, 50.77606201,  6.07490539,end
timer_stats,697283825725863,PAPI_L3_TCM,0, 50.85449219,  6.08503723,end
timer_stats,697283826870288,PAPI_L3_TCM,1, 50.93933105,  6.09376526,end
timer_stats,697283828020706,PAPI_L3_TCM,0, 51.01983642,  6.10275268,end
timer_stats,697283829152024,PAPI_L3_TCM,1, 51.10107422,  6.11152649,end
timer_stats,697283830254992,PAPI_L3_TCM,1, 51.26159668,  6.13084412,end
timer_stats,697283831390153,PAPI_L3_TCM,2, 51.33801269,  6.13943481,end
timer_stats,697283832545771,PAPI_L3_TCM,1, 51.41320801,  6.14816284,end
timer_stats,697283833697293,PAPI_L3_TCM,2, 51.48797607,  6.15823364,end
timer_stats,697283834848937,PAPI_L3_TCM,0, 51.55670166,  6.16552734,end
timer_stats,697283835994835,PAPI_L3_TCM,2, 51.62957764,  6.17276001,end
timer_stats,697283837147150,PAPI_L3_TCM,6, 51.74035644,  6.18139648,end
timer_stats,697283838300721,PAPI_L3_TCM,3, 51.85839844,  6.20065307,end
timer_stats,697283839456219,PAPI_L3_TCM,0, 51.93206787,  6.20967102,end
timer_stats,697283840607911,PAPI_L3_TCM,1, 52.00366211,  6.21873474,end
timer_stats,697283841770396,PAPI_L3_TCM,0, 52.08093262,  6.22831726,end
timer_stats,697283842931331,PAPI_L3_TCM,2, 52.15661621,  6.23326111,end
timer_stats,697283844079235,PAPI_L3_TCM,1, 52.22784424,  6.24183655,end
timer_stats,697283845216307,PAPI_L3_TCM,1, 52.33996582,  6.25706482,end
timer_stats,697283846377612,PAPI_L3_TCM,0, 52.45153809,  6.27125549,end
timer_stats,697283847544710,PAPI_L3_TCM,0, 52.52868652,  6.27999878,end
timer_stats,697283848698285,PAPI_L3_TCM,1, 52.59967041,  6.28836060,end
timer_stats,697283849859546,PAPI_L3_TCM,0, 52.67535400,  6.29867554,end
timer_stats,697283851023261,PAPI_L3_TCM,0, 52.74804687,  6.30723572,end
timer_stats,697283852179422,PAPI_L3_TCM,4, 52.85394287,  6.32122803,end
timer_stats,697283853316497,PAPI_L3_TCM,0, 52.97064209,  6.33676147,end
timer_stats,697283854483629,PAPI_L3_TCM,1, 53.05169678,  6.34509277,end
timer_stats,697283855648740,PAPI_L3_TCM,0, 53.12524414,  6.35391235,end
timer_stats,697283856812865,PAPI_L3_TCM,1, 53.20379639,  6.36270142,end
timer_stats,697283857978033,PAPI_L3_TCM,0, 53.28515625,  6.37145996,end
timer_stats,697283859117105,PAPI_L3_TCM,1, 53.35986328,  6.38031006,end
timer_stats,697283860251549,PAPI_L3_TCM,4, 53.51989746,  6.40136719,end
timer_stats,697283861401997,PAPI_L3_TCM,2, 53.59979248,  6.41033935,end
timer_stats,697283862561155,PAPI_L3_TCM,0, 53.67608643,  6.41909790,end
timer_stats,697283863694723,PAPI_L3_TCM,1, 53.75360107,  6.42808533,end
timer_stats,697283864860464,PAPI_L3_TCM,1, 53.83319092,  6.43681335,end
timer_stats,697283866019766,PAPI_L3_TCM,0, 53.90905762,  6.44688415,end
timer_stats,697283867167898,PAPI_L3_TCM,0, 54.02264404,  6.45716858,end
timer_stats,697283868326205,PAPI_L3_TCM,1, 54.14111328,  6.47633362,end
timer_stats,697283869493827,PAPI_L3_TCM,1, 54.21551514,  6.48515320,end
timer_stats,697283870654402,PAPI_L3_TCM,2, 54.29132080,  6.49394226,end
timer_stats,697283871793417,PAPI_L3_TCM,0, 54.36834717,  6.50230408,end
timer_stats,697283872944662,PAPI_L3_TCM,2, 54.44281006,  6.51110840,end
timer_stats,697283874106876,PAPI_L3_TCM,0, 54.52081299,  6.52142334,end
timer_stats,697283875237887,PAPI_L3_TCM,2, 54.62933349,  6.53131103,end
timer_stats,697283876415916,PAPI_L3_TCM,0, 54.74340820,  6.55000305,end
timer_stats,697283877582461,PAPI_L3_TCM,0, 54.81823730,  6.56004333,end
timer_stats,697283878741356,PAPI_L3_TCM,0, 54.88098145,  6.56713867,end
timer_stats,697283879887096,PAPI_L3_TCM,2, 54.95074463,  6.57437134,end
timer_stats,697283881039171,PAPI_L3_TCM,1, 55.01971435,  6.58314514,end
timer_stats,697283882215636,PAPI_L3_TCM,1, 55.10632324,  6.59298706,end
timer_stats,697283883412321,PAPI_L3_TCM,0, 55.17687988,  6.60183716,end
timer_stats,697283884605193,PAPI_L3_TCM,1, 55.23291015,  6.60987854,end
timer_stats,697283885799135,PAPI_L3_TCM,0, 55.30047607,  6.61305237,end
timer_stats,697283886990613,PAPI_L3_TCM,0, 55.35137939,  6.62110901,end
timer_stats,697283888162338,PAPI_L3_TCM,1, 55.41589355,  6.63012695,end
timer_stats,697283889299822,PAPI_L3_TCM,2, 55.48107910,  6.63893127,end
timer_stats,697283890470877,PAPI_L3_TCM,0, 55.54718018,  6.64750671,end
timer_stats,697283891627059,PAPI_L3_TCM,1, 55.61181640,  6.65608215,end
timer_stats,697283892784053,PAPI_L3_TCM,0, 55.73645019,  6.67344665,end
timer_stats,697283893951568,PAPI_L3_TCM,0, 55.79760742,  6.68203735,end
timer_stats,697283895124489,PAPI_L3_TCM,0, 55.86242676,  6.69155884,end
timer_stats,697283896262874,PAPI_L3_TCM,0, 55.93841553,  6.70181274,end
timer_stats,697283897404992,PAPI_L3_TCM,0, 56.00897217,  6.71214294,end
timer_stats,697283898557957,PAPI_L3_TCM,2, 56.08032226,  6.72064209,end
timer_stats,697283899708535,PAPI_L3_TCM,0, 56.15032959,  6.72943115,end
timer_stats,697283900869940,PAPI_L3_TCM,1, 56.28558349,  6.74703979,end
timer_stats,697283902032772,PAPI_L3_TCM,0, 56.35382080,  6.75579834,end
timer_stats,697283903200803,PAPI_L3_TCM,0, 56.42132568,  6.76461792,end
timer_stats,697283904361004,PAPI_L3_TCM,0, 56.49114990,  6.77337646,end
timer_stats,697283905527259,PAPI_L3_TCM,0, 56.55963135,  6.78195190,end
timer_stats,697283906691801,PAPI_L3_TCM,0, 56.62554932,  6.79075622,end
timer_stats,697283907864872,PAPI_L3_TCM,2, 56.75915527,  6.80860901,end
timer_stats,697283909016751,PAPI_L3_TCM,0, 56.82720947,  6.81719971,end
timer_stats,697283910181945,PAPI_L3_TCM,1, 56.89770508,  6.82617188,end
timer_stats,697283911348616,PAPI_L3_TCM,0, 56.96423340,  6.83569336,end
timer_stats,697283912518855,PAPI_L3_TCM,0, 57.02996826,  6.84443664,end
timer_stats,697283913701920,PAPI_L3_TCM,0, 57.09326172,  6.85169983,end
