timer_stats,656133361474035,PAPI_L3_TCM,151,  0.10595703,  0.01049805,end
timer_stats,656133362561540,PAPI_L3_TCM,21,  0.27246094,  0.02804565,end
timer_stats,656133363685330,PAPI_L3_TCM,1,  0.42340088,  0.04525757,end
timer_stats,656133364817312,PAPI_L3_TCM,4,  0.52246094,  0.05697632,end
timer_stats,656133366017636,PAPI_L3_TCM,55,  0.62817383,  0.06698608,end
timer_stats,656133367121391,PAPI_L3_TCM,24,  0.74963379,  0.07740784,end
timer_stats,656133368249806,PAPI_L3_TCM,1,  0.83764648,  0.08819580,end
timer_stats,656133369411065,PAPI_L3_TCM,5,  0.93273926,  0.09870911,end
timer_stats,656133370573073,PAPI_L3_TCM,0,  1.12310791,  0.11970520,end
timer_stats,656133371749085,PAPI_L3_TCM,1,  1.21356201,  0.13070679,end
timer_stats,656133372928740,PAPI_L3_TCM,3,  1.30957031,  0.14169311,end
timer_stats,656133374093519,PAPI_L3_TCM,1,  1.40985107,  0.15252685,end
timer_stats,656133375265290,PAPI_L3_TCM,6,  1.50744629,  0.16342163,end
timer_stats,656133376402064,PAPI_L3_TCM,2,  1.60308838,  0.17398071,end
timer_stats,656133377551663,PAPI_L3_TCM,0,  1.80059814,  0.19528198,end
timer_stats,656133378684218,PAPI_L3_TCM,15,  1.92675781,  0.20590210,end
timer_stats,656133379782531,PAPI_L3_TCM,1,  2.03778076,  0.21707153,end
timer_stats,656133380877135,PAPI_L3_TCM,3,  2.14959717,  0.22819519,end
timer_stats,656133381983875,PAPI_L3_TCM,1,  2.26660156,  0.23930359,end
timer_stats,656133383088107,PAPI_L3_TCM,0,  2.37603760,  0.24934387,end
timer_stats,656133384181277,PAPI_L3_TCM,3,  2.48760986,  0.26008606,end
timer_stats,656133385272128,PAPI_L3_TCM,0,  2.59381103,  0.27061462,end
timer_stats,656133386362149,PAPI_L3_TCM,0,  2.70794678,  0.28060913,end
timer_stats,656133387448718,PAPI_L3_TCM,1,  2.81768799,  0.29113769,end
timer_stats,656133388537492,PAPI_L3_TCM,0,  3.02972412,  0.30639648,end
timer_stats,656133389644095,PAPI_L3_TCM,0,  3.14660645,  0.32110596,end
timer_stats,656133390749879,PAPI_L3_TCM,0,  3.24761963,  0.33148193,end
timer_stats,656133391849216,PAPI_L3_TCM,0,  3.35919189,  0.34176636,end
timer_stats,656133392961619,PAPI_L3_TCM,0,  3.46905517,  0.35208130,end
timer_stats,656133394076449,PAPI_L3_TCM,0,  3.57647705,  0.36264038,end
timer_stats,656133395185916,PAPI_L3_TCM,0,  3.68756103,  0.37316894,end
timer_stats,656133396297893,PAPI_L3_TCM,3,  3.79864502,  0.38342285,end
timer_stats,656133397410150,PAPI_L3_TCM,0,  3.90966797,  0.39355469,end
timer_stats,656133398520065,PAPI_L3_TCM,0,  4.08575439,  0.41140747,end
timer_stats,656133399629703,PAPI_L3_TCM,0,  4.24938965,  0.42849731,end
timer_stats,656133400847644,PAPI_L3_TCM,21,  4.36322021,  0.43896484,end
timer_stats,656133402009399,PAPI_L3_TCM,6,  4.46997070,  0.45042419,end
timer_stats,656133403109092,PAPI_L3_TCM,0,  4.57916260,  0.46070862,end
timer_stats,656133404230304,PAPI_L3_TCM,3,  4.68823242,  0.47158813,end
timer_stats,656133405331277,PAPI_L3_TCM,0,  4.79736328,  0.48190308,end
timer_stats,656133406443372,PAPI_L3_TCM,1,  4.91394043,  0.49243164,end
timer_stats,656133407559453,PAPI_L3_TCM,2,  5.08782959,  0.50830078,end
timer_stats,656133408675918,PAPI_L3_TCM,6,  5.24951172,  0.52328491,end
timer_stats,656133409789296,PAPI_L3_TCM,0,  5.36114502,  0.53384399,end
timer_stats,656133410899900,PAPI_L3_TCM,0,  5.47790527,  0.54385376,end
timer_stats,656133412017402,PAPI_L3_TCM,2,  5.59094238,  0.55458069,end
timer_stats,656133413137550,PAPI_L3_TCM,0,  5.70025635,  0.56465149,end
timer_stats,656133414260047,PAPI_L3_TCM,0,  5.81512451,  0.57493591,end
timer_stats,656133415386260,PAPI_L3_TCM,0,  5.92517090,  0.58528137,end
timer_stats,656133416507687,PAPI_L3_TCM,0,  6.03808594,  0.59580994,end
timer_stats,656133417629691,PAPI_L3_TCM,0,  6.26861572,  0.61643982,end
timer_stats,656133418739454,PAPI_L3_TCM,0,  6.38299560,  0.62675476,end
timer_stats,656133419848681,PAPI_L3_TCM,0,  6.50012207,  0.63703918,end
timer_stats,656133420962480,PAPI_L3_TCM,0,  6.61120605,  0.64717102,end
timer_stats,656133422082080,PAPI_L3_TCM,0,  6.73114014,  0.65745544,end
timer_stats,656133423203579,PAPI_L3_TCM,1,  6.83868408,  0.66822815,end
timer_stats,656133424286214,PAPI_L3_TCM,0,  6.95605469,  0.67897034,end
timer_stats,656133425386852,PAPI_L3_TCM,17,  7.06549072,  0.69038391,end
timer_stats,656133426477498,PAPI_L3_TCM,6,  7.19110107,  0.70190430,end
timer_stats,656133427563226,PAPI_L3_TCM,4,  7.30767822,  0.71327209,end
timer_stats,656133428659265,PAPI_L3_TCM,4,  7.54730225,  0.73542785,end
timer_stats,656133429763313,PAPI_L3_TCM,6,  7.65917969,  0.74632263,end
timer_stats,656133430897009,PAPI_L3_TCM,1,  7.76995850,  0.75767517,end
timer_stats,656133432035463,PAPI_L3_TCM,6,  7.88470459,  0.76832581,end
timer_stats,656133433142298,PAPI_L3_TCM,4,  8.00177002,  0.77879333,end
timer_stats,656133434540340,PAPI_L3_TCM,19,  8.10412598,  0.79074097,end
timer_stats,656133435667195,PAPI_L3_TCM,0,  8.34692383,  0.81585693,end
timer_stats,656133436755302,PAPI_L3_TCM,5,  8.47894287,  0.82815552,end
timer_stats,656133437836199,PAPI_L3_TCM,4,  8.61901855,  0.84181213,end
timer_stats,656133438942771,PAPI_L3_TCM,1,  8.74963379,  0.85644531,end
timer_stats,656133440031843,PAPI_L3_TCM,1,  8.89666748,  0.86820984,end
timer_stats,656133441158555,PAPI_L3_TCM,1,  9.03051758,  0.88081360,end
timer_stats,656133442279360,PAPI_L3_TCM,2,  9.17272949,  0.89382934,end
timer_stats,656133443406132,PAPI_L3_TCM,0,  9.30706787,  0.90594482,end
timer_stats,656133444533314,PAPI_L3_TCM,0,  9.43933105,  0.91877747,end
timer_stats,656133445655562,PAPI_L3_TCM,5,  9.72625732,  0.94323730,end
timer_stats,656133446796582,PAPI_L3_TCM,1,  9.87152099,  0.95603943,end
timer_stats,656133447913324,PAPI_L3_TCM,1, 10.02380371,  0.96881103,end
timer_stats,656133449009081,PAPI_L3_TCM,1, 10.17919922,  0.98136902,end
timer_stats,656133450114762,PAPI_L3_TCM,2, 10.36181641,  0.99371338,end
timer_stats,656133451202250,PAPI_L3_TCM,0, 10.53942871,  1.00631714,end
timer_stats,656133452312201,PAPI_L3_TCM,2, 10.72869873,  1.01885986,end
timer_stats,656133453410111,PAPI_L3_TCM,2, 10.91650391,  1.03097534,end
timer_stats,656133454515258,PAPI_L3_TCM,0, 11.11132812,  1.04335022,end
timer_stats,656133455602570,PAPI_L3_TCM,0, 11.40417480,  1.06152344,end
timer_stats,656133456696974,PAPI_L3_TCM,3, 11.69354248,  1.08154297,end
timer_stats,656133457794924,PAPI_L3_TCM,0, 11.87677002,  1.09342957,end
timer_stats,656133458880431,PAPI_L3_TCM,0, 12.06311035,  1.10560608,end
timer_stats,656133459960910,PAPI_L3_TCM,1, 12.26470947,  1.11808777,end
timer_stats,656133461051059,PAPI_L3_TCM,1, 12.46148682,  1.13088989,end
timer_stats,656133462158239,PAPI_L3_TCM,2, 12.65344238,  1.14326477,end
timer_stats,656133463258175,PAPI_L3_TCM,0, 12.84808349,  1.15538025,end
timer_stats,656133464354507,PAPI_L3_TCM,0, 13.04437256,  1.16751099,end
timer_stats,656133465451358,PAPI_L3_TCM,1, 13.23657226,  1.17988586,end
timer_stats,656133466544555,PAPI_L3_TCM,2, 13.42993164,  1.19200134,end
timer_stats,656133467634840,PAPI_L3_TCM,0, 13.81982422,  1.21679687,end
timer_stats,656133468733869,PAPI_L3_TCM,0, 14.01519775,  1.22895813,end
timer_stats,656133469825632,PAPI_L3_TCM,2, 14.21691894,  1.24130249,end
timer_stats,656133470919074,PAPI_L3_TCM,0, 14.39544678,  1.25328064,end
timer_stats,656133472016769,PAPI_L3_TCM,3, 14.59899902,  1.26611328,end
timer_stats,656133473128796,PAPI_L3_TCM,3, 14.79235840,  1.27847290,end
timer_stats,656133474235210,PAPI_L3_TCM,2, 14.98455810,  1.29084778,end
timer_stats,656133475331399,PAPI_L3_TCM,0, 15.18493652,  1.30319214,end
timer_stats,656133476418790,PAPI_L3_TCM,1, 15.38159180,  1.31628418,end
timer_stats,656133477512905,PAPI_L3_TCM,2, 15.57434082,  1.32864380,end
timer_stats,656133478747577,PAPI_L3_TCM,6, 16.07855225,  1.35415649,end
timer_stats,656133479823323,PAPI_L3_TCM,1, 16.29992676,  1.36640930,end
timer_stats,656133480906169,PAPI_L3_TCM,2, 16.50805664,  1.37800598,end
timer_stats,656133482002009,PAPI_L3_TCM,1, 16.72613525,  1.39004517,end
timer_stats,656133483093113,PAPI_L3_TCM,3, 16.94293213,  1.40136719,end
timer_stats,656133484182220,PAPI_L3_TCM,0, 17.18103027,  1.41358948,end
timer_stats,656133485349421,PAPI_L3_TCM,2, 17.43969726,  1.42651367,end
timer_stats,656133486495693,PAPI_L3_TCM,3, 17.68151855,  1.43824768,end
timer_stats,656133487580856,PAPI_L3_TCM,1, 17.90447998,  1.44975281,end
timer_stats,656133488823168,PAPI_L3_TCM,6, 18.32061768,  1.47267151,end
timer_stats,656133490139351,PAPI_L3_TCM,1, 18.54412842,  1.48442078,end
timer_stats,656133491223834,PAPI_L3_TCM,0, 18.76373291,  1.49592590,end
timer_stats,656133492411425,PAPI_L3_TCM,3, 18.97137451,  1.50724792,end
timer_stats,656133493524045,PAPI_L3_TCM,3, 19.17749023,  1.51907349,end
timer_stats,656133494602508,PAPI_L3_TCM,2, 19.50000000,  1.53636169,end
timer_stats,656133495740199,PAPI_L3_TCM,1, 19.83526611,  1.55433655,end
timer_stats,656133496834285,PAPI_L3_TCM,3, 20.05273437,  1.56663513,end
timer_stats,656133497918986,PAPI_L3_TCM,0, 20.26263428,  1.57797241,end
timer_stats,656133499062086,PAPI_L3_TCM,1, 20.46929932,  1.59031677,end
timer_stats,656133500151915,PAPI_L3_TCM,3, 20.68707275,  1.60238647,end
timer_stats,656133501241154,PAPI_L3_TCM,1, 20.90881348,  1.61462402,end
timer_stats,656133502384477,PAPI_L3_TCM,0, 21.11462402,  1.62594604,end
timer_stats,656133503533086,PAPI_L3_TCM,81, 21.33581543,  1.63795471,end
timer_stats,656133504615489,PAPI_L3_TCM,0, 21.55535889,  1.64923096,end
timer_stats,656133505693971,PAPI_L3_TCM,1, 21.99102783,  1.66648865,end
timer_stats,656133506817570,PAPI_L3_TCM,2, 22.21636963,  1.68377686,end
timer_stats,656133507972861,PAPI_L3_TCM,2, 22.44244385,  1.69641113,end
timer_stats,656133509201883,PAPI_L3_TCM,3, 22.64788818,  1.70817566,end
timer_stats,656133516535464,PAPI_L3_TCM,134, 24.09228515,  1.81065368,end
timer_stats,656133517621800,PAPI_L3_TCM,44, 24.39630127,  1.82690430,end
timer_stats,656133518701638,PAPI_L3_TCM,7, 24.63525390,  1.84735107,end
timer_stats,656133519778849,PAPI_L3_TCM,4, 25.00836182,  1.86857605,end
timer_stats,656133520862276,PAPI_L3_TCM,23, 25.25854492,  1.88241577,end
timer_stats,656133521942076,PAPI_L3_TCM,11, 25.51800537,  1.89552307,end
timer_stats,656133523016213,PAPI_L3_TCM,4, 25.75714111,  1.90937805,end
timer_stats,656133524087874,PAPI_L3_TCM,3, 26.00262451,  1.92333984,end
timer_stats,656133525162674,PAPI_L3_TCM,3, 26.24487305,  1.93818665,end
timer_stats,656133526235023,PAPI_L3_TCM,2, 26.49609375,  1.95294189,end
timer_stats,656133527310040,PAPI_L3_TCM,8, 26.74566650,  1.96769714,end
timer_stats,656133528399233,PAPI_L3_TCM,6, 27.00469971,  1.98292541,end
timer_stats,656133539147168,PAPI_L3_TCM,89, 29.26959228,  2.12725830,end
timer_stats,656133540231586,PAPI_L3_TCM,34, 29.48217773,  2.14282226,end
timer_stats,656133541308953,PAPI_L3_TCM,4, 29.72222900,  2.15791321,end
timer_stats,656133542384951,PAPI_L3_TCM,2, 29.97503662,  2.17222595,end
timer_stats,656133543460476,PAPI_L3_TCM,4, 30.22290039,  2.18746948,end
timer_stats,656133544536258,PAPI_L3_TCM,8, 30.47875976,  2.20222473,end
timer_stats,656133545620002,PAPI_L3_TCM,3, 30.73675537,  2.21742249,end
timer_stats,656133546696053,PAPI_L3_TCM,4, 31.10998535,  2.24006653,end
timer_stats,656133547771687,PAPI_L3_TCM,6, 31.50268555,  2.26303101,end
timer_stats,656133548848790,PAPI_L3_TCM,3, 31.75640869,  2.27879333,end
timer_stats,656133552495242,PAPI_L3_TCM,65, 32.42211914,  2.33593750,end
timer_stats,656133553578165,PAPI_L3_TCM,34, 32.58441162,  2.35028076,end
timer_stats,656133554656024,PAPI_L3_TCM,3, 32.84100342,  2.36419678,end
timer_stats,656133555732156,PAPI_L3_TCM,0, 33.33764648,  2.39118957,end
timer_stats,656133556809586,PAPI_L3_TCM,3, 33.59741211,  2.40487671,end
timer_stats,656133557886531,PAPI_L3_TCM,2, 33.85675049,  2.41838074,end
timer_stats,656133558963004,PAPI_L3_TCM,4, 34.11566162,  2.43159485,end
timer_stats,656133560019219,PAPI_L3_TCM,1, 34.36468506,  2.44532776,end
timer_stats,656133561094901,PAPI_L3_TCM,1, 34.62847900,  2.45899963,end
timer_stats,656133562172733,PAPI_L3_TCM,2, 34.86407471,  2.47447205,end
timer_stats,656133563249162,PAPI_L3_TCM,3, 35.13128662,  2.48808288,end
timer_stats,656133564325483,PAPI_L3_TCM,2, 35.38140869,  2.50129700,end
timer_stats,656133565402173,PAPI_L3_TCM,3, 35.63464355,  2.51473999,end
timer_stats,656133566477978,PAPI_L3_TCM,2, 35.89080810,  2.52867126,end
timer_stats,656133567554150,PAPI_L3_TCM,2, 36.16333008,  2.54226684,end
timer_stats,656133568630114,PAPI_L3_TCM,1, 36.39862060,  2.55580139,end
timer_stats,656133569706739,PAPI_L3_TCM,3, 36.79797363,  2.56919861,end
timer_stats,656133570784030,PAPI_L3_TCM,4, 37.18267822,  2.59626770,end
timer_stats,656133571860200,PAPI_L3_TCM,4, 37.41888428,  2.61024475,end
timer_stats,656133572937132,PAPI_L3_TCM,5, 37.68292236,  2.62408447,end
timer_stats,656133574015841,PAPI_L3_TCM,4, 37.93231201,  2.63752746,end
timer_stats,656133575092363,PAPI_L3_TCM,0, 38.19903564,  2.65090942,end
timer_stats,656133576168962,PAPI_L3_TCM,3, 38.45294189,  2.66450500,end
timer_stats,656133577246193,PAPI_L3_TCM,10, 38.69738769,  2.67814636,end
timer_stats,656133578323075,PAPI_L3_TCM,1, 38.95483398,  2.69155884,end
timer_stats,656133579407815,PAPI_L3_TCM,3, 39.21551514,  2.70466614,end
timer_stats,656133580483876,PAPI_L3_TCM,2, 39.47369385,  2.71830749,end
timer_stats,656133581560771,PAPI_L3_TCM,1, 39.72735596,  2.73171997,end
timer_stats,656133582636453,PAPI_L3_TCM,2, 39.98736572,  2.74536133,end
timer_stats,656133583712425,PAPI_L3_TCM,0, 40.36340332,  2.76550293,end
timer_stats,656133584793352,PAPI_L3_TCM,3, 40.74536133,  2.78623962,end
timer_stats,656133585869962,PAPI_L3_TCM,2, 40.99768066,  2.79992676,end
timer_stats,656133586946036,PAPI_L3_TCM,3, 41.26928711,  2.81332397,end
timer_stats,656133588022774,PAPI_L3_TCM,1, 41.50219726,  2.82659912,end
timer_stats,656133589099093,PAPI_L3_TCM,3, 41.77142334,  2.84051513,end
timer_stats,656133590175954,PAPI_L3_TCM,0, 42.01654053,  2.85424805,end
timer_stats,656133591253766,PAPI_L3_TCM,5, 42.28784180,  2.86834717,end
timer_stats,656133592330135,PAPI_L3_TCM,4, 42.52490234,  2.88230896,end
timer_stats,656133593406490,PAPI_L3_TCM,0, 42.79003906,  2.89636230,end
timer_stats,656133594487040,PAPI_L3_TCM,1, 43.05010986,  2.91000366,end
timer_stats,656133595565237,PAPI_L3_TCM,1, 43.30725098,  2.92349243,end
timer_stats,656133596644839,PAPI_L3_TCM,13, 43.55364990,  2.93698120,end
timer_stats,656133597722500,PAPI_L3_TCM,5, 44.07672119,  2.96325684,end
timer_stats,656133600599907,PAPI_L3_TCM,102, 44.52935791,  3.00868225,end
timer_stats,656133601683263,PAPI_L3_TCM,57, 44.70983887,  3.02256775,end
timer_stats,656133602758597,PAPI_L3_TCM,6, 45.09228516,  3.04539490,end
timer_stats,656133603831455,PAPI_L3_TCM,4, 45.49310303,  3.06809997,end
timer_stats,656133604905127,PAPI_L3_TCM,2, 45.73529053,  3.08399963,end
timer_stats,656133605978757,PAPI_L3_TCM,1, 46.00006103,  3.09884643,end
timer_stats,656133607052307,PAPI_L3_TCM,1, 46.25714111,  3.11401367,end
timer_stats,656133608126747,PAPI_L3_TCM,3, 46.51196289,  3.12940979,end
timer_stats,656133609203108,PAPI_L3_TCM,0, 46.77740478,  3.14447021,end
timer_stats,656133610275459,PAPI_L3_TCM,3, 47.03765869,  3.15979004,end
timer_stats,656133611348405,PAPI_L3_TCM,0, 47.31036377,  3.16738892,end
timer_stats,656133612423046,PAPI_L3_TCM,3, 47.55206299,  3.18252563,end
timer_stats,656133613496654,PAPI_L3_TCM,0, 47.81524658,  3.19866943,end
timer_stats,656133614570106,PAPI_L3_TCM,3, 48.07629395,  3.21470642,end
timer_stats,656133615644162,PAPI_L3_TCM,1, 48.34704590,  3.23001098,end
timer_stats,656133616716814,PAPI_L3_TCM,2, 48.72167969,  3.24662781,end
timer_stats,656133617789834,PAPI_L3_TCM,1, 49.11706543,  3.27813721,end
timer_stats,656133618863932,PAPI_L3_TCM,7, 49.37963867,  3.29367065,end
timer_stats,656133619936664,PAPI_L3_TCM,2, 49.64831543,  3.30920410,end
timer_stats,656133621010939,PAPI_L3_TCM,1, 49.91113281,  3.32429504,end
timer_stats,656133622084376,PAPI_L3_TCM,3, 50.16717529,  3.33966064,end
timer_stats,656133623163327,PAPI_L3_TCM,6, 50.43646240,  3.34724426,end
timer_stats,656133624236172,PAPI_L3_TCM,0, 50.70416260,  3.36256409,end
timer_stats,656133625309570,PAPI_L3_TCM,3, 50.96551514,  3.37796020,end
timer_stats,656133626383036,PAPI_L3_TCM,0, 51.21582031,  3.39314270,end
timer_stats,656133627456908,PAPI_L3_TCM,3, 51.47998047,  3.40882874,end
timer_stats,656133628530053,PAPI_L3_TCM,7, 51.74810791,  3.42440796,end
timer_stats,656133629611360,PAPI_L3_TCM,9, 51.99664307,  3.44001770,end
timer_stats,656133630686673,PAPI_L3_TCM,4, 52.25488281,  3.45579529,end
timer_stats,656133631760153,PAPI_L3_TCM,7, 52.65008545,  3.47845459,end
timer_stats,656133632834536,PAPI_L3_TCM,5, 53.04699707,  3.50210571,end
timer_stats,656133633915342,PAPI_L3_TCM,2, 53.31024170,  3.51820373,end
timer_stats,656133634987983,PAPI_L3_TCM,0, 53.57501221,  3.53349304,end
timer_stats,656133636013634,PAPI_L3_TCM,6, 53.83935547,  3.54960632,end
timer_stats,656133637087797,PAPI_L3_TCM,5, 54.10162353,  3.56567383,end
timer_stats,656133638161261,PAPI_L3_TCM,4, 54.39044189,  3.57365417,end
timer_stats,656133639234788,PAPI_L3_TCM,1, 54.65362549,  3.58877563,end
timer_stats,656133640309098,PAPI_L3_TCM,3, 54.88134765,  3.60397339,end
timer_stats,656133641382969,PAPI_L3_TCM,8, 55.14544678,  3.61933899,end
timer_stats,656133642457773,PAPI_L3_TCM,6, 55.43524170,  3.63435364,end
timer_stats,656133643534469,PAPI_L3_TCM,10, 55.66632080,  3.64820862,end
timer_stats,656133644610996,PAPI_L3_TCM,21, 55.92999268,  3.66180420,end
timer_stats,656133649079058,PAPI_L3_TCM,187, 57.04608154,  3.73625183,end
timer_stats,656133650166020,PAPI_L3_TCM,51, 57.27008057,  3.75155640,end
timer_stats,656133651241307,PAPI_L3_TCM,4, 57.52569580,  3.76670837,end
timer_stats,656133652316386,PAPI_L3_TCM,4, 57.78564453,  3.78210449,end
timer_stats,656133653391445,PAPI_L3_TCM,2, 58.04931640,  3.79827881,end
timer_stats,656133654466118,PAPI_L3_TCM,3, 58.34503174,  3.81329346,end
timer_stats,656133655540709,PAPI_L3_TCM,3, 58.56469726,  3.82876587,end
timer_stats,656133656615943,PAPI_L3_TCM,5, 58.82910156,  3.84455871,end
timer_stats,656133657692141,PAPI_L3_TCM,1, 59.09405518,  3.85937500,end
timer_stats,656133658768425,PAPI_L3_TCM,5, 59.60723877,  3.88262939,end
timer_stats,656133659844230,PAPI_L3_TCM,2, 59.86627197,  3.90588379,end
timer_stats,656133660920863,PAPI_L3_TCM,4, 60.12731934,  3.92173767,end
timer_stats,656133661996848,PAPI_L3_TCM,1, 60.42755127,  3.93721008,end
timer_stats,656133663078341,PAPI_L3_TCM,6, 60.65991211,  3.95359802,end
timer_stats,656133664153002,PAPI_L3_TCM,6, 60.95068359,  3.96884155,end
timer_stats,656133665582085,PAPI_L3_TCM,3032, 61.17065430,  3.98452759,end
timer_stats,656133666663230,PAPI_L3_TCM,33, 61.43988037,  3.99984741,end
timer_stats,656133667739306,PAPI_L3_TCM,9, 61.72619629,  4.01510620,end
timer_stats,656133668814075,PAPI_L3_TCM,3, 61.98919678,  4.03074646,end
timer_stats,656133669888456,PAPI_L3_TCM,2, 62.37890625,  4.05432129,end
timer_stats,656133670962146,PAPI_L3_TCM,1, 62.73693848,  4.07711792,end
timer_stats,656133672016100,PAPI_L3_TCM,5, 62.99920654,  4.09272766,end
timer_stats,656133673090970,PAPI_L3_TCM,0, 63.26361084,  4.10826111,end
timer_stats,656133674165789,PAPI_L3_TCM,4, 63.54321289,  4.12403870,end
timer_stats,656133675240688,PAPI_L3_TCM,3, 63.80267334,  4.13914490,end
timer_stats,656133676315538,PAPI_L3_TCM,5, 64.06109619,  4.15449524,end
timer_stats,656133677391017,PAPI_L3_TCM,0, 64.30273437,  4.16989136,end
timer_stats,656133678466863,PAPI_L3_TCM,1, 64.56427002,  4.18614197,end
timer_stats,656133679541299,PAPI_L3_TCM,0, 64.86016846,  4.20135498,end
timer_stats,656133680616444,PAPI_L3_TCM,4, 65.08825683,  4.21707153,end
timer_stats,656133681691345,PAPI_L3_TCM,2, 65.36669922,  4.23355102,end
timer_stats,656133682765140,PAPI_L3_TCM,4, 65.62561035,  4.24887085,end
timer_stats,656133683839189,PAPI_L3_TCM,0, 66.01483154,  4.27273559,end
timer_stats,656133684915012,PAPI_L3_TCM,5, 66.27526855,  4.28929138,end
timer_stats,656133685989371,PAPI_L3_TCM,0, 66.63952637,  4.31228638,end
timer_stats,656133687064709,PAPI_L3_TCM,2, 66.90393066,  4.32788086,end
timer_stats,656133688137941,PAPI_L3_TCM,6, 67.16345215,  4.34338379,end
timer_stats,656133689212092,PAPI_L3_TCM,6, 67.42840576,  4.35897827,end
timer_stats,656133690286113,PAPI_L3_TCM,0, 67.72082519,  4.36717224,end
timer_stats,656133691360147,PAPI_L3_TCM,2, 67.98126221,  4.38282776,end
timer_stats,656133692435257,PAPI_L3_TCM,8, 68.24859619,  4.39842224,end
timer_stats,656133697448708,PAPI_L3_TCM,147, 69.37554932,  4.47698975,end
timer_stats,656133698537851,PAPI_L3_TCM,66, 69.56750488,  4.49362183,end
timer_stats,656133699615025,PAPI_L3_TCM,11, 69.82940674,  4.50871277,end
timer_stats,656133700690141,PAPI_L3_TCM,2, 70.08416748,  4.52383423,end
timer_stats,656133701766875,PAPI_L3_TCM,7, 70.45184326,  4.53932190,end
timer_stats,656133702843101,PAPI_L3_TCM,2, 70.71136474,  4.56182861,end
timer_stats,656133703961123,PAPI_L3_TCM,7, 71.10913086,  4.58572388,end
timer_stats,656133705037613,PAPI_L3_TCM,4, 71.39294433,  4.60107422,end
timer_stats,656133706114003,PAPI_L3_TCM,2, 71.62695312,  4.61705017,end
timer_stats,656133707188997,PAPI_L3_TCM,0, 71.88537598,  4.63265991,end
timer_stats,656133708263908,PAPI_L3_TCM,1, 72.17852783,  4.64816284,end
timer_stats,656133709340139,PAPI_L3_TCM,1, 72.43304443,  4.66377258,end
timer_stats,656133710415603,PAPI_L3_TCM,6, 72.69555664,  4.67938232,end
timer_stats,656133711489308,PAPI_L3_TCM,2, 72.97460937,  4.69540405,end
timer_stats,656133712564126,PAPI_L3_TCM,4, 73.20758057,  4.71101379,end
timer_stats,656133713638404,PAPI_L3_TCM,3, 73.45373535,  4.72694397,end
timer_stats,656133714713356,PAPI_L3_TCM,1, 73.73443603,  4.74320984,end
timer_stats,656133715788074,PAPI_L3_TCM,0, 74.11248779,  4.76611328,end
timer_stats,656133716863003,PAPI_L3_TCM,1, 74.50140381,  4.78196716,end
timer_stats,656133717938806,PAPI_L3_TCM,2, 74.63549805,  4.79843140,end
timer_stats,656133719013379,PAPI_L3_TCM,7, 75.04986572,  4.82106018,end
timer_stats,656133720087774,PAPI_L3_TCM,1, 75.32159424,  4.83686829,end
timer_stats,656133721162606,PAPI_L3_TCM,6, 75.54840088,  4.85278320,end
timer_stats,656133722237623,PAPI_L3_TCM,6, 75.84368896,  4.86793518,end
timer_stats,656133723312533,PAPI_L3_TCM,2, 76.07342529,  4.88362121,end
timer_stats,656133724387430,PAPI_L3_TCM,3, 76.36596680,  4.89913940,end
timer_stats,656133725461914,PAPI_L3_TCM,1, 76.62664795,  4.91474914,end
timer_stats,656133726536251,PAPI_L3_TCM,0, 76.85546875,  4.93045044,end
timer_stats,656133727610518,PAPI_L3_TCM,3, 77.13787842,  4.94689941,end
timer_stats,656133728686270,PAPI_L3_TCM,1, 77.39569092,  4.96266174,end
timer_stats,656133729761552,PAPI_L3_TCM,3, 77.66040039,  4.97816467,end
timer_stats,656133730835548,PAPI_L3_TCM,0, 78.02856445,  5.00144958,end
timer_stats,656133731910803,PAPI_L3_TCM,2, 78.29089355,  5.01751709,end
timer_stats,656133732985747,PAPI_L3_TCM,1, 78.68280029,  5.04138183,end
timer_stats,656133734061372,PAPI_L3_TCM,1, 78.94763183,  5.05786133,end
timer_stats,656133735136127,PAPI_L3_TCM,2, 79.21899414,  5.07342529,end
timer_stats,656133736210997,PAPI_L3_TCM,8, 79.47833252,  5.08894348,end
timer_stats,656133737285947,PAPI_L3_TCM,5, 79.74340820,  5.10504150,end
timer_stats,656133738359917,PAPI_L3_TCM,3, 80.00994873,  5.12036133,end
timer_stats,656133739433805,PAPI_L3_TCM,1, 80.26879883,  5.13592529,end
timer_stats,656133740507764,PAPI_L3_TCM,5, 80.53741455,  5.15155029,end
timer_stats,656133741581313,PAPI_L3_TCM,0, 80.78729248,  5.16694641,end
timer_stats,656133746613322,PAPI_L3_TCM,154, 81.92944336,  5.24140930,end
timer_stats,656133747703481,PAPI_L3_TCM,84, 82.10687256,  5.25761413,end
timer_stats,656133748780550,PAPI_L3_TCM,9, 82.33489990,  5.27156067,end
timer_stats,656133749856761,PAPI_L3_TCM,1, 82.62493896,  5.28489685,end
timer_stats,656133750931755,PAPI_L3_TCM,6, 83.11834717,  5.31210327,end
timer_stats,656133752013172,PAPI_L3_TCM,2, 83.38726807,  5.32572937,end
timer_stats,656133753091783,PAPI_L3_TCM,6, 83.64215088,  5.33915710,end
timer_stats,656133754169113,PAPI_L3_TCM,1, 83.91302490,  5.35279846,end
timer_stats,656133755244281,PAPI_L3_TCM,4, 84.16986084,  5.36643982,end
timer_stats,656133756320836,PAPI_L3_TCM,2, 84.43444824,  5.38005066,end
timer_stats,656133757397202,PAPI_L3_TCM,5, 84.67828369,  5.39350891,end
timer_stats,656133758472817,PAPI_L3_TCM,0, 84.95208740,  5.40736389,end
timer_stats,656133759549650,PAPI_L3_TCM,5, 85.21185303,  5.42149353,end
timer_stats,656133760625110,PAPI_L3_TCM,1, 85.46551514,  5.43537903,end
timer_stats,656133761701009,PAPI_L3_TCM,3, 85.73211670,  5.44920349,end
timer_stats,656133762776781,PAPI_L3_TCM,1, 85.98455810,  5.46310425,end
timer_stats,656133763852903,PAPI_L3_TCM,1, 86.24420166,  5.47697449,end
timer_stats,656133764930593,PAPI_L3_TCM,10, 86.63568115,  5.49783325,end
timer_stats,656133766007072,PAPI_L3_TCM,5, 87.01727295,  5.51881409,end
timer_stats,656133767083207,PAPI_L3_TCM,2, 87.27606201,  5.53475952,end
timer_stats,656133768158795,PAPI_L3_TCM,3, 87.54394531,  5.55061340,end
timer_stats,656133769233781,PAPI_L3_TCM,4, 87.79351807,  5.56620788,end
timer_stats,656133770308701,PAPI_L3_TCM,7, 88.05334473,  5.58172607,end
timer_stats,656133771384236,PAPI_L3_TCM,0, 88.32580566,  5.59718323,end
timer_stats,656133772459428,PAPI_L3_TCM,1, 88.57922363,  5.61280823,end
timer_stats,656133773536024,PAPI_L3_TCM,1, 88.85180664,  5.62840271,end
timer_stats,656133774612033,PAPI_L3_TCM,2, 89.10430908,  5.64447021,end
timer_stats,656133775688030,PAPI_L3_TCM,2, 89.37219238,  5.65985107,end
timer_stats,656133776763770,PAPI_L3_TCM,2, 89.64031982,  5.67544556,end
timer_stats,656133777839158,PAPI_L3_TCM,1, 89.88366699,  5.69111633,end
timer_stats,656133778913774,PAPI_L3_TCM,7, 90.29083252,  5.71514893,end
timer_stats,656133779988672,PAPI_L3_TCM,1, 90.55804443,  5.73097229,end
timer_stats,656133781069347,PAPI_L3_TCM,4, 90.95111084,  5.75395203,end
timer_stats,656133782144355,PAPI_L3_TCM,4, 91.20251465,  5.76962280,end
timer_stats,656133783219125,PAPI_L3_TCM,3, 91.46929932,  5.78495788,end
timer_stats,656133784294542,PAPI_L3_TCM,3, 91.73834228,  5.80026245,end
timer_stats,656133785370510,PAPI_L3_TCM,4, 92.00280762,  5.81590271,end
timer_stats,656133786445301,PAPI_L3_TCM,1, 92.26470947,  5.83197021,end
timer_stats,656133787520496,PAPI_L3_TCM,3, 92.51226807,  5.84730530,end
timer_stats,656133788596282,PAPI_L3_TCM,1, 92.78082275,  5.86291504,end
timer_stats,656133789671462,PAPI_L3_TCM,1, 93.04895019,  5.87936401,end
timer_stats,656133790745765,PAPI_L3_TCM,0, 93.29583740,  5.89593506,end
timer_stats,656133791820834,PAPI_L3_TCM,7, 93.57324219,  5.91148376,end
timer_stats,656133792896266,PAPI_L3_TCM,0, 93.81976318,  5.92736816,end
timer_stats,656133793972530,PAPI_L3_TCM,2, 94.21124267,  5.95039367,end
timer_stats,656133795048651,PAPI_L3_TCM,1, 94.61590576,  5.97306824,end
timer_stats,656133796123291,PAPI_L3_TCM,8, 94.86395264,  5.98893738,end
timer_stats,656133797198199,PAPI_L3_TCM,4, 95.12829590,  6.00424194,end
timer_stats,656133798273043,PAPI_L3_TCM,2, 95.39453125,  6.02000427,end
timer_stats,656133799348970,PAPI_L3_TCM,0, 95.66162109,  6.03561401,end
timer_stats,656133800423765,PAPI_L3_TCM,3, 95.92095947,  6.05094909,end
timer_stats,656133801499257,PAPI_L3_TCM,1, 96.17901611,  6.06707764,end
timer_stats,656133802573717,PAPI_L3_TCM,2, 96.44415283,  6.08236694,end
timer_stats,656133803648776,PAPI_L3_TCM,0, 96.69543457,  6.09773254,end
timer_stats,656133808079231,PAPI_L3_TCM,299, 97.80364990,  6.20448303,end
timer_stats,656133809172179,PAPI_L3_TCM,132, 98.03869629,  6.21975708,end
timer_stats,656133810248415,PAPI_L3_TCM,13, 98.29461670,  6.23493958,end
timer_stats,656133811323423,PAPI_L3_TCM,2, 98.56256103,  6.25032043,end
timer_stats,656133812398240,PAPI_L3_TCM,4, 98.80419922,  6.26625061,end
timer_stats,656133813472263,PAPI_L3_TCM,1, 99.07983398,  6.28207397,end
timer_stats,656133814546250,PAPI_L3_TCM,3, 99.32495117,  6.29725647,end
timer_stats,656133815620942,PAPI_L3_TCM,2, 99.59417724,  6.31262207,end
timer_stats,656133816695408,PAPI_L3_TCM,1, 99.84381103,  6.32759094,end
timer_stats,656133817770093,PAPI_L3_TCM,0,100.10754394,  6.34295654,end
timer_stats,656133818843563,PAPI_L3_TCM,1,100.36840820,  6.35836792,end
timer_stats,656133819917599,PAPI_L3_TCM,2,100.75366211,  6.37400818,end
timer_stats,656133820994283,PAPI_L3_TCM,16,101.15295410,  6.40524292,end
timer_stats,656133822069867,PAPI_L3_TCM,5,101.41241455,  6.42056274,end
timer_stats,656133823144139,PAPI_L3_TCM,2,101.67510986,  6.43591309,end
timer_stats,656133824218857,PAPI_L3_TCM,1,101.93920898,  6.45124817,end
timer_stats,656133825292934,PAPI_L3_TCM,1,102.20123291,  6.46752930,end
timer_stats,656133826367120,PAPI_L3_TCM,0,102.46063232,  6.48339844,end
timer_stats,656133827441644,PAPI_L3_TCM,1,102.73669433,  6.49967956,end
timer_stats,656133828516592,PAPI_L3_TCM,2,102.98986816,  6.51625061,end
timer_stats,656133829591403,PAPI_L3_TCM,3,103.24975586,  6.53274536,end
timer_stats,656133830665256,PAPI_L3_TCM,1,103.52337646,  6.54829407,end
timer_stats,656133831740518,PAPI_L3_TCM,2,103.78820801,  6.56361389,end
timer_stats,656133832816121,PAPI_L3_TCM,3,104.04199219,  6.57897949,end
timer_stats,656133833891112,PAPI_L3_TCM,10,104.30853271,  6.59484863,end
timer_stats,656133834964493,PAPI_L3_TCM,1,104.70050049,  6.61047363,end
timer_stats,656133836015386,PAPI_L3_TCM,6,105.08520508,  6.64167786,end
timer_stats,656133837089504,PAPI_L3_TCM,2,105.36047363,  6.65699768,end
timer_stats,656133838163353,PAPI_L3_TCM,2,105.62634277,  6.67262268,end
timer_stats,656133839237840,PAPI_L3_TCM,2,105.87573242,  6.68804931,end
timer_stats,656133840312050,PAPI_L3_TCM,4,106.14495849,  6.70338440,end
timer_stats,656133841386168,PAPI_L3_TCM,1,106.40808105,  6.71871948,end
timer_stats,656133842460946,PAPI_L3_TCM,2,106.65612793,  6.73458862,end
timer_stats,656133843535193,PAPI_L3_TCM,2,106.93634033,  6.75009155,end
timer_stats,656133844609641,PAPI_L3_TCM,1,107.20172119,  6.76573181,end
timer_stats,656133845684652,PAPI_L3_TCM,1,107.46417236,  6.78128052,end
timer_stats,656133846759904,PAPI_L3_TCM,6,107.72143555,  6.79711914,end
timer_stats,656133847834390,PAPI_L3_TCM,1,107.98736572,  6.81243896,end
timer_stats,656133848909983,PAPI_L3_TCM,10,108.24536133,  6.82778931,end
timer_stats,656133849985345,PAPI_L3_TCM,4,108.62860107,  6.85078430,end
timer_stats,656133851058974,PAPI_L3_TCM,1,109.03680420,  6.87481689,end
timer_stats,656133852131917,PAPI_L3_TCM,0,109.29699707,  6.89019775,end
timer_stats,656133853205692,PAPI_L3_TCM,2,109.57690430,  6.90544128,end
timer_stats,656133854279766,PAPI_L3_TCM,0,109.82299805,  6.92115784,end
timer_stats,656133855353076,PAPI_L3_TCM,3,110.09362793,  6.93698120,end
timer_stats,656133856427311,PAPI_L3_TCM,1,110.36102295,  6.95298767,end
timer_stats,656133857501779,PAPI_L3_TCM,5,110.62231445,  6.96861267,end
timer_stats,656133858576202,PAPI_L3_TCM,0,110.87829590,  6.98397827,end
timer_stats,656133859650720,PAPI_L3_TCM,2,111.14270020,  7.00053406,end
timer_stats,656133860724195,PAPI_L3_TCM,0,111.40649414,  7.01614380,end
timer_stats,656133861798783,PAPI_L3_TCM,1,111.67559814,  7.03178406,end
timer_stats,656133862872710,PAPI_L3_TCM,1,111.93182373,  7.04714966,end
timer_stats,656133863947355,PAPI_L3_TCM,2,112.19476318,  7.06251526,end
timer_stats,656133865022154,PAPI_L3_TCM,1,112.71166992,  7.08534241,end
timer_stats,656133866097972,PAPI_L3_TCM,2,112.97210693,  7.10049438,end
timer_stats,656133867172311,PAPI_L3_TCM,1,113.23040771,  7.11618042,end
timer_stats,656133871994172,PAPI_L3_TCM,117,114.29516601,  7.21188354,end
timer_stats,656133873095854,PAPI_L3_TCM,49,114.61724853,  7.23674011,end
timer_stats,656133874171995,PAPI_L3_TCM,5,114.87335205,  7.25259399,end
timer_stats,656133875247200,PAPI_L3_TCM,5,115.13903808,  7.26797485,end
timer_stats,656133876322482,PAPI_L3_TCM,5,115.40710449,  7.28364563,end
timer_stats,656133877396502,PAPI_L3_TCM,0,115.65704346,  7.29884338,end
timer_stats,656133878470368,PAPI_L3_TCM,3,115.92382812,  7.31422424,end
timer_stats,656133879543680,PAPI_L3_TCM,0,116.19049072,  7.32966614,end
timer_stats,656133880618077,PAPI_L3_TCM,2,116.45892334,  7.34504700,end
timer_stats,656133881692723,PAPI_L3_TCM,2,116.71667480,  7.36044311,end
timer_stats,656133882767259,PAPI_L3_TCM,4,116.97760010,  7.37580871,end
timer_stats,656133883840918,PAPI_L3_TCM,1,117.24530029,  7.39112854,end
timer_stats,656133884915086,PAPI_L3_TCM,4,117.49102783,  7.40631103,end
timer_stats,656133885989069,PAPI_L3_TCM,1,117.76342773,  7.42166138,end
timer_stats,656133887062234,PAPI_L3_TCM,2,118.15600586,  7.44551086,end
timer_stats,656133888135787,PAPI_L3_TCM,4,118.55377197,  7.46801758,end
timer_stats,656133889209833,PAPI_L3_TCM,5,118.81744385,  7.48370361,end
timer_stats,656133890283448,PAPI_L3_TCM,5,119.08941650,  7.49902344,end
timer_stats,656133891358151,PAPI_L3_TCM,7,119.34503174,  7.51446533,end
timer_stats,656133892433388,PAPI_L3_TCM,4,119.61138916,  7.52957153,end
timer_stats,656133893507775,PAPI_L3_TCM,4,119.87011719,  7.54492187,end
timer_stats,656133894581490,PAPI_L3_TCM,1,120.13031006,  7.56021118,end
timer_stats,656133895655695,PAPI_L3_TCM,2,120.39227295,  7.57528686,end
timer_stats,656133896730523,PAPI_L3_TCM,0,120.66876221,  7.58302307,end
timer_stats,656133897805576,PAPI_L3_TCM,1,120.91784668,  7.59848022,end
timer_stats,656133898881121,PAPI_L3_TCM,12,121.18273926,  7.61384582,end
timer_stats,656133899955966,PAPI_L3_TCM,3,121.45837402,  7.62924194,end
timer_stats,656133901031496,PAPI_L3_TCM,1,121.84411621,  7.65316772,end
timer_stats,656133902106449,PAPI_L3_TCM,4,122.25268555,  7.67634582,end
timer_stats,656133903180848,PAPI_L3_TCM,0,122.51098633,  7.69146728,end
timer_stats,656133904254996,PAPI_L3_TCM,2,122.77874756,  7.70680237,end
timer_stats,656133905329268,PAPI_L3_TCM,2,123.04016113,  7.72215271,end
timer_stats,656133906402677,PAPI_L3_TCM,1,123.30157471,  7.73750305,end
timer_stats,656133907477018,PAPI_L3_TCM,0,123.55853271,  7.75413513,end
timer_stats,656133908551159,PAPI_L3_TCM,5,123.81896973,  7.76945495,end
timer_stats,656133909625839,PAPI_L3_TCM,5,124.08782959,  7.78482056,end
timer_stats,656133910700162,PAPI_L3_TCM,3,124.36676025,  7.80018616,end
timer_stats,656133911773732,PAPI_L3_TCM,0,124.61975098,  7.81535339,end
timer_stats,656133912848424,PAPI_L3_TCM,4,124.88653564,  7.83049011,end
timer_stats,656133913924022,PAPI_L3_TCM,1,125.14843750,  7.84564209,end
timer_stats,656133914998290,PAPI_L3_TCM,1,125.40911865,  7.86103821,end
timer_stats,656133916071774,PAPI_L3_TCM,1,125.67047119,  7.87672424,end
timer_stats,656133917146208,PAPI_L3_TCM,1,126.20440674,  7.90701294,end
timer_stats,656133918219884,PAPI_L3_TCM,0,126.45880127,  7.92243957,end
timer_stats,656133919294137,PAPI_L3_TCM,3,126.73736572,  7.93780518,end
timer_stats,656133920368009,PAPI_L3_TCM,1,127.00280762,  7.95294189,end
timer_stats,656133921442257,PAPI_L3_TCM,2,127.26440430,  7.96833801,end
timer_stats,656133922516237,PAPI_L3_TCM,1,127.52221680,  7.98374939,end
timer_stats,656133923589613,PAPI_L3_TCM,1,127.79278564,  7.99887085,end
timer_stats,656133924663671,PAPI_L3_TCM,1,128.04467773,  8.01428223,end
timer_stats,656133925738246,PAPI_L3_TCM,2,128.30609131,  8.02993774,end
timer_stats,656133926812401,PAPI_L3_TCM,0,128.56976318,  8.04577637,end
timer_stats,656133927886631,PAPI_L3_TCM,3,128.83294678,  8.06115723,end
timer_stats,656133928961826,PAPI_L3_TCM,3,129.10437012,  8.07679748,end
timer_stats,656133930036648,PAPI_L3_TCM,2,129.61834717,  8.09974670,end
timer_stats,656133931109710,PAPI_L3_TCM,1,129.88262939,  8.12368774,end
timer_stats,656133932183772,PAPI_L3_TCM,2,130.15332031,  8.13900757,end
timer_stats,656133933257858,PAPI_L3_TCM,2,130.40856933,  8.15472412,end
timer_stats,656133938363420,PAPI_L3_TCM,84,131.59698486,  8.26153564,end
timer_stats,656133939470994,PAPI_L3_TCM,50,131.79235840,  8.27693176,end
timer_stats,656133940548213,PAPI_L3_TCM,7,132.04595947,  8.29260254,end
timer_stats,656133941625095,PAPI_L3_TCM,6,132.31921387,  8.30772400,end
timer_stats,656133942700266,PAPI_L3_TCM,3,132.59790039,  8.32286072,end
timer_stats,656133943775445,PAPI_L3_TCM,0,132.84613037,  8.33808899,end
timer_stats,656133944852122,PAPI_L3_TCM,1,133.10705566,  8.35304260,end
timer_stats,656133945927058,PAPI_L3_TCM,0,133.36499023,  8.36828613,end
timer_stats,656133947002037,PAPI_L3_TCM,2,133.62744141,  8.38349914,end
timer_stats,656133948076870,PAPI_L3_TCM,0,134.02069092,  8.40663147,end
timer_stats,656133949152049,PAPI_L3_TCM,2,134.28375244,  8.42166138,end
timer_stats,656133950227319,PAPI_L3_TCM,0,134.68615723,  8.44448852,end
timer_stats,656133951302786,PAPI_L3_TCM,4,134.97344971,  8.46011353,end
timer_stats,656133952378178,PAPI_L3_TCM,1,135.20758057,  8.47535705,end
timer_stats,656133953453983,PAPI_L3_TCM,5,135.47271728,  8.49073791,end
timer_stats,656133954528763,PAPI_L3_TCM,4,135.74096680,  8.50607300,end
timer_stats,656133955605222,PAPI_L3_TCM,1,136.02655029,  8.52137756,end
timer_stats,656133956681477,PAPI_L3_TCM,2,136.26910400,  8.53710937,end
timer_stats,656133957756911,PAPI_L3_TCM,8,136.56115723,  8.55216980,end
timer_stats,656133958831905,PAPI_L3_TCM,1,136.80523682,  8.56834412,end
timer_stats,656133959907042,PAPI_L3_TCM,4,137.05725097,  8.58351135,end
timer_stats,656133960982252,PAPI_L3_TCM,3,137.31787109,  8.59848022,end
timer_stats,656133962058202,PAPI_L3_TCM,6,137.58569336,  8.61364746,end
timer_stats,656133963133334,PAPI_L3_TCM,1,137.85241699,  8.62879944,end
timer_stats,656133964208472,PAPI_L3_TCM,1,138.27093506,  8.65151977,end
timer_stats,656133965283459,PAPI_L3_TCM,4,138.63537598,  8.67478943,end
timer_stats,656133966359684,PAPI_L3_TCM,5,138.90435791,  8.69046020,end
timer_stats,656133967435726,PAPI_L3_TCM,8,139.19720459,  8.70555115,end
timer_stats,656133968511853,PAPI_L3_TCM,3,139.46350098,  8.72070312,end
timer_stats,656133969587097,PAPI_L3_TCM,1,139.73468017,  8.73608398,end
timer_stats,656133970662047,PAPI_L3_TCM,1,139.98010254,  8.75158691,end
timer_stats,656133971737392,PAPI_L3_TCM,1,140.22705078,  8.76704407,end
timer_stats,656133972812918,PAPI_L3_TCM,2,140.51751709,  8.78211975,end
timer_stats,656133973888259,PAPI_L3_TCM,2,140.78430176,  8.79747009,end
timer_stats,656133974962855,PAPI_L3_TCM,4,141.03405762,  8.81312561,end
timer_stats,656133976014983,PAPI_L3_TCM,1,141.28509521,  8.82881165,end
timer_stats,656133977090569,PAPI_L3_TCM,5,141.67889404,  8.85194397,end
timer_stats,656133978165665,PAPI_L3_TCM,5,142.07708740,  8.87536621,end
timer_stats,656133979240675,PAPI_L3_TCM,5,142.35937500,  8.88278198,end
timer_stats,656133980315716,PAPI_L3_TCM,3,142.60247803,  8.90739441,end
timer_stats,656133981391317,PAPI_L3_TCM,1,142.89233398,  8.92218017,end
timer_stats,656133982465663,PAPI_L3_TCM,1,143.15344238,  8.93757629,end
timer_stats,656133983539811,PAPI_L3_TCM,2,143.42401123,  8.95285034,end
timer_stats,656133984614101,PAPI_L3_TCM,0,143.68115234,  8.96853638,end
timer_stats,656133985689204,PAPI_L3_TCM,2,143.91766357,  8.98376465,end
timer_stats,656133986764675,PAPI_L3_TCM,3,144.20794678,  8.99882507,end
timer_stats,656133987840273,PAPI_L3_TCM,1,144.47497559,  9.01449585,end
timer_stats,656133988916455,PAPI_L3_TCM,1,144.73815918,  9.02964783,end
timer_stats,656133989992295,PAPI_L3_TCM,5,145.00024414,  9.04505920,end
timer_stats,656133991067738,PAPI_L3_TCM,1,145.24273682,  9.06050110,end
timer_stats,656133992142156,PAPI_L3_TCM,3,145.75860596,  9.09114075,end
timer_stats,656133993216760,PAPI_L3_TCM,1,146.03015137,  9.10700989,end
timer_stats,656133994291969,PAPI_L3_TCM,3,146.29156494,  9.12210083,end
timer_stats,656133995366926,PAPI_L3_TCM,0,146.55279541,  9.13722229,end
timer_stats,656133996442057,PAPI_L3_TCM,3,146.81530762,  9.15313721,end
timer_stats,656133997516803,PAPI_L3_TCM,0,147.10314941,  9.16824341,end
timer_stats,656133998592250,PAPI_L3_TCM,4,147.37274170,  9.18334961,end
timer_stats,656133999666825,PAPI_L3_TCM,2,147.63317871,  9.19850159,end
timer_stats,656134000742408,PAPI_L3_TCM,5,147.90167236,  9.21520996,end
timer_stats,656134001817779,PAPI_L3_TCM,4,148.17456055,  9.22999573,end
timer_stats,656134006686968,PAPI_L3_TCM,167,149.28344726,  9.33386230,end
timer_stats,656134007780660,PAPI_L3_TCM,63,149.44732666,  9.34797668,end
timer_stats,656134008862521,PAPI_L3_TCM,12,149.69653320,  9.36167908,end
timer_stats,656134009939914,PAPI_L3_TCM,3,149.99273682,  9.37525940,end
timer_stats,656134011015773,PAPI_L3_TCM,1,150.22509766,  9.38903808,end
timer_stats,656134012091506,PAPI_L3_TCM,0,150.50787353,  9.40264892,end
timer_stats,656134013167273,PAPI_L3_TCM,6,150.76159668,  9.41638183,end
timer_stats,656134014243298,PAPI_L3_TCM,0,151.27514648,  9.43605041,end
timer_stats,656134015318752,PAPI_L3_TCM,2,151.51019287,  9.45732117,end
timer_stats,656134016394543,PAPI_L3_TCM,1,151.80395508,  9.47088623,end
timer_stats,656134017472145,PAPI_L3_TCM,1,152.06121826,  9.48455810,end
timer_stats,656134018547619,PAPI_L3_TCM,2,152.32794189,  9.49819946,end
timer_stats,656134019623439,PAPI_L3_TCM,1,152.59313965,  9.51206970,end
timer_stats,656134020699004,PAPI_L3_TCM,3,152.83782959,  9.52577209,end
timer_stats,656134021775220,PAPI_L3_TCM,6,153.09655762,  9.53918457,end
timer_stats,656134022851856,PAPI_L3_TCM,2,153.36889648,  9.55282593,end
timer_stats,656134023927877,PAPI_L3_TCM,3,153.62298584,  9.56669617,end
timer_stats,656134025004688,PAPI_L3_TCM,0,153.88446045,  9.57969665,end
timer_stats,656134026079994,PAPI_L3_TCM,2,154.15087891,  9.59283447,end
timer_stats,656134027155433,PAPI_L3_TCM,0,154.52545166,  9.61296081,end
timer_stats,656134028230291,PAPI_L3_TCM,2,154.89410400,  9.63372803,end
timer_stats,656134029306868,PAPI_L3_TCM,6,155.17773437,  9.64710998,end
timer_stats,656134030383450,PAPI_L3_TCM,3,155.41381836,  9.66084289,end
timer_stats,656134031459231,PAPI_L3_TCM,2,155.70941162,  9.67440796,end
timer_stats,656134032534785,PAPI_L3_TCM,2,155.97662353,  9.68806457,end
timer_stats,656134033610430,PAPI_L3_TCM,0,156.22509766,  9.70176697,end
timer_stats,656134034685897,PAPI_L3_TCM,2,156.48278809,  9.71545410,end
timer_stats,656134035760861,PAPI_L3_TCM,2,156.75061035,  9.72926330,end
timer_stats,656134036837052,PAPI_L3_TCM,6,157.01593017,  9.74243164,end
timer_stats,656134037912210,PAPI_L3_TCM,0,157.27862549,  9.75610351,end
timer_stats,656134038988089,PAPI_L3_TCM,3,157.53930664,  9.76976013,end
timer_stats,656134040064041,PAPI_L3_TCM,3,157.80096435,  9.78363037,end
timer_stats,656134041139362,PAPI_L3_TCM,6,158.05706787,  9.79707336,end
timer_stats,656134042214304,PAPI_L3_TCM,2,158.43939209,  9.81692505,end
timer_stats,656134043289761,PAPI_L3_TCM,1,158.70941162,  9.83055115,end
timer_stats,656134044365197,PAPI_L3_TCM,2,158.96502685,  9.84422302,end
timer_stats,656134045441390,PAPI_L3_TCM,2,159.35919189,  9.86558533,end
timer_stats,656134046516457,PAPI_L3_TCM,0,159.62158203,  9.87973022,end
timer_stats,656134047591686,PAPI_L3_TCM,6,159.88018799,  9.89508057,end
timer_stats,656134048666980,PAPI_L3_TCM,2,160.13897705,  9.91049194,end
timer_stats,656134049742756,PAPI_L3_TCM,6,160.40716553,  9.92585754,end
timer_stats,656134050817032,PAPI_L3_TCM,1,160.67095947,  9.94120788,end
timer_stats,656134051891544,PAPI_L3_TCM,3,160.94439697,  9.95683289,end
timer_stats,656134052967246,PAPI_L3_TCM,2,161.19677734,  9.97193909,end
timer_stats,656134054042524,PAPI_L3_TCM,1,161.44610596,  9.98733520,end
timer_stats,656134055117324,PAPI_L3_TCM,6,161.71820068, 10.00273132,end
timer_stats,656134056193568,PAPI_L3_TCM,4,161.96697998, 10.01815796,end
timer_stats,656134057269003,PAPI_L3_TCM,1,162.37133789, 10.04071045,end
timer_stats,656134058344681,PAPI_L3_TCM,2,162.75897217, 10.06512451,end
timer_stats,656134059420133,PAPI_L3_TCM,1,163.02551270, 10.08148193,end
timer_stats,656134060495383,PAPI_L3_TCM,2,163.28833008, 10.09632874,end
timer_stats,656134061570217,PAPI_L3_TCM,0,163.56652832, 10.11148071,end
timer_stats,656134062645775,PAPI_L3_TCM,1,163.80316162, 10.12818909,end
timer_stats,656134063720275,PAPI_L3_TCM,2,164.08007812, 10.14320373,end
timer_stats,656134064795452,PAPI_L3_TCM,2,164.32788086, 10.15837097,end
timer_stats,656134065870624,PAPI_L3_TCM,2,164.60021973, 10.17369080,end
timer_stats,656134066944684,PAPI_L3_TCM,2,164.86749267, 10.18902588,end
timer_stats,656134068019401,PAPI_L3_TCM,0,165.13079834, 10.20439148,end
timer_stats,656134069095169,PAPI_L3_TCM,1,165.39160156, 10.21977234,end
timer_stats,656134070169697,PAPI_L3_TCM,1,165.65808105, 10.23489380,end
timer_stats,656134071244929,PAPI_L3_TCM,7,166.03906250, 10.25744629,end
timer_stats,656134072320623,PAPI_L3_TCM,0,166.30072021, 10.27276611,end
timer_stats,656134073395917,PAPI_L3_TCM,3,166.70947266, 10.29632568,end
timer_stats,656134074471322,PAPI_L3_TCM,0,166.98681641, 10.31195068,end
timer_stats,656134075546124,PAPI_L3_TCM,2,167.24066162, 10.32807922,end
timer_stats,656134076621342,PAPI_L3_TCM,2,167.50054932, 10.34349060,end
timer_stats,656134077696779,PAPI_L3_TCM,3,167.75335693, 10.35884094,end
timer_stats,656134078771745,PAPI_L3_TCM,5,168.02838135, 10.37413025,end
timer_stats,656134079846685,PAPI_L3_TCM,1,168.28613281, 10.38923645,end
timer_stats,656134080922395,PAPI_L3_TCM,2,168.54583740, 10.40486145,end
timer_stats,656134081998763,PAPI_L3_TCM,4,168.80291748, 10.42024231,end
timer_stats,656134083073628,PAPI_L3_TCM,2,169.06024170, 10.43537903,end
timer_stats,656134084148948,PAPI_L3_TCM,4,169.32324219, 10.45050049,end
timer_stats,656134085224642,PAPI_L3_TCM,3,169.57891846, 10.46534729,end
timer_stats,656134086299378,PAPI_L3_TCM,2,169.97900391, 10.48782348,end
timer_stats,656134087373647,PAPI_L3_TCM,2,170.36505127, 10.51179504,end
timer_stats,656134088449226,PAPI_L3_TCM,5,170.63598633, 10.52719116,end
timer_stats,656134089524351,PAPI_L3_TCM,2,170.88238525, 10.54266357,end
timer_stats,656134090613928,PAPI_L3_TCM,7,171.14129639, 10.55831909,end
timer_stats,656134091688731,PAPI_L3_TCM,0,171.42407227, 10.57391357,end
timer_stats,656134092764907,PAPI_L3_TCM,7,171.68463135, 10.58926392,end
timer_stats,656134097688955,PAPI_L3_TCM,204,172.85687256, 10.69323730,end
timer_stats,656134098779006,PAPI_L3_TCM,89,173.06286621, 10.70938110,end
timer_stats,656134099859350,PAPI_L3_TCM,6,173.31390381, 10.72508240,end
timer_stats,656134100935308,PAPI_L3_TCM,5,173.58300781, 10.74038696,end
timer_stats,656134102008512,PAPI_L3_TCM,0,173.82684326, 10.75590515,end
timer_stats,656134103084661,PAPI_L3_TCM,2,174.08569336, 10.77127075,end
timer_stats,656134104158629,PAPI_L3_TCM,1,174.35620117, 10.78660583,end
timer_stats,656134105233339,PAPI_L3_TCM,3,174.74896240, 10.80908203,end
timer_stats,656134106307311,PAPI_L3_TCM,1,175.01580810, 10.82463074,end
timer_stats,656134107381142,PAPI_L3_TCM,1,175.40191650, 10.84802246,end
timer_stats,656134108456311,PAPI_L3_TCM,1,175.66796875, 10.86363220,end
timer_stats,656134109530336,PAPI_L3_TCM,1,175.92523193, 10.87875366,end
timer_stats,656134110605120,PAPI_L3_TCM,0,176.19085693, 10.89414978,end
timer_stats,656134111678041,PAPI_L3_TCM,2,176.45916748, 10.91017151,end
timer_stats,656134112752416,PAPI_L3_TCM,3,176.72052002, 10.92549133,end
timer_stats,656134113826049,PAPI_L3_TCM,2,176.98718262, 10.94201660,end
timer_stats,656134114899481,PAPI_L3_TCM,0,177.25726318, 10.95777893,end
timer_stats,656134115972778,PAPI_L3_TCM,1,177.49914551, 10.97338867,end
timer_stats,656134117047543,PAPI_L3_TCM,0,177.77722168, 10.98895264,end
timer_stats,656134118121456,PAPI_L3_TCM,2,178.04321289, 11.00431824,end
timer_stats,656134119195762,PAPI_L3_TCM,4,178.29803467, 11.01968384,end
timer_stats,656134120268904,PAPI_L3_TCM,3,178.56054687, 11.03459167,end
timer_stats,656134121344464,PAPI_L3_TCM,0,179.07421875, 11.06564331,end
timer_stats,656134122418480,PAPI_L3_TCM,3,179.32843017, 11.08050537,end
timer_stats,656134123492193,PAPI_L3_TCM,2,179.61328125, 11.09576416,end
timer_stats,656134124565880,PAPI_L3_TCM,1,179.86981201, 11.11119079,end
timer_stats,656134125640616,PAPI_L3_TCM,4,180.13500976, 11.12628174,end
timer_stats,656134126715521,PAPI_L3_TCM,5,180.40563965, 11.14190674,end
timer_stats,656134127790198,PAPI_L3_TCM,5,180.66265869, 11.15777588,end
timer_stats,656134128864821,PAPI_L3_TCM,3,180.90460205, 11.17366028,end
timer_stats,656134129939622,PAPI_L3_TCM,2,181.18255615, 11.18888855,end
timer_stats,656134131027481,PAPI_L3_TCM,9,181.44836426, 11.20449829,end
timer_stats,656134132100918,PAPI_L3_TCM,1,181.70501709, 11.22015381,end
timer_stats,656134133174269,PAPI_L3_TCM,1,181.96765137, 11.23551941,end
timer_stats,656134134248136,PAPI_L3_TCM,1,182.23962402, 11.25114441,end
timer_stats,656134135321550,PAPI_L3_TCM,1,182.63110352, 11.27507019,end
timer_stats,656134136395701,PAPI_L3_TCM,5,182.89025879, 11.29119873,end
timer_stats,656134137468946,PAPI_L3_TCM,2,183.27636719, 11.31501770,end
timer_stats,656134138541937,PAPI_L3_TCM,1,183.53588867, 11.33042908,end
timer_stats,656134139615227,PAPI_L3_TCM,3,183.81591797, 11.34568787,end
timer_stats,656134140688800,PAPI_L3_TCM,0,184.05963135, 11.36137390,end
timer_stats,656134141762421,PAPI_L3_TCM,3,184.32873535, 11.37721252,end
timer_stats,656134142836176,PAPI_L3_TCM,1,184.60052490, 11.39280701,end
timer_stats,656134143910443,PAPI_L3_TCM,3,184.87158203, 11.40814209,end
timer_stats,656134144986076,PAPI_L3_TCM,3,185.11102295, 11.42329407,end
timer_stats,656134146060813,PAPI_L3_TCM,13,185.38061523, 11.43890381,end
timer_stats,656134147134155,PAPI_L3_TCM,2,185.64965820, 11.45433044,end
timer_stats,656134148208136,PAPI_L3_TCM,3,185.92498779, 11.46940613,end
timer_stats,656134149282150,PAPI_L3_TCM,7,186.30554199, 11.49214172,end
timer_stats,656134150354959,PAPI_L3_TCM,2,186.70092773, 11.50724792,end
timer_stats,656134151428447,PAPI_L3_TCM,1,186.96386719, 11.53062439,end
timer_stats,656134152501898,PAPI_L3_TCM,2,187.23010254, 11.54626465,end
timer_stats,656134153576591,PAPI_L3_TCM,1,187.49719238, 11.56187439,end
timer_stats,656134154650198,PAPI_L3_TCM,3,187.75659180, 11.57751465,end
timer_stats,656134155723854,PAPI_L3_TCM,3,188.02215576, 11.59259033,end
timer_stats,656134156798583,PAPI_L3_TCM,4,188.27410889, 11.60914612,end
timer_stats,656134157873116,PAPI_L3_TCM,0,188.52905273, 11.62467956,end
timer_stats,656134158947041,PAPI_L3_TCM,2,188.79113770, 11.64053345,end
timer_stats,656134160017147,PAPI_L3_TCM,0,189.05230713, 11.65615845,end
timer_stats,656134161091464,PAPI_L3_TCM,2,189.31652832, 11.67176819,end
timer_stats,656134162164523,PAPI_L3_TCM,0,189.57897949, 11.68736267,end
timer_stats,656134163238886,PAPI_L3_TCM,3,189.83728027, 11.70300293,end
timer_stats,656134164312429,PAPI_L3_TCM,2,190.35974121, 11.73487854,end
timer_stats,656134165386941,PAPI_L3_TCM,5,190.63049316, 11.75048828,end
timer_stats,656134166460840,PAPI_L3_TCM,0,190.89752197, 11.76586914,end
timer_stats,656134167546998,PAPI_L3_TCM,7,191.16003418, 11.78149414,end
timer_stats,656134168620238,PAPI_L3_TCM,0,191.42022705, 11.79681396,end
timer_stats,656134169694635,PAPI_L3_TCM,1,191.67749023, 11.81243896,end
timer_stats,656134170767647,PAPI_L3_TCM,1,191.94989014, 11.82806396,end
timer_stats,656134171841084,PAPI_L3_TCM,3,192.19769287, 11.84471130,end
timer_stats,656134172914583,PAPI_L3_TCM,1,192.45989990, 11.86003113,end
timer_stats,656134173988620,PAPI_L3_TCM,8,192.71868896, 11.87541199,end
timer_stats,656134175061989,PAPI_L3_TCM,0,192.98669434, 11.89102173,end
timer_stats,656134176135064,PAPI_L3_TCM,4,193.25842285, 11.90657043,end
timer_stats,656134177208321,PAPI_L3_TCM,0,193.52093506, 11.92219543,end
timer_stats,656134178282696,PAPI_L3_TCM,1,193.77758789, 11.93762207,end
timer_stats,656134179356416,PAPI_L3_TCM,1,194.17968750, 11.96073914,end
timer_stats,656134183655554,PAPI_L3_TCM,204,195.21484375, 12.06060791,end
timer_stats,656134184745115,PAPI_L3_TCM,67,195.42700195, 12.07647705,end
timer_stats,656134185822035,PAPI_L3_TCM,9,195.68859863, 12.09158325,end
timer_stats,656134186895981,PAPI_L3_TCM,0,195.94671631, 12.10693359,end
timer_stats,656134187969471,PAPI_L3_TCM,1,196.19915771, 12.12281799,end
timer_stats,656134189044388,PAPI_L3_TCM,0,196.47259521, 12.13786316,end
timer_stats,656134190118000,PAPI_L3_TCM,1,196.72955322, 12.15298462,end
timer_stats,656134191191739,PAPI_L3_TCM,0,197.00097656, 12.16831970,end
timer_stats,656134192265352,PAPI_L3_TCM,4,197.26055908, 12.18370056,end
timer_stats,656134193339225,PAPI_L3_TCM,1,197.64703369, 12.20619201,end
timer_stats,656134194413567,PAPI_L3_TCM,2,198.05700684, 12.22978210,end
timer_stats,656134195487939,PAPI_L3_TCM,1,198.31036377, 12.24465942,end
timer_stats,656134196561655,PAPI_L3_TCM,2,198.57263184, 12.26029968,end
timer_stats,656134197635786,PAPI_L3_TCM,1,198.84130859, 12.27690124,end
timer_stats,656134198709487,PAPI_L3_TCM,1,199.10498047, 12.29200745,end
timer_stats,656134199782931,PAPI_L3_TCM,1,199.37005615, 12.30760193,end
timer_stats,656134200858250,PAPI_L3_TCM,3,199.62469482, 12.32293701,end
timer_stats,656134201932448,PAPI_L3_TCM,1,199.89129639, 12.33825683,end
timer_stats,656134203005799,PAPI_L3_TCM,5,200.14312744, 12.35438537,end
timer_stats,656134204078139,PAPI_L3_TCM,2,200.41656494, 12.37065124,end
timer_stats,656134205151641,PAPI_L3_TCM,1,200.67578125, 12.38648987,end
timer_stats,656134206224866,PAPI_L3_TCM,1,200.92980957, 12.40159607,end
timer_stats,656134207312379,PAPI_L3_TCM,6,201.32354736, 12.42457580,end
timer_stats,656134208385912,PAPI_L3_TCM,6,201.71362305, 12.44796753,end
timer_stats,656134209459264,PAPI_L3_TCM,3,201.98162842, 12.46307373,end
timer_stats,656134210532850,PAPI_L3_TCM,3,202.24780273, 12.47819519,end
timer_stats,656134211605788,PAPI_L3_TCM,2,202.50311279, 12.49342346,end
timer_stats,656134212680476,PAPI_L3_TCM,1,202.76525879, 12.50880432,end
timer_stats,656134213754412,PAPI_L3_TCM,2,203.03930664, 12.52416992,end
timer_stats,656134214828501,PAPI_L3_TCM,2,203.29162598, 12.53962707,end
timer_stats,656134215902322,PAPI_L3_TCM,0,203.55444336, 12.55494690,end
timer_stats,656134216976533,PAPI_L3_TCM,8,203.82531738, 12.57057190,end
timer_stats,656134218050359,PAPI_L3_TCM,3,204.07751465, 12.58624267,end
timer_stats,656134219124534,PAPI_L3_TCM,5,204.34332275, 12.60160828,end
timer_stats,656134220198620,PAPI_L3_TCM,4,204.61193848, 12.61769104,end
timer_stats,656134221274224,PAPI_L3_TCM,4,204.87561035, 12.63328552,end
timer_stats,656134222348531,PAPI_L3_TCM,6,205.25952148, 12.65577698,end
timer_stats,656134223421180,PAPI_L3_TCM,0,205.65954590, 12.67965698,end
timer_stats,656134224494997,PAPI_L3_TCM,5,205.92462158, 12.69618225,end
timer_stats,656134225569063,PAPI_L3_TCM,0,206.18218994, 12.71182251,end
timer_stats,656134226642641,PAPI_L3_TCM,3,206.44482422, 12.72741699,end
timer_stats,656134227716339,PAPI_L3_TCM,1,206.70190430, 12.74308777,end
timer_stats,656134228790177,PAPI_L3_TCM,3,206.97412109, 12.75865173,end
timer_stats,656134229863823,PAPI_L3_TCM,1,207.23107910, 12.77398682,end
timer_stats,656134230937065,PAPI_L3_TCM,2,207.48260498, 12.78967285,end
timer_stats,656134232014734,PAPI_L3_TCM,0,207.75054932, 12.80497742,end
timer_stats,656134233089675,PAPI_L3_TCM,2,208.01330566, 12.82060242,end
timer_stats,656134234163167,PAPI_L3_TCM,1,208.27850342, 12.83621216,end
timer_stats,656134235235722,PAPI_L3_TCM,2,208.54467773, 12.85185242,end
timer_stats,656134236310308,PAPI_L3_TCM,1,208.79760742, 12.86723328,end
timer_stats,656134237383151,PAPI_L3_TCM,3,209.19982910, 12.89013672,end
timer_stats,656134238457344,PAPI_L3_TCM,4,209.44787598, 12.90551758,end
timer_stats,656134239530670,PAPI_L3_TCM,2,209.84606934, 12.92881775,end
timer_stats,656134240605592,PAPI_L3_TCM,6,210.10150146, 12.94450378,end
timer_stats,656134241679792,PAPI_L3_TCM,7,210.36907959, 12.96012878,end
timer_stats,656134242752522,PAPI_L3_TCM,4,210.62823486, 12.97645569,end
timer_stats,656134243844277,PAPI_L3_TCM,13,210.89868164, 12.99252319,end
timer_stats,656134244919015,PAPI_L3_TCM,5,211.16076660, 13.00811767,end
timer_stats,656134245993180,PAPI_L3_TCM,3,211.42254639, 13.02371216,end
timer_stats,656134247066998,PAPI_L3_TCM,1,211.67333984, 13.03984070,end
timer_stats,656134248140869,PAPI_L3_TCM,1,211.93463135, 13.05564880,end
timer_stats,656134249215624,PAPI_L3_TCM,0,212.20867920, 13.07121277,end
timer_stats,656134250288996,PAPI_L3_TCM,2,212.47631836, 13.08743286,end
timer_stats,656134251362400,PAPI_L3_TCM,1,212.73059082, 13.10250854,end
timer_stats,656134252435979,PAPI_L3_TCM,3,213.24926758, 13.13374329,end
timer_stats,656134253510272,PAPI_L3_TCM,7,213.51086426, 13.14935303,end
timer_stats,656134254583492,PAPI_L3_TCM,3,213.78039551, 13.16567993,end
timer_stats,656134255656077,PAPI_L3_TCM,0,214.04132080, 13.18196106,end
timer_stats,656134256730003,PAPI_L3_TCM,2,214.30285644, 13.19755554,end
timer_stats,656134257803391,PAPI_L3_TCM,1,214.56066894, 13.21319580,end
timer_stats,656134258876789,PAPI_L3_TCM,1,214.82965088, 13.22898865,end
timer_stats,656134259950578,PAPI_L3_TCM,0,215.08929443, 13.24430847,end
timer_stats,656134261024782,PAPI_L3_TCM,2,215.35668945, 13.26081848,end
timer_stats,656134262098258,PAPI_L3_TCM,2,215.60906982, 13.27621460,end
timer_stats,656134263171530,PAPI_L3_TCM,4,215.87615967, 13.29156494,end
timer_stats,656134264245289,PAPI_L3_TCM,1,216.13983154, 13.30690002,end
timer_stats,656134265318389,PAPI_L3_TCM,3,216.40246582, 13.32275391,end
timer_stats,656134269853311,PAPI_L3_TCM,204,217.58453369, 13.42347717,end
timer_stats,656134270942080,PAPI_L3_TCM,96,217.78656006, 13.43928528,end
timer_stats,656134272020428,PAPI_L3_TCM,4,218.05267334, 13.45437622,end
timer_stats,656134273093785,PAPI_L3_TCM,2,218.31500244, 13.46949768,end
timer_stats,656134274167664,PAPI_L3_TCM,1,218.57269287, 13.48542786,end
timer_stats,656134275240495,PAPI_L3_TCM,5,218.83129883, 13.50061035,end
timer_stats,656134276312726,PAPI_L3_TCM,1,219.09497070, 13.51553345,end
timer_stats,656134277385863,PAPI_L3_TCM,1,219.48657227, 13.53810119,end
timer_stats,656134278459311,PAPI_L3_TCM,0,219.74841309, 13.55303955,end
timer_stats,656134279532136,PAPI_L3_TCM,1,220.14910889, 13.57646179,end
timer_stats,656134280605566,PAPI_L3_TCM,8,220.41748047, 13.59156799,end
timer_stats,656134281680443,PAPI_L3_TCM,2,220.66662597, 13.60722351,end
timer_stats,656134282752959,PAPI_L3_TCM,0,220.92761230, 13.62263489,end
timer_stats,656134283886794,PAPI_L3_TCM,13,221.20629883, 13.63793945,end
timer_stats,656134284962381,PAPI_L3_TCM,14,221.45965576, 13.65361023,end
timer_stats,656134286035825,PAPI_L3_TCM,2,221.70642090, 13.66897583,end
timer_stats,656134287109113,PAPI_L3_TCM,1,221.97100830, 13.68406677,end
timer_stats,656134288182660,PAPI_L3_TCM,4,222.24890137, 13.69938660,end
timer_stats,656134289256397,PAPI_L3_TCM,0,222.50317383, 13.71575928,end
timer_stats,656134290329356,PAPI_L3_TCM,2,222.76995849, 13.73138428,end
timer_stats,656134291401731,PAPI_L3_TCM,2,223.03369141, 13.74722290,end
timer_stats,656134292474695,PAPI_L3_TCM,3,223.43627930, 13.77056885,end
timer_stats,656134293548510,PAPI_L3_TCM,2,223.82470703, 13.79420471,end
timer_stats,656134294621354,PAPI_L3_TCM,1,224.08673096, 13.80982971,end
timer_stats,656134295693924,PAPI_L3_TCM,1,224.34106445, 13.82545471,end
timer_stats,656134296767624,PAPI_L3_TCM,3,224.60723877, 13.84057617,end
timer_stats,656134297840933,PAPI_L3_TCM,3,224.86779785, 13.85647583,end
timer_stats,656134298914466,PAPI_L3_TCM,4,225.13012695, 13.87155151,end
timer_stats,656134299987143,PAPI_L3_TCM,0,225.38403320, 13.88662720,end
timer_stats,656134301061624,PAPI_L3_TCM,6,225.64337158, 13.90200806,end
timer_stats,656134302135454,PAPI_L3_TCM,1,225.90588379, 13.91716003,end
timer_stats,656134303208362,PAPI_L3_TCM,1,226.16656494, 13.93252563,end
timer_stats,656134304281563,PAPI_L3_TCM,3,226.43341064, 13.94764709,end
timer_stats,656134305355609,PAPI_L3_TCM,3,226.68389892, 13.96307373,end
timer_stats,656134306428572,PAPI_L3_TCM,2,226.95587158, 13.97846985,end
timer_stats,656134307501994,PAPI_L3_TCM,2,227.34783935, 14.00131226,end
timer_stats,656134308575343,PAPI_L3_TCM,0,227.74597168, 14.02470398,end
timer_stats,656134309649187,PAPI_L3_TCM,4,228.01281738, 14.04171753,end
timer_stats,656134310722114,PAPI_L3_TCM,0,228.26757812, 14.05737305,end
timer_stats,656134311795284,PAPI_L3_TCM,3,228.52557373, 14.07229614,end
timer_stats,656134312870541,PAPI_L3_TCM,1,228.79919434, 14.08763123,end
timer_stats,656134313943687,PAPI_L3_TCM,2,229.05621338, 14.10272217,end
timer_stats,656134315016414,PAPI_L3_TCM,0,229.33074951, 14.11854553,end
timer_stats,656134316089411,PAPI_L3_TCM,5,229.59216309, 14.13417053,end
timer_stats,656134317161833,PAPI_L3_TCM,0,229.84387207, 14.14953613,end
timer_stats,656134318235295,PAPI_L3_TCM,3,230.11346435, 14.16467285,end
timer_stats,656134319307479,PAPI_L3_TCM,1,230.36224365, 14.18000793,end
timer_stats,656134320379955,PAPI_L3_TCM,3,230.76104736, 14.20248413,end
timer_stats,656134321453499,PAPI_L3_TCM,0,231.02276611, 14.21806335,end
timer_stats,656134322526033,PAPI_L3_TCM,3,231.28332519, 14.23316955,end
timer_stats,656134323599815,PAPI_L3_TCM,0,231.68841553, 14.25602722,end
timer_stats,656134324675820,PAPI_L3_TCM,8,231.94769287, 14.27142334,end
timer_stats,656134325750448,PAPI_L3_TCM,10,232.20135498, 14.28775024,end
timer_stats,656134326823706,PAPI_L3_TCM,2,232.46472168, 14.30261230,end
timer_stats,656134327896562,PAPI_L3_TCM,0,232.72503662, 14.31773376,end
timer_stats,656134328970963,PAPI_L3_TCM,8,232.98217773, 14.33369446,end
timer_stats,656134330043720,PAPI_L3_TCM,2,233.26556396, 14.34875488,end
timer_stats,656134331117016,PAPI_L3_TCM,2,233.51367187, 14.36418152,end
timer_stats,656134332190047,PAPI_L3_TCM,3,233.77172852, 14.37934875,end
timer_stats,656134333263114,PAPI_L3_TCM,2,234.03942871, 14.39500427,end
timer_stats,656134334336714,PAPI_L3_TCM,1,234.29699707, 14.41061401,end
timer_stats,656134335409773,PAPI_L3_TCM,5,234.55914307, 14.42576599,end
timer_stats,656134336483109,PAPI_L3_TCM,2,234.95129394, 14.44828796,end
timer_stats,656134337555534,PAPI_L3_TCM,2,235.34918213, 14.46363830,end
timer_stats,656134338632296,PAPI_L3_TCM,7,235.60241699, 14.48818970,end
timer_stats,656134339708651,PAPI_L3_TCM,7,235.88049316, 14.50303650,end
timer_stats,656134340782320,PAPI_L3_TCM,0,236.13281250, 14.51821899,end
timer_stats,656134341856178,PAPI_L3_TCM,3,236.39038086, 14.53340149,end
timer_stats,656134342929783,PAPI_L3_TCM,1,236.64245605, 14.54884338,end
timer_stats,656134344008373,PAPI_L3_TCM,6,236.90222168, 14.56454468,end
timer_stats,656134345082634,PAPI_L3_TCM,3,237.16986084, 14.57969665,end
timer_stats,656134346156378,PAPI_L3_TCM,3,237.43457031, 14.59486389,end
timer_stats,656134347229919,PAPI_L3_TCM,5,237.69451904, 14.61003113,end
timer_stats,656134348302994,PAPI_L3_TCM,2,237.96154785, 14.62535095,end
timer_stats,656134349376030,PAPI_L3_TCM,0,238.21234131, 14.64077759,end
timer_stats,656134350450394,PAPI_L3_TCM,2,238.59851074, 14.66360473,end
timer_stats,656134351523914,PAPI_L3_TCM,0,238.98815918, 14.67878723,end
timer_stats,656134352598117,PAPI_L3_TCM,4,239.25738525, 14.70193481,end
timer_stats,656134353671922,PAPI_L3_TCM,0,239.51373291, 14.71710205,end
timer_stats,656134359932209,PAPI_L3_TCM,217,240.72723389, 14.80419922,end
timer_stats,656134361021368,PAPI_L3_TCM,92,240.91076660, 14.81794739,end
timer_stats,656134362100020,PAPI_L3_TCM,10,241.16711426, 14.83161926,end
timer_stats,656134363174715,PAPI_L3_TCM,2,241.42608642, 14.84484863,end
timer_stats,656134364251409,PAPI_L3_TCM,3,241.69311523, 14.85850525,end
timer_stats,656134365326948,PAPI_L3_TCM,1,241.93572998, 14.87202453,end
timer_stats,656134366402441,PAPI_L3_TCM,3,242.19903564, 14.88568115,end
timer_stats,656134367477897,PAPI_L3_TCM,1,242.59039307, 14.90554809,end
timer_stats,656134368554278,PAPI_L3_TCM,2,242.97723389, 14.92631531,end
timer_stats,656134369629131,PAPI_L3_TCM,0,243.23376465, 14.93978882,end
timer_stats,656134370703707,PAPI_L3_TCM,1,243.50787353, 14.95321655,end
timer_stats,656134371778439,PAPI_L3_TCM,1,243.74517822, 14.96693420,end
timer_stats,656134372854935,PAPI_L3_TCM,3,244.02038574, 14.98059082,end
timer_stats,656134373930019,PAPI_L3_TCM,7,244.28167724, 14.99430847,end
timer_stats,656134375004676,PAPI_L3_TCM,4,244.52142334, 15.00831604,end
timer_stats,656134376078461,PAPI_L3_TCM,1,244.80310059, 15.02279663,end
timer_stats,656134377153535,PAPI_L3_TCM,4,245.04614258, 15.03651428,end
timer_stats,656134378228440,PAPI_L3_TCM,0,245.30914307, 15.05020142,end
timer_stats,656134379303523,PAPI_L3_TCM,1,245.57769775, 15.06410217,end
timer_stats,656134380378166,PAPI_L3_TCM,3,245.83850098, 15.07728576,end
timer_stats,656134381452872,PAPI_L3_TCM,2,246.21691894, 15.09126282,end
timer_stats,656134382528566,PAPI_L3_TCM,4,246.59857178, 15.11228943,end
timer_stats,656134383605351,PAPI_L3_TCM,2,246.72601318, 15.12591553,end
timer_stats,656134384680527,PAPI_L3_TCM,11,247.13104248, 15.14727783,end
timer_stats,656134385755897,PAPI_L3_TCM,3,247.37884521, 15.16096496,end
timer_stats,656134386831361,PAPI_L3_TCM,2,247.63916016, 15.17491150,end
timer_stats,656134387905835,PAPI_L3_TCM,2,247.90148926, 15.18850708,end
timer_stats,656134388981173,PAPI_L3_TCM,4,248.15795898, 15.20214844,end
timer_stats,656134390057797,PAPI_L3_TCM,10,248.41461182, 15.21655273,end
timer_stats,656134391133866,PAPI_L3_TCM,0,248.67230225, 15.23059082,end
timer_stats,656134392211715,PAPI_L3_TCM,5,248.92480469, 15.24452209,end
timer_stats,656134393286746,PAPI_L3_TCM,0,249.19183349, 15.25814819,end
timer_stats,656134394362023,PAPI_L3_TCM,3,249.45135498, 15.27156067,end
timer_stats,656134395436860,PAPI_L3_TCM,3,249.71051025, 15.28680420,end
timer_stats,656134396510600,PAPI_L3_TCM,2,250.09197998, 15.30690002,end
timer_stats,656134397586211,PAPI_L3_TCM,2,250.47589111, 15.32687378,end
timer_stats,656134398661028,PAPI_L3_TCM,3,250.74029541, 15.34054565,end
timer_stats,656134399734828,PAPI_L3_TCM,0,250.99078369, 15.35403442,end
timer_stats,656134400809503,PAPI_L3_TCM,3,251.25433349, 15.36914062,end
timer_stats,656134401884103,PAPI_L3_TCM,0,251.50433350, 15.38281250,end
timer_stats,656134402959342,PAPI_L3_TCM,4,251.76623535, 15.39625549,end
timer_stats,656134404034005,PAPI_L3_TCM,43,252.02960205, 15.41036987,end
timer_stats,656134405115910,PAPI_L3_TCM,41,252.23187256, 15.42147827,end
timer_stats,656134406192120,PAPI_L3_TCM,7,252.48590088, 15.43492126,end
timer_stats,656134407265909,PAPI_L3_TCM,14,252.73883057, 15.44863892,end
timer_stats,656134408347004,PAPI_L3_TCM,5,252.97259521, 15.46284485,end
timer_stats,656134409423128,PAPI_L3_TCM,2,253.22998047, 15.47631836,end
timer_stats,656134410496958,PAPI_L3_TCM,1,253.61248779, 15.49595642,end
timer_stats,656134411570463,PAPI_L3_TCM,5,253.99157715, 15.51669311,end
timer_stats,656134412653106,PAPI_L3_TCM,9,254.22979736, 15.52848816,end
timer_stats,656134413729765,PAPI_L3_TCM,1,254.47155762, 15.54223633,end
timer_stats,656134414803721,PAPI_L3_TCM,0,254.74774170, 15.55587769,end
timer_stats,656134415879062,PAPI_L3_TCM,2,255.00750732, 15.56909180,end
timer_stats,656134416954600,PAPI_L3_TCM,1,255.25439453, 15.58280945,end
timer_stats,656134418028710,PAPI_L3_TCM,3,255.50506592, 15.59651184,end
timer_stats,656134419270159,PAPI_L3_TCM,18,255.76086426, 15.61021423,end
timer_stats,656134420352279,PAPI_L3_TCM,12,256.00408935, 15.62322998,end
timer_stats,656134421431342,PAPI_L3_TCM,0,256.25482178, 15.63714599,end
timer_stats,656134422509077,PAPI_L3_TCM,9,256.58929443, 15.65122986,end
timer_stats,656134423585427,PAPI_L3_TCM,0,256.96136475, 15.67855835,end
timer_stats,656134424659946,PAPI_L3_TCM,5,257.22296142, 15.69180298,end
timer_stats,656134425734508,PAPI_L3_TCM,1,257.47991943, 15.70532226,end
timer_stats,656134426810713,PAPI_L3_TCM,2,257.72863769, 15.71838379,end
timer_stats,656134428080837,PAPI_L3_TCM,1,257.98852539, 15.73277283,end
timer_stats,656134429159656,PAPI_L3_TCM,2,258.21466064, 15.74636841,end
timer_stats,656134430234863,PAPI_L3_TCM,1,258.47723388, 15.75985718,end
timer_stats,656134431308351,PAPI_L3_TCM,2,258.73999023, 15.77287292,end
timer_stats,656134432383364,PAPI_L3_TCM,2,258.98339844, 15.78616333,end
timer_stats,656134433461459,PAPI_L3_TCM,2,259.24969482, 15.79937744,end
timer_stats,656134434540701,PAPI_L3_TCM,1,259.57781982, 15.82087707,end
timer_stats,656134435615893,PAPI_L3_TCM,2,259.94720459, 15.84106445,end
timer_stats,656134436691004,PAPI_L3_TCM,3,260.20715332, 15.85433960,end
timer_stats,656134437765375,PAPI_L3_TCM,11,260.45501709, 15.86494446,end
timer_stats,656134438843830,PAPI_L3_TCM,0,260.67614746, 15.87855530,end
timer_stats,656134439919046,PAPI_L3_TCM,2,260.93658447, 15.89204407,end
timer_stats,656134441199776,PAPI_L3_TCM,22,261.16345215, 15.90269470,end
timer_stats,656134442280580,PAPI_L3_TCM,2,261.38299560, 15.91561890,end
timer_stats,656134443356063,PAPI_L3_TCM,1,261.62377930, 15.92871094,end
timer_stats,656134445003560,PAPI_L3_TCM,3,262.00939941, 15.95230102,end
timer_stats,656134446085008,PAPI_L3_TCM,2,262.19342041, 15.96542358,end
timer_stats,656134447162991,PAPI_L3_TCM,2,262.42858887, 15.97845459,end
timer_stats,656134448237818,PAPI_L3_TCM,3,262.65460205, 15.99180603,end
timer_stats,656134449314724,PAPI_L3_TCM,22,262.90155029, 16.00558472,end
timer_stats,656134450383398,PAPI_L3_TCM,32,263.12219238, 16.01892090,end
timer_stats,656134451447989,PAPI_L3_TCM,3,263.34588623, 16.03202820,end
timer_stats,656134452514224,PAPI_L3_TCM,2,263.67590332, 16.04464722,end
timer_stats,656134453579187,PAPI_L3_TCM,2,263.89892578, 16.06350708,end
timer_stats,656134454645499,PAPI_L3_TCM,0,264.24188232, 16.08299255,end
timer_stats,656134455712100,PAPI_L3_TCM,9,264.47302246, 16.09529114,end
timer_stats,656134456809838,PAPI_L3_TCM,44,264.69281006, 16.10818481,end
timer_stats,656134457911343,PAPI_L3_TCM,19,264.91693115, 16.12080383,end
timer_stats,656134459017573,PAPI_L3_TCM,7,265.13507080, 16.13441467,end
timer_stats,656134460098857,PAPI_L3_TCM,7,265.34759521, 16.14680481,end
timer_stats,656134461207906,PAPI_L3_TCM,2,265.56463623, 16.15940857,end
timer_stats,656134462320482,PAPI_L3_TCM,4,265.79003906, 16.17202759,end
timer_stats,656134463432912,PAPI_L3_TCM,0,266.00115967, 16.18438721,end
timer_stats,656134464544640,PAPI_L3_TCM,2,266.21954346, 16.19702148,end
timer_stats,656134465657476,PAPI_L3_TCM,0,266.65515137, 16.22294617,end
timer_stats,656134466771586,PAPI_L3_TCM,1,266.87219238, 16.23559570,end
timer_stats,656134467887201,PAPI_L3_TCM,0,267.08917236, 16.24913025,end
timer_stats,656134469007642,PAPI_L3_TCM,3,267.29821777, 16.26152039,end
timer_stats,656134470107373,PAPI_L3_TCM,4,267.51019287, 16.27391052,end
timer_stats,656134471219169,PAPI_L3_TCM,4,267.72363281, 16.28656006,end
timer_stats,656134472309121,PAPI_L3_TCM,2,267.93243408, 16.29924011,end
timer_stats,656134473428758,PAPI_L3_TCM,2,268.13769531, 16.31167602,end
timer_stats,656134474549713,PAPI_L3_TCM,3,268.44964600, 16.33029175,end
timer_stats,656134475671976,PAPI_L3_TCM,2,268.77520752, 16.34959412,end
timer_stats,656134476794130,PAPI_L3_TCM,0,268.98419189, 16.36170959,end
timer_stats,656134477918955,PAPI_L3_TCM,3,269.20288086, 16.37522888,end
timer_stats,656134479040504,PAPI_L3_TCM,0,269.40734863, 16.38795471,end
timer_stats,656134480137415,PAPI_L3_TCM,4,269.62512207, 16.40081787,end
timer_stats,656134481259156,PAPI_L3_TCM,1,269.83209228, 16.41349792,end
timer_stats,656134482379140,PAPI_L3_TCM,1,270.03686523, 16.42687988,end
timer_stats,656134483500098,PAPI_L3_TCM,2,270.24920654, 16.43922424,end
timer_stats,656134484620541,PAPI_L3_TCM,2,270.54431152, 16.45973205,end
timer_stats,656134485742058,PAPI_L3_TCM,1,270.85675049, 16.47810364,end
timer_stats,656134486868613,PAPI_L3_TCM,2,271.04827881, 16.49055481,end
timer_stats,656134487996348,PAPI_L3_TCM,0,271.24346924, 16.50297546,end
timer_stats,656134489127582,PAPI_L3_TCM,3,271.43878174, 16.51521301,end
timer_stats,656134490252586,PAPI_L3_TCM,0,271.64123535, 16.52766418,end
timer_stats,656134491376654,PAPI_L3_TCM,1,271.83404541, 16.53959656,end
timer_stats,656134492496701,PAPI_L3_TCM,1,272.02923584, 16.55178833,end
timer_stats,656134493616611,PAPI_L3_TCM,1,272.32330322, 16.56991577,end
timer_stats,656134494739320,PAPI_L3_TCM,0,272.61682129, 16.58905029,end
timer_stats,656134495859985,PAPI_L3_TCM,2,272.81646728, 16.60255432,end
timer_stats,656134496987031,PAPI_L3_TCM,1,273.01086426, 16.61552429,end
timer_stats,656134498109109,PAPI_L3_TCM,2,273.20751953, 16.62911987,end
timer_stats,656134499232413,PAPI_L3_TCM,0,273.39208984, 16.64305115,end
timer_stats,656134500352938,PAPI_L3_TCM,2,273.58996582, 16.65641784,end
timer_stats,656134501474943,PAPI_L3_TCM,0,273.77124023, 16.66983032,end
timer_stats,656134502596595,PAPI_L3_TCM,1,273.96508789, 16.68371582,end
timer_stats,656134503718189,PAPI_L3_TCM,0,274.36004639, 16.70420837,end
timer_stats,656134504840196,PAPI_L3_TCM,3,274.54248047, 16.72508240,end
timer_stats,656134505967269,PAPI_L3_TCM,0,274.73150635, 16.73873901,end
timer_stats,656134507087951,PAPI_L3_TCM,6,274.93389892, 16.75231933,end
timer_stats,656134508188119,PAPI_L3_TCM,3,275.12780762, 16.76594543,end
timer_stats,656134509282662,PAPI_L3_TCM,11,275.31811523, 16.77961731,end
timer_stats,656134510369728,PAPI_L3_TCM,5,275.50946045, 16.79318237,end
timer_stats,656134511455797,PAPI_L3_TCM,2,275.69824219, 16.80654907,end
timer_stats,656134512586511,PAPI_L3_TCM,6,275.97375488, 16.82748413,end
timer_stats,656134514325891,PAPI_L3_TCM,98,276.24707031, 16.84751892,end
timer_stats,656134515586219,PAPI_L3_TCM,26,276.43609619, 16.86140442,end
timer_stats,656134516668005,PAPI_L3_TCM,6,276.72082519, 16.88160705,end
timer_stats,656134517744958,PAPI_L3_TCM,3,277.01654053, 16.90234375,end
timer_stats,656134518820266,PAPI_L3_TCM,1,277.20214844, 16.91603088,end
timer_stats,656134519896568,PAPI_L3_TCM,1,277.39160156, 16.92965698,end
timer_stats,656134520973598,PAPI_L3_TCM,11,277.58520508, 16.94281006,end
timer_stats,656134522049306,PAPI_L3_TCM,6,277.76611328, 16.95654297,end
timer_stats,656134523125019,PAPI_L3_TCM,3,277.95465088, 16.97000122,end
timer_stats,656134524200935,PAPI_L3_TCM,2,278.15075683, 16.98344421,end
timer_stats,656134525278553,PAPI_L3_TCM,5,278.33367920, 16.99711609,end
timer_stats,656134526353525,PAPI_L3_TCM,0,278.51562500, 17.01037597,end
timer_stats,656134527429469,PAPI_L3_TCM,1,278.70190430, 17.02359009,end
timer_stats,656134528505708,PAPI_L3_TCM,3,278.87945557, 17.03775024,end
timer_stats,656134529583592,PAPI_L3_TCM,19,279.05578613, 17.05126953,end
timer_stats,656134530683501,PAPI_L3_TCM,32,279.31488037, 17.07070923,end
timer_stats,656134531806595,PAPI_L3_TCM,14,279.57836914, 17.09078979,end
timer_stats,656134532932484,PAPI_L3_TCM,1,279.74279785, 17.10319519,end
timer_stats,656134534072525,PAPI_L3_TCM,6,279.91357422, 17.11553955,end
timer_stats,656134535296938,PAPI_L3_TCM,384,280.06072998, 17.12867737,end
timer_stats,656134536442210,PAPI_L3_TCM,1,280.22839355, 17.14126587,end
timer_stats,656134537602846,PAPI_L3_TCM,0,280.45947266, 17.15965271,end
timer_stats,656134538751962,PAPI_L3_TCM,4,280.69970703, 17.17866516,end
timer_stats,656134539901568,PAPI_L3_TCM,0,280.86010742, 17.19155884,end
timer_stats,656134541041530,PAPI_L3_TCM,3,281.01812744, 17.20462036,end
timer_stats,656134542184503,PAPI_L3_TCM,1,281.17236328, 17.21701050,end
timer_stats,656134543328360,PAPI_L3_TCM,2,281.32946777, 17.22921753,end
timer_stats,656134544468638,PAPI_L3_TCM,0,281.47760010, 17.24148560,end
timer_stats,656134545619430,PAPI_L3_TCM,1,281.63616943, 17.25393677,end
timer_stats,656134546766326,PAPI_L3_TCM,0,281.92633057, 17.27867126,end
timer_stats,656134547914450,PAPI_L3_TCM,1,282.08178711, 17.29061890,end
timer_stats,656134549060632,PAPI_L3_TCM,0,282.23590088, 17.30307007,end
timer_stats,656134550220728,PAPI_L3_TCM,4,282.39233398, 17.31661987,end
timer_stats,656134551382380,PAPI_L3_TCM,2,282.53289795, 17.32835388,end
timer_stats,656134552537574,PAPI_L3_TCM,2,282.67028808, 17.34008789,end
timer_stats,656134553714237,PAPI_L3_TCM,1,282.94873047, 17.36412048,end
timer_stats,656134554875320,PAPI_L3_TCM,1,283.08489990, 17.37637329,end
timer_stats,656134556038896,PAPI_L3_TCM,1,283.22570801, 17.38838196,end
timer_stats,656134557160320,PAPI_L3_TCM,4,283.36608887, 17.40043640,end
timer_stats,656134558323152,PAPI_L3_TCM,1,283.50579834, 17.41217041,end
timer_stats,656134559480853,PAPI_L3_TCM,2,283.64929199, 17.42419433,end
timer_stats,656134560639805,PAPI_L3_TCM,0,283.84313965, 17.44253540,end
timer_stats,656134561803929,PAPI_L3_TCM,2,284.05407715, 17.46105957,end
timer_stats,656134562966793,PAPI_L3_TCM,0,284.19189453, 17.47311401,end
timer_stats,656134564122566,PAPI_L3_TCM,2,284.33355713, 17.48487854,end
timer_stats,656134565267005,PAPI_L3_TCM,0,284.46789551, 17.49714661,end
timer_stats,656134566441166,PAPI_L3_TCM,2,284.61523437, 17.50938415,end
timer_stats,656134567600795,PAPI_L3_TCM,0,284.82336426, 17.52742004,end
timer_stats,656134568757658,PAPI_L3_TCM,2,285.03674316, 17.54597473,end
timer_stats,656134569901690,PAPI_L3_TCM,4,285.17590332, 17.55847168,end
timer_stats,656134571063055,PAPI_L3_TCM,7,285.31829834, 17.57023621,end
timer_stats,656134572219912,PAPI_L3_TCM,1,285.46240234, 17.58164978,end
timer_stats,656134573366231,PAPI_L3_TCM,1,285.60681152, 17.59339905,end
timer_stats,656134574526827,PAPI_L3_TCM,0,285.74255371, 17.60522461,end
timer_stats,656134575684999,PAPI_L3_TCM,1,285.94525146, 17.61683655,end
timer_stats,656134576845171,PAPI_L3_TCM,0,286.14831543, 17.63517761,end
timer_stats,656134578005224,PAPI_L3_TCM,2,286.29327392, 17.64671326,end
timer_stats,656134579168707,PAPI_L3_TCM,0,286.42419433, 17.65832519,end
timer_stats,656134580334158,PAPI_L3_TCM,2,286.56201172, 17.66960144,end
timer_stats,656134581492939,PAPI_L3_TCM,1,286.69903564, 17.68113708,end
timer_stats,656134582652587,PAPI_L3_TCM,2,286.83471680, 17.69293213,end
timer_stats,656134583813485,PAPI_L3_TCM,0,287.09649658, 17.71659851,end
timer_stats,656134584973645,PAPI_L3_TCM,1,287.23431396, 17.72816467,end
timer_stats,656134586131816,PAPI_L3_TCM,0,287.36285400, 17.73977661,end
timer_stats,656134587300899,PAPI_L3_TCM,2,287.49938965, 17.75105286,end
timer_stats,656134588457677,PAPI_L3_TCM,0,287.63012695, 17.76239014,end
timer_stats,656134589617890,PAPI_L3_TCM,2,287.76678467, 17.77418518,end
timer_stats,656134590778025,PAPI_L3_TCM,0,288.03076172, 17.79757690,end
timer_stats,656134591938161,PAPI_L3_TCM,1,288.16363525, 17.80966186,end
timer_stats,656134593097306,PAPI_L3_TCM,0,288.29663086, 17.82124329,end
timer_stats,656134594267603,PAPI_L3_TCM,1,288.42565918, 17.83280945,end
timer_stats,656134601238378,PAPI_L3_TCM,22,289.40008545, 17.94619751,end
timer_stats,656134602409383,PAPI_L3_TCM,9,289.50585937, 17.95758057,end
timer_stats,656134603582506,PAPI_L3_TCM,0,289.63018799, 17.96917725,end
timer_stats,656134604756998,PAPI_L3_TCM,4,289.88293457, 17.99203491,end
timer_stats,656134605935551,PAPI_L3_TCM,0,289.99792480, 18.00296020,end
timer_stats,656134607121944,PAPI_L3_TCM,1,290.12097168, 18.01528931,end
timer_stats,656134608272439,PAPI_L3_TCM,16,290.23773193, 18.02664185,end
timer_stats,656134609409121,PAPI_L3_TCM,11,290.34985352, 18.03732300,end
timer_stats,656134610580073,PAPI_L3_TCM,0,290.45538330, 18.04829407,end
timer_stats,656134611749400,PAPI_L3_TCM,2,290.62384033, 18.06460571,end
timer_stats,656134612922688,PAPI_L3_TCM,0,290.77947998, 18.08120727,end
timer_stats,656134614095361,PAPI_L3_TCM,2,290.88861084, 18.09213257,end
timer_stats,656134615263203,PAPI_L3_TCM,0,290.99316406, 18.10356140,end
timer_stats,656134616411463,PAPI_L3_TCM,1,291.10607910, 18.11448669,end
timer_stats,656134617584665,PAPI_L3_TCM,0,291.21466064, 18.12541199,end
timer_stats,656134618753153,PAPI_L3_TCM,1,291.42596436, 18.14732361,end
timer_stats,656134619886665,PAPI_L3_TCM,0,291.53198242, 18.15849304,end
timer_stats,656134621058607,PAPI_L3_TCM,3,291.64166260, 18.16987610,end
timer_stats,656134622219175,PAPI_L3_TCM,0,291.74969482, 18.18055725,end
timer_stats,656134623401957,PAPI_L3_TCM,2,291.85754394, 18.19125366,end
timer_stats,656134624572177,PAPI_L3_TCM,1,291.96966553, 18.20216370,end
timer_stats,656134625741640,PAPI_L3_TCM,1,292.12829590, 18.21850586,end
timer_stats,656134626913795,PAPI_L3_TCM,1,292.28881836, 18.22967529,end
timer_stats,656134628096950,PAPI_L3_TCM,2,292.39361572, 18.24063110,end
timer_stats,656134629252155,PAPI_L3_TCM,0,292.50384521, 18.25158691,end
timer_stats,656134630435768,PAPI_L3_TCM,2,292.61364746, 18.26296997,end
timer_stats,656134631598195,PAPI_L3_TCM,0,292.71777344, 18.27416992,end
timer_stats,656134632761712,PAPI_L3_TCM,3,292.93457031, 18.29580688,end
timer_stats,656134633926497,PAPI_L3_TCM,0,293.03942871, 18.30676269,end
timer_stats,656134635086197,PAPI_L3_TCM,1,293.15093994, 18.31767273,end
timer_stats,656134636247775,PAPI_L3_TCM,1,293.25341797, 18.32817078,end
timer_stats,656134637424332,PAPI_L3_TCM,1,293.34869385, 18.33738708,end
timer_stats,656134638613614,PAPI_L3_TCM,0,293.45104980, 18.34681701,end
timer_stats,656134639783282,PAPI_L3_TCM,2,293.60778808, 18.36138916,end
timer_stats,656134640952607,PAPI_L3_TCM,0,293.74194336, 18.37748718,end
timer_stats,656134642121219,PAPI_L3_TCM,2,293.83953857, 18.38706970,end
timer_stats,656134643290319,PAPI_L3_TCM,0,293.93695068, 18.39689636,end
timer_stats,656134644474387,PAPI_L3_TCM,2,294.03228760, 18.40589905,end
timer_stats,656134645667342,PAPI_L3_TCM,0,294.12481689, 18.41511536,end
timer_stats,656134646847640,PAPI_L3_TCM,1,294.32464600, 18.43696594,end
timer_stats,656134648038362,PAPI_L3_TCM,0,294.42388916, 18.44108582,end
timer_stats,656134649200836,PAPI_L3_TCM,2,294.51867676, 18.45054626,end
timer_stats,656134650390124,PAPI_L3_TCM,0,294.61602783, 18.45982361,end
timer_stats,656134651556457,PAPI_L3_TCM,2,294.70465088, 18.46946716,end
timer_stats,656134652721097,PAPI_L3_TCM,0,294.86138916, 18.48431396,end
timer_stats,656134653908157,PAPI_L3_TCM,1,294.99951172, 18.49377441,end
timer_stats,656134655091277,PAPI_L3_TCM,0,295.09234619, 18.50299072,end
timer_stats,656134656274597,PAPI_L3_TCM,1,295.18408203, 18.51229858,end
timer_stats,656134657435074,PAPI_L3_TCM,0,295.28192138, 18.52276611,end
timer_stats,656134658608017,PAPI_L3_TCM,2,295.37457275, 18.53173828,end
timer_stats,656134659784237,PAPI_L3_TCM,0,295.54412842, 18.55107117,end
timer_stats,656134660990516,PAPI_L3_TCM,2,295.63134766, 18.56007385,end
timer_stats,656134662171580,PAPI_L3_TCM,0,295.71789551, 18.56883240,end
timer_stats,656134663345052,PAPI_L3_TCM,1,295.79882812, 18.57789612,end
timer_stats,656134664517347,PAPI_L3_TCM,0,295.88427734, 18.58689880,end
timer_stats,656134665689989,PAPI_L3_TCM,1,295.97296142, 18.59587097,end
timer_stats,656134666867754,PAPI_L3_TCM,0,296.14514160, 18.61540222,end
timer_stats,656134668057710,PAPI_L3_TCM,2,296.22882080, 18.62419128,end
timer_stats,656134669245664,PAPI_L3_TCM,0,296.32244873, 18.63310242,end
timer_stats,656134670422369,PAPI_L3_TCM,2,296.39611816, 18.64195251,end
timer_stats,656134671570120,PAPI_L3_TCM,0,296.48425293, 18.65245056,end
timer_stats,656134672747457,PAPI_L3_TCM,1,296.61798096, 18.66688537,end
timer_stats,656134673924192,PAPI_L3_TCM,0,296.73901367, 18.68231201,end
timer_stats,656134675105563,PAPI_L3_TCM,1,296.83239746, 18.69122314,end
timer_stats,656134676284348,PAPI_L3_TCM,0,296.90515137, 18.70037842,end
timer_stats,656134677482977,PAPI_L3_TCM,3,296.98907471, 18.70938110,end
timer_stats,656134678669337,PAPI_L3_TCM,0,297.07257080, 18.71868896,end
timer_stats,656134679849907,PAPI_L3_TCM,2,297.18939209, 18.73306274,end
timer_stats,656134681031997,PAPI_L3_TCM,0,297.32202148, 18.74722290,end
timer_stats,656134682224703,PAPI_L3_TCM,1,297.41467285, 18.75595093,end
timer_stats,656134683405287,PAPI_L3_TCM,0,297.48895264, 18.76501465,end
timer_stats,656134684583900,PAPI_L3_TCM,1,297.57916260, 18.77395630,end
timer_stats,656134685762245,PAPI_L3_TCM,0,297.70208740, 18.78820801,end
timer_stats,656134686942097,PAPI_L3_TCM,1,297.76879883, 18.79867554,end
timer_stats,656134688121305,PAPI_L3_TCM,0,297.89996338, 18.80755615,end
timer_stats,656134689319063,PAPI_L3_TCM,2,297.98382568, 18.81628418,end
timer_stats,656134690498648,PAPI_L3_TCM,0,298.07568359, 18.82519531,end
timer_stats,656134691684507,PAPI_L3_TCM,1,298.14501953, 18.83428955,end
timer_stats,656134692863742,PAPI_L3_TCM,0,298.30847168, 18.85380554,end
timer_stats,656134694039297,PAPI_L3_TCM,1,298.39929199, 18.86271667,end
timer_stats,656134695216797,PAPI_L3_TCM,0,298.46771240, 18.87211609,end
timer_stats,656134696399028,PAPI_L3_TCM,1,298.55090332, 18.88139343,end
timer_stats,656134697571995,PAPI_L3_TCM,0,298.63366699, 18.89039612,end
timer_stats,656134698749890,PAPI_L3_TCM,2,298.76324463, 18.90480041,end
timer_stats,656134699930925,PAPI_L3_TCM,0,298.87634277, 18.92042541,end
timer_stats,656134701120297,PAPI_L3_TCM,1,298.95715332, 18.92921448,end
timer_stats,656134702298482,PAPI_L3_TCM,0,299.04791260, 18.93814087,end
timer_stats,656134703474990,PAPI_L3_TCM,1,299.11724853, 18.94720459,end
timer_stats,656134704654762,PAPI_L3_TCM,0,299.20440674, 18.95614624,end
timer_stats,656134705850220,PAPI_L3_TCM,1,299.35577392, 18.97012329,end
timer_stats,656134707027355,PAPI_L3_TCM,0,299.44750977, 18.98442078,end
timer_stats,656134708200340,PAPI_L3_TCM,2,299.51416016, 18.99385071,end
timer_stats,656134709374895,PAPI_L3_TCM,0,299.60388183, 19.00254822,end
timer_stats,656134710557980,PAPI_L3_TCM,1,299.68426514, 19.01155090,end
timer_stats,656134711738915,PAPI_L3_TCM,0,299.76770019, 19.02604675,end
timer_stats,656134712930483,PAPI_L3_TCM,1,299.86218262, 19.03507996,end
timer_stats,656134714110908,PAPI_L3_TCM,0,299.98992920, 19.04902649,end
timer_stats,656134715284710,PAPI_L3_TCM,1,300.07073975, 19.05830383,end
timer_stats,656134716456805,PAPI_L3_TCM,0,300.14788818, 19.06761169,end
timer_stats,656134717641055,PAPI_L3_TCM,1,300.22656250, 19.07685852,end
timer_stats,656134718813692,PAPI_L3_TCM,0,300.38336182, 19.09634399,end
timer_stats,656134719958853,PAPI_L3_TCM,1,300.46386719, 19.10534668,end
timer_stats,656134721138335,PAPI_L3_TCM,0,300.54260254, 19.11047363,end
timer_stats,656134722329975,PAPI_L3_TCM,1,300.61767578, 19.11927795,end
timer_stats,656134723506355,PAPI_L3_TCM,0,300.70513916, 19.12818909,end
timer_stats,656134724684225,PAPI_L3_TCM,1,300.78259277, 19.13719177,end
timer_stats,656134725865818,PAPI_L3_TCM,0,300.88867187, 19.15135193,end
timer_stats,656134727048093,PAPI_L3_TCM,1,301.00878906, 19.16532898,end
timer_stats,656134728226928,PAPI_L3_TCM,0,301.09521484, 19.17427063,end
timer_stats,656134729406793,PAPI_L3_TCM,1,301.17492676, 19.18324280,end
timer_stats,656134730587915,PAPI_L3_TCM,0,301.25018311, 19.19201660,end
timer_stats,656134731767935,PAPI_L3_TCM,1,301.32824707, 19.20098877,end
timer_stats,656134732951232,PAPI_L3_TCM,0,301.47930908, 19.21519470,end
timer_stats,656134734129985,PAPI_L3_TCM,1,301.55670166, 19.22422790,end
timer_stats,656134735317855,PAPI_L3_TCM,0,301.63415527, 19.23320007,end
timer_stats,656134736497238,PAPI_L3_TCM,1,301.71282959, 19.24195862,end
timer_stats,656134737676160,PAPI_L3_TCM,0,301.77783203, 19.25080871,end
timer_stats,656134738854300,PAPI_L3_TCM,1,301.90521240, 19.26502991,end
timer_stats,656134740038310,PAPI_L3_TCM,0,302.00994873, 19.28120422,end
timer_stats,656134741210120,PAPI_L3_TCM,1,302.09399414, 19.29045105,end
timer_stats,656134742371135,PAPI_L3_TCM,0,302.16467285, 19.29978943,end
timer_stats,656134743549577,PAPI_L3_TCM,1,302.24737549, 19.30876160,end
timer_stats,656134744729022,PAPI_L3_TCM,0,302.31524658, 19.31761169,end
timer_stats,656134745913450,PAPI_L3_TCM,1,302.42785644, 19.33683777,end
timer_stats,656134747076315,PAPI_L3_TCM,0,302.55462646, 19.34559631,end
timer_stats,656134748238510,PAPI_L3_TCM,1,302.62792969, 19.35466003,end
timer_stats,656134749419073,PAPI_L3_TCM,0,302.69793701, 19.36390686,end
timer_stats,656134750604357,PAPI_L3_TCM,1,302.78082275, 19.37286377,end
timer_stats,656134751785948,PAPI_L3_TCM,0,302.85632324, 19.38162231,end
timer_stats,656134752969620,PAPI_L3_TCM,1,302.96173096, 19.40093994,end
timer_stats,656134754151595,PAPI_L3_TCM,0,303.08569336, 19.40997314,end
timer_stats,656134755341715,PAPI_L3_TCM,1,303.15777588, 19.41931152,end
timer_stats,656134756521362,PAPI_L3_TCM,0,303.23602295, 19.42803955,end
timer_stats,656134757706090,PAPI_L3_TCM,1,303.30670166, 19.43728638,end
timer_stats,656134758888802,PAPI_L3_TCM,0,303.40423584, 19.45123291,end
timer_stats,656134760072015,PAPI_L3_TCM,1,303.53405762, 19.46585083,end
timer_stats,656134761256135,PAPI_L3_TCM,14,303.59863281, 19.47570801,end
timer_stats,656134762419427,PAPI_L3_TCM,13,303.67736816, 19.48614502,end
timer_stats,656134763587955,PAPI_L3_TCM,11,303.74816894, 19.49586487,end
timer_stats,656134764769250,PAPI_L3_TCM,12,303.81604004, 19.50485229,end
timer_stats,656134765933012,PAPI_L3_TCM,4,303.91650391, 19.52212524,end
timer_stats,656134767075920,PAPI_L3_TCM,3,304.03118896, 19.53823852,end
timer_stats,656134768237972,PAPI_L3_TCM,0,304.10418701, 19.54833984,end
timer_stats,656134769385072,PAPI_L3_TCM,1,304.17889404, 19.55841064,end
timer_stats,656134770555837,PAPI_L3_TCM,0,304.25152588, 19.56872558,end
