timer_stats,697951459388486,PAPI_L3_TCM,456,  0.07531738,  0.01005554,end
timer_stats,697951460513768,PAPI_L3_TCM,59,  0.15869141,  0.02053833,end
timer_stats,697951461640069,PAPI_L3_TCM,19,  0.23913574,  0.03250122,end
timer_stats,697951462788153,PAPI_L3_TCM,15,  0.31878662,  0.04293823,end
timer_stats,697951464029135,PAPI_L3_TCM,21,  0.48156738,  0.06468201,end
timer_stats,697951465173502,PAPI_L3_TCM,25,  0.57147217,  0.07469177,end
timer_stats,697951466329485,PAPI_L3_TCM,5,  0.65179443,  0.08592224,end
timer_stats,697951467489314,PAPI_L3_TCM,11,  0.73626709,  0.09666443,end
timer_stats,697951468658853,PAPI_L3_TCM,7,  0.81872559,  0.10697937,end
timer_stats,697951469836200,PAPI_L3_TCM,10,  0.94909668,  0.12391663,end
timer_stats,697951471019429,PAPI_L3_TCM,8,  1.07763672,  0.13954163,end
timer_stats,697951472177303,PAPI_L3_TCM,14,  1.16003418,  0.15031433,end
timer_stats,697951473335677,PAPI_L3_TCM,3,  1.25250244,  0.16056824,end
timer_stats,697951474496398,PAPI_L3_TCM,9,  1.33538818,  0.17155456,end
timer_stats,697951475659780,PAPI_L3_TCM,9,  1.42407226,  0.18223572,end
timer_stats,697951476821504,PAPI_L3_TCM,8,  1.54693603,  0.19789123,end
timer_stats,697951477981702,PAPI_L3_TCM,5,  1.68408203,  0.21379089,end
timer_stats,697951479143537,PAPI_L3_TCM,8,  1.77142334,  0.22477722,end
timer_stats,697951480274343,PAPI_L3_TCM,3,  1.86151123,  0.23503113,end
timer_stats,697951481438817,PAPI_L3_TCM,5,  1.95300293,  0.24552917,end
timer_stats,697951482616177,PAPI_L3_TCM,3,  2.04016113,  0.25535583,end
timer_stats,697951483790761,PAPI_L3_TCM,2,  2.12377930,  0.26548767,end
timer_stats,697951484966634,PAPI_L3_TCM,4,  2.29516601,  0.28587341,end
timer_stats,697951486144483,PAPI_L3_TCM,2,  2.38116455,  0.29573059,end
timer_stats,697951487324747,PAPI_L3_TCM,0,  2.46435547,  0.30586243,end
timer_stats,697951488500478,PAPI_L3_TCM,5,  2.55279541,  0.31571960,end
timer_stats,697951489685426,PAPI_L3_TCM,3,  2.64892578,  0.32627869,end
timer_stats,697951490866710,PAPI_L3_TCM,6,  2.83184814,  0.34667969,end
timer_stats,697951492057738,PAPI_L3_TCM,1,  2.93084717,  0.35717773,end
timer_stats,697951493216760,PAPI_L3_TCM,4,  3.02246094,  0.36752319,end
timer_stats,697951494400675,PAPI_L3_TCM,2,  3.11993408,  0.37759399,end
timer_stats,697951495591375,PAPI_L3_TCM,0,  3.21044922,  0.38980103,end
timer_stats,697951496774613,PAPI_L3_TCM,1,  3.30151367,  0.40115356,end
timer_stats,697951497936319,PAPI_L3_TCM,5,  3.50329590,  0.41624451,end
timer_stats,697951499091209,PAPI_L3_TCM,0,  3.59954834,  0.43170166,end
timer_stats,697951500270912,PAPI_L3_TCM,8,  3.69854736,  0.44219971,end
timer_stats,697951501424977,PAPI_L3_TCM,0,  3.79040527,  0.45318603,end
timer_stats,697951502588633,PAPI_L3_TCM,4,  3.90747070,  0.46447754,end
timer_stats,697951503742683,PAPI_L3_TCM,0,  4.02685547,  0.47735596,end
timer_stats,697951504898560,PAPI_L3_TCM,0,  4.28399658,  0.50413513,end
timer_stats,697951506038277,PAPI_L3_TCM,1,  4.42047119,  0.51789856,end
timer_stats,697951507150890,PAPI_L3_TCM,2,  4.56524658,  0.53105163,end
timer_stats,697951508275913,PAPI_L3_TCM,1,  4.70935059,  0.54544067,end
timer_stats,697951509379247,PAPI_L3_TCM,4,  4.85992432,  0.55929565,end
timer_stats,697951510490144,PAPI_L3_TCM,2,  5.00750732,  0.57476807,end
timer_stats,697951511602418,PAPI_L3_TCM,4,  5.16192627,  0.58895874,end
timer_stats,697951512705212,PAPI_L3_TCM,0,  5.30596924,  0.60351562,end
timer_stats,697951513818340,PAPI_L3_TCM,0,  5.46496582,  0.61717224,end
timer_stats,697951514943851,PAPI_L3_TCM,1,  5.80187988,  0.63845825,end
timer_stats,697951516052520,PAPI_L3_TCM,1,  5.97338867,  0.65820312,end
timer_stats,697951517148582,PAPI_L3_TCM,1,  6.14971924,  0.67308044,end
timer_stats,697951518230298,PAPI_L3_TCM,7,  6.32629394,  0.68548584,end
timer_stats,697951519310420,PAPI_L3_TCM,4,  6.50628662,  0.69813538,end
timer_stats,697951520407284,PAPI_L3_TCM,7,  6.67663574,  0.70950317,end
timer_stats,697951521496525,PAPI_L3_TCM,3,  6.86187744,  0.72340393,end
timer_stats,697951522585329,PAPI_L3_TCM,2,  7.04132080,  0.73707580,end
timer_stats,697951523675759,PAPI_L3_TCM,2,  7.21557617,  0.74938965,end
timer_stats,697951524766409,PAPI_L3_TCM,9,  7.40753174,  0.76502991,end
timer_stats,697951525851968,PAPI_L3_TCM,1,  7.58984375,  0.78060913,end
timer_stats,697951526957032,PAPI_L3_TCM,3,  7.96496582,  0.81289673,end
timer_stats,697951528020935,PAPI_L3_TCM,4,  8.16412353,  0.82833862,end
timer_stats,697951529101030,PAPI_L3_TCM,5,  8.34204101,  0.84301758,end
timer_stats,697951530206547,PAPI_L3_TCM,2,  8.51312256,  0.85755920,end
timer_stats,697951531309619,PAPI_L3_TCM,0,  8.68945312,  0.86384582,end
timer_stats,697951532423851,PAPI_L3_TCM,1,  8.85644531,  0.87789917,end
timer_stats,697951533538255,PAPI_L3_TCM,2,  9.02447510,  0.89218140,end
timer_stats,697951534654626,PAPI_L3_TCM,1,  9.19946289,  0.90602112,end
timer_stats,697951535771517,PAPI_L3_TCM,14,  9.37231445,  0.91976929,end
timer_stats,697951536860942,PAPI_L3_TCM,7,  9.63543701,  0.94125366,end
timer_stats,697951537985725,PAPI_L3_TCM,3,  9.88018799,  0.96282959,end
timer_stats,697951539087833,PAPI_L3_TCM,0, 10.05792236,  0.97653198,end
timer_stats,697951540187780,PAPI_L3_TCM,7, 10.23370361,  0.99102783,end
timer_stats,697951541276947,PAPI_L3_TCM,2, 10.39233398,  1.00607300,end
timer_stats,697951542386161,PAPI_L3_TCM,2, 10.55957031,  1.02093506,end
timer_stats,697951543477148,PAPI_L3_TCM,6, 10.71405029,  1.03518677,end
timer_stats,697951544577694,PAPI_L3_TCM,8, 10.87744141,  1.04858398,end
timer_stats,697951545684637,PAPI_L3_TCM,2, 11.03125000,  1.06349182,end
timer_stats,697951546790178,PAPI_L3_TCM,13, 11.18298340,  1.07832336,end
timer_stats,697951547891217,PAPI_L3_TCM,0, 11.33673096,  1.09307861,end
timer_stats,697951548992802,PAPI_L3_TCM,2, 11.58459473,  1.10671997,end
timer_stats,697951555221893,PAPI_L3_TCM,227, 12.63653564,  1.19013977,end
timer_stats,697951556369201,PAPI_L3_TCM,131, 12.78009033,  1.20283508,end
timer_stats,697951557489242,PAPI_L3_TCM,22, 12.94409180,  1.21823120,end
timer_stats,697951558569771,PAPI_L3_TCM,19, 13.11065674,  1.23393249,end
timer_stats,697951559672808,PAPI_L3_TCM,2, 13.27313232,  1.24755859,end
timer_stats,697951560783693,PAPI_L3_TCM,7, 13.42517090,  1.26103210,end
timer_stats,697951561893118,PAPI_L3_TCM,3, 13.57751465,  1.27442932,end
timer_stats,697951563000501,PAPI_L3_TCM,3, 13.81396484,  1.29487610,end
timer_stats,697951564035510,PAPI_L3_TCM,1, 14.02130127,  1.31333923,end
timer_stats,697951565116838,PAPI_L3_TCM,5, 14.17169189,  1.32574463,end
timer_stats,697951566217917,PAPI_L3_TCM,7, 14.31201172,  1.33755493,end
timer_stats,697951567346299,PAPI_L3_TCM,4, 14.44274902,  1.34863281,end
timer_stats,697951568462871,PAPI_L3_TCM,0, 14.58697510,  1.35983276,end
timer_stats,697951569570357,PAPI_L3_TCM,3, 14.72528076,  1.37303161,end
timer_stats,697951570683941,PAPI_L3_TCM,4, 14.86914062,  1.38526916,end
timer_stats,697951571814215,PAPI_L3_TCM,7, 15.01141357,  1.39775085,end
timer_stats,697951572944754,PAPI_L3_TCM,0, 15.22235107,  1.41532898,end
timer_stats,697951574085275,PAPI_L3_TCM,4, 15.40911865,  1.43269348,end
timer_stats,697951575229249,PAPI_L3_TCM,8, 15.53765869,  1.44404602,end
timer_stats,697951576345451,PAPI_L3_TCM,6, 15.67486572,  1.45585632,end
timer_stats,697951577477578,PAPI_L3_TCM,11, 15.80480957,  1.46763611,end
timer_stats,697951578639176,PAPI_L3_TCM,3, 15.93902588,  1.47985840,end
timer_stats,697951579779030,PAPI_L3_TCM,1, 16.06201172,  1.49023437,end
timer_stats,697951580941646,PAPI_L3_TCM,0, 16.27294922,  1.50863647,end
timer_stats,697951582095378,PAPI_L3_TCM,2, 16.46240234,  1.52615356,end
timer_stats,697951583240670,PAPI_L3_TCM,6, 16.60424805,  1.53892517,end
timer_stats,697951584382660,PAPI_L3_TCM,0, 16.74847412,  1.55192566,end
timer_stats,697951585501332,PAPI_L3_TCM,4, 16.86914062,  1.56483459,end
timer_stats,697951586630234,PAPI_L3_TCM,13, 17.00762939,  1.57804871,end
timer_stats,697951587770272,PAPI_L3_TCM,9, 17.14105225,  1.59077454,end
timer_stats,697951588878594,PAPI_L3_TCM,3, 17.28576660,  1.60508728,end
timer_stats,697951590033168,PAPI_L3_TCM,1, 17.56475830,  1.62951660,end
timer_stats,697951591180407,PAPI_L3_TCM,0, 17.69677734,  1.64292908,end
timer_stats,697951592302266,PAPI_L3_TCM,4, 17.84045410,  1.65565491,end
timer_stats,697951593463576,PAPI_L3_TCM,7, 17.97167969,  1.66807556,end
timer_stats,697951594614864,PAPI_L3_TCM,7, 18.10314941,  1.68020630,end
timer_stats,697951595763558,PAPI_L3_TCM,0, 18.24707031,  1.69319153,end
timer_stats,697951596896600,PAPI_L3_TCM,6, 18.37817383,  1.70703125,end
timer_stats,697951598054178,PAPI_L3_TCM,2, 18.65161133,  1.73054504,end
timer_stats,697951599194708,PAPI_L3_TCM,0, 18.79687500,  1.74345398,end
timer_stats,697951600323251,PAPI_L3_TCM,1, 18.93310547,  1.75724792,end
timer_stats,697951601435116,PAPI_L3_TCM,1, 19.07037353,  1.77088928,end
timer_stats,697951602598776,PAPI_L3_TCM,0, 19.21575928,  1.78337097,end
timer_stats,697951603729389,PAPI_L3_TCM,3, 19.36340332,  1.79685974,end
timer_stats,697951604842441,PAPI_L3_TCM,2, 19.49078369,  1.81005859,end
timer_stats,697951605984339,PAPI_L3_TCM,8, 19.71081543,  1.83000183,end
timer_stats,697951607084737,PAPI_L3_TCM,4, 19.90960693,  1.85015869,end
timer_stats,697951608195724,PAPI_L3_TCM,40, 19.98809814,  1.85743713,end
timer_stats,697951609305877,PAPI_L3_TCM,30, 20.18121338,  1.87649536,end
timer_stats,697951610443103,PAPI_L3_TCM,22, 20.31103515,  1.88835144,end
timer_stats,697951611592982,PAPI_L3_TCM,12, 20.44757080,  1.90036011,end
timer_stats,697951612707541,PAPI_L3_TCM,11, 20.58703613,  1.91310120,end
timer_stats,697951613907882,PAPI_L3_TCM,3, 20.70715332,  1.92594910,end
timer_stats,697951615051244,PAPI_L3_TCM,12, 20.97229004,  1.95338440,end
timer_stats,697951616170584,PAPI_L3_TCM,9, 21.10620117,  1.96516418,end
timer_stats,697951617282318,PAPI_L3_TCM,9, 21.24731445,  1.97676086,end
timer_stats,697951618421006,PAPI_L3_TCM,6, 21.38507080,  1.98982239,end
timer_stats,697951619581052,PAPI_L3_TCM,11, 21.51257324,  2.00355530,end
timer_stats,697951620723876,PAPI_L3_TCM,5, 21.64831543,  2.01524353,end
timer_stats,697951621847956,PAPI_L3_TCM,12, 21.78192139,  2.02677917,end
timer_stats,697951623012430,PAPI_L3_TCM,9, 21.99017334,  2.04690552,end
timer_stats,697951624136381,PAPI_L3_TCM,22, 22.18310547,  2.06678772,end
timer_stats,697951625260330,PAPI_L3_TCM,5, 22.31738281,  2.08058166,end
timer_stats,697951626396974,PAPI_L3_TCM,2, 22.46124268,  2.09223938,end
timer_stats,697951627539147,PAPI_L3_TCM,3, 22.60137939,  2.10505676,end
timer_stats,697951628692511,PAPI_L3_TCM,4, 22.73223877,  2.11689758,end
timer_stats,697951629872900,PAPI_L3_TCM,6, 22.86004639,  2.12892151,end
timer_stats,697951631037017,PAPI_L3_TCM,9, 23.08184814,  2.14801025,end
timer_stats,697951632153820,PAPI_L3_TCM,8, 23.26788330,  2.16587830,end
timer_stats,697951633281594,PAPI_L3_TCM,10, 23.34924316,  2.17218017,end
timer_stats,697951634409520,PAPI_L3_TCM,3, 23.54772949,  2.19165039,end
timer_stats,697951635571047,PAPI_L3_TCM,3, 23.67993164,  2.20285034,end
timer_stats,697951636717429,PAPI_L3_TCM,3, 23.80908203,  2.21412659,end
timer_stats,697951637896886,PAPI_L3_TCM,6, 23.95593262,  2.22621155,end
timer_stats,697951639037786,PAPI_L3_TCM,2, 24.16253662,  2.24436951,end
timer_stats,697951640179343,PAPI_L3_TCM,4, 24.30981445,  2.25808716,end
timer_stats,697951641310982,PAPI_L3_TCM,6, 24.49200439,  2.27551269,end
timer_stats,697951642474018,PAPI_L3_TCM,5, 24.64099121,  2.28782654,end
timer_stats,697951643623650,PAPI_L3_TCM,12, 24.77600097,  2.30105591,end
timer_stats,697951644787686,PAPI_L3_TCM,3, 24.90435791,  2.31372070,end
timer_stats,697951645930591,PAPI_L3_TCM,11, 25.04278564,  2.32601929,end
timer_stats,697951647056897,PAPI_L3_TCM,7, 25.32147217,  2.34687805,end
timer_stats,697951648173030,PAPI_L3_TCM,13, 25.40179443,  2.35404968,end
timer_stats,697951649289185,PAPI_L3_TCM,11, 25.61224365,  2.37254333,end
timer_stats,697951669135722,PAPI_L3_TCM,288, 28.54931640,  2.63845825,end
timer_stats,697951670328204,PAPI_L3_TCM,138, 28.71649170,  2.65214538,end
timer_stats,697951671409224,PAPI_L3_TCM,14, 28.85449219,  2.66796875,end
timer_stats,697951672494651,PAPI_L3_TCM,7, 29.02392578,  2.68382263,end
timer_stats,697951673575106,PAPI_L3_TCM,4, 29.15997314,  2.69837952,end
timer_stats,697951674663099,PAPI_L3_TCM,4, 29.34307861,  2.71325684,end
timer_stats,697951675744965,PAPI_L3_TCM,3, 29.49920654,  2.72685242,end
timer_stats,697951676826720,PAPI_L3_TCM,6, 29.66229248,  2.74217224,end
timer_stats,697951677907666,PAPI_L3_TCM,4, 29.81066894,  2.75726318,end
timer_stats,697951678989410,PAPI_L3_TCM,11, 29.99127197,  2.77032471,end
timer_stats,697951680074399,PAPI_L3_TCM,4, 30.22125244,  2.79428101,end
timer_stats,697951681156311,PAPI_L3_TCM,9, 30.47375488,  2.81724548,end
timer_stats,697951682235319,PAPI_L3_TCM,0, 30.64569092,  2.83209228,end
timer_stats,697951683317000,PAPI_L3_TCM,3, 30.82659912,  2.84701538,end
timer_stats,697951684405217,PAPI_L3_TCM,3, 30.99615479,  2.86148071,end
timer_stats,697951685489089,PAPI_L3_TCM,6, 31.15435791,  2.87672424,end
timer_stats,697951686579130,PAPI_L3_TCM,9, 31.33007812,  2.89076233,end
timer_stats,697951687658217,PAPI_L3_TCM,12, 31.49237061,  2.90492249,end
timer_stats,697951688738284,PAPI_L3_TCM,12, 31.66680908,  2.92124939,end
timer_stats,697951689819484,PAPI_L3_TCM,12, 31.81945801,  2.93692017,end
timer_stats,697951690904148,PAPI_L3_TCM,15, 31.98498535,  2.95195007,end
timer_stats,697951691990956,PAPI_L3_TCM,19, 32.15576172,  2.96821594,end
timer_stats,697951693085030,PAPI_L3_TCM,9, 32.40490723,  2.99098205,end
timer_stats,697951694165106,PAPI_L3_TCM,8, 32.57147217,  3.00524902,end
timer_stats,697951695251124,PAPI_L3_TCM,8, 32.74670410,  3.02000427,end
timer_stats,697951696340263,PAPI_L3_TCM,17, 32.99536133,  3.04342651,end
timer_stats,697951697424529,PAPI_L3_TCM,10, 33.15417480,  3.05856323,end
timer_stats,697951698508734,PAPI_L3_TCM,11, 33.31671143,  3.07368469,end
timer_stats,697951699595444,PAPI_L3_TCM,2, 33.47711182,  3.08972168,end
timer_stats,697951700677342,PAPI_L3_TCM,5, 33.65270996,  3.10650635,end
timer_stats,697951701759253,PAPI_L3_TCM,3, 33.80743408,  3.12399292,end
timer_stats,697951702842779,PAPI_L3_TCM,8, 33.96435547,  3.13720703,end
timer_stats,697951703928352,PAPI_L3_TCM,9, 34.12420654,  3.15315246,end
timer_stats,697951705009570,PAPI_L3_TCM,8, 34.29327392,  3.16731262,end
timer_stats,697951706088415,PAPI_L3_TCM,6, 34.54534912,  3.19294739,end
timer_stats,697951707168239,PAPI_L3_TCM,6, 34.71710205,  3.20671082,end
timer_stats,697951708251059,PAPI_L3_TCM,7, 34.87353515,  3.22077942,end
timer_stats,697951709331428,PAPI_L3_TCM,15, 35.13067627,  3.24316406,end
timer_stats,697951710410915,PAPI_L3_TCM,8, 35.31121826,  3.25967407,end
timer_stats,697951711492639,PAPI_L3_TCM,7, 35.47601318,  3.27409363,end
timer_stats,697951712572589,PAPI_L3_TCM,6, 35.64562988,  3.29147339,end
timer_stats,697951713655468,PAPI_L3_TCM,18, 35.81329346,  3.30503845,end
timer_stats,697951714742995,PAPI_L3_TCM,8, 35.97912598,  3.32052612,end
timer_stats,697951715821748,PAPI_L3_TCM,7, 36.13446045,  3.33418274,end
timer_stats,697951716904525,PAPI_L3_TCM,1, 36.28875732,  3.34974670,end
timer_stats,697951717990510,PAPI_L3_TCM,6, 36.45391846,  3.36387634,end
timer_stats,697951719071443,PAPI_L3_TCM,1, 36.69769287,  3.38787842,end
timer_stats,697951720154036,PAPI_L3_TCM,12, 36.86505127,  3.40299988,end
timer_stats,697951721234080,PAPI_L3_TCM,8, 37.02062988,  3.41899109,end
timer_stats,697951722320510,PAPI_L3_TCM,15, 37.26934814,  3.44053650,end
timer_stats,697951723398669,PAPI_L3_TCM,3, 37.42657471,  3.45593262,end
timer_stats,697951724478433,PAPI_L3_TCM,9, 37.59265137,  3.47167969,end
timer_stats,697951725555176,PAPI_L3_TCM,4, 37.74438476,  3.48591614,end
timer_stats,697951726635739,PAPI_L3_TCM,20, 37.90380859,  3.49984741,end
timer_stats,697951727714560,PAPI_L3_TCM,13, 38.06701660,  3.51661682,end
timer_stats,697951728795620,PAPI_L3_TCM,6, 38.21923828,  3.53167725,end
timer_stats,697951729875700,PAPI_L3_TCM,3, 38.37622070,  3.55012512,end
timer_stats,697951730954705,PAPI_L3_TCM,9, 38.53491211,  3.56806946,end
timer_stats,697951732033759,PAPI_L3_TCM,4, 38.70141601,  3.58287048,end
timer_stats,697951733113940,PAPI_L3_TCM,5, 38.85491943,  3.59848022,end
timer_stats,697951734192542,PAPI_L3_TCM,9, 39.10125732,  3.62109375,end
timer_stats,697951735272379,PAPI_L3_TCM,1, 39.32031250,  3.64265442,end
timer_stats,697951736352366,PAPI_L3_TCM,3, 39.48101807,  3.65574646,end
timer_stats,697951737430300,PAPI_L3_TCM,6, 39.64624023,  3.67169189,end
timer_stats,697951738506891,PAPI_L3_TCM,0, 39.79809570,  3.68486023,end
timer_stats,697951739583706,PAPI_L3_TCM,3, 39.95867920,  3.69818115,end
timer_stats,697951740662879,PAPI_L3_TCM,3, 40.12243652,  3.71252441,end
timer_stats,697951741741311,PAPI_L3_TCM,4, 40.27099609,  3.72439575,end
timer_stats,697951742821058,PAPI_L3_TCM,7, 40.43084717,  3.73980713,end
timer_stats,697951743899333,PAPI_L3_TCM,3, 40.57781982,  3.75434875,end
timer_stats,697951744978486,PAPI_L3_TCM,7, 40.72668457,  3.76940918,end
timer_stats,697951746058676,PAPI_L3_TCM,7, 40.87774658,  3.78463745,end
timer_stats,697951747136060,PAPI_L3_TCM,2, 41.10980225,  3.80653381,end
timer_stats,697951748214696,PAPI_L3_TCM,6, 41.26422119,  3.82012939,end
timer_stats,697951749293301,PAPI_L3_TCM,15, 41.49401855,  3.83424377,end
timer_stats,697951750369791,PAPI_L3_TCM,3, 41.65899658,  3.85791015,end
timer_stats,697951751447073,PAPI_L3_TCM,2, 41.80688476,  3.87515259,end
timer_stats,697951752525065,PAPI_L3_TCM,5, 41.97491455,  3.88980102,end
timer_stats,697951753602335,PAPI_L3_TCM,5, 42.12487793,  3.90618896,end
timer_stats,697951754678819,PAPI_L3_TCM,4, 42.27990723,  3.92045593,end
timer_stats,697951755755983,PAPI_L3_TCM,1, 42.43609619,  3.93757629,end
timer_stats,697951756836310,PAPI_L3_TCM,5, 42.60571289,  3.95333862,end
timer_stats,697951757912458,PAPI_L3_TCM,5, 42.76934814,  3.97195434,end
timer_stats,697951758992058,PAPI_L3_TCM,4, 42.93286133,  3.98747253,end
timer_stats,697951760071595,PAPI_L3_TCM,7, 43.09942627,  4.00270080,end
timer_stats,697951761150042,PAPI_L3_TCM,2, 43.34637451,  4.02653503,end
timer_stats,697951762230276,PAPI_L3_TCM,1, 43.50109863,  4.04209900,end
timer_stats,697951763310926,PAPI_L3_TCM,5, 43.75372314,  4.05787658,end
timer_stats,697951764391435,PAPI_L3_TCM,1, 43.91925049,  4.08004761,end
timer_stats,697951765473421,PAPI_L3_TCM,5, 44.08190918,  4.09761047,end
timer_stats,697951766554807,PAPI_L3_TCM,3, 44.24591064,  4.11286926,end
timer_stats,697951768128900,PAPI_L3_TCM,2336, 44.48620605,  4.13636780,end
timer_stats,697951769216550,PAPI_L3_TCM,35, 44.64056396,  4.14933777,end
timer_stats,697951770306234,PAPI_L3_TCM,13, 44.79418945,  4.16265869,end
timer_stats,697951771387854,PAPI_L3_TCM,5, 45.01977539,  4.18588257,end
timer_stats,697951772468513,PAPI_L3_TCM,15, 45.17053223,  4.20062256,end
timer_stats,697951773547605,PAPI_L3_TCM,4, 45.33013916,  4.21623230,end
timer_stats,697951774627924,PAPI_L3_TCM,3, 45.48492432,  4.22958374,end
timer_stats,697951775708409,PAPI_L3_TCM,2, 45.63586426,  4.24363708,end
timer_stats,697951776788893,PAPI_L3_TCM,7, 45.80303955,  4.25701904,end
timer_stats,697951777868433,PAPI_L3_TCM,3, 45.95642090,  4.27114868,end
timer_stats,697951778946010,PAPI_L3_TCM,2, 46.10217285,  4.28646850,end
timer_stats,697951780018683,PAPI_L3_TCM,2, 46.24859619,  4.29963684,end
timer_stats,697951781099061,PAPI_L3_TCM,7, 46.40106201,  4.31385803,end
timer_stats,697951782183776,PAPI_L3_TCM,1, 46.61462402,  4.33427429,end
timer_stats,697951783265168,PAPI_L3_TCM,3, 46.76464844,  4.34863281,end
timer_stats,697951784345526,PAPI_L3_TCM,7, 46.98217773,  4.37055969,end
timer_stats,697951785425643,PAPI_L3_TCM,9, 47.12402344,  4.38539123,end
timer_stats,697951786504923,PAPI_L3_TCM,9, 47.27581787,  4.39949036,end
timer_stats,697951787582859,PAPI_L3_TCM,2, 47.41699219,  4.41485596,end
timer_stats,697951788663927,PAPI_L3_TCM,19, 47.56439209,  4.42835998,end
timer_stats,697951789744576,PAPI_L3_TCM,15, 47.70001221,  4.44175720,end
timer_stats,697951790827204,PAPI_L3_TCM,6, 47.84484863,  4.45597839,end
timer_stats,697951791912810,PAPI_L3_TCM,14, 47.98693848,  4.46949768,end
timer_stats,697951792999720,PAPI_L3_TCM,15, 48.12701416,  4.48381042,end
timer_stats,697951794088906,PAPI_L3_TCM,9, 48.25476074,  4.49760437,end
timer_stats,697951795170099,PAPI_L3_TCM,3, 48.46557617,  4.51679993,end
timer_stats,697951796254401,PAPI_L3_TCM,8, 48.67144775,  4.53723144,end
timer_stats,697951797337429,PAPI_L3_TCM,3, 48.81134033,  4.54971313,end
timer_stats,697951798418615,PAPI_L3_TCM,5, 48.95050049,  4.56301880,end
timer_stats,697951799503177,PAPI_L3_TCM,5, 49.09271240,  4.57923889,end
timer_stats,697951800586480,PAPI_L3_TCM,3, 49.23272705,  4.59336853,end
timer_stats,697951801666348,PAPI_L3_TCM,9, 49.36999512,  4.60690308,end
timer_stats,697951802745287,PAPI_L3_TCM,3, 49.50799560,  4.62231445,end
timer_stats,697951803824757,PAPI_L3_TCM,2, 49.64691162,  4.63691711,end
timer_stats,697951804906792,PAPI_L3_TCM,7, 49.79498291,  4.65158081,end
timer_stats,697951805989330,PAPI_L3_TCM,8, 49.94775390,  4.66633606,end
timer_stats,697951807069384,PAPI_L3_TCM,9, 50.08959961,  4.67910767,end
timer_stats,697951808151617,PAPI_L3_TCM,6, 50.30273437,  4.69924927,end
timer_stats,697951809232325,PAPI_L3_TCM,7, 50.44573975,  4.72479248,end
timer_stats,697951810314096,PAPI_L3_TCM,2, 50.65637207,  4.74409485,end
timer_stats,697951811394829,PAPI_L3_TCM,5, 50.80535889,  4.75810242,end
timer_stats,697951812476530,PAPI_L3_TCM,0, 50.94506836,  4.77310181,end
timer_stats,697951813557707,PAPI_L3_TCM,3, 51.08349609,  4.78912353,end
timer_stats,697951814636998,PAPI_L3_TCM,4, 51.23101807,  4.80351257,end
timer_stats,697951815717164,PAPI_L3_TCM,7, 51.37646484,  4.81913757,end
timer_stats,697951816799251,PAPI_L3_TCM,5, 51.52557373,  4.83352661,end
timer_stats,697951817880606,PAPI_L3_TCM,6, 51.66961670,  4.84855652,end
timer_stats,697951818960770,PAPI_L3_TCM,8, 51.81671143,  4.86209106,end
timer_stats,697951820041519,PAPI_L3_TCM,2, 51.96783447,  4.87557983,end
timer_stats,697951821122388,PAPI_L3_TCM,13, 52.10784912,  4.88922119,end
timer_stats,697951822201805,PAPI_L3_TCM,2, 52.32373047,  4.90977478,end
timer_stats,697951823282282,PAPI_L3_TCM,4, 52.53259277,  4.92288208,end
timer_stats,697951824363241,PAPI_L3_TCM,6, 52.68811035,  4.94404602,end
timer_stats,697951825441451,PAPI_L3_TCM,1, 52.83850098,  4.95919800,end
timer_stats,697951826519615,PAPI_L3_TCM,3, 52.97735596,  4.97317505,end
timer_stats,697951827597426,PAPI_L3_TCM,2, 53.13006592,  4.98760986,end
timer_stats,697951828677395,PAPI_L3_TCM,3, 53.27362060,  5.00173950,end
timer_stats,697951829760583,PAPI_L3_TCM,6, 53.42102051,  5.01753235,end
timer_stats,697951830843494,PAPI_L3_TCM,15, 53.56933594,  5.03282165,end
timer_stats,697951831925002,PAPI_L3_TCM,6, 53.70800781,  5.04586792,end
timer_stats,697951833005406,PAPI_L3_TCM,13, 53.85437012,  5.05882263,end
timer_stats,697951834084836,PAPI_L3_TCM,4, 53.99035645,  5.07357788,end
timer_stats,697951835164934,PAPI_L3_TCM,8, 54.20434570,  5.08601379,end
timer_stats,697951836246706,PAPI_L3_TCM,10, 54.34979248,  5.10760498,end
timer_stats,697951837326825,PAPI_L3_TCM,7, 54.55114746,  5.12153625,end
timer_stats,697951838427694,PAPI_L3_TCM,1, 54.68701172,  5.14193725,end
timer_stats,697951839524582,PAPI_L3_TCM,10, 54.82928467,  5.15609741,end
timer_stats,697951840618973,PAPI_L3_TCM,5, 54.96459961,  5.17303467,end
timer_stats,697951841714984,PAPI_L3_TCM,36, 55.10540771,  5.18667602,end
timer_stats,697951842809435,PAPI_L3_TCM,5, 55.23107910,  5.20249939,end
timer_stats,697951843901835,PAPI_L3_TCM,2, 55.36737060,  5.21659851,end
timer_stats,697951845006109,PAPI_L3_TCM,1, 55.50543213,  5.23135376,end
timer_stats,697951846106469,PAPI_L3_TCM,2, 55.64691162,  5.24559021,end
timer_stats,697951847206351,PAPI_L3_TCM,4, 55.85559082,  5.26713562,end
timer_stats,697951848286960,PAPI_L3_TCM,10, 56.00231934,  5.28186035,end
timer_stats,697951849366995,PAPI_L3_TCM,6, 56.20361328,  5.30404663,end
timer_stats,697951850461345,PAPI_L3_TCM,11, 56.34478760,  5.31910705,end
timer_stats,697951851544825,PAPI_L3_TCM,8, 56.48248291,  5.33297729,end
timer_stats,697951852655825,PAPI_L3_TCM,23, 56.61877441,  5.34701538,end
timer_stats,697951853757826,PAPI_L3_TCM,13, 56.76080322,  5.36109924,end
timer_stats,697951854869541,PAPI_L3_TCM,15, 56.89746094,  5.37580871,end
timer_stats,697951855965200,PAPI_L3_TCM,4, 57.03979492,  5.38923645,end
timer_stats,697951857058555,PAPI_L3_TCM,10, 57.17425537,  5.40402222,end
timer_stats,697951858176133,PAPI_L3_TCM,19, 57.31250000,  5.40840149,end
timer_stats,697951859280066,PAPI_L3_TCM,18, 57.52087402,  5.42924499,end
timer_stats,697951860380647,PAPI_L3_TCM,28, 57.72393799,  5.44721985,end
timer_stats,697951861485195,PAPI_L3_TCM,5, 57.87237549,  5.46430969,end
timer_stats,697951862581655,PAPI_L3_TCM,41, 58.00347900,  5.47772217,end
timer_stats,697951863682258,PAPI_L3_TCM,33, 58.14013672,  5.49221802,end
timer_stats,697951864787574,PAPI_L3_TCM,9, 58.28302002,  5.50691223,end
timer_stats,697951865895445,PAPI_L3_TCM,4, 58.42486572,  5.51995850,end
timer_stats,697951866999239,PAPI_L3_TCM,3, 58.56579590,  5.53329468,end
timer_stats,697951868103879,PAPI_L3_TCM,8, 58.70898437,  5.54080200,end
timer_stats,697951869194053,PAPI_L3_TCM,2, 58.84985351,  5.55485534,end
timer_stats,697951870298601,PAPI_L3_TCM,4, 59.06488037,  5.57453918,end
timer_stats,697951871404504,PAPI_L3_TCM,1, 59.26763916,  5.58757019,end
timer_stats,697951872507080,PAPI_L3_TCM,7, 59.40808105,  5.60617065,end
timer_stats,697951873615074,PAPI_L3_TCM,6, 59.55346680,  5.61802673,end
timer_stats,697951874713742,PAPI_L3_TCM,7, 59.69445801,  5.63006592,end
timer_stats,697951875813127,PAPI_L3_TCM,0, 59.83111572,  5.64352417,end
timer_stats,697951876912045,PAPI_L3_TCM,11, 59.97796631,  5.65669250,end
timer_stats,697951878011171,PAPI_L3_TCM,11, 60.12231445,  5.66882324,end
timer_stats,697951879106564,PAPI_L3_TCM,36, 60.25958252,  5.68481445,end
timer_stats,697951880203674,PAPI_L3_TCM,17, 60.40313721,  5.69738769,end
timer_stats,697951881285978,PAPI_L3_TCM,6, 60.61846924,  5.70947265,end
timer_stats,697951882636561,PAPI_L3_TCM,7, 60.82501221,  5.73556518,end
timer_stats,697951883734441,PAPI_L3_TCM,7, 60.97033691,  5.74739075,end
timer_stats,697951884993526,PAPI_L3_TCM,44, 61.11010742,  5.75984192,end
timer_stats,697951886145610,PAPI_L3_TCM,29, 61.25079346,  5.77178955,end
timer_stats,697951887429165,PAPI_L3_TCM,10, 61.53192139,  5.79667663,end
timer_stats,697951888597842,PAPI_L3_TCM,9, 61.67700195,  5.81185913,end
timer_stats,697951889690977,PAPI_L3_TCM,1, 61.82250976,  5.82435608,end
timer_stats,697951890781825,PAPI_L3_TCM,2, 61.96020508,  5.83688354,end
timer_stats,697951891872208,PAPI_L3_TCM,1, 62.09326172,  5.84906006,end
timer_stats,697951892985102,PAPI_L3_TCM,2, 62.23559570,  5.86064148,end
timer_stats,697951894127633,PAPI_L3_TCM,25, 62.37121582,  5.87406921,end
timer_stats,697951895278714,PAPI_L3_TCM,31, 62.59155273,  5.89340210,end
timer_stats,697951896430681,PAPI_L3_TCM,3, 62.73492432,  5.90640259,end
timer_stats,697951897580839,PAPI_L3_TCM,6, 62.92858887,  5.92697143,end
timer_stats,697951898828394,PAPI_L3_TCM,4, 63.07635498,  5.94233704,end
timer_stats,697951899943304,PAPI_L3_TCM,6, 63.22662353,  5.95414734,end
timer_stats,697951901055784,PAPI_L3_TCM,5, 63.36724853,  5.96986389,end
timer_stats,697951902205441,PAPI_L3_TCM,3, 63.51690674,  5.98509216,end
timer_stats,697951903337599,PAPI_L3_TCM,2, 63.72930908,  6.00715637,end
timer_stats,697951904472769,PAPI_L3_TCM,5, 63.93487549,  6.02946472,end
timer_stats,697951905609510,PAPI_L3_TCM,5, 64.07604980,  6.04441833,end
timer_stats,697951906727954,PAPI_L3_TCM,7, 64.22497558,  6.05686951,end
timer_stats,697951907872231,PAPI_L3_TCM,3, 64.36096191,  6.06994629,end
timer_stats,697951908993452,PAPI_L3_TCM,6, 64.50665283,  6.08366394,end
timer_stats,697951910097706,PAPI_L3_TCM,2, 64.64379883,  6.09770203,end
timer_stats,697951911229590,PAPI_L3_TCM,6, 64.84729004,  6.11845398,end
timer_stats,697951912352887,PAPI_L3_TCM,6, 64.98956299,  6.13304138,end
timer_stats,697951913473204,PAPI_L3_TCM,7, 65.19512939,  6.15267944,end
timer_stats,697951914741105,PAPI_L3_TCM,19, 65.33636474,  6.16709900,end
timer_stats,697951915878186,PAPI_L3_TCM,15, 65.47369385,  6.18092346,end
timer_stats,697951917037483,PAPI_L3_TCM,2, 65.61224365,  6.19578552,end
timer_stats,697951918190687,PAPI_L3_TCM,16, 65.74951172,  6.21054077,end
timer_stats,697951919342231,PAPI_L3_TCM,5, 65.97149658,  6.23210144,end
timer_stats,697951920457979,PAPI_L3_TCM,15, 66.11053467,  6.24906921,end
timer_stats,697951921615229,PAPI_L3_TCM,7, 66.31823730,  6.26986694,end
timer_stats,697951922774940,PAPI_L3_TCM,12, 66.46228027,  6.28565979,end
timer_stats,697951923927107,PAPI_L3_TCM,4, 66.60186767,  6.30171204,end
timer_stats,697951925062051,PAPI_L3_TCM,33, 66.74157715,  6.31666565,end
timer_stats,697951926167434,PAPI_L3_TCM,10, 66.89709473,  6.33084106,end
timer_stats,697951927300642,PAPI_L3_TCM,14, 67.03125000,  6.34332275,end
timer_stats,697951928451709,PAPI_L3_TCM,4, 67.25482178,  6.36238098,end
timer_stats,697951929609683,PAPI_L3_TCM,2, 67.45971680,  6.38148498,end
timer_stats,697951930756040,PAPI_L3_TCM,0, 67.60321045,  6.39334106,end
timer_stats,697951931909378,PAPI_L3_TCM,3, 67.73846435,  6.40533447,end
timer_stats,697951933058835,PAPI_L3_TCM,0, 67.88140869,  6.41703796,end
timer_stats,697951934212219,PAPI_L3_TCM,7, 68.01574707,  6.42924499,end
timer_stats,697951935360640,PAPI_L3_TCM,0, 68.23937988,  6.44851685,end
timer_stats,697951936514247,PAPI_L3_TCM,3, 68.44122314,  6.46116638,end
timer_stats,697951937632901,PAPI_L3_TCM,13, 68.58428955,  6.47929382,end
timer_stats,697951938779535,PAPI_L3_TCM,10, 68.72503662,  6.49214172,end
timer_stats,697951939931305,PAPI_L3_TCM,82, 68.87402344,  6.50498962,end
timer_stats,697951941029410,PAPI_L3_TCM,15, 69.01715088,  6.52015686,end
timer_stats,697951942144730,PAPI_L3_TCM,10, 69.17242432,  6.53575134,end
timer_stats,697951943272294,PAPI_L3_TCM,13, 69.30566406,  6.54859924,end
timer_stats,697951944405811,PAPI_L3_TCM,13, 69.52697754,  6.57298279,end
timer_stats,697951945560642,PAPI_L3_TCM,3, 69.73498535,  6.59298706,end
timer_stats,697951946706729,PAPI_L3_TCM,2, 69.87304687,  6.60508728,end
timer_stats,697951947862019,PAPI_L3_TCM,1, 70.01873779,  6.61753845,end
timer_stats,697951949012880,PAPI_L3_TCM,3, 70.15545654,  6.63145447,end
timer_stats,697951950173494,PAPI_L3_TCM,4, 70.30511474,  6.64561462,end
timer_stats,697951951303141,PAPI_L3_TCM,21, 70.44287109,  6.65867615,end
timer_stats,697951952446185,PAPI_L3_TCM,15, 70.66052246,  6.67793274,end
timer_stats,697951953597603,PAPI_L3_TCM,5, 70.87463379,  6.69737244,end
timer_stats,697951954729387,PAPI_L3_TCM,0, 71.00640869,  6.70996094,end
timer_stats,697951955878581,PAPI_L3_TCM,2, 71.15087890,  6.72196960,end
timer_stats,697951957026875,PAPI_L3_TCM,2, 71.28613281,  6.73399353,end
timer_stats,697951958176955,PAPI_L3_TCM,2, 71.42687988,  6.74783325,end
timer_stats,697951959324246,PAPI_L3_TCM,8, 71.65167236,  6.76174927,end
timer_stats,697951960455107,PAPI_L3_TCM,5, 71.78948974,  6.78182983,end
timer_stats,697951961599291,PAPI_L3_TCM,5, 72.00140381,  6.80128479,end
timer_stats,697951962743798,PAPI_L3_TCM,0, 72.13299560,  6.81402588,end
timer_stats,697951963891105,PAPI_L3_TCM,2, 72.27716064,  6.82644653,end
timer_stats,697951965034153,PAPI_L3_TCM,1, 72.42242432,  6.84002685,end
timer_stats,697951966185030,PAPI_L3_TCM,6, 72.55981445,  6.85433960,end
timer_stats,697951967323507,PAPI_L3_TCM,4, 72.78198242,  6.87051392,end
timer_stats,697951968446608,PAPI_L3_TCM,14, 72.92675781,  6.89031982,end
timer_stats,697951973600316,PAPI_L3_TCM,263, 73.65521240,  6.96359253,end
timer_stats,697951974735646,PAPI_L3_TCM,86, 73.79541015,  6.97674560,end
timer_stats,697951975879130,PAPI_L3_TCM,1, 73.93572998,  6.99104309,end
timer_stats,697951977010817,PAPI_L3_TCM,5, 74.07977295,  7.00497436,end
timer_stats,697951978133951,PAPI_L3_TCM,39, 74.24182129,  7.02395630,end
timer_stats,697951979281992,PAPI_L3_TCM,31, 74.36883545,  7.04127502,end
timer_stats,697951980401076,PAPI_L3_TCM,10, 74.52777099,  7.05607605,end
timer_stats,697951981537516,PAPI_L3_TCM,7, 74.82226562,  7.07812500,end
timer_stats,697951982668704,PAPI_L3_TCM,14, 74.95733642,  7.09930420,end
timer_stats,697951983820128,PAPI_L3_TCM,11, 75.10327148,  7.11363220,end
timer_stats,697951984966488,PAPI_L3_TCM,4, 75.23864746,  7.12710571,end
timer_stats,697951986117319,PAPI_L3_TCM,4, 75.37304688,  7.14028931,end
timer_stats,697951987250696,PAPI_L3_TCM,4, 75.52471924,  7.15501404,end
timer_stats,697951988397687,PAPI_L3_TCM,3, 75.73431396,  7.17634582,end
timer_stats,697951989529784,PAPI_L3_TCM,6, 75.87609863,  7.19209289,end
timer_stats,697951990664618,PAPI_L3_TCM,7, 76.08331299,  7.21429443,end
timer_stats,697951991795159,PAPI_L3_TCM,6, 76.22216797,  7.22700500,end
timer_stats,697951992943956,PAPI_L3_TCM,6, 76.38531494,  7.24226379,end
timer_stats,697951994076650,PAPI_L3_TCM,1, 76.51391602,  7.25509643,end
timer_stats,697951995221684,PAPI_L3_TCM,3, 76.68011474,  7.27052307,end
timer_stats,697951996372172,PAPI_L3_TCM,3, 76.88079834,  7.29115295,end
timer_stats,697951997517072,PAPI_L3_TCM,3, 77.03442383,  7.30639648,end
timer_stats,697951998639960,PAPI_L3_TCM,9, 77.24505615,  7.32850647,end
timer_stats,697951999775137,PAPI_L3_TCM,11, 77.39355469,  7.34370422,end
timer_stats,697952000924434,PAPI_L3_TCM,2, 77.54199219,  7.35804748,end
timer_stats,697952002069742,PAPI_L3_TCM,8, 77.70153808,  7.37149048,end
timer_stats,697952003203246,PAPI_L3_TCM,3, 77.82873535,  7.38407898,end
timer_stats,697952004354400,PAPI_L3_TCM,13, 77.98675537,  7.39955139,end
timer_stats,697952005498087,PAPI_L3_TCM,6, 78.19030762,  7.42480469,end
timer_stats,697952006644018,PAPI_L3_TCM,12, 78.40704346,  7.44769287,end
timer_stats,697952007799075,PAPI_L3_TCM,1, 78.53625488,  7.46142578,end
timer_stats,697952008949979,PAPI_L3_TCM,3, 78.69165039,  7.47558594,end
timer_stats,697952010100943,PAPI_L3_TCM,0, 78.81970215,  7.48788452,end
timer_stats,697952011250773,PAPI_L3_TCM,30, 78.98040771,  7.50210571,end
timer_stats,697952012402804,PAPI_L3_TCM,6, 79.11688232,  7.51841736,end
timer_stats,697952013553171,PAPI_L3_TCM,5, 79.37377930,  7.54785156,end
timer_stats,697952014700001,PAPI_L3_TCM,13, 79.52313232,  7.56045532,end
timer_stats,697952015835699,PAPI_L3_TCM,6, 79.65618896,  7.56729126,end
timer_stats,697952016962583,PAPI_L3_TCM,4, 79.79840088,  7.58106995,end
timer_stats,697952018086647,PAPI_L3_TCM,8, 79.95300293,  7.59397888,end
timer_stats,697952019192144,PAPI_L3_TCM,10, 80.10321045,  7.60708618,end
timer_stats,697952020296301,PAPI_L3_TCM,27, 80.25848389,  7.62120056,end
timer_stats,697952021443595,PAPI_L3_TCM,17, 80.39739990,  7.63513184,end
timer_stats,697952022590993,PAPI_L3_TCM,4, 80.66998291,  7.66079712,end
timer_stats,697952023741523,PAPI_L3_TCM,0, 80.81848144,  7.67420959,end
timer_stats,697952024886347,PAPI_L3_TCM,3, 80.94482422,  7.68795776,end
timer_stats,697952026031465,PAPI_L3_TCM,4, 81.10302734,  7.70286560,end
timer_stats,697952027176209,PAPI_L3_TCM,5, 81.25366211,  7.71611023,end
timer_stats,697952028299463,PAPI_L3_TCM,1, 81.39495849,  7.73049927,end
timer_stats,697952029444963,PAPI_L3_TCM,6, 81.59417725,  7.75170898,end
timer_stats,697952030577056,PAPI_L3_TCM,2, 81.79974365,  7.76536560,end
timer_stats,697952031712467,PAPI_L3_TCM,7, 81.93627930,  7.78337097,end
timer_stats,697952032861868,PAPI_L3_TCM,2, 82.08947754,  7.79650879,end
timer_stats,697952033994108,PAPI_L3_TCM,2, 82.23034668,  7.81065369,end
timer_stats,697952035128709,PAPI_L3_TCM,3, 82.35363770,  7.82380676,end
timer_stats,697952036252173,PAPI_L3_TCM,15, 82.50183105,  7.83839416,end
timer_stats,697952037384464,PAPI_L3_TCM,11, 82.62646484,  7.85357666,end
timer_stats,697952038538238,PAPI_L3_TCM,2, 82.77478027,  7.86688232,end
timer_stats,697952039689855,PAPI_L3_TCM,0, 83.05633545,  7.89443970,end
timer_stats,697952040824239,PAPI_L3_TCM,12, 83.19152832,  7.90843201,end
timer_stats,697952041969040,PAPI_L3_TCM,7, 83.31262207,  7.92173767,end
timer_stats,697952043120964,PAPI_L3_TCM,1, 83.46459961,  7.93417358,end
timer_stats,697952044245441,PAPI_L3_TCM,3, 83.60089111,  7.94783020,end
timer_stats,697952045377245,PAPI_L3_TCM,7, 83.72937012,  7.96199036,end
timer_stats,697952046511602,PAPI_L3_TCM,4, 83.88000488,  7.97550964,end
timer_stats,697952047658180,PAPI_L3_TCM,2, 84.14520264,  8.00421142,end
timer_stats,697952048803510,PAPI_L3_TCM,11, 84.30145264,  8.01979065,end
timer_stats,697952049961568,PAPI_L3_TCM,7, 84.44128418,  8.03366089,end
timer_stats,697952051093404,PAPI_L3_TCM,8, 84.59210205,  8.04672241,end
timer_stats,697952052199071,PAPI_L3_TCM,10, 84.71746826,  8.06221008,end
timer_stats,697952053337835,PAPI_L3_TCM,17, 84.86901855,  8.07514953,end
timer_stats,697952054474343,PAPI_L3_TCM,8, 85.00256348,  8.08973694,end
timer_stats,697952055610730,PAPI_L3_TCM,15, 85.20690918,  8.10897827,end
timer_stats,697952056745417,PAPI_L3_TCM,5, 85.41711426,  8.12985229,end
timer_stats,697952057880605,PAPI_L3_TCM,3, 85.55456543,  8.14385986,end
timer_stats,697952059030342,PAPI_L3_TCM,0, 85.69641113,  8.15780639,end
timer_stats,697952060176496,PAPI_L3_TCM,1, 85.83453369,  8.17172241,end
timer_stats,697952061309163,PAPI_L3_TCM,4, 85.96838379,  8.18615723,end
timer_stats,697952062441314,PAPI_L3_TCM,0, 86.11444092,  8.20104980,end
timer_stats,697952063591651,PAPI_L3_TCM,25, 86.38415527,  8.23133850,end
timer_stats,697952064741319,PAPI_L3_TCM,12, 86.52648926,  8.24464416,end
timer_stats,697952065888429,PAPI_L3_TCM,5, 86.65905762,  8.25778198,end
timer_stats,697952067019637,PAPI_L3_TCM,4, 86.79681396,  8.27388000,end
timer_stats,697952068166411,PAPI_L3_TCM,1, 86.94128418,  8.29104614,end
timer_stats,697952069296951,PAPI_L3_TCM,16, 87.08831787,  8.30397034,end
timer_stats,697952070411214,PAPI_L3_TCM,14, 87.22485351,  8.32212830,end
timer_stats,697952071542648,PAPI_L3_TCM,1, 87.44659424,  8.33723450,end
timer_stats,697952072671966,PAPI_L3_TCM,7, 87.65557861,  8.35964966,end
timer_stats,697952073802606,PAPI_L3_TCM,10, 87.78204346,  8.38229370,end
timer_stats,697952074935230,PAPI_L3_TCM,22, 87.92565918,  8.39868164,end
timer_stats,697952076066424,PAPI_L3_TCM,5, 88.05725098,  8.41320801,end
timer_stats,697952077199448,PAPI_L3_TCM,3, 88.21185303,  8.42863464,end
timer_stats,697952078329099,PAPI_L3_TCM,5, 88.35028076,  8.44317627,end
timer_stats,697952079464920,PAPI_L3_TCM,1, 88.47052002,  8.45948791,end
timer_stats,697952080598574,PAPI_L3_TCM,5, 88.61822510,  8.47361755,end
timer_stats,697952081728561,PAPI_L3_TCM,9, 88.90710449,  8.50227356,end
timer_stats,697952082878508,PAPI_L3_TCM,5, 89.05566406,  8.51611328,end
timer_stats,697952084029412,PAPI_L3_TCM,4, 89.18438721,  8.52932739,end
timer_stats,697952085161746,PAPI_L3_TCM,0, 89.33587646,  8.54173279,end
timer_stats,697952086308226,PAPI_L3_TCM,6, 89.47192383,  8.55545044,end
timer_stats,697952087457863,PAPI_L3_TCM,1, 89.62298584,  8.56837463,end
timer_stats,697952088597704,PAPI_L3_TCM,2, 89.81713867,  8.58453369,end
timer_stats,697952089745615,PAPI_L3_TCM,0, 90.02801514,  8.60211182,end
timer_stats,697952090889665,PAPI_L3_TCM,3, 90.16821289,  8.61390686,end
timer_stats,697952092048029,PAPI_L3_TCM,1, 90.31164551,  8.62568665,end
timer_stats,697952093179427,PAPI_L3_TCM,2, 90.45391846,  8.63789368,end
timer_stats,697952094332684,PAPI_L3_TCM,0, 90.59161377,  8.65011597,end
timer_stats,697952095485721,PAPI_L3_TCM,0, 90.72857666,  8.66230774,end
timer_stats,697952096640682,PAPI_L3_TCM,0, 90.94842529,  8.68084717,end
timer_stats,697952097804809,PAPI_L3_TCM,2, 91.14721680,  8.69798279,end
timer_stats,697952098947947,PAPI_L3_TCM,0, 91.28204346,  8.70989990,end
timer_stats,697952100098551,PAPI_L3_TCM,4, 91.42474365,  8.72142029,end
timer_stats,697952101231538,PAPI_L3_TCM,2, 91.56829834,  8.73225403,end
timer_stats,697952102378412,PAPI_L3_TCM,2, 91.70886230,  8.74357605,end
timer_stats,697952103523566,PAPI_L3_TCM,0, 91.84777832,  8.75587463,end
timer_stats,697952104672697,PAPI_L3_TCM,2, 92.12445068,  8.77876282,end
timer_stats,697952105823381,PAPI_L3_TCM,0, 92.26617432,  8.79208374,end
timer_stats,697952106968121,PAPI_L3_TCM,7, 92.40521240,  8.80575562,end
timer_stats,697952108120292,PAPI_L3_TCM,10, 92.54302979,  8.81851196,end
timer_stats,697952109252736,PAPI_L3_TCM,9, 92.68920898,  8.83241272,end
timer_stats,697952110404130,PAPI_L3_TCM,3, 92.82702637,  8.84584045,end
timer_stats,697952111550914,PAPI_L3_TCM,5, 93.02825928,  8.86772156,end
timer_stats,697952112700835,PAPI_L3_TCM,0, 93.22937012,  8.88804626,end
timer_stats,697952113852355,PAPI_L3_TCM,1, 93.36230469,  8.90339661,end
timer_stats,697952115003616,PAPI_L3_TCM,0, 93.49780273,  8.91671753,end
timer_stats,697952116150240,PAPI_L3_TCM,1, 93.64422607,  8.93048096,end
timer_stats,697952117282637,PAPI_L3_TCM,0, 93.78247070,  8.94328308,end
timer_stats,697952118430168,PAPI_L3_TCM,3, 93.92230225,  8.95777893,end
timer_stats,697952119577695,PAPI_L3_TCM,0, 94.05969238,  8.97006226,end
timer_stats,697952120728019,PAPI_L3_TCM,11, 94.34497070,  8.99514770,end
timer_stats,697952121873820,PAPI_L3_TCM,0, 94.47503662,  9.00790405,end
timer_stats,697952123017921,PAPI_L3_TCM,5, 94.62054443,  9.02027893,end
timer_stats,697952124165038,PAPI_L3_TCM,8, 94.75311279,  9.03396606,end
timer_stats,697952125298818,PAPI_L3_TCM,6, 94.90185547,  9.04660034,end
timer_stats,697952126449782,PAPI_L3_TCM,1, 95.03961182,  9.06140137,end
timer_stats,697952127599042,PAPI_L3_TCM,3, 95.24566650,  9.07267761,end
timer_stats,697952128755746,PAPI_L3_TCM,1, 95.44140625,  9.09820557,end
timer_stats,697952129906060,PAPI_L3_TCM,4, 95.57629394,  9.11125183,end
timer_stats,697952131074038,PAPI_L3_TCM,1, 95.71936035,  9.12409973,end
timer_stats,697952132228972,PAPI_L3_TCM,3, 95.86431885,  9.13700867,end
timer_stats,697952133361372,PAPI_L3_TCM,5, 95.99926758,  9.14891052,end
timer_stats,697952134514963,PAPI_L3_TCM,3, 96.13012695,  9.16070557,end
timer_stats,697952135687654,PAPI_L3_TCM,0, 96.38684082,  9.18244934,end
timer_stats,697952136839051,PAPI_L3_TCM,3, 96.52215576,  9.19424438,end
timer_stats,697952137983962,PAPI_L3_TCM,0, 96.66461182,  9.20600891,end
timer_stats,697952139128716,PAPI_L3_TCM,3, 96.80572510,  9.21748352,end
timer_stats,697952140281333,PAPI_L3_TCM,3, 96.94445801,  9.22944641,end
timer_stats,697952141416917,PAPI_L3_TCM,0, 97.08880615,  9.24090576,end
timer_stats,697952142570594,PAPI_L3_TCM,0, 97.29583740,  9.25790405,end
timer_stats,697952143721348,PAPI_L3_TCM,4, 97.49884033,  9.27673340,end
timer_stats,697952144872569,PAPI_L3_TCM,2, 97.64294433,  9.28863525,end
timer_stats,697952146019720,PAPI_L3_TCM,4, 97.78033447,  9.30009460,end
timer_stats,697952147164907,PAPI_L3_TCM,4, 97.93157959,  9.31195068,end
timer_stats,697952148312581,PAPI_L3_TCM,3, 98.07012939,  9.32347107,end
timer_stats,697952149447212,PAPI_L3_TCM,0, 98.20806885,  9.33491516,end
timer_stats,697952150594872,PAPI_L3_TCM,5, 98.35986328,  9.34628296,end
timer_stats,697952151745556,PAPI_L3_TCM,0, 98.63372803,  9.37080383,end
timer_stats,697952152943074,PAPI_L3_TCM,8, 98.77453613,  9.38212585,end
timer_stats,697952154096988,PAPI_L3_TCM,0, 98.90844727,  9.39323425,end
timer_stats,697952155248422,PAPI_L3_TCM,3, 99.05200195,  9.40505981,end
timer_stats,697952156396346,PAPI_L3_TCM,1, 99.19470215,  9.41638183,end
timer_stats,697952157546410,PAPI_L3_TCM,4, 99.33624267,  9.42762756,end
timer_stats,697952158699287,PAPI_L3_TCM,0, 99.53869629,  9.44410705,end
timer_stats,697952159848854,PAPI_L3_TCM,2, 99.73919678,  9.46119690,end
timer_stats,697952160994732,PAPI_L3_TCM,5, 99.86688232,  9.47206116,end
timer_stats,697952162165372,PAPI_L3_TCM,0,100.00012207,  9.48434448,end
timer_stats,697952163316276,PAPI_L3_TCM,0,100.13580322,  9.49449158,end
timer_stats,697952164481120,PAPI_L3_TCM,7,100.27172852,  9.50663757,end
timer_stats,697952165631224,PAPI_L3_TCM,3,100.47760010,  9.52441406,end
timer_stats,697952166782068,PAPI_L3_TCM,4,100.67175293,  9.54225159,end
timer_stats,697952167938046,PAPI_L3_TCM,0,100.81286621,  9.55302429,end
timer_stats,697952169082906,PAPI_L3_TCM,1,100.94470215,  9.56674194,end
timer_stats,697952170233547,PAPI_L3_TCM,0,101.07904053,  9.57846069,end
timer_stats,697952171378881,PAPI_L3_TCM,1,101.21258545,  9.59049988,end
timer_stats,697952172532145,PAPI_L3_TCM,0,101.35040283,  9.60255432,end
timer_stats,697952173682216,PAPI_L3_TCM,3,101.55706787,  9.61946106,end
timer_stats,697952174830560,PAPI_L3_TCM,0,101.74450683,  9.63595581,end
timer_stats,697952175979980,PAPI_L3_TCM,2,101.87786865,  9.64732361,end
timer_stats,697952177137881,PAPI_L3_TCM,1,102.01843262,  9.65977478,end
timer_stats,697952178291328,PAPI_L3_TCM,0,102.15063476,  9.67210388,end
timer_stats,697952179437469,PAPI_L3_TCM,2,102.29266357,  9.68435669,end
timer_stats,697952180586536,PAPI_L3_TCM,1,102.49700928,  9.70135498,end
timer_stats,697952181736487,PAPI_L3_TCM,1,102.63262939,  9.71269226,end
timer_stats,697952182882708,PAPI_L3_TCM,3,102.83447265,  9.73007202,end
timer_stats,697952184030365,PAPI_L3_TCM,10,102.97283936,  9.74357605,end
timer_stats,697952185161246,PAPI_L3_TCM,3,103.11456299,  9.75854492,end
timer_stats,697952186318130,PAPI_L3_TCM,0,103.24047851,  9.77192688,end
timer_stats,697952187469470,PAPI_L3_TCM,5,103.37347412,  9.78474426,end
timer_stats,697952188624244,PAPI_L3_TCM,2,103.57495117,  9.80348205,end
timer_stats,697952189773428,PAPI_L3_TCM,2,103.76281738,  9.82341003,end
timer_stats,697952190919189,PAPI_L3_TCM,2,103.90625000,  9.83744812,end
timer_stats,697952192071246,PAPI_L3_TCM,5,104.03625488,  9.84931946,end
timer_stats,697952193202157,PAPI_L3_TCM,0,104.18084717,  9.86166382,end
timer_stats,697952194349008,PAPI_L3_TCM,2,104.31457519,  9.87350464,end
timer_stats,697952195516868,PAPI_L3_TCM,2,104.45465088,  9.88494873,end
timer_stats,697952196661812,PAPI_L3_TCM,0,104.66741943,  9.90466308,end
timer_stats,697952197810013,PAPI_L3_TCM,2,104.85522461,  9.91616821,end
timer_stats,697952198955154,PAPI_L3_TCM,1,104.99688721,  9.93302917,end
timer_stats,697952200099938,PAPI_L3_TCM,0,105.13128662,  9.94624328,end
timer_stats,697952201232048,PAPI_L3_TCM,3,105.27886963,  9.95820618,end
timer_stats,697952202378859,PAPI_L3_TCM,0,105.42224121,  9.97114563,end
timer_stats,697952203515120,PAPI_L3_TCM,2,105.56573486,  9.98420715,end
timer_stats,697952204664417,PAPI_L3_TCM,6,105.71606445,  9.99674988,end
timer_stats,697952205795778,PAPI_L3_TCM,10,105.99786377, 10.01998901,end
timer_stats,697952206943195,PAPI_L3_TCM,4,106.14221191, 10.03222656,end
timer_stats,697952208074806,PAPI_L3_TCM,5,106.28076172, 10.04396057,end
timer_stats,697952209209203,PAPI_L3_TCM,2,106.43133545, 10.05804443,end
timer_stats,697952210357960,PAPI_L3_TCM,3,106.56561279, 10.07096863,end
timer_stats,697952211492994,PAPI_L3_TCM,0,106.71264648, 10.08282471,end
timer_stats,697952212637724,PAPI_L3_TCM,4,106.86566162, 10.09320068,end
timer_stats,697952213786245,PAPI_L3_TCM,2,107.08465576, 10.11083984,end
timer_stats,697952214934979,PAPI_L3_TCM,0,107.28533936, 10.13018799,end
timer_stats,697952216102936,PAPI_L3_TCM,2,107.42230224, 10.14328003,end
timer_stats,697952217237933,PAPI_L3_TCM,1,107.55340576, 10.15481567,end
timer_stats,697952218411638,PAPI_L3_TCM,0,107.68237305, 10.16699219,end
timer_stats,697952219569345,PAPI_L3_TCM,3,107.82092285, 10.17893982,end
timer_stats,697952220737019,PAPI_L3_TCM,0,108.02117920, 10.19827270,end
timer_stats,697952221891743,PAPI_L3_TCM,2,108.21734619, 10.21493530,end
timer_stats,697952223052714,PAPI_L3_TCM,4,108.36016846, 10.22048950,end
timer_stats,697952224203205,PAPI_L3_TCM,1,108.48529053, 10.23143005,end
timer_stats,697952225335645,PAPI_L3_TCM,0,108.62231445, 10.24209595,end
timer_stats,697952226503946,PAPI_L3_TCM,9,108.75622558, 10.25326538,end
timer_stats,697952227677220,PAPI_L3_TCM,7,108.95190430, 10.26507568,end
timer_stats,697952228842608,PAPI_L3_TCM,3,109.14154053, 10.28898621,end
timer_stats,697952230016118,PAPI_L3_TCM,2,109.27136230, 10.30175781,end
timer_stats,697952231188846,PAPI_L3_TCM,2,109.40570068, 10.31333923,end
timer_stats,697952232337543,PAPI_L3_TCM,0,109.52862549, 10.32408142,end
timer_stats,697952233498844,PAPI_L3_TCM,0,109.66467285, 10.33476257,end
timer_stats,697952234670454,PAPI_L3_TCM,2,109.85028076, 10.35182190,end
timer_stats,697952235843085,PAPI_L3_TCM,1,110.02661133, 10.36741638,end
timer_stats,697952236990569,PAPI_L3_TCM,2,110.14483642, 10.37794494,end
timer_stats,697952238151366,PAPI_L3_TCM,5,110.26397705, 10.38909912,end
timer_stats,697952239304750,PAPI_L3_TCM,0,110.38623047, 10.40283203,end
timer_stats,697952240465748,PAPI_L3_TCM,3,110.50878906, 10.41632080,end
timer_stats,697952241626518,PAPI_L3_TCM,0,110.63153076, 10.42857361,end
timer_stats,697952242765289,PAPI_L3_TCM,2,110.87768555, 10.45378113,end
timer_stats,697952243926046,PAPI_L3_TCM,0,111.00268555, 10.46604919,end
timer_stats,697952245079360,PAPI_L3_TCM,1,111.12731933, 10.47755432,end
timer_stats,697952246239491,PAPI_L3_TCM,1,111.24365234, 10.49169922,end
timer_stats,697952247394202,PAPI_L3_TCM,5,111.36297607, 10.50434875,end
timer_stats,697952248543932,PAPI_L3_TCM,9,111.48748779, 10.51600647,end
timer_stats,697952249677953,PAPI_L3_TCM,10,111.61254883, 10.52781677,end
timer_stats,697952250816990,PAPI_L3_TCM,1,111.80352783, 10.54463196,end
timer_stats,697952251974911,PAPI_L3_TCM,2,111.96746826, 10.56138611,end
timer_stats,697952253141515,PAPI_L3_TCM,0,112.08441162, 10.57273865,end
timer_stats,697952254300886,PAPI_L3_TCM,1,112.20294189, 10.58390808,end
timer_stats,697952255458770,PAPI_L3_TCM,0,112.32122803, 10.59645080,end
timer_stats,697952256619244,PAPI_L3_TCM,7,112.44360352, 10.60723877,end
timer_stats,697952257775314,PAPI_L3_TCM,0,112.68267822, 10.62905884,end
timer_stats,697952258942925,PAPI_L3_TCM,2,112.81372070, 10.64021301,end
timer_stats,697952260078482,PAPI_L3_TCM,0,112.95367432, 10.65193176,end
timer_stats,697952261209510,PAPI_L3_TCM,0,113.07489014, 10.66383362,end
timer_stats,697952262340700,PAPI_L3_TCM,0,113.21228027, 10.67724609,end
timer_stats,697952263476594,PAPI_L3_TCM,1,113.34417725, 10.68942261,end
timer_stats,697952264588954,PAPI_L3_TCM,4,113.47949219, 10.70150757,end
timer_stats,697952265725008,PAPI_L3_TCM,13,113.68762207, 10.71260071,end
timer_stats,697952266857695,PAPI_L3_TCM,0,113.87622070, 10.73545837,end
timer_stats,697952267989136,PAPI_L3_TCM,3,114.00817871, 10.74630737,end
timer_stats,697952269132993,PAPI_L3_TCM,0,114.14575195, 10.75720215,end
timer_stats,697952270262874,PAPI_L3_TCM,0,114.28839111, 10.76922607,end
timer_stats,697952271394665,PAPI_L3_TCM,0,114.41998291, 10.77967834,end
timer_stats,697952272531249,PAPI_L3_TCM,1,114.54718017, 10.79063415,end
timer_stats,697952273684289,PAPI_L3_TCM,3,114.68450928, 10.80174255,end
timer_stats,697952274832777,PAPI_L3_TCM,4,114.94274902, 10.82408142,end
timer_stats,697952275985837,PAPI_L3_TCM,2,115.07281494, 10.83462524,end
timer_stats,697952277136828,PAPI_L3_TCM,2,115.20800781, 10.84837341,end
timer_stats,697952278287115,PAPI_L3_TCM,0,115.33648682, 10.85847473,end
timer_stats,697952279442329,PAPI_L3_TCM,0,115.45898437, 10.87065124,end
timer_stats,697952280594067,PAPI_L3_TCM,2,115.57995605, 10.88125610,end
timer_stats,697952281760024,PAPI_L3_TCM,6,115.77209473, 10.89849853,end
timer_stats,697952282910635,PAPI_L3_TCM,0,115.94128418, 10.91455078,end
timer_stats,697952284071412,PAPI_L3_TCM,3,116.05432129, 10.92543030,end
timer_stats,697952285202473,PAPI_L3_TCM,0,116.17987061, 10.93586731,end
timer_stats,697952286353070,PAPI_L3_TCM,2,116.29913330, 10.94639587,end
timer_stats,697952287501011,PAPI_L3_TCM,0,116.40777588, 10.95697021,end
timer_stats,697952288639638,PAPI_L3_TCM,0,116.53051758, 10.96722412,end
timer_stats,697952289792479,PAPI_L3_TCM,0,116.75775146, 10.98291016,end
timer_stats,697952290945956,PAPI_L3_TCM,1,116.87750244, 10.99972534,end
timer_stats,697952292112907,PAPI_L3_TCM,3,116.98883057, 11.01022339,end
timer_stats,697952293247987,PAPI_L3_TCM,4,117.09869385, 11.02053833,end
timer_stats,697952294418775,PAPI_L3_TCM,1,117.21057129, 11.03082275,end
timer_stats,697952295572952,PAPI_L3_TCM,3,117.32049561, 11.04132080,end
timer_stats,697952296741219,PAPI_L3_TCM,1,117.42938232, 11.05163574,end
timer_stats,697952297911223,PAPI_L3_TCM,0,117.64874267, 11.07241821,end
timer_stats,697952299092981,PAPI_L3_TCM,0,117.75927734, 11.08340454,end
timer_stats,697952300263168,PAPI_L3_TCM,1,117.87054443, 11.09393310,end
timer_stats,697952301404309,PAPI_L3_TCM,0,117.97778320, 11.10421753,end
timer_stats,697952302591503,PAPI_L3_TCM,3,118.08850098, 11.11445618,end
timer_stats,697952303773930,PAPI_L3_TCM,0,118.24328613, 11.13017273,end
timer_stats,697952304949431,PAPI_L3_TCM,3,118.39770508, 11.14538574,end
timer_stats,697952306133448,PAPI_L3_TCM,1,118.50311279, 11.15591431,end
timer_stats,697952307323059,PAPI_L3_TCM,0,118.60510254, 11.16690063,end
timer_stats,697952308495906,PAPI_L3_TCM,1,118.70983887, 11.17813110,end
timer_stats,697952309686444,PAPI_L3_TCM,1,118.81146240, 11.18923950,end
timer_stats,697952310881435,PAPI_L3_TCM,1,119.02264404, 11.21060181,end
timer_stats,697952312083446,PAPI_L3_TCM,4,119.11895752, 11.22109985,end
timer_stats,697952313219013,PAPI_L3_TCM,0,119.21917724, 11.23181152,end
timer_stats,697952314404490,PAPI_L3_TCM,2,119.31799316, 11.24188232,end
timer_stats,697952315568604,PAPI_L3_TCM,0,119.41876221, 11.25195312,end
timer_stats,697952316745518,PAPI_L3_TCM,0,119.56439209, 11.26751709,end
timer_stats,697952317928066,PAPI_L3_TCM,0,119.70910644, 11.28143310,end
timer_stats,697952319112956,PAPI_L3_TCM,1,119.80187988, 11.29177856,end
timer_stats,697952320293950,PAPI_L3_TCM,0,119.90234375, 11.30181885,end
timer_stats,697952321475628,PAPI_L3_TCM,4,120.00146484, 11.31213379,end
timer_stats,697952322668809,PAPI_L3_TCM,0,120.09820557, 11.32043457,end
timer_stats,697952323851907,PAPI_L3_TCM,2,120.28680420, 11.33441162,end
timer_stats,697952325022851,PAPI_L3_TCM,0,120.38818359, 11.34812927,end
timer_stats,697952326201255,PAPI_L3_TCM,0,120.48193359, 11.35813904,end
timer_stats,697952327391915,PAPI_L3_TCM,0,120.57330322, 11.36869812,end
timer_stats,697952328583653,PAPI_L3_TCM,1,120.67205810, 11.37791443,end
timer_stats,697952329772157,PAPI_L3_TCM,0,120.81976318, 11.38873291,end
timer_stats,697952330957964,PAPI_L3_TCM,3,120.95397949, 11.40954590,end
timer_stats,697952332146055,PAPI_L3_TCM,1,121.04907227, 11.42004394,end
timer_stats,697952333305992,PAPI_L3_TCM,2,121.14337158, 11.42926025,end
timer_stats,697952334499070,PAPI_L3_TCM,0,121.23852539, 11.43902588,end
timer_stats,697952335686251,PAPI_L3_TCM,0,121.33056641, 11.44934082,end
timer_stats,697952336873342,PAPI_L3_TCM,0,121.48413086, 11.46450806,end
timer_stats,697952338060096,PAPI_L3_TCM,1,121.61376953, 11.47848511,end
timer_stats,697952339236513,PAPI_L3_TCM,0,121.70709228, 11.48881531,end
timer_stats,697952340429617,PAPI_L3_TCM,3,121.79949951, 11.49760437,end
timer_stats,697952341624908,PAPI_L3_TCM,0,121.89471435, 11.50764465,end
timer_stats,697952342811915,PAPI_L3_TCM,2,122.03662109, 11.52162170,end
timer_stats,697952344019872,PAPI_L3_TCM,1,122.16632080, 11.53457642,end
timer_stats,697952345192300,PAPI_L3_TCM,3,122.26519775, 11.54309082,end
timer_stats,697952346379828,PAPI_L3_TCM,0,122.35076904, 11.55322266,end
timer_stats,697952347567192,PAPI_L3_TCM,1,122.44354248, 11.56353760,end
timer_stats,697952348753979,PAPI_L3_TCM,0,122.58966064, 11.57383728,end
timer_stats,697952349945287,PAPI_L3_TCM,3,122.71826172, 11.59465027,end
timer_stats,697952351127557,PAPI_L3_TCM,0,122.80926514, 11.60493469,end
timer_stats,697952352319725,PAPI_L3_TCM,3,122.89343262, 11.61354065,end
timer_stats,697952353483855,PAPI_L3_TCM,0,122.97674560, 11.62236023,end
timer_stats,697952354667986,PAPI_L3_TCM,0,123.06335449, 11.63093567,end
timer_stats,697952355854127,PAPI_L3_TCM,0,123.19744873, 11.64640808,end
timer_stats,697952357053455,PAPI_L3_TCM,1,123.31896973, 11.66191101,end
timer_stats,697952358268572,PAPI_L3_TCM,0,123.40783691, 11.67039490,end
timer_stats,697952359454346,PAPI_L3_TCM,3,123.48925781, 11.67921448,end
timer_stats,697952360641474,PAPI_L3_TCM,0,123.57189941, 11.68797302,end
timer_stats,697952361824534,PAPI_L3_TCM,2,123.65509033, 11.69679260,end
timer_stats,697952363003239,PAPI_L3_TCM,0,123.82421875, 11.71434021,end
timer_stats,697952364168380,PAPI_L3_TCM,0,123.91540527, 11.72526550,end
timer_stats,697952365352957,PAPI_L3_TCM,0,124.00421142, 11.73580932,end
timer_stats,697952366541725,PAPI_L3_TCM,1,124.09124756, 11.74636841,end
timer_stats,697952379599508,PAPI_L3_TCM,348,125.51336670, 11.92645264,end
timer_stats,697952380726947,PAPI_L3_TCM,129,125.61077881, 11.93923950,end
timer_stats,697952381887164,PAPI_L3_TCM,1,125.76361084, 11.95443726,end
timer_stats,697952383043267,PAPI_L3_TCM,4,125.89105224, 11.96884155,end
timer_stats,697952384222434,PAPI_L3_TCM,0,125.98925781, 11.97909546,end
timer_stats,697952385373102,PAPI_L3_TCM,0,126.08068848, 11.98983765,end
timer_stats,697952386512898,PAPI_L3_TCM,0,126.18017578, 12.00076294,end
timer_stats,697952387684528,PAPI_L3_TCM,1,126.27929687, 12.01193237,end
timer_stats,697952388827317,PAPI_L3_TCM,0,126.43554687, 12.02842712,end
timer_stats,697952389978836,PAPI_L3_TCM,3,126.56658935, 12.04408264,end
timer_stats,697952391136682,PAPI_L3_TCM,0,126.66033936, 12.05458069,end
timer_stats,697952392282030,PAPI_L3_TCM,2,126.75738525, 12.06459045,end
timer_stats,697952393407976,PAPI_L3_TCM,1,126.85559082, 12.07487488,end
timer_stats,697952394562092,PAPI_L3_TCM,0,126.95135498, 12.08494568,end
timer_stats,697952395714246,PAPI_L3_TCM,0,127.04913330, 12.09544372,end
timer_stats,697952396852519,PAPI_L3_TCM,1,127.15173340, 12.10569763,end
timer_stats,697952398009467,PAPI_L3_TCM,1,127.33782959, 12.12632751,end
timer_stats,697952399160111,PAPI_L3_TCM,3,127.43505859, 12.13659668,end
timer_stats,697952400319401,PAPI_L3_TCM,0,127.53015137, 12.14691162,end
timer_stats,697952401450407,PAPI_L3_TCM,2,127.62304687, 12.15698242,end
timer_stats,697952402609415,PAPI_L3_TCM,0,127.71185303, 12.16729736,end
timer_stats,697952403760255,PAPI_L3_TCM,0,127.80554199, 12.17758179,end
timer_stats,697952404915171,PAPI_L3_TCM,0,127.95410156, 12.19409180,end
timer_stats,697952406057244,PAPI_L3_TCM,1,128.08044434, 12.21066284,end
timer_stats,697952407210469,PAPI_L3_TCM,0,128.17401123, 12.22116089,end
timer_stats,697952408360589,PAPI_L3_TCM,3,128.26409912, 12.23121643,end
timer_stats,697952409527423,PAPI_L3_TCM,0,128.35180664, 12.24000549,end
timer_stats,697952410673150,PAPI_L3_TCM,2,128.44525146, 12.24952698,end
timer_stats,697952411831743,PAPI_L3_TCM,0,128.57916260, 12.26391601,end
timer_stats,697952412983467,PAPI_L3_TCM,0,128.70245361, 12.27627563,end
timer_stats,697952414126702,PAPI_L3_TCM,0,128.78771972, 12.28524780,end
timer_stats,697952415265396,PAPI_L3_TCM,1,128.86517334, 12.29408264,end
timer_stats,697952416416392,PAPI_L3_TCM,0,128.94708252, 12.30308533,end
timer_stats,697952417579437,PAPI_L3_TCM,3,129.03442383, 12.31181335,end
timer_stats,697952418721235,PAPI_L3_TCM,0,129.11322021, 12.32092285,end
timer_stats,697952419862703,PAPI_L3_TCM,2,129.24554443, 12.33219910,end
timer_stats,697952421008872,PAPI_L3_TCM,0,129.36145019, 12.34730530,end
timer_stats,697952422147354,PAPI_L3_TCM,0,129.44171142, 12.35633850,end
timer_stats,697952423299986,PAPI_L3_TCM,0,129.52618408, 12.36485290,end
timer_stats,697952424455919,PAPI_L3_TCM,1,129.60626221, 12.37702942,end
timer_stats,697952425606842,PAPI_L3_TCM,0,129.68835449, 12.38720703,end
timer_stats,697952426757386,PAPI_L3_TCM,3,129.76593017, 12.39672851,end
timer_stats,697952427912187,PAPI_L3_TCM,0,129.84729004, 12.40570068,end
timer_stats,697952429061595,PAPI_L3_TCM,2,130.01013184, 12.42518616,end
timer_stats,697952430214706,PAPI_L3_TCM,0,130.09130859, 12.43373108,end
timer_stats,697952431339108,PAPI_L3_TCM,0,130.17077637, 12.44253540,end
timer_stats,697952432491768,PAPI_L3_TCM,1,130.25683594, 12.45225525,end
timer_stats,697952433644946,PAPI_L3_TCM,1,130.33917236, 12.46151733,end
timer_stats,697952434782082,PAPI_L3_TCM,3,130.41833496, 12.47102356,end
timer_stats,697952435934111,PAPI_L3_TCM,3,130.55767822, 12.48683166,end
timer_stats,697952437101619,PAPI_L3_TCM,0,130.66564941, 12.50263977,end
timer_stats,697952438238473,PAPI_L3_TCM,2,130.74890137, 12.51228332,end
timer_stats,697952439378695,PAPI_L3_TCM,0,130.82800293, 12.52198791,end
timer_stats,697952440534699,PAPI_L3_TCM,0,130.91247559, 12.53137207,end
timer_stats,697952441689751,PAPI_L3_TCM,1,130.99426269, 12.54106140,end
timer_stats,697952442829050,PAPI_L3_TCM,1,131.07751465, 12.55210876,end
timer_stats,697952443966874,PAPI_L3_TCM,0,131.24212646, 12.57107544,end
timer_stats,697952445138461,PAPI_L3_TCM,3,131.33068848, 12.58200073,end
timer_stats,697952446284887,PAPI_L3_TCM,0,131.41436767, 12.59161377,end
timer_stats,697952447441659,PAPI_L3_TCM,3,131.49725342, 12.60104370,end
timer_stats,697952448600329,PAPI_L3_TCM,0,131.57641601, 12.61080932,end
timer_stats,697952449754863,PAPI_L3_TCM,0,131.65594482, 12.62033081,end
timer_stats,697952450901398,PAPI_L3_TCM,0,131.79144287, 12.63446045,end
timer_stats,697952452051436,PAPI_L3_TCM,1,131.90142822, 12.64807129,end
timer_stats,697952453170421,PAPI_L3_TCM,0,131.98937988, 12.65808105,end
timer_stats,697952454331966,PAPI_L3_TCM,3,132.06823730, 12.66690063,end
timer_stats,697952455495616,PAPI_L3_TCM,0,132.15197754, 12.67590332,end
timer_stats,697952456656816,PAPI_L3_TCM,3,132.23126221, 12.68521118,end
timer_stats,697952457812746,PAPI_L3_TCM,0,132.31335449, 12.69598389,end
timer_stats,697952458929446,PAPI_L3_TCM,0,132.40350342, 12.70690918,end
timer_stats,697952460059980,PAPI_L3_TCM,1,132.54449463, 12.72390747,end
timer_stats,697952461162985,PAPI_L3_TCM,1,132.66296387, 12.73770142,end
timer_stats,697952462296271,PAPI_L3_TCM,0,132.74932861, 12.74717712,end
timer_stats,697952463427421,PAPI_L3_TCM,3,132.83044434, 12.75668335,end
timer_stats,697952464561624,PAPI_L3_TCM,1,132.92010498, 12.76632690,end
timer_stats,697952465692850,PAPI_L3_TCM,2,133.00207520, 12.77587891,end
timer_stats,697952466808997,PAPI_L3_TCM,0,133.09613037, 12.78503418,end
timer_stats,697952467924874,PAPI_L3_TCM,1,133.18371582, 12.79699707,end
timer_stats,697952469055656,PAPI_L3_TCM,0,133.37286377, 12.82011414,end
timer_stats,697952470172333,PAPI_L3_TCM,1,133.47381592, 12.83210754,end
timer_stats,697952471288770,PAPI_L3_TCM,0,133.56115722, 12.84254455,end
timer_stats,697952472405525,PAPI_L3_TCM,3,133.64819336, 12.85102844,end
timer_stats,697952473537765,PAPI_L3_TCM,0,133.74914551, 12.86018371,end
timer_stats,697952474654634,PAPI_L3_TCM,2,133.84008789, 12.86970520,end
timer_stats,697952475769629,PAPI_L3_TCM,1,133.93280029, 12.87953186,end
timer_stats,697952476889459,PAPI_L3_TCM,0,134.02612305, 12.88879394,end
timer_stats,697952478008114,PAPI_L3_TCM,0,134.21704102, 12.90606689,end
timer_stats,697952479128190,PAPI_L3_TCM,1,134.31054687, 12.91506958,end
timer_stats,697952480243942,PAPI_L3_TCM,2,134.40686035, 12.92428589,end
timer_stats,697952481350789,PAPI_L3_TCM,5,134.50653076, 12.93374634,end
timer_stats,697952482471420,PAPI_L3_TCM,0,134.60186767, 12.94229126,end
timer_stats,697952483590034,PAPI_L3_TCM,2,134.69561767, 12.95129394,end
timer_stats,697952484719140,PAPI_L3_TCM,0,134.79571533, 12.96032715,end
timer_stats,697952485868575,PAPI_L3_TCM,0,134.88403320, 12.96920776,end
timer_stats,697952487013263,PAPI_L3_TCM,0,135.03839111, 12.98333740,end
timer_stats,697952488155126,PAPI_L3_TCM,2,135.14990234, 12.99627685,end
timer_stats,697952489260985,PAPI_L3_TCM,0,135.23736572, 13.00627136,end
timer_stats,697952490405086,PAPI_L3_TCM,3,135.32550049, 13.01573181,end
timer_stats,697952491550698,PAPI_L3_TCM,0,135.40893555, 13.02470398,end
timer_stats,697952492699283,PAPI_L3_TCM,3,135.49334717, 13.03395080,end
timer_stats,697952493843024,PAPI_L3_TCM,0,135.58245850, 13.04316711,end
timer_stats,697952495006125,PAPI_L3_TCM,1,135.74969482, 13.06144714,end
timer_stats,697952496154714,PAPI_L3_TCM,1,135.79687500, 13.06660461,end
timer_stats,697952497276908,PAPI_L3_TCM,1,135.91290283, 13.07929993,end
timer_stats,697952498416911,PAPI_L3_TCM,0,135.99060059, 13.08857727,end
timer_stats,697952499559472,PAPI_L3_TCM,3,136.07543945, 13.09754944,end
timer_stats,697952500696238,PAPI_L3_TCM,3,136.16040039, 13.10629272,end
timer_stats,697952501839400,PAPI_L3_TCM,3,136.23309326, 13.11523437,end
timer_stats,697952502979244,PAPI_L3_TCM,0,136.36791992, 13.12910461,end
timer_stats,697952504120851,PAPI_L3_TCM,1,136.44830322, 13.13768005,end
timer_stats,697952505240782,PAPI_L3_TCM,0,136.55352783, 13.15066528,end
timer_stats,697952506382169,PAPI_L3_TCM,1,136.64172363, 13.15960693,end
timer_stats,697952507524432,PAPI_L3_TCM,1,136.71588135, 13.16845703,end
timer_stats,697952508670300,PAPI_L3_TCM,4,136.80596924, 13.17736816,end
timer_stats,697952509823653,PAPI_L3_TCM,0,136.88336182, 13.18640137,end
timer_stats,697952510975711,PAPI_L3_TCM,2,137.00811767, 13.20063782,end
timer_stats,697952512097789,PAPI_L3_TCM,1,137.09735107, 13.20957947,end
timer_stats,697952513203440,PAPI_L3_TCM,0,137.17797852, 13.21836853,end
timer_stats,697952514357470,PAPI_L3_TCM,0,137.29095459, 13.23101807,end
timer_stats,697952515503499,PAPI_L3_TCM,1,137.36523437, 13.24012756,end
timer_stats,697952516636849,PAPI_L3_TCM,0,137.45471191, 13.24928284,end
timer_stats,697952517767271,PAPI_L3_TCM,3,137.53002930, 13.25825500,end
timer_stats,697952518897403,PAPI_L3_TCM,0,137.61676025, 13.26699829,end
timer_stats,697952520027340,PAPI_L3_TCM,3,137.77496338, 13.28121948,end
timer_stats,697952521139498,PAPI_L3_TCM,0,137.82415771, 13.29000854,end
timer_stats,697952522273070,PAPI_L3_TCM,0,137.94024658, 13.30285644,end
timer_stats,697952523418089,PAPI_L3_TCM,0,138.03112793, 13.31207275,end
timer_stats,697952524577020,PAPI_L3_TCM,2,138.11322021, 13.32107544,end
timer_stats,697952525732494,PAPI_L3_TCM,0,138.18420410, 13.33003235,end
timer_stats,697952526885221,PAPI_L3_TCM,3,138.26281738, 13.33882141,end
timer_stats,697952528040436,PAPI_L3_TCM,1,138.39880371, 13.35267639,end
timer_stats,697952529174172,PAPI_L3_TCM,2,138.47625732, 13.36149597,end
timer_stats,697952530327177,PAPI_L3_TCM,0,138.58770752, 13.37371826,end
timer_stats,697952531480439,PAPI_L3_TCM,0,138.66809082, 13.38252258,end
timer_stats,697952532630951,PAPI_L3_TCM,1,138.75402832, 13.39149475,end
timer_stats,697952533787888,PAPI_L3_TCM,1,138.83459472, 13.40028381,end
timer_stats,697952534954842,PAPI_L3_TCM,0,138.91717529, 13.40950012,end
timer_stats,697952536126498,PAPI_L3_TCM,4,139.03552246, 13.42359924,end
timer_stats,697952537260122,PAPI_L3_TCM,0,139.15521240, 13.43592834,end
timer_stats,697952538411610,PAPI_L3_TCM,2,139.24139404, 13.44465637,end
timer_stats,697952539547791,PAPI_L3_TCM,0,139.31182861, 13.45393371,end
timer_stats,697952540682649,PAPI_L3_TCM,1,139.40045166, 13.46263123,end
timer_stats,697952541836989,PAPI_L3_TCM,0,139.47839355, 13.47169495,end
timer_stats,697952542993383,PAPI_L3_TCM,1,139.61224365, 13.48585510,end
timer_stats,697952544147952,PAPI_L3_TCM,1,139.71942139, 13.49830627,end
timer_stats,697952545301570,PAPI_L3_TCM,4,139.80682373, 13.50703430,end
timer_stats,697952546457691,PAPI_L3_TCM,0,139.88342285, 13.51585388,end
timer_stats,697952547615854,PAPI_L3_TCM,2,139.97528076, 13.52476501,end
timer_stats,697952548757197,PAPI_L3_TCM,2,140.06207275, 13.53373718,end
timer_stats,697952549887635,PAPI_L3_TCM,0,140.13800049, 13.54310608,end
timer_stats,697952551005715,PAPI_L3_TCM,0,140.22381592, 13.55287170,end
timer_stats,697952552136088,PAPI_L3_TCM,2,140.38049316, 13.57164001,end
timer_stats,697952553248093,PAPI_L3_TCM,0,140.46368408, 13.58061218,end
timer_stats,697952554368782,PAPI_L3_TCM,3,140.55267334, 13.58976746,end
timer_stats,697952555500864,PAPI_L3_TCM,0,140.63616943, 13.59907532,end
timer_stats,697952556632705,PAPI_L3_TCM,3,140.72131347, 13.60829162,end
timer_stats,697952557764978,PAPI_L3_TCM,0,140.80310059, 13.61824035,end
timer_stats,697952558895354,PAPI_L3_TCM,0,140.88519287, 13.62745666,end
timer_stats,697952560025642,PAPI_L3_TCM,1,140.96392822, 13.63697815,end
timer_stats,697952561138250,PAPI_L3_TCM,1,141.10241699, 13.65180969,end
timer_stats,697952562268964,PAPI_L3_TCM,0,141.21716309, 13.66523743,end
timer_stats,697952563400579,PAPI_L3_TCM,4,141.30578613, 13.67469787,end
timer_stats,697952564534527,PAPI_L3_TCM,1,141.39947510, 13.68394470,end
timer_stats,697952565669837,PAPI_L3_TCM,4,141.48327637, 13.69316101,end
timer_stats,697952566785965,PAPI_L3_TCM,0,141.56457520, 13.70196533,end
timer_stats,697952567917393,PAPI_L3_TCM,0,141.65539551, 13.71089172,end
timer_stats,697952569050330,PAPI_L3_TCM,0,141.79711914, 13.71989441,end
timer_stats,697952570168879,PAPI_L3_TCM,1,141.88787842, 13.73504639,end
timer_stats,697952571299107,PAPI_L3_TCM,0,142.00421142, 13.74868774,end
timer_stats,697952572433968,PAPI_L3_TCM,4,142.09362793, 13.75790405,end
timer_stats,697952573566629,PAPI_L3_TCM,0,142.18365478, 13.76840210,end
timer_stats,697952574683949,PAPI_L3_TCM,2,142.26843262, 13.77743530,end
timer_stats,697952575799548,PAPI_L3_TCM,0,142.35247803, 13.78686523,end
timer_stats,697952576929745,PAPI_L3_TCM,1,142.43884277, 13.79559326,end
timer_stats,697952578061156,PAPI_L3_TCM,0,142.56982422, 13.80435181,end
timer_stats,697952579193176,PAPI_L3_TCM,1,142.64813232, 13.81904602,end
timer_stats,697952580334278,PAPI_L3_TCM,1,142.75964355, 13.83119202,end
timer_stats,697952581463933,PAPI_L3_TCM,3,142.84320068, 13.84147644,end
timer_stats,697952582593449,PAPI_L3_TCM,0,142.92730713, 13.85023498,end
timer_stats,697952583721615,PAPI_L3_TCM,2,143.00384521, 13.85902405,end
timer_stats,697952584851100,PAPI_L3_TCM,1,143.08642578, 13.86827087,end
timer_stats,697952585979652,PAPI_L3_TCM,0,143.16467285, 13.87731933,end
timer_stats,697952587082097,PAPI_L3_TCM,0,143.29718017, 13.89123535,end
timer_stats,697952588215080,PAPI_L3_TCM,2,143.37945557, 13.90026855,end
timer_stats,697952589347155,PAPI_L3_TCM,0,143.49316406, 13.91322327,end
timer_stats,697952590477466,PAPI_L3_TCM,3,143.57611084, 13.92201233,end
timer_stats,697952591606596,PAPI_L3_TCM,0,143.65765381, 13.93080139,end
timer_stats,697952592736381,PAPI_L3_TCM,3,143.73529053, 13.93962097,end
timer_stats,697952593866433,PAPI_L3_TCM,0,143.81768799, 13.94859314,end
timer_stats,697952594996029,PAPI_L3_TCM,0,143.89947510, 13.95790100,end
timer_stats,697952596125169,PAPI_L3_TCM,1,144.03045654, 13.97160339,end
timer_stats,697952597257457,PAPI_L3_TCM,1,144.14141846, 13.98454284,end
timer_stats,697952598387983,PAPI_L3_TCM,0,144.22399902, 13.99333191,end
timer_stats,697952599491254,PAPI_L3_TCM,3,144.30206299, 14.00236511,end
timer_stats,697952600621507,PAPI_L3_TCM,1,144.38507080, 14.01112366,end
timer_stats,697952601749768,PAPI_L3_TCM,2,144.46600342, 14.01966858,end
timer_stats,697952602878961,PAPI_L3_TCM,0,144.54876709, 14.02822876,end
timer_stats,697952604022389,PAPI_L3_TCM,10,144.63262939, 14.03750610,end
timer_stats,697952605133248,PAPI_L3_TCM,0,144.76263428, 14.05197144,end
timer_stats,697952606263449,PAPI_L3_TCM,1,144.87554932, 14.06459045,end
timer_stats,697952607402174,PAPI_L3_TCM,0,144.95617676, 14.07313537,end
timer_stats,697952608534506,PAPI_L3_TCM,4,145.03887939, 14.08187866,end
timer_stats,697952609676077,PAPI_L3_TCM,0,145.11865234, 14.09042358,end
timer_stats,697952610820538,PAPI_L3_TCM,2,145.19500732, 14.09925842,end
timer_stats,697952611953433,PAPI_L3_TCM,0,145.27990722, 14.10798645,end
timer_stats,697952613084706,PAPI_L3_TCM,0,145.40747070, 14.12217712,end
timer_stats,697952614212797,PAPI_L3_TCM,0,145.49023437, 14.13096619,end
timer_stats,697952615342208,PAPI_L3_TCM,1,145.60369873, 14.14361572,end
timer_stats,697952616473689,PAPI_L3_TCM,1,145.68579102, 14.15240478,end
timer_stats,697952617604205,PAPI_L3_TCM,3,145.76788330, 14.16119385,end
timer_stats,697952618734415,PAPI_L3_TCM,0,145.84460449, 14.17025757,end
timer_stats,697952619872927,PAPI_L3_TCM,2,145.93237305, 14.17898559,end
timer_stats,697952621006234,PAPI_L3_TCM,1,146.01452637, 14.18798828,end
timer_stats,697952622107757,PAPI_L3_TCM,0,146.13940430, 14.20220947,end
timer_stats,697952623241186,PAPI_L3_TCM,0,146.25341797, 14.21514892,end
timer_stats,697952624370980,PAPI_L3_TCM,2,146.33489990, 14.22517395,end
timer_stats,697952625502286,PAPI_L3_TCM,0,146.41577148, 14.23419189,end
timer_stats,697952626632366,PAPI_L3_TCM,3,146.50109863, 14.24291992,end
timer_stats,697952627761446,PAPI_L3_TCM,0,146.58099365, 14.25170898,end
timer_stats,697952628891761,PAPI_L3_TCM,2,146.66156006, 14.26071167,end
timer_stats,697952630021862,PAPI_L3_TCM,0,146.74316406, 14.26971435,end
timer_stats,697952631156612,PAPI_L3_TCM,0,146.87622070, 14.28381348,end
timer_stats,697952632288148,PAPI_L3_TCM,1,146.98321533, 14.29632568,end
timer_stats,697952633417666,PAPI_L3_TCM,1,147.06890869, 14.30480957,end
timer_stats,697952634551267,PAPI_L3_TCM,0,147.14782715, 14.31359863,end
timer_stats,697952635681554,PAPI_L3_TCM,3,147.22753906, 14.32220459,end
timer_stats,697952636812225,PAPI_L3_TCM,1,147.31164551, 14.33096313,end
timer_stats,697952637942244,PAPI_L3_TCM,2,147.39227295, 14.33976746,end
timer_stats,697952639072011,PAPI_L3_TCM,0,147.52325439, 14.35386658,end
timer_stats,697952640202690,PAPI_L3_TCM,1,147.60253906, 14.36317444,end
timer_stats,697952641305136,PAPI_L3_TCM,0,147.71697998, 14.37580871,end
timer_stats,697952642406780,PAPI_L3_TCM,1,147.80108642, 14.38508606,end
timer_stats,697952643537886,PAPI_L3_TCM,0,147.88238525, 14.39385986,end
timer_stats,697952644669629,PAPI_L3_TCM,4,147.96325684, 14.40261841,end
timer_stats,697952645798856,PAPI_L3_TCM,0,148.04449463, 14.41183472,end
timer_stats,697952646927639,PAPI_L3_TCM,2,148.12036133, 14.42068481,end
timer_stats,697952648056844,PAPI_L3_TCM,1,148.20507812, 14.42965698,end
timer_stats,697952649187928,PAPI_L3_TCM,0,148.36181641, 14.44723511,end
timer_stats,697952650317570,PAPI_L3_TCM,0,148.44842529, 14.45675659,end
timer_stats,697952651449540,PAPI_L3_TCM,1,148.52984619, 14.46646118,end
timer_stats,697952652578340,PAPI_L3_TCM,1,148.61254883, 14.47792053,end
timer_stats,697952653680726,PAPI_L3_TCM,3,148.69140625, 14.48912048,end
timer_stats,697952654810246,PAPI_L3_TCM,0,148.77301025, 14.49850464,end
timer_stats,697952655940281,PAPI_L3_TCM,2,148.85449219, 14.50802612,end
timer_stats,697952657070946,PAPI_L3_TCM,1,148.93511963, 14.51699829,end
timer_stats,697952658200187,PAPI_L3_TCM,0,149.06683349, 14.53073120,end
timer_stats,697952659337670,PAPI_L3_TCM,251,149.18347168, 14.54360962,end
timer_stats,697952660467069,PAPI_L3_TCM,2,149.26403809, 14.55288696,end
timer_stats,697952661596013,PAPI_L3_TCM,0,149.34680176, 14.56185913,end
timer_stats,697952662697690,PAPI_L3_TCM,3,149.42388916, 14.57067871,end
timer_stats,697952663827498,PAPI_L3_TCM,0,149.50842285, 14.57971191,end
timer_stats,697952664958181,PAPI_L3_TCM,3,149.58679199, 14.58851623,end
timer_stats,697952666058763,PAPI_L3_TCM,0,149.67041016, 14.59727478,end
timer_stats,697952667188848,PAPI_L3_TCM,0,149.80157471, 14.61119080,end
timer_stats,697952668318253,PAPI_L3_TCM,1,149.91345215, 14.62409973,end
timer_stats,697952669450080,PAPI_L3_TCM,1,149.99572754, 14.63298034,end
timer_stats,697952670580964,PAPI_L3_TCM,0,150.07708740, 14.64219665,end
timer_stats,697952671710154,PAPI_L3_TCM,3,150.15728760, 14.65074158,end
timer_stats,697952672839684,PAPI_L3_TCM,1,150.24090576, 14.65950012,end
timer_stats,697952673968797,PAPI_L3_TCM,2,150.32171631, 14.66850281,end
timer_stats,697952675108718,PAPI_L3_TCM,0,150.45117187, 14.68220520,end
timer_stats,697952676241688,PAPI_L3_TCM,1,150.56536865, 14.69485473,end
timer_stats,697952677372076,PAPI_L3_TCM,0,150.64733887, 14.70364380,end
timer_stats,697952678505268,PAPI_L3_TCM,1,150.72589111, 14.71243286,end
timer_stats,697952679636490,PAPI_L3_TCM,0,150.80938721, 14.72097778,end
timer_stats,697952680766054,PAPI_L3_TCM,3,150.88879394, 14.73001098,end
timer_stats,697952681894248,PAPI_L3_TCM,0,150.97393799, 14.73898315,end
timer_stats,697952683029594,PAPI_L3_TCM,4,151.06146240, 14.75134277,end
timer_stats,697952684160970,PAPI_L3_TCM,1,151.19567871, 14.76647949,end
timer_stats,697952685290934,PAPI_L3_TCM,0,151.30969238, 14.77529907,end
timer_stats,697952686424216,PAPI_L3_TCM,0,151.39282227, 14.78787231,end
timer_stats,697952687560658,PAPI_L3_TCM,1,151.47552490, 14.79687500,end
timer_stats,697952688692652,PAPI_L3_TCM,1,151.55511474, 14.80590820,end
timer_stats,697952689823052,PAPI_L3_TCM,3,151.64068603, 14.81463623,end
timer_stats,697952690952617,PAPI_L3_TCM,0,151.71771240, 14.82400513,end
timer_stats,697952692084780,PAPI_L3_TCM,3,151.79974365, 14.83279419,end
timer_stats,697952693214719,PAPI_L3_TCM,0,151.93048096, 14.84703064,end
timer_stats,697952694345757,PAPI_L3_TCM,0,152.04656982, 14.86009216,end
timer_stats,697952695480868,PAPI_L3_TCM,0,152.13183594, 14.86906433,end
timer_stats,697952696624285,PAPI_L3_TCM,2,152.21594238, 14.87962341,end
timer_stats,697952697739542,PAPI_L3_TCM,0,152.29827881, 14.88822937,end
timer_stats,697952698855257,PAPI_L3_TCM,3,152.38201904, 14.89700317,end
timer_stats,697952699971543,PAPI_L3_TCM,0,152.46472168, 14.90600586,end
timer_stats,697952701093244,PAPI_L3_TCM,3,152.54736328, 14.91500854,end
timer_stats,697952702210072,PAPI_L3_TCM,0,152.68078613, 14.92892456,end
timer_stats,697952703324715,PAPI_L3_TCM,0,152.79962158, 14.94152832,end
timer_stats,697952704441549,PAPI_L3_TCM,1,152.88476562, 14.95050049,end
timer_stats,697952705556544,PAPI_L3_TCM,1,152.96624756, 14.95950317,end
timer_stats,697952706671909,PAPI_L3_TCM,0,153.04632568, 14.96905517,end
timer_stats,697952707786469,PAPI_L3_TCM,3,153.13092041, 14.97827148,end
timer_stats,697952708905552,PAPI_L3_TCM,1,153.21765137, 14.98724365,end
timer_stats,697952710021670,PAPI_L3_TCM,2,153.30212402, 14.99624634,end
timer_stats,697952711137284,PAPI_L3_TCM,0,153.44091797, 15.01039123,end
timer_stats,697952712278032,PAPI_L3_TCM,1,153.52990723, 15.01936340,end
timer_stats,697952713383891,PAPI_L3_TCM,0,153.65258789, 15.03227234,end
timer_stats,697952714516778,PAPI_L3_TCM,1,153.73645019, 15.04107666,end
timer_stats,697952715648267,PAPI_L3_TCM,0,153.82403564, 15.05014038,end
timer_stats,697952716779766,PAPI_L3_TCM,5,153.91442871, 15.05888367,end
timer_stats,697952717895796,PAPI_L3_TCM,0,154.00225830, 15.06788635,end
timer_stats,697952719012283,PAPI_L3_TCM,2,154.09106445, 15.07687378,end
timer_stats,697952720129865,PAPI_L3_TCM,1,154.17718506, 15.08590698,end
timer_stats,697952721231537,PAPI_L3_TCM,0,154.31909180, 15.10012817,end
timer_stats,697952722363888,PAPI_L3_TCM,0,154.44036865, 15.11299133,end
timer_stats,697952723496421,PAPI_L3_TCM,1,154.53247070, 15.11659241,end
timer_stats,697952724628096,PAPI_L3_TCM,0,154.61932373, 15.12535095,end
timer_stats,697952725758962,PAPI_L3_TCM,3,154.70446777, 15.13435364,end
timer_stats,697952726889932,PAPI_L3_TCM,0,154.79302978, 15.14311218,end
timer_stats,697952728024656,PAPI_L3_TCM,3,154.87976074, 15.15238953,end
timer_stats,697952729137530,PAPI_L3_TCM,0,154.96496582, 15.16149902,end
timer_stats,697952730302627,PAPI_L3_TCM,4,155.13995361, 15.18006897,end
timer_stats,697952731438021,PAPI_L3_TCM,0,155.22839355, 15.18904114,end
timer_stats,697952732570673,PAPI_L3_TCM,2,155.31774902, 15.19856262,end
timer_stats,697952733700943,PAPI_L3_TCM,0,155.40637207, 15.20732117,end
timer_stats,697952734833630,PAPI_L3_TCM,3,155.49499512, 15.21609497,end
timer_stats,697952735963527,PAPI_L3_TCM,0,155.58026123, 15.22595215,end
timer_stats,697952737098440,PAPI_L3_TCM,3,155.67224121, 15.23487854,end
timer_stats,697952738229115,PAPI_L3_TCM,0,155.80822754, 15.24888611,end
timer_stats,697952739359752,PAPI_L3_TCM,0,155.93237305, 15.26170349,end
timer_stats,697952740494544,PAPI_L3_TCM,1,156.01678467, 15.27073669,end
timer_stats,697952741627588,PAPI_L3_TCM,1,156.10662842, 15.27949524,end
timer_stats,697952742759148,PAPI_L3_TCM,0,156.19573974, 15.28825378,end
timer_stats,697952743891805,PAPI_L3_TCM,3,156.28631592, 15.29722595,end
timer_stats,697952745022741,PAPI_L3_TCM,0,156.37329102, 15.30604553,end
timer_stats,697952746152742,PAPI_L3_TCM,2,156.46282959, 15.31501770,end
timer_stats,697952747284749,PAPI_L3_TCM,0,156.60339355, 15.32917785,end
timer_stats,697952748415000,PAPI_L3_TCM,1,156.72851562, 15.34156799,end
timer_stats,697952749548686,PAPI_L3_TCM,0,156.81140137, 15.35066223,end
timer_stats,697952750698853,PAPI_L3_TCM,7,156.89990234, 15.35914612,end
timer_stats,697952751830970,PAPI_L3_TCM,0,156.98632812, 15.36817932,end
timer_stats,697952752964562,PAPI_L3_TCM,4,157.07812500, 15.37669373,end
timer_stats,697952754079299,PAPI_L3_TCM,0,157.16412353, 15.38557434,end
timer_stats,697952755197030,PAPI_L3_TCM,2,157.25592041, 15.39430237,end
timer_stats,697952756341427,PAPI_L3_TCM,1,157.39178467, 15.40870666,end
timer_stats,697952757485973,PAPI_L3_TCM,0,157.51611328, 15.42163086,end
timer_stats,697952758601355,PAPI_L3_TCM,0,157.60040283, 15.43041992,end
timer_stats,697952759730836,PAPI_L3_TCM,0,157.69042969, 15.43939209,end
timer_stats,697952760861609,PAPI_L3_TCM,1,157.78070068, 15.44812012,end
timer_stats,697952761992876,PAPI_L3_TCM,3,157.87109375, 15.45712280,end
timer_stats,697952763108070,PAPI_L3_TCM,0,157.95214844, 15.46597290,end
timer_stats,697952764242453,PAPI_L3_TCM,2,158.04138184, 15.47547912,end
timer_stats,697952765345091,PAPI_L3_TCM,0,158.18572998, 15.48956299,end
timer_stats,697952766460879,PAPI_L3_TCM,0,158.30499267, 15.50268555,end
timer_stats,697952767593835,PAPI_L3_TCM,0,158.39373779, 15.51165771,end
timer_stats,697952768725406,PAPI_L3_TCM,1,158.48394775, 15.52117920,end
timer_stats,697952769856706,PAPI_L3_TCM,0,158.57104492, 15.52995300,end
timer_stats,697952770972892,PAPI_L3_TCM,3,158.65979004, 15.53871155,end
timer_stats,697952772103699,PAPI_L3_TCM,1,158.74298096, 15.54795837,end
timer_stats,697952773211947,PAPI_L3_TCM,2,158.83135986, 15.55671692,end
timer_stats,697952774327225,PAPI_L3_TCM,0,158.97766113, 15.57081604,end
timer_stats,697952775459628,PAPI_L3_TCM,0,159.09741211, 15.58398437,end
timer_stats,697952776592272,PAPI_L3_TCM,1,159.18328857, 15.59298706,end
timer_stats,697952777723966,PAPI_L3_TCM,1,159.27227783, 15.60197449,end
timer_stats,697952778839670,PAPI_L3_TCM,0,159.35894775, 15.61170959,end
timer_stats,697952779973021,PAPI_L3_TCM,3,159.44665527, 15.62098694,end
timer_stats,697952781104767,PAPI_L3_TCM,0,159.53430176, 15.63020325,end
timer_stats,697952782238080,PAPI_L3_TCM,2,159.62176514, 15.63920593,end
timer_stats,697952783368066,PAPI_L3_TCM,0,159.79248047, 15.65797424,end
timer_stats,697952784511304,PAPI_L3_TCM,1,159.88287353, 15.66819763,end
timer_stats,697952785643455,PAPI_L3_TCM,0,159.97167969, 15.67716980,end
timer_stats,697952786786124,PAPI_L3_TCM,1,160.06066894, 15.68656921,end
timer_stats,697952787943261,PAPI_L3_TCM,0,160.14428711, 15.69532776,end
timer_stats,697952789105402,PAPI_L3_TCM,4,160.22692871, 15.70408630,end
timer_stats,697952790246808,PAPI_L3_TCM,0,160.35345459, 15.71992493,end
timer_stats,697952791401578,PAPI_L3_TCM,2,160.43475342, 15.73246765,end
timer_stats,697952792553220,PAPI_L3_TCM,1,160.55023193, 15.74238586,end
timer_stats,697952793703583,PAPI_L3_TCM,0,160.63262939, 15.75187683,end
timer_stats,697952794884637,PAPI_L3_TCM,0,160.71429443, 15.76161194,end
timer_stats,697952796067371,PAPI_L3_TCM,1,160.79583740, 15.77012634,end
timer_stats,697952797201097,PAPI_L3_TCM,0,160.87854004, 15.77934265,end
timer_stats,697952798363501,PAPI_L3_TCM,3,161.00933838, 15.79417419,end
timer_stats,697952799519700,PAPI_L3_TCM,0,161.11993408, 15.80711365,end
timer_stats,697952800680830,PAPI_L3_TCM,3,161.20324707, 15.81587219,end
timer_stats,697952801838454,PAPI_L3_TCM,0,161.28784180, 15.82460022,end
timer_stats,697952803002898,PAPI_L3_TCM,1,161.36590576, 15.83363342,end
timer_stats,697952804170674,PAPI_L3_TCM,1,161.45013428, 15.84260559,end
timer_stats,697952805310026,PAPI_L3_TCM,2,161.58557129, 15.85780334,end
timer_stats,697952806455250,PAPI_L3_TCM,0,161.70092773, 15.87373352,end
timer_stats,697952807611476,PAPI_L3_TCM,3,161.78485107, 15.88404846,end
timer_stats,697952808777192,PAPI_L3_TCM,1,161.86968994, 15.89283752,end
timer_stats,697952809955858,PAPI_L3_TCM,2,161.94824219, 15.90187073,end
timer_stats,697952811111594,PAPI_L3_TCM,0,162.02880859, 15.91075134,end
timer_stats,697952812267556,PAPI_L3_TCM,1,162.15887451, 15.92500305,end
timer_stats,697952813422893,PAPI_L3_TCM,0,162.24157715, 15.93736267,end
timer_stats,697952814579900,PAPI_L3_TCM,1,162.35717773, 15.94667053,end
timer_stats,697952815735091,PAPI_L3_TCM,0,162.43719482, 15.95545959,end
timer_stats,697952816889025,PAPI_L3_TCM,4,162.51861572, 15.96447754,end
timer_stats,697952818044450,PAPI_L3_TCM,0,162.60479736, 15.96807861,end
timer_stats,697952819197116,PAPI_L3_TCM,2,162.68334961, 15.97688293,end
timer_stats,697952820351939,PAPI_L3_TCM,1,162.80999756, 15.99128723,end
timer_stats,697952821506168,PAPI_L3_TCM,0,162.92834473, 16.00343323,end
timer_stats,697952822674482,PAPI_L3_TCM,0,163.01208496, 16.01240539,end
timer_stats,697952823838836,PAPI_L3_TCM,1,163.09045410, 16.02098083,end
timer_stats,697952824992566,PAPI_L3_TCM,2,163.17211914, 16.02976990,end
timer_stats,697952826145258,PAPI_L3_TCM,3,163.25500488, 16.03855896,end
timer_stats,697952827299940,PAPI_L3_TCM,0,163.38574219, 16.05326843,end
timer_stats,697952828455184,PAPI_L3_TCM,3,163.50329590, 16.06587219,end
timer_stats,697952829612634,PAPI_L3_TCM,0,163.58740234, 16.07470703,end
timer_stats,697952830765492,PAPI_L3_TCM,0,163.66607666, 16.08380127,end
timer_stats,697952831931025,PAPI_L3_TCM,0,163.74847412, 16.09255981,end
timer_stats,697952833082893,PAPI_L3_TCM,1,163.82940674, 16.10182190,end
timer_stats,697952834236601,PAPI_L3_TCM,0,163.95666504, 16.11085510,end
timer_stats,697952835400166,PAPI_L3_TCM,3,164.04113769, 16.12455749,end
timer_stats,697952836558216,PAPI_L3_TCM,1,164.15643310, 16.13720703,end
timer_stats,697952837710654,PAPI_L3_TCM,2,164.23828125, 16.14649963,end
timer_stats,697952838876573,PAPI_L3_TCM,0,164.32067871, 16.15548706,end
timer_stats,697952840041319,PAPI_L3_TCM,1,164.39526367, 16.16458130,end
timer_stats,697952841197052,PAPI_L3_TCM,0,164.47692871, 16.17359924,end
timer_stats,697952842354587,PAPI_L3_TCM,1,164.60864258, 16.18803406,end
timer_stats,697952843510514,PAPI_L3_TCM,0,164.72271728, 16.20092773,end
timer_stats,697952844667515,PAPI_L3_TCM,4,164.80529785, 16.20968628,end
timer_stats,697952845822072,PAPI_L3_TCM,0,164.88781738, 16.21847534,end
timer_stats,697952846984591,PAPI_L3_TCM,2,164.96685791, 16.22747803,end
timer_stats,697952848113208,PAPI_L3_TCM,1,165.04907227, 16.23626709,end
timer_stats,697952849268048,PAPI_L3_TCM,0,165.18017578, 16.24526977,end
timer_stats,697952850433940,PAPI_L3_TCM,0,165.26049805, 16.26327515,end
timer_stats,697952851588253,PAPI_L3_TCM,0,165.37414551, 16.27227783,end
timer_stats,697952852741510,PAPI_L3_TCM,1,165.45648193, 16.28128052,end
timer_stats,697952853896257,PAPI_L3_TCM,3,165.53625488, 16.29031372,end
timer_stats,697952855023864,PAPI_L3_TCM,0,165.61999512, 16.29937744,end
timer_stats,697952856178674,PAPI_L3_TCM,3,165.70465088, 16.30859375,end
timer_stats,697952857334954,PAPI_L3_TCM,0,165.83343506, 16.32275390,end
timer_stats,697952858489492,PAPI_L3_TCM,0,165.91082764, 16.33155823,end
timer_stats,697952859646252,PAPI_L3_TCM,0,166.02880859, 16.34416199,end
timer_stats,697952860801289,PAPI_L3_TCM,1,166.10687256, 16.35295105,end
timer_stats,697952861966446,PAPI_L3_TCM,0,166.18688965, 16.36271667,end
timer_stats,697952863123333,PAPI_L3_TCM,3,166.26940918, 16.37170410,end
timer_stats,697952864277246,PAPI_L3_TCM,0,166.35247803, 16.38070679,end
timer_stats,697952865430992,PAPI_L3_TCM,2,166.47985840, 16.40162659,end
timer_stats,697952866587656,PAPI_L3_TCM,0,166.59545898, 16.41131592,end
timer_stats,697952867693799,PAPI_L3_TCM,0,166.68054199, 16.42073059,end
timer_stats,697952868850245,PAPI_L3_TCM,0,166.76293945, 16.42973328,end
timer_stats,697952870009844,PAPI_L3_TCM,0,166.84332275, 16.43853760,end
timer_stats,697952871130309,PAPI_L3_TCM,0,166.93255615, 16.45019531,end
timer_stats,697952872268700,PAPI_L3_TCM,3,167.01837158, 16.46115112,end
timer_stats,697952873372665,PAPI_L3_TCM,0,167.15563965, 16.47723389,end
timer_stats,697952874481879,PAPI_L3_TCM,2,167.27850342, 16.48767090,end
timer_stats,697952875591614,PAPI_L3_TCM,0,167.36785889, 16.50341797,end
timer_stats,697952876700043,PAPI_L3_TCM,1,167.46087646, 16.51406860,end
timer_stats,697952877818535,PAPI_L3_TCM,0,167.54278564, 16.52456665,end
timer_stats,697952878935707,PAPI_L3_TCM,0,167.62915039, 16.53506470,end
timer_stats,697952880051997,PAPI_L3_TCM,0,167.71130371, 16.54539490,end
timer_stats,697952881156644,PAPI_L3_TCM,3,167.80865478, 16.55674744,end
timer_stats,697952882266758,PAPI_L3_TCM,1,167.90734863, 16.56741333,end
timer_stats,697952883376558,PAPI_L3_TCM,2,168.05578613, 16.57791138,end
timer_stats,697952884486835,PAPI_L3_TCM,1,168.14807129, 16.59417725,end
timer_stats,697952885597537,PAPI_L3_TCM,0,168.29162597, 16.61018372,end
timer_stats,697952886706828,PAPI_L3_TCM,0,168.39990234, 16.62104797,end
timer_stats,697952887813714,PAPI_L3_TCM,1,168.48590088, 16.63139343,end
timer_stats,697952888923786,PAPI_L3_TCM,0,168.58801269, 16.64234924,end
timer_stats,697952890029291,PAPI_L3_TCM,3,168.68786621, 16.65307617,end
timer_stats,697952891131062,PAPI_L3_TCM,0,168.78851318, 16.66380310,end
timer_stats,697952892233931,PAPI_L3_TCM,3,168.89190674, 16.67497253,end
timer_stats,697952893337407,PAPI_L3_TCM,0,168.99597168, 16.68591308,end
timer_stats,697952894439827,PAPI_L3_TCM,0,169.15808105, 16.70257568,end
timer_stats,697952895544613,PAPI_L3_TCM,0,169.31304932, 16.71926880,end
timer_stats,697952896669261,PAPI_L3_TCM,1,169.42138672, 16.73019409,end
timer_stats,697952897788269,PAPI_L3_TCM,0,169.53491211, 16.74130249,end
timer_stats,697952898905375,PAPI_L3_TCM,3,169.61932373, 16.75259399,end
timer_stats,697952900037295,PAPI_L3_TCM,0,169.72033691, 16.76309204,end
timer_stats,697952901142379,PAPI_L3_TCM,2,169.81976318, 16.77426147,end
timer_stats,697952902261480,PAPI_L3_TCM,0,169.91912842, 16.78518677,end
timer_stats,697952903385868,PAPI_L3_TCM,0,170.01483154, 16.79685974,end
timer_stats,697952904507088,PAPI_L3_TCM,1,170.16345215, 16.81388855,end
timer_stats,697952905625050,PAPI_L3_TCM,0,170.32385254, 16.82958984,end
timer_stats,697952906754762,PAPI_L3_TCM,0,170.40771484, 16.84088135,end
timer_stats,697952907876575,PAPI_L3_TCM,5,170.49890137, 16.85162353,end
timer_stats,697952908995494,PAPI_L3_TCM,1,170.60620117, 16.86248779,end
timer_stats,697952910113196,PAPI_L3_TCM,2,170.68469238, 16.87356567,end
timer_stats,697952911227245,PAPI_L3_TCM,1,170.77496338, 16.88299561,end
timer_stats,697952912344402,PAPI_L3_TCM,0,170.85583496, 16.89280701,end
timer_stats,697952913457383,PAPI_L3_TCM,0,170.99279785, 16.90721130,end
timer_stats,697952914574470,PAPI_L3_TCM,1,171.11279297, 16.92086792,end
timer_stats,697952915688164,PAPI_L3_TCM,0,171.21020508, 16.93002319,end
timer_stats,697952916814612,PAPI_L3_TCM,3,171.28594971, 16.93939209,end
timer_stats,697952917943183,PAPI_L3_TCM,1,171.37042236, 16.94868469,end
timer_stats,697952919068923,PAPI_L3_TCM,2,171.46069336, 16.95793152,end
timer_stats,697952920196135,PAPI_L3_TCM,0,171.54754639, 16.96742248,end
timer_stats,697952921300671,PAPI_L3_TCM,0,171.62457275, 16.97723389,end
timer_stats,697952922415029,PAPI_L3_TCM,0,171.70910644, 16.98674011,end
timer_stats,697952923528209,PAPI_L3_TCM,1,171.87304687, 17.00556946,end
timer_stats,697952924645263,PAPI_L3_TCM,4,171.96160889, 17.01502991,end
timer_stats,697952925784575,PAPI_L3_TCM,7,172.05914307, 17.02590942,end
timer_stats,697952926935763,PAPI_L3_TCM,0,172.14227295, 17.03709411,end
timer_stats,697952928068304,PAPI_L3_TCM,3,172.23754883, 17.04817200,end
timer_stats,697952929170106,PAPI_L3_TCM,0,172.32867432, 17.05931091,end
timer_stats,697952930274112,PAPI_L3_TCM,0,172.40722656, 17.06944275,end
timer_stats,697952931415063,PAPI_L3_TCM,0,172.54583740, 17.08531189,end
timer_stats,697952932546174,PAPI_L3_TCM,1,172.63348389, 17.09519958,end
timer_stats,697952933674700,PAPI_L3_TCM,1,172.77441406, 17.11033630,end
timer_stats,697952934803638,PAPI_L3_TCM,3,172.85473633, 17.12074280,end
timer_stats,697952935910422,PAPI_L3_TCM,0,172.95806885, 17.13096618,end
timer_stats,697952937028962,PAPI_L3_TCM,3,173.03967285, 17.14134216,end
timer_stats,697952938135617,PAPI_L3_TCM,0,173.13146973, 17.15184021,end
timer_stats,697952939268213,PAPI_L3_TCM,0,173.23138428, 17.16209411,end
timer_stats,697952940401801,PAPI_L3_TCM,1,173.32159424, 17.17219543,end
timer_stats,697952941534221,PAPI_L3_TCM,1,173.45074463, 17.18754578,end
timer_stats,697952942664922,PAPI_L3_TCM,0,173.59472656, 17.20220947,end
timer_stats,697952943794022,PAPI_L3_TCM,3,173.68664551, 17.21203613,end
timer_stats,697952944924937,PAPI_L3_TCM,1,173.77331543, 17.22213745,end
timer_stats,697952946055078,PAPI_L3_TCM,2,173.86517334, 17.23223877,end
timer_stats,697952947187671,PAPI_L3_TCM,0,173.95349121, 17.24234009,end
timer_stats,697952948331759,PAPI_L3_TCM,0,174.04919434, 17.25283813,end
timer_stats,697952949453059,PAPI_L3_TCM,0,174.14166260, 17.26293945,end
timer_stats,697952950570741,PAPI_L3_TCM,1,174.27294922, 17.27940368,end
timer_stats,697952951689566,PAPI_L3_TCM,1,174.42004394, 17.29519653,end
timer_stats,697952952825740,PAPI_L3_TCM,4,174.49932861, 17.30561829,end
timer_stats,697952953947387,PAPI_L3_TCM,0,174.59204102, 17.31590271,end
timer_stats,697952955064806,PAPI_L3_TCM,2,174.68994141, 17.32591247,end
timer_stats,697952956203228,PAPI_L3_TCM,1,174.78228760, 17.33668518,end
timer_stats,697952957305915,PAPI_L3_TCM,0,174.86688232, 17.34678650,end
timer_stats,697952958428142,PAPI_L3_TCM,0,174.94781494, 17.35716247,end
timer_stats,697952959563229,PAPI_L3_TCM,1,175.12200928, 17.37242126,end
timer_stats,697952960692407,PAPI_L3_TCM,1,175.22076416, 17.38804626,end
timer_stats,697952961818726,PAPI_L3_TCM,3,175.30670166, 17.39906311,end
timer_stats,697952962946377,PAPI_L3_TCM,0,175.39715576, 17.40913391,end
timer_stats,697952964077488,PAPI_L3_TCM,3,175.48291016, 17.41926575,end
timer_stats,697952965178337,PAPI_L3_TCM,0,175.57159424, 17.42961121,end
timer_stats,697952966310186,PAPI_L3_TCM,0,175.66882324, 17.44013977,end
timer_stats,697952967437331,PAPI_L3_TCM,0,175.79644775, 17.45542908,end
timer_stats,697952968583662,PAPI_L3_TCM,2,175.93194580, 17.46818542,end
timer_stats,697952969738255,PAPI_L3_TCM,0,176.02630615, 17.47737122,end
timer_stats,697952970891239,PAPI_L3_TCM,5,176.11102295, 17.48616028,end
timer_stats,697952972039331,PAPI_L3_TCM,0,176.19421387, 17.49403381,end
timer_stats,697952973164256,PAPI_L3_TCM,2,176.27954102, 17.50285339,end
timer_stats,697952974286355,PAPI_L3_TCM,0,176.36395264, 17.51087952,end
timer_stats,697952975441626,PAPI_L3_TCM,0,176.47442627, 17.52348328,end
timer_stats,697952976596030,PAPI_L3_TCM,1,176.60784912, 17.53614807,end
timer_stats,697952977742847,PAPI_L3_TCM,0,176.69091797, 17.54397583,end
timer_stats,697952978886766,PAPI_L3_TCM,0,176.77722168, 17.55201721,end
timer_stats,697952980047431,PAPI_L3_TCM,4,176.85968017, 17.56010437,end
timer_stats,697952981174205,PAPI_L3_TCM,0,176.94689941, 17.56893921,end
timer_stats,697952982303296,PAPI_L3_TCM,2,177.03607178, 17.57922363,end
timer_stats,697952983452529,PAPI_L3_TCM,0,177.11621094, 17.58706665,end
timer_stats,697952984607079,PAPI_L3_TCM,1,177.23852539, 17.60011291,end
timer_stats,697952985758695,PAPI_L3_TCM,0,177.36688232, 17.61288452,end
timer_stats,697952986913501,PAPI_L3_TCM,1,177.44989014, 17.62168884,end
timer_stats,697952988072734,PAPI_L3_TCM,1,177.53503418, 17.62901306,end
timer_stats,697952989210733,PAPI_L3_TCM,3,177.62268066, 17.63783264,end
timer_stats,697952990370593,PAPI_L3_TCM,0,177.70404053, 17.64591980,end
timer_stats,697952991523503,PAPI_L3_TCM,2,177.78869629, 17.65473938,end
timer_stats,697952992666901,PAPI_L3_TCM,1,177.96234131, 17.67216492,end
timer_stats,697952993817431,PAPI_L3_TCM,0,178.04302978, 17.67930603,end
timer_stats,697952994968837,PAPI_L3_TCM,0,178.13104248, 17.68707275,end
timer_stats,697952996120532,PAPI_L3_TCM,2,178.21276855, 17.69494629,end
timer_stats,697952997250735,PAPI_L3_TCM,0,178.30181885, 17.70321655,end
timer_stats,697952998399683,PAPI_L3_TCM,3,178.38763428, 17.71203613,end
timer_stats,697952999566024,PAPI_L3_TCM,0,178.46655273, 17.71992493,end
timer_stats,697953000722069,PAPI_L3_TCM,3,178.63983154, 17.73890686,end
timer_stats,697953001876610,PAPI_L3_TCM,0,178.72235107, 17.74649048,end
timer_stats,697953003016197,PAPI_L3_TCM,0,178.80651855, 17.75404358,end
timer_stats,697953004150619,PAPI_L3_TCM,3,178.89440918, 17.76365661,end
timer_stats,697953005279866,PAPI_L3_TCM,1,178.98895264, 17.77369690,end
timer_stats,697953006408469,PAPI_L3_TCM,0,179.07275391, 17.78358459,end
timer_stats,697953007539519,PAPI_L3_TCM,3,179.16076660, 17.79411316,end
timer_stats,697953008669557,PAPI_L3_TCM,1,179.33483887, 17.81410217,end
timer_stats,697953009797296,PAPI_L3_TCM,2,179.42187500, 17.82444763,end
timer_stats,697953010927129,PAPI_L3_TCM,0,179.50537109, 17.83459473,end
timer_stats,697953012057510,PAPI_L3_TCM,1,179.59783935, 17.84463501,end
timer_stats,697953013184368,PAPI_L3_TCM,0,179.68402099, 17.85498047,end
timer_stats,697953014340394,PAPI_L3_TCM,1,179.77508545, 17.86502075,end
timer_stats,697953015505176,PAPI_L3_TCM,1,179.85467529, 17.87387085,end
timer_stats,697953016651794,PAPI_L3_TCM,3,180.02392578, 17.89410400,end
timer_stats,697953017806591,PAPI_L3_TCM,0,180.10809326, 17.90293884,end
timer_stats,697953018958841,PAPI_L3_TCM,2,180.19287109, 17.91174316,end
timer_stats,697953020114086,PAPI_L3_TCM,1,180.28021240, 17.91958618,end
timer_stats,697953021246992,PAPI_L3_TCM,0,180.36016846, 17.92845154,end
timer_stats,697953022404375,PAPI_L3_TCM,0,180.44232178, 17.93704224,end
timer_stats,697953023576881,PAPI_L3_TCM,3,180.55786133, 17.94958496,end
timer_stats,697953024713018,PAPI_L3_TCM,1,180.69940185, 17.96405029,end
timer_stats,697953025867468,PAPI_L3_TCM,3,180.78155517, 17.97241211,end
timer_stats,697953026983888,PAPI_L3_TCM,0,180.86724853, 17.98144531,end
timer_stats,697953028105004,PAPI_L3_TCM,3,180.95361328, 17.99205017,end
timer_stats,697953029230087,PAPI_L3_TCM,1,181.04675293, 18.00181579,end
timer_stats,697953030381592,PAPI_L3_TCM,0,181.12396240, 18.01066589,end
timer_stats,697953031548326,PAPI_L3_TCM,0,181.24121094, 18.01875305,end
timer_stats,697953032704456,PAPI_L3_TCM,2,181.37994385, 18.03912353,end
timer_stats,697953033854837,PAPI_L3_TCM,0,181.45971680, 18.04672241,end
timer_stats,697953035014499,PAPI_L3_TCM,3,181.53808594, 18.05461121,end
timer_stats,697953036173177,PAPI_L3_TCM,1,181.62408447, 18.06266785,end
timer_stats,697953037304324,PAPI_L3_TCM,2,181.70715332, 18.07122803,end
timer_stats,697953038457346,PAPI_L3_TCM,0,181.78393555, 18.08010864,end
timer_stats,697953039584216,PAPI_L3_TCM,0,181.90814209, 18.09556579,end
timer_stats,697953040715925,PAPI_L3_TCM,1,182.04425049, 18.11056518,end
timer_stats,697953041867464,PAPI_L3_TCM,1,182.12213135, 18.11920166,end
timer_stats,697953043008620,PAPI_L3_TCM,3,182.20520019, 18.12893677,end
timer_stats,697953044139989,PAPI_L3_TCM,4,182.28796387, 18.13769531,end
timer_stats,697953045256425,PAPI_L3_TCM,0,182.37426758, 18.14642334,end
timer_stats,697953046409687,PAPI_L3_TCM,2,182.45520019, 18.15542602,end
timer_stats,697953047560227,PAPI_L3_TCM,2,182.56884766, 18.16918945,end
timer_stats,697953048701330,PAPI_L3_TCM,3,182.70385742, 18.18331909,end
timer_stats,697953049841438,PAPI_L3_TCM,2,182.78649902, 18.19235229,end
timer_stats,697953050991846,PAPI_L3_TCM,1,182.87396240, 18.20108032,end
timer_stats,697953052098142,PAPI_L3_TCM,0,182.95404053, 18.21015930,end
timer_stats,697953053212990,PAPI_L3_TCM,3,183.04211426, 18.22044372,end
timer_stats,697953054337681,PAPI_L3_TCM,0,183.12799072, 18.23072815,end
timer_stats,697953055458876,PAPI_L3_TCM,2,183.21008301, 18.24104309,end
timer_stats,697953056591507,PAPI_L3_TCM,7,183.28948974, 18.25276184,end
timer_stats,697953057718267,PAPI_L3_TCM,2,183.45227051, 18.27224731,end
timer_stats,697953058876226,PAPI_L3_TCM,0,183.52777099, 18.28082275,end
timer_stats,697953060035128,PAPI_L3_TCM,1,183.60284424, 18.28961182,end
timer_stats,697953061182288,PAPI_L3_TCM,0,183.68060303, 18.29815674,end
