timer_stats,697863204255896,PAPI_L3_TCM,428,  0.09387207,  0.01046753,end
timer_stats,697863205358217,PAPI_L3_TCM,39,  0.17974853,  0.02102661,end
timer_stats,697863206438260,PAPI_L3_TCM,8,  0.26867676,  0.03219604,end
timer_stats,697863207540954,PAPI_L3_TCM,4,  0.35314941,  0.04244995,end
timer_stats,697863208815568,PAPI_L3_TCM,71,  0.54138184,  0.06414795,end
timer_stats,697863209979255,PAPI_L3_TCM,23,  0.62469482,  0.07543945,end
timer_stats,697863211136462,PAPI_L3_TCM,6,  0.71899414,  0.08612060,end
timer_stats,697863212268203,PAPI_L3_TCM,12,  0.81042480,  0.09661865,end
timer_stats,697863213387884,PAPI_L3_TCM,13,  0.89642334,  0.10758972,end
timer_stats,697863214497789,PAPI_L3_TCM,6,  0.98718262,  0.11808777,end
timer_stats,697863215621426,PAPI_L3_TCM,8,  1.11474609,  0.13533020,end
timer_stats,697863216781848,PAPI_L3_TCM,9,  1.25469971,  0.15138245,end
timer_stats,697863217945505,PAPI_L3_TCM,2,  1.34747314,  0.16198730,end
timer_stats,697863219080233,PAPI_L3_TCM,1,  1.43420410,  0.17227173,end
timer_stats,697863220243353,PAPI_L3_TCM,1,  1.51910400,  0.18281555,end
timer_stats,697863221362957,PAPI_L3_TCM,1,  1.61596680,  0.19279480,end
timer_stats,697863222506788,PAPI_L3_TCM,3,  1.70141601,  0.20381165,end
timer_stats,697863223651259,PAPI_L3_TCM,0,  1.82586670,  0.21968078,end
timer_stats,697863224795596,PAPI_L3_TCM,0,  1.97167969,  0.23533630,end
timer_stats,697863225935956,PAPI_L3_TCM,3,  2.06066895,  0.24562073,end
timer_stats,697863227063366,PAPI_L3_TCM,1,  2.14971924,  0.25636291,end
timer_stats,697863228186290,PAPI_L3_TCM,2,  2.23852539,  0.26664734,end
timer_stats,697863229278384,PAPI_L3_TCM,0,  2.32635498,  0.27745056,end
timer_stats,697863230387842,PAPI_L3_TCM,2,  2.42871094,  0.28791809,end
timer_stats,697863231498181,PAPI_L3_TCM,1,  2.51922607,  0.29888916,end
timer_stats,697863232618296,PAPI_L3_TCM,2,  2.65704346,  0.31452942,end
timer_stats,697863233738956,PAPI_L3_TCM,0,  2.81292725,  0.33039856,end
timer_stats,697863234842495,PAPI_L3_TCM,0,  2.91363525,  0.34112549,end
timer_stats,697863235948551,PAPI_L3_TCM,0,  3.01501465,  0.35189819,end
timer_stats,697863237057159,PAPI_L3_TCM,4,  3.11456299,  0.36222839,end
timer_stats,697863238189924,PAPI_L3_TCM,0,  3.21240234,  0.37251282,end
timer_stats,697863239324487,PAPI_L3_TCM,1,  3.30883789,  0.38322449,end
timer_stats,697863240455298,PAPI_L3_TCM,1,  3.39843750,  0.39405823,end
timer_stats,697863241600015,PAPI_L3_TCM,0,  3.49670410,  0.40406799,end
timer_stats,697863242733207,PAPI_L3_TCM,0,  3.68701172,  0.42216492,end
timer_stats,697863243868953,PAPI_L3_TCM,0,  3.77667236,  0.43882751,end
timer_stats,697863245022180,PAPI_L3_TCM,4,  3.87353515,  0.44911194,end
timer_stats,697863246154106,PAPI_L3_TCM,0,  3.96643066,  0.45896911,end
timer_stats,697863247281958,PAPI_L3_TCM,0,  4.05798340,  0.46922302,end
timer_stats,697863248412213,PAPI_L3_TCM,3,  4.14495850,  0.47935486,end
timer_stats,697863249553551,PAPI_L3_TCM,0,  4.24316406,  0.48936462,end
timer_stats,697863250680644,PAPI_L3_TCM,0,  4.41864014,  0.50932312,end
timer_stats,697863251807758,PAPI_L3_TCM,0,  4.50750732,  0.51939392,end
timer_stats,697863252947433,PAPI_L3_TCM,2,  4.59948730,  0.52989197,end
timer_stats,697863254086091,PAPI_L3_TCM,0,  4.69171143,  0.54045105,end
timer_stats,697863255238245,PAPI_L3_TCM,3,  4.78094482,  0.55055237,end
timer_stats,697863256392009,PAPI_L3_TCM,1,  4.86785889,  0.56068420,end
timer_stats,697863257543605,PAPI_L3_TCM,2,  4.95880127,  0.57057190,end
timer_stats,697863258696549,PAPI_L3_TCM,0,  5.09558105,  0.58607483,end
timer_stats,697863259839340,PAPI_L3_TCM,1,  5.23028564,  0.60176086,end
timer_stats,697863260996674,PAPI_L3_TCM,0,  5.31597900,  0.61186218,end
timer_stats,697863262120268,PAPI_L3_TCM,0,  5.40686035,  0.62217712,end
timer_stats,697863263257149,PAPI_L3_TCM,4,  5.50524902,  0.63194275,end
timer_stats,697863264399292,PAPI_L3_TCM,2,  5.59429932,  0.64179993,end
timer_stats,697863265556703,PAPI_L3_TCM,0,  5.68188477,  0.65190124,end
timer_stats,697863266702300,PAPI_L3_TCM,2,  5.81561279,  0.66734314,end
timer_stats,697863267847288,PAPI_L3_TCM,0,  5.95465088,  0.68318176,end
timer_stats,697863268995092,PAPI_L3_TCM,2,  6.04296875,  0.69349670,end
timer_stats,697863270143209,PAPI_L3_TCM,0,  6.13555908,  0.70402527,end
timer_stats,697863271272740,PAPI_L3_TCM,1,  6.22607422,  0.71432495,end
timer_stats,697863272429909,PAPI_L3_TCM,1,  6.31829834,  0.72436523,end
timer_stats,697863273585660,PAPI_L3_TCM,2,  6.40521240,  0.73449707,end
timer_stats,697863274743015,PAPI_L3_TCM,0,  6.58819580,  0.75479126,end
timer_stats,697863275902868,PAPI_L3_TCM,2,  6.67944336,  0.76510620,end
timer_stats,697863277060950,PAPI_L3_TCM,1,  6.76904297,  0.77493286,end
timer_stats,697863278220076,PAPI_L3_TCM,1,  6.85687256,  0.78549194,end
timer_stats,697863279376680,PAPI_L3_TCM,0,  6.94824219,  0.79605103,end
timer_stats,697863280522627,PAPI_L3_TCM,3,  7.04052734,  0.80612182,end
timer_stats,697863281689576,PAPI_L3_TCM,0,  7.22503662,  0.81668091,end
timer_stats,697863282860216,PAPI_L3_TCM,2,  7.31787109,  0.83706665,end
timer_stats,697863283992475,PAPI_L3_TCM,0,  7.41247559,  0.84736633,end
timer_stats,697863285174172,PAPI_L3_TCM,7,  7.50366211,  0.85749817,end
timer_stats,697863286335480,PAPI_L3_TCM,0,  7.59332275,  0.86763000,end
timer_stats,697863287495425,PAPI_L3_TCM,0,  7.68975830,  0.87767029,end
timer_stats,697863288660478,PAPI_L3_TCM,1,  7.82073975,  0.89250183,end
timer_stats,697863289820465,PAPI_L3_TCM,1,  7.96606445,  0.90260315,end
timer_stats,697863290985061,PAPI_L3_TCM,0,  8.05749512,  0.91294861,end
timer_stats,697863292149821,PAPI_L3_TCM,1,  8.15020752,  0.92329407,end
timer_stats,697863293311870,PAPI_L3_TCM,0,  8.24639892,  0.93333435,end
timer_stats,697863294473320,PAPI_L3_TCM,2,  8.33709717,  0.94371033,end
timer_stats,697863295635662,PAPI_L3_TCM,0,  8.43035889,  0.95401001,end
timer_stats,697863296797337,PAPI_L3_TCM,3,  8.61651611,  0.97395325,end
timer_stats,697863297971451,PAPI_L3_TCM,0,  8.70886230,  0.98428345,end
timer_stats,697863302268790,PAPI_L3_TCM,82,  9.07244873,  1.02439880,end
timer_stats,697863303429804,PAPI_L3_TCM,2,  9.16296387,  1.03471374,end
timer_stats,697863304593575,PAPI_L3_TCM,2,  9.25848389,  1.04501343,end
timer_stats,697863305753215,PAPI_L3_TCM,0,  9.45025635,  1.06515503,end
timer_stats,697863306917606,PAPI_L3_TCM,2,  9.54180908,  1.07525635,end
timer_stats,697863308085883,PAPI_L3_TCM,1,  9.63879394,  1.08555603,end
timer_stats,697863309247341,PAPI_L3_TCM,0,  9.74200439,  1.09559631,end
timer_stats,697863310408617,PAPI_L3_TCM,0,  9.84136963,  1.10588074,end
timer_stats,697863311569521,PAPI_L3_TCM,1,  9.92352295,  1.11558533,end
timer_stats,697863312737829,PAPI_L3_TCM,3, 10.06286621,  1.13087463,end
timer_stats,697863313900210,PAPI_L3_TCM,1, 10.20983887,  1.14607239,end
timer_stats,697863315058034,PAPI_L3_TCM,0, 10.29919433,  1.15573120,end
timer_stats,697863316221948,PAPI_L3_TCM,3, 10.39984131,  1.16555786,end
timer_stats,697863317383078,PAPI_L3_TCM,0, 10.48608398,  1.17596435,end
timer_stats,697863318541941,PAPI_L3_TCM,0, 10.58258057,  1.18606567,end
timer_stats,697863319713276,PAPI_L3_TCM,0, 10.72204590,  1.20089721,end
timer_stats,697863320878590,PAPI_L3_TCM,2, 10.86267090,  1.21563721,end
timer_stats,697863322039008,PAPI_L3_TCM,0, 10.96801758,  1.22540283,end
timer_stats,697863323202591,PAPI_L3_TCM,1, 11.05523682,  1.23579407,end
timer_stats,697863324368359,PAPI_L3_TCM,1, 11.14636230,  1.24617004,end
timer_stats,697863325509433,PAPI_L3_TCM,1, 11.25006103,  1.25621033,end
timer_stats,697863326672460,PAPI_L3_TCM,0, 11.33782959,  1.26612854,end
timer_stats,697863327833800,PAPI_L3_TCM,0, 11.52746582,  1.28605652,end
timer_stats,697863328996948,PAPI_L3_TCM,1, 11.63275146,  1.29606628,end
timer_stats,697863330159291,PAPI_L3_TCM,1, 11.71636963,  1.30647278,end
timer_stats,697863331319218,PAPI_L3_TCM,0, 11.82122803,  1.31648254,end
timer_stats,697863332478957,PAPI_L3_TCM,2, 11.90820312,  1.32661438,end
timer_stats,697863333637863,PAPI_L3_TCM,0, 12.01269531,  1.33705139,end
timer_stats,697863334798596,PAPI_L3_TCM,1, 12.14331055,  1.35243225,end
timer_stats,697863335965231,PAPI_L3_TCM,0, 12.28662109,  1.36814880,end
timer_stats,697863337148179,PAPI_L3_TCM,0, 12.39001465,  1.37815857,end
timer_stats,697863338311049,PAPI_L3_TCM,1, 12.47766113,  1.38780212,end
timer_stats,697863339471779,PAPI_L3_TCM,1, 12.58282471,  1.39782715,end
timer_stats,697863340635764,PAPI_L3_TCM,1, 12.68109131,  1.40765381,end
timer_stats,697863341799901,PAPI_L3_TCM,1, 12.81127930,  1.42297363,end
timer_stats,697863342964165,PAPI_L3_TCM,0, 12.95227051,  1.43801880,end
timer_stats,697863344125357,PAPI_L3_TCM,2, 13.05395508,  1.44827270,end
timer_stats,697863345286886,PAPI_L3_TCM,0, 13.13775635,  1.45822143,end
timer_stats,697863346447470,PAPI_L3_TCM,1, 13.24536133,  1.46841431,end
timer_stats,697863347609921,PAPI_L3_TCM,0, 13.34069824,  1.47875976,end
timer_stats,697863348745371,PAPI_L3_TCM,2, 13.42053223,  1.48919678,end
timer_stats,697863349915398,PAPI_L3_TCM,1, 13.61853027,  1.51052856,end
timer_stats,697863351080372,PAPI_L3_TCM,1, 13.72473144,  1.52078247,end
timer_stats,697863352247486,PAPI_L3_TCM,1, 13.81121826,  1.53118896,end
timer_stats,697863353396523,PAPI_L3_TCM,220, 13.92114258,  1.54116821,end
timer_stats,697863354533107,PAPI_L3_TCM,2, 14.01403808,  1.55148315,end
timer_stats,697863355707665,PAPI_L3_TCM,2, 14.14703369,  1.56155395,end
timer_stats,697863356871629,PAPI_L3_TCM,1, 14.30139160,  1.58221435,end
timer_stats,697863358007116,PAPI_L3_TCM,2, 14.39117432,  1.59300232,end
timer_stats,697863359124192,PAPI_L3_TCM,4, 14.48718262,  1.60353088,end
timer_stats,697863360232353,PAPI_L3_TCM,4, 14.59265137,  1.61399841,end
timer_stats,697863361311400,PAPI_L3_TCM,0, 14.69415283,  1.62400818,end
timer_stats,697863362405910,PAPI_L3_TCM,1, 14.77618408,  1.63444519,end
timer_stats,697863363513051,PAPI_L3_TCM,1, 14.87402344,  1.64448547,end
timer_stats,697863364628678,PAPI_L3_TCM,6, 14.96960449,  1.65457153,end
timer_stats,697863365734985,PAPI_L3_TCM,0, 15.06701660,  1.66488647,end
timer_stats,697863366828435,PAPI_L3_TCM,1, 15.21612549,  1.68006897,end
timer_stats,697863367990813,PAPI_L3_TCM,0, 15.31231689,  1.69013977,end
timer_stats,697863369167540,PAPI_L3_TCM,2, 15.45220947,  1.70608520,end
timer_stats,697863370334370,PAPI_L3_TCM,0, 15.55493164,  1.71635437,end
timer_stats,697863371501914,PAPI_L3_TCM,1, 15.65698242,  1.72685242,end
timer_stats,697863372666615,PAPI_L3_TCM,1, 15.74578857,  1.73719787,end
timer_stats,697863373800182,PAPI_L3_TCM,2, 15.83966064,  1.74754333,end
timer_stats,697863374965303,PAPI_L3_TCM,0, 16.03399658,  1.76840210,end
timer_stats,697863376130254,PAPI_L3_TCM,2, 16.13220215,  1.77871704,end
timer_stats,697863377268781,PAPI_L3_TCM,0, 16.23083496,  1.78878784,end
timer_stats,697863378422678,PAPI_L3_TCM,1, 16.33843994,  1.79904175,end
timer_stats,697863379590419,PAPI_L3_TCM,0, 16.43457031,  1.80938721,end
timer_stats,697863380725552,PAPI_L3_TCM,2, 16.53375244,  1.81970215,end
timer_stats,697863381886849,PAPI_L3_TCM,0, 16.71923828,  1.84068298,end
timer_stats,697863383040510,PAPI_L3_TCM,0, 16.82458496,  1.85069275,end
timer_stats,697863384194671,PAPI_L3_TCM,1, 16.92016601,  1.86102295,end
timer_stats,697863385329888,PAPI_L3_TCM,1, 17.02136230,  1.87109375,end
timer_stats,697863386493119,PAPI_L3_TCM,0, 17.10644531,  1.88151550,end
timer_stats,697863387656889,PAPI_L3_TCM,1, 17.21374512,  1.89155578,end
timer_stats,697863388820157,PAPI_L3_TCM,1, 17.31311035,  1.90113830,end
timer_stats,697863389986724,PAPI_L3_TCM,2, 17.50787353,  1.92158508,end
timer_stats,697863391149005,PAPI_L3_TCM,0, 17.60644531,  1.93191528,end
timer_stats,697863392317525,PAPI_L3_TCM,1, 17.70245361,  1.94271850,end
timer_stats,697863393455875,PAPI_L3_TCM,0, 17.80023193,  1.95275879,end
timer_stats,697863394640300,PAPI_L3_TCM,1, 17.89788818,  1.96279907,end
timer_stats,697863395804707,PAPI_L3_TCM,0, 18.03509521,  1.97894287,end
timer_stats,697863396967831,PAPI_L3_TCM,3, 18.19152832,  1.99411011,end
timer_stats,697863398111551,PAPI_L3_TCM,1, 18.28436279,  2.00424194,end
timer_stats,697863399272488,PAPI_L3_TCM,2, 18.39074707,  2.01425171,end
timer_stats,697863400440532,PAPI_L3_TCM,1, 18.48443604,  2.02413940,end
timer_stats,697863401576820,PAPI_L3_TCM,1, 18.58734131,  2.03414917,end
timer_stats,697863402712707,PAPI_L3_TCM,0, 18.68688965,  2.04559326,end
timer_stats,697863403849233,PAPI_L3_TCM,8, 18.78869629,  2.05538940,end
timer_stats,697863404988367,PAPI_L3_TCM,0, 18.97662353,  2.07348633,end
timer_stats,697863406123468,PAPI_L3_TCM,1, 19.07141113,  2.08227539,end
timer_stats,697863407258709,PAPI_L3_TCM,0, 19.16229248,  2.09109497,end
timer_stats,697863408394003,PAPI_L3_TCM,2, 19.25506592,  2.09988403,end
timer_stats,697863409530067,PAPI_L3_TCM,0, 19.34930420,  2.11021423,end
timer_stats,697863410667127,PAPI_L3_TCM,0, 19.44171143,  2.11878967,end
timer_stats,697863411807614,PAPI_L3_TCM,0, 19.53887939,  2.12734985,end
timer_stats,697863412947981,PAPI_L3_TCM,1, 19.72595215,  2.14422607,end
timer_stats,697863414084932,PAPI_L3_TCM,0, 19.81665039,  2.15304565,end
timer_stats,697863415237899,PAPI_L3_TCM,1, 19.91516113,  2.16180420,end
timer_stats,697863416372866,PAPI_L3_TCM,1, 20.00524902,  2.17039490,end
timer_stats,697863417508470,PAPI_L3_TCM,1, 20.09863281,  2.17961121,end
timer_stats,697863418646058,PAPI_L3_TCM,0, 20.18908691,  2.18840027,end
timer_stats,697863419783404,PAPI_L3_TCM,0, 20.28247070,  2.19692993,end
timer_stats,697863420924548,PAPI_L3_TCM,1, 20.46154785,  2.21072388,end
timer_stats,697863422060642,PAPI_L3_TCM,0, 20.55126953,  2.22299194,end
timer_stats,697863423168193,PAPI_L3_TCM,0, 20.65264893,  2.23171997,end
timer_stats,697863424296640,PAPI_L3_TCM,4, 20.74395752,  2.24206543,end
timer_stats,697863425435860,PAPI_L3_TCM,0, 20.84173584,  2.25080871,end
timer_stats,697863426573440,PAPI_L3_TCM,1, 20.93951416,  2.25933838,end
timer_stats,697863427709181,PAPI_L3_TCM,0, 21.02429199,  2.26794434,end
timer_stats,697863428846785,PAPI_L3_TCM,0, 21.12133789,  2.27668762,end
timer_stats,697863429987156,PAPI_L3_TCM,0, 21.26232910,  2.29063415,end
timer_stats,697863431128526,PAPI_L3_TCM,0, 21.39538574,  2.30281067,end
timer_stats,697863432265087,PAPI_L3_TCM,1, 21.49334717,  2.31156921,end
timer_stats,697863433401651,PAPI_L3_TCM,1, 21.58557129,  2.32170105,end
timer_stats,697863434537447,PAPI_L3_TCM,0, 21.67944336,  2.33123779,end
timer_stats,697863435645491,PAPI_L3_TCM,1, 21.77069092,  2.34025574,end
timer_stats,697863436786842,PAPI_L3_TCM,1, 21.86126709,  2.34884643,end
timer_stats,697863437926996,PAPI_L3_TCM,0, 22.03851318,  2.36621094,end
timer_stats,697863439065267,PAPI_L3_TCM,0, 22.12524414,  2.37455749,end
timer_stats,697863440202237,PAPI_L3_TCM,1, 22.21862793,  2.38333130,end
timer_stats,697863441342350,PAPI_L3_TCM,0, 22.31182861,  2.39164734,end
timer_stats,697863442490254,PAPI_L3_TCM,7, 22.40313721,  2.40220642,end
timer_stats,697863443627498,PAPI_L3_TCM,0, 22.50006104,  2.41223144,end
timer_stats,697863444781322,PAPI_L3_TCM,2, 22.58959961,  2.42254639,end
timer_stats,697863445943806,PAPI_L3_TCM,0, 22.72668457,  2.43780517,end
timer_stats,697863447098817,PAPI_L3_TCM,0, 22.85742187,  2.45343017,end
timer_stats,697863448253044,PAPI_L3_TCM,1, 22.94763183,  2.46374512,end
timer_stats,697863449362338,PAPI_L3_TCM,0, 23.03820801,  2.47402954,end
timer_stats,697863450512308,PAPI_L3_TCM,0, 23.12664795,  2.48431396,end
timer_stats,697863451663755,PAPI_L3_TCM,0, 23.20892334,  2.49493408,end
timer_stats,697863452816929,PAPI_L3_TCM,2, 23.29949951,  2.50520325,end
timer_stats,697863453970700,PAPI_L3_TCM,2, 23.46740723,  2.52468872,end
timer_stats,697863455134417,PAPI_L3_TCM,0, 23.55102539,  2.53457642,end
timer_stats,697863459954753,PAPI_L3_TCM,64, 23.89428711,  2.57106018,end
timer_stats,697863461141101,PAPI_L3_TCM,3, 24.00891113,  2.59040832,end
timer_stats,697863462303338,PAPI_L3_TCM,1, 24.08801269,  2.60029602,end
timer_stats,697863463469575,PAPI_L3_TCM,0, 24.16845703,  2.61018371,end
timer_stats,697863464634556,PAPI_L3_TCM,3, 24.25543213,  2.62046814,end
timer_stats,697863465796353,PAPI_L3_TCM,0, 24.34039307,  2.63055420,end
timer_stats,697863466966921,PAPI_L3_TCM,2, 24.50555420,  2.64602661,end
timer_stats,697863468134061,PAPI_L3_TCM,1, 24.58184814,  2.66133118,end
timer_stats,697863469302699,PAPI_L3_TCM,1, 24.66351318,  2.67118835,end
timer_stats,697863470465753,PAPI_L3_TCM,0, 24.74523926,  2.68106079,end
timer_stats,697863471616430,PAPI_L3_TCM,0, 24.82745361,  2.69139099,end
timer_stats,697863472769516,PAPI_L3_TCM,1, 24.91424561,  2.70095825,end
timer_stats,697863473928650,PAPI_L3_TCM,2, 25.03601074,  2.71649170,end
timer_stats,697863475082384,PAPI_L3_TCM,0, 25.15972900,  2.73167419,end
timer_stats,697863476233158,PAPI_L3_TCM,3, 25.24108887,  2.74201965,end
timer_stats,697863477401639,PAPI_L3_TCM,0, 25.32556152,  2.75186157,end
timer_stats,697863478565313,PAPI_L3_TCM,0, 25.40295410,  2.76223755,end
timer_stats,697863479728997,PAPI_L3_TCM,0, 25.48651123,  2.77232361,end
timer_stats,697863480895458,PAPI_L3_TCM,1, 25.61206055,  2.78736877,end
timer_stats,697863482066175,PAPI_L3_TCM,0, 25.72265625,  2.80242920,end
timer_stats,697863483217252,PAPI_L3_TCM,1, 25.80706787,  2.81250000,end
timer_stats,697863484340093,PAPI_L3_TCM,1, 25.88635254,  2.82286072,end
timer_stats,697863485526940,PAPI_L3_TCM,4, 25.96832275,  2.83317566,end
timer_stats,697863486689334,PAPI_L3_TCM,0, 26.05133057,  2.84347534,end
timer_stats,697863487852515,PAPI_L3_TCM,0, 26.13281250,  2.85400390,end
timer_stats,697863489022219,PAPI_L3_TCM,1, 26.26049805,  2.86901855,end
timer_stats,697863490156762,PAPI_L3_TCM,2, 26.37054443,  2.88427734,end
timer_stats,697863491335776,PAPI_L3_TCM,0, 26.45458984,  2.89456177,end
timer_stats,697863492498583,PAPI_L3_TCM,2, 26.53472900,  2.90463257,end
timer_stats,697863493662271,PAPI_L3_TCM,0, 26.61431885,  2.91474915,end
timer_stats,697863494828405,PAPI_L3_TCM,1, 26.69854736,  2.92481994,end
timer_stats,697863495993289,PAPI_L3_TCM,0, 26.85675049,  2.94503784,end
timer_stats,697863497161526,PAPI_L3_TCM,2, 26.93658447,  2.95513916,end
timer_stats,697863498295410,PAPI_L3_TCM,1, 27.02117920,  2.96517944,end
timer_stats,697863499459221,PAPI_L3_TCM,0, 27.10107422,  2.97506714,end
timer_stats,697863500632525,PAPI_L3_TCM,1, 27.18054199,  2.98562622,end
timer_stats,697863501795472,PAPI_L3_TCM,1, 27.26647949,  2.99571228,end
timer_stats,697863502965629,PAPI_L3_TCM,0, 27.39587402,  3.01051330,end
timer_stats,697863504487138,PAPI_L3_TCM,1767, 27.50543213,  3.02552795,end
timer_stats,697863505650455,PAPI_L3_TCM,38, 27.58471680,  3.03541565,end
timer_stats,697863506811169,PAPI_L3_TCM,4, 27.66210937,  3.04573059,end
timer_stats,697863507973580,PAPI_L3_TCM,0, 27.81805420,  3.06616211,end
timer_stats,697863509150004,PAPI_L3_TCM,1, 27.89624023,  3.07623291,end
timer_stats,697863510312394,PAPI_L3_TCM,0, 27.97442627,  3.08633423,end
timer_stats,697863511475494,PAPI_L3_TCM,1, 28.05212402,  3.09640503,end
timer_stats,697863512635061,PAPI_L3_TCM,5, 28.12670898,  3.10629272,end
timer_stats,697863513798149,PAPI_L3_TCM,0, 28.20318603,  3.11662292,end
timer_stats,697863514967649,PAPI_L3_TCM,0, 28.35565185,  3.13659668,end
timer_stats,697863516068980,PAPI_L3_TCM,2, 28.43267822,  3.14645386,end
timer_stats,697863517230214,PAPI_L3_TCM,0, 28.51422119,  3.15650940,end
timer_stats,697863518391801,PAPI_L3_TCM,0, 28.59094238,  3.16636658,end
timer_stats,697863519554035,PAPI_L3_TCM,0, 28.67010498,  3.17643738,end
timer_stats,697863520716629,PAPI_L3_TCM,2, 28.73944092,  3.18656921,end
timer_stats,697863521882483,PAPI_L3_TCM,0, 28.82220459,  3.19633484,end
timer_stats,697863523052643,PAPI_L3_TCM,2, 28.97277832,  3.21629333,end
timer_stats,697863524186670,PAPI_L3_TCM,2, 29.05041504,  3.22611999,end
timer_stats,697863525350698,PAPI_L3_TCM,0, 29.12872314,  3.23622131,end
timer_stats,697863526515292,PAPI_L3_TCM,2, 29.20367432,  3.24632263,end
timer_stats,697863527680922,PAPI_L3_TCM,0, 29.27972412,  3.25642395,end
timer_stats,697863528847203,PAPI_L3_TCM,2, 29.35876465,  3.26652527,end
timer_stats,697863530019490,PAPI_L3_TCM,3, 29.51110840,  3.28672790,end
timer_stats,697863531184254,PAPI_L3_TCM,0, 29.58917236,  3.29679871,end
timer_stats,697863532352308,PAPI_L3_TCM,2, 29.66271973,  3.30717468,end
timer_stats,697863533518666,PAPI_L3_TCM,0, 29.74108887,  3.31747436,end
timer_stats,697863534684893,PAPI_L3_TCM,0, 29.81341553,  3.32714844,end
timer_stats,697863535851600,PAPI_L3_TCM,0, 29.89196777,  3.33721924,end
timer_stats,697863537020688,PAPI_L3_TCM,1, 30.04272461,  3.35743713,end
timer_stats,697863538186035,PAPI_L3_TCM,1, 30.12231445,  3.36749267,end
timer_stats,697863539368502,PAPI_L3_TCM,1, 30.19659424,  3.37759399,end
timer_stats,697863540506743,PAPI_L3_TCM,0, 30.27026367,  3.38772583,end
timer_stats,697863541653559,PAPI_L3_TCM,2, 30.35125732,  3.39869690,end
timer_stats,697863542824053,PAPI_L3_TCM,1, 30.43212890,  3.40948486,end
timer_stats,697863543992071,PAPI_L3_TCM,0, 30.56616211,  3.41976929,end
timer_stats,697863545163191,PAPI_L3_TCM,4, 30.67480469,  3.43501282,end
timer_stats,697863546329529,PAPI_L3_TCM,0, 30.75189209,  3.44534302,end
timer_stats,697863547465226,PAPI_L3_TCM,0, 30.83154297,  3.45541382,end
timer_stats,697863548630447,PAPI_L3_TCM,1, 30.91271973,  3.46572876,end
timer_stats,697863550800297,PAPI_L3_TCM,32, 31.06860351,  3.48583984,end
timer_stats,697863551975084,PAPI_L3_TCM,3, 31.18695068,  3.49977112,end
timer_stats,697863553153728,PAPI_L3_TCM,2, 31.30053711,  3.51496887,end
timer_stats,697863554318406,PAPI_L3_TCM,4, 31.37591553,  3.52507019,end
timer_stats,697863555485620,PAPI_L3_TCM,0, 31.45416260,  3.53520203,end
timer_stats,697863556654284,PAPI_L3_TCM,1, 31.53314209,  3.54508972,end
timer_stats,697863557824098,PAPI_L3_TCM,1, 31.61157226,  3.55519104,end
timer_stats,697863558993455,PAPI_L3_TCM,1, 31.68841553,  3.56506348,end
timer_stats,697863560141689,PAPI_L3_TCM,2, 31.83520508,  3.58599853,end
timer_stats,697863561308926,PAPI_L3_TCM,1, 31.91052246,  3.59613037,end
timer_stats,697863562477607,PAPI_L3_TCM,3, 31.98815918,  3.60641479,end
timer_stats,697863563645544,PAPI_L3_TCM,1, 32.06079101,  3.61628723,end
timer_stats,697863564812645,PAPI_L3_TCM,1, 32.13800049,  3.62681580,end
timer_stats,697863565979139,PAPI_L3_TCM,0, 32.25897217,  3.64187622,end
timer_stats,697863567147630,PAPI_L3_TCM,0, 32.36181641,  3.65736389,end
timer_stats,697863568316750,PAPI_L3_TCM,2, 32.43670654,  3.66770935,end
timer_stats,697863569485364,PAPI_L3_TCM,0, 32.50775146,  3.67808533,end
timer_stats,697863570655581,PAPI_L3_TCM,1, 32.58245849,  3.68794250,end
timer_stats,697863571826275,PAPI_L3_TCM,0, 32.65551758,  3.69801330,end
timer_stats,697863572995705,PAPI_L3_TCM,2, 32.72991943,  3.70814514,end
timer_stats,697863574166669,PAPI_L3_TCM,0, 32.87982178,  3.72834778,end
timer_stats,697863575334993,PAPI_L3_TCM,0, 32.95294189,  3.73844910,end
timer_stats,697863576481511,PAPI_L3_TCM,2, 33.02478027,  3.74858093,end
timer_stats,697863577652471,PAPI_L3_TCM,1, 33.10137939,  3.75865173,end
timer_stats,697863578822442,PAPI_L3_TCM,0, 33.17395019,  3.76875305,end
timer_stats,697863579997699,PAPI_L3_TCM,2, 33.29547119,  3.78401184,end
timer_stats,697863581180387,PAPI_L3_TCM,1, 33.39428711,  3.79931640,end
timer_stats,697863582352484,PAPI_L3_TCM,1, 33.46960449,  3.80935669,end
timer_stats,697863583524705,PAPI_L3_TCM,0, 33.54199219,  3.81948853,end
timer_stats,697863584699319,PAPI_L3_TCM,1, 33.62011719,  3.82980347,end
timer_stats,697863585876053,PAPI_L3_TCM,1, 33.69445801,  3.83990478,end
timer_stats,697863587049590,PAPI_L3_TCM,1, 33.81915283,  3.85514832,end
timer_stats,697863588225077,PAPI_L3_TCM,1, 33.91748047,  3.87042236,end
timer_stats,697863589399158,PAPI_L3_TCM,0, 33.99633789,  3.88003540,end
timer_stats,697863590574875,PAPI_L3_TCM,0, 34.07055664,  3.89016723,end
timer_stats,697863591748659,PAPI_L3_TCM,2, 34.14447021,  3.90005493,end
timer_stats,697863592923473,PAPI_L3_TCM,2, 34.21575928,  3.91018677,end
timer_stats,697863594095334,PAPI_L3_TCM,0, 34.36682129,  3.93011475,end
timer_stats,697863595268500,PAPI_L3_TCM,0, 34.44152832,  3.94042969,end
timer_stats,697863596440221,PAPI_L3_TCM,2, 34.51397705,  3.95031738,end
timer_stats,697863597611312,PAPI_L3_TCM,1, 34.58612060,  3.96043396,end
timer_stats,697863598781966,PAPI_L3_TCM,0, 34.67144775,  3.97016907,end
timer_stats,697863599952927,PAPI_L3_TCM,2, 34.73260498,  3.98059082,end
timer_stats,697863601099130,PAPI_L3_TCM,2, 34.85192871,  3.99517822,end
timer_stats,697863602245648,PAPI_L3_TCM,0, 34.96661377,  4.01008606,end
timer_stats,697863603415462,PAPI_L3_TCM,0, 35.02612305,  4.02003479,end
timer_stats,697863604588242,PAPI_L3_TCM,1, 35.09912109,  4.03010559,end
timer_stats,697863605758586,PAPI_L3_TCM,2, 35.17193603,  4.04023743,end
timer_stats,697863606934720,PAPI_L3_TCM,1, 35.25781250,  4.04563904,end
timer_stats,697863608112704,PAPI_L3_TCM,2, 35.39880371,  4.06631470,end
timer_stats,697863609274235,PAPI_L3_TCM,0, 35.47070312,  4.07640076,end
timer_stats,697863610445762,PAPI_L3_TCM,1, 35.54571533,  4.08695984,end
timer_stats,697863611619916,PAPI_L3_TCM,0, 35.62054443,  4.09703064,end
timer_stats,697863612791397,PAPI_L3_TCM,1, 35.70513916,  4.10707092,end
timer_stats,697863613976558,PAPI_L3_TCM,1, 35.76770019,  4.11723328,end
timer_stats,697863615149452,PAPI_L3_TCM,0, 35.91625976,  4.13764954,end
timer_stats,697863616323629,PAPI_L3_TCM,1, 35.98870849,  4.14776611,end
timer_stats,697863617473456,PAPI_L3_TCM,0, 36.06475830,  4.15808105,end
timer_stats,697863618637374,PAPI_L3_TCM,0, 36.13769531,  4.16796875,end
timer_stats,697863619801421,PAPI_L3_TCM,1, 36.21258545,  4.17759704,end
timer_stats,697863620979815,PAPI_L3_TCM,1, 36.28417969,  4.18772888,end
timer_stats,697863622142155,PAPI_L3_TCM,2, 36.44006348,  4.20704651,end
timer_stats,697863623316159,PAPI_L3_TCM,0, 36.51416015,  4.21739197,end
timer_stats,697863624493156,PAPI_L3_TCM,1, 36.58538818,  4.22752380,end
timer_stats,697863625668533,PAPI_L3_TCM,0, 36.67443848,  4.23748779,end
timer_stats,697863626844781,PAPI_L3_TCM,1, 36.73431396,  4.24792480,end
timer_stats,697863628033108,PAPI_L3_TCM,1, 36.80957031,  4.25823975,end
timer_stats,697863629207409,PAPI_L3_TCM,1, 36.91802978,  4.27297973,end
timer_stats,697863630340243,PAPI_L3_TCM,0, 37.04919434,  4.28840637,end
timer_stats,697863631499393,PAPI_L3_TCM,0, 37.12463379,  4.29898071,end
timer_stats,697863632655141,PAPI_L3_TCM,2, 37.20251465,  4.30929565,end
timer_stats,697863633809498,PAPI_L3_TCM,2, 37.27825928,  4.31959534,end
timer_stats,697863634952719,PAPI_L3_TCM,0, 37.35058594,  4.32994079,end
timer_stats,697863636107882,PAPI_L3_TCM,5, 37.49047851,  4.34504700,end
timer_stats,697863637234829,PAPI_L3_TCM,1, 37.51708984,  4.35536194,end
timer_stats,697863638390393,PAPI_L3_TCM,2, 37.64227295,  4.37055969,end
timer_stats,697863639544854,PAPI_L3_TCM,1, 37.71569824,  4.38069153,end
timer_stats,697863640684457,PAPI_L3_TCM,15, 37.80187988,  4.39091492,end
timer_stats,697863641815730,PAPI_L3_TCM,5, 37.87805176,  4.40124512,end
timer_stats,697863642931781,PAPI_L3_TCM,5, 37.95928955,  4.41152954,end
timer_stats,697863645608378,PAPI_L3_TCM,34, 38.18133545,  4.44030762,end
timer_stats,697863646760371,PAPI_L3_TCM,8, 38.24676513,  4.44912720,end
timer_stats,697863647892783,PAPI_L3_TCM,0, 38.32324219,  4.45947265,end
timer_stats,697863649025631,PAPI_L3_TCM,1, 38.45062256,  4.47473144,end
timer_stats,697863650154779,PAPI_L3_TCM,1, 38.50592041,  4.48484802,end
timer_stats,697863651271966,PAPI_L3_TCM,6, 38.59997559,  4.49504089,end
timer_stats,697863652401872,PAPI_L3_TCM,3, 38.71881103,  4.51058960,end
timer_stats,697863653531999,PAPI_L3_TCM,2, 38.81127930,  4.52081299,end
timer_stats,697863654646012,PAPI_L3_TCM,1, 38.87872314,  4.53097534,end
timer_stats,697863655762349,PAPI_L3_TCM,2, 38.96575928,  4.54147339,end
timer_stats,697863656878771,PAPI_L3_TCM,0, 39.04943848,  4.55178833,end
timer_stats,697863657996213,PAPI_L3_TCM,1, 39.12103271,  4.56266785,end
timer_stats,697863659116549,PAPI_L3_TCM,1, 39.25616455,  4.57810974,end
timer_stats,697863660236687,PAPI_L3_TCM,3, 39.32141113,  4.58348083,end
timer_stats,697863661340099,PAPI_L3_TCM,1, 39.45385742,  4.59896851,end
timer_stats,697863662455433,PAPI_L3_TCM,1, 39.53521728,  4.60946655,end
timer_stats,697863663570612,PAPI_L3_TCM,1, 39.62866211,  4.61947632,end
timer_stats,697863664684972,PAPI_L3_TCM,3, 39.71270752,  4.62954712,end
timer_stats,697863665796715,PAPI_L3_TCM,0, 39.79479980,  4.63940430,end
timer_stats,697863666908039,PAPI_L3_TCM,1, 39.87530518,  4.64950561,end
timer_stats,697863668023834,PAPI_L3_TCM,4, 39.94873047,  4.65969848,end
timer_stats,697863669134405,PAPI_L3_TCM,1, 40.08160400,  4.67497253,end
timer_stats,697863670259148,PAPI_L3_TCM,0, 40.20520020,  4.69013977,end
timer_stats,697863671384037,PAPI_L3_TCM,1, 40.29180908,  4.70021057,end
timer_stats,697863672496903,PAPI_L3_TCM,5, 40.36370849,  4.71037292,end
timer_stats,697863673622336,PAPI_L3_TCM,1, 40.45697021,  4.72010803,end
timer_stats,697863674734824,PAPI_L3_TCM,1, 40.54187012,  4.73042297,end
timer_stats,697863675843807,PAPI_L3_TCM,0, 40.61437988,  4.74058533,end
timer_stats,697863677064462,PAPI_L3_TCM,59, 40.70544434,  4.75108337,end
timer_stats,697863678252412,PAPI_L3_TCM,23, 40.85345459,  4.77264404,end
timer_stats,697863679368519,PAPI_L3_TCM,3, 40.93914795,  4.78335571,end
timer_stats,697863680492460,PAPI_L3_TCM,12, 41.00994873,  4.79328918,end
timer_stats,697863681622464,PAPI_L3_TCM,6, 41.10198974,  4.80326843,end
timer_stats,697863682752220,PAPI_L3_TCM,3, 41.18280029,  4.81381226,end
timer_stats,697863683886812,PAPI_L3_TCM,3, 41.25323486,  4.82394409,end
timer_stats,697863685037857,PAPI_L3_TCM,6, 41.34240723,  4.83392334,end
timer_stats,697863686199454,PAPI_L3_TCM,0, 41.44805908,  4.84942627,end
timer_stats,697863687345079,PAPI_L3_TCM,0, 41.57281494,  4.86492920,end
timer_stats,697863688501183,PAPI_L3_TCM,1, 41.65264893,  4.87500000,end
timer_stats,697863689648310,PAPI_L3_TCM,2, 41.71856689,  4.88539123,end
timer_stats,697863690801610,PAPI_L3_TCM,2, 41.81072998,  4.89533996,end
timer_stats,697863691961888,PAPI_L3_TCM,3, 41.87982178,  4.90058899,end
timer_stats,697863693143462,PAPI_L3_TCM,6, 42.00738525,  4.91609192,end
timer_stats,697863694294745,PAPI_L3_TCM,3, 42.11236572,  4.93089294,end
timer_stats,697863695459339,PAPI_L3_TCM,3, 42.18951416,  4.94099426,end
timer_stats,697863696621463,PAPI_L3_TCM,2, 42.27563476,  4.95124817,end
timer_stats,697863697772510,PAPI_L3_TCM,4, 42.34759521,  4.96112060,end
timer_stats,697863698921245,PAPI_L3_TCM,2, 42.41625976,  4.97103882,end
timer_stats,697863700055300,PAPI_L3_TCM,2, 42.50097656,  4.98126221,end
timer_stats,697863701209488,PAPI_L3_TCM,2, 42.60211182,  4.99676514,end
timer_stats,697863702350065,PAPI_L3_TCM,2, 42.72308349,  5.01202393,end
timer_stats,697863703493623,PAPI_L3_TCM,1, 42.80346680,  5.02255249,end
timer_stats,697863704638697,PAPI_L3_TCM,3, 42.88104248,  5.03265381,end
timer_stats,697863705780978,PAPI_L3_TCM,2, 42.95867920,  5.04272461,end
timer_stats,697863706924833,PAPI_L3_TCM,1, 43.03021240,  5.05282593,end
timer_stats,697863708063211,PAPI_L3_TCM,5, 43.11108398,  5.06335449,end
timer_stats,697863709207493,PAPI_L3_TCM,3, 43.20758057,  5.07911682,end
timer_stats,697863710347662,PAPI_L3_TCM,1, 43.33557129,  5.09434509,end
timer_stats,697863711483226,PAPI_L3_TCM,0, 43.41094971,  5.10444641,end
timer_stats,697863712612956,PAPI_L3_TCM,3, 43.48822021,  5.11477661,end
timer_stats,697863713748546,PAPI_L3_TCM,4, 43.56597900,  5.12463379,end
timer_stats,697863714874993,PAPI_L3_TCM,6, 43.64660644,  5.13494873,end
timer_stats,697863715997778,PAPI_L3_TCM,1, 43.72509765,  5.14526367,end
timer_stats,697863717127415,PAPI_L3_TCM,4, 43.80596924,  5.15556335,end
timer_stats,697863718249006,PAPI_L3_TCM,4, 43.91290283,  5.17109680,end
timer_stats,697863719368899,PAPI_L3_TCM,1, 44.04492187,  5.18629455,end
timer_stats,697863720493273,PAPI_L3_TCM,0, 44.13104248,  5.19657898,end
timer_stats,697863721619227,PAPI_L3_TCM,1, 44.20556640,  5.20690918,end
timer_stats,697863722743265,PAPI_L3_TCM,2, 44.29168701,  5.21694946,end
timer_stats,697863723864313,PAPI_L3_TCM,2, 44.36981201,  5.22708130,end
timer_stats,697863724985275,PAPI_L3_TCM,0, 44.45233154,  5.23715210,end
timer_stats,697863726089289,PAPI_L3_TCM,2, 44.53448486,  5.24748230,end
timer_stats,697863727204863,PAPI_L3_TCM,0, 44.65484619,  5.26255798,end
timer_stats,697863728321912,PAPI_L3_TCM,3, 44.77148437,  5.27806091,end
timer_stats,697863729422582,PAPI_L3_TCM,1, 44.86157226,  5.28811645,end
timer_stats,697863730524212,PAPI_L3_TCM,1, 44.94488525,  5.29869079,end
timer_stats,697863731640483,PAPI_L3_TCM,0, 45.03814697,  5.30873108,end
timer_stats,697863732756873,PAPI_L3_TCM,3, 45.12658691,  5.31883240,end
timer_stats,697863733872011,PAPI_L3_TCM,0, 45.21295166,  5.32872009,end
timer_stats,697863734986597,PAPI_L3_TCM,1, 45.30487060,  5.33879089,end
timer_stats,697863736101464,PAPI_L3_TCM,4, 45.39361572,  5.34913635,end
timer_stats,697863737192005,PAPI_L3_TCM,3, 45.51580810,  5.36480713,end
timer_stats,697863738307443,PAPI_L3_TCM,1, 45.65618896,  5.38006592,end
timer_stats,697863739427600,PAPI_L3_TCM,2, 45.75433349,  5.39054870,end
timer_stats,697863740553776,PAPI_L3_TCM,2, 45.84332275,  5.40104675,end
timer_stats,697863741871803,PAPI_L3_TCM,8, 45.92443848,  5.41163635,end
timer_stats,697863743096393,PAPI_L3_TCM,19, 46.00415039,  5.42189026,end
timer_stats,697863744203131,PAPI_L3_TCM,4, 46.08557129,  5.43238830,end
timer_stats,697863745295217,PAPI_L3_TCM,0, 46.24468994,  5.45321655,end
timer_stats,697863746396740,PAPI_L3_TCM,1, 46.33270263,  5.46347046,end
timer_stats,697863747501972,PAPI_L3_TCM,1, 46.41394043,  5.47380066,end
timer_stats,697863748625034,PAPI_L3_TCM,1, 46.50006103,  5.48478699,end
timer_stats,697863749740828,PAPI_L3_TCM,1, 46.58618164,  5.49510193,end
timer_stats,697863750878491,PAPI_L3_TCM,1, 46.67083740,  5.50541687,end
timer_stats,697863752027649,PAPI_L3_TCM,0, 46.75946045,  5.51548767,end
timer_stats,697863753147014,PAPI_L3_TCM,1, 46.84295654,  5.52577209,end
timer_stats,697863754287976,PAPI_L3_TCM,1, 46.97705078,  5.54122925,end
timer_stats,697863755430337,PAPI_L3_TCM,1, 47.09844971,  5.55715942,end
timer_stats,697863756549712,PAPI_L3_TCM,0, 47.18762207,  5.56765747,end
timer_stats,697863760974541,PAPI_L3_TCM,31, 47.52520752,  5.60461426,end
timer_stats,697863762112614,PAPI_L3_TCM,1, 47.60894775,  5.61535644,end
timer_stats,697863763239156,PAPI_L3_TCM,0, 47.77832031,  5.63101196,end
timer_stats,697863764365365,PAPI_L3_TCM,1, 47.86596680,  5.64669800,end
timer_stats,697863765486005,PAPI_L3_TCM,1, 47.95471191,  5.65698242,end
timer_stats,697863766627060,PAPI_L3_TCM,0, 48.04150390,  5.66705322,end
timer_stats,697863767769626,PAPI_L3_TCM,1, 48.12756348,  5.67718506,end
timer_stats,697863768915510,PAPI_L3_TCM,1, 48.22369385,  5.68745422,end
timer_stats,697863770056751,PAPI_L3_TCM,1, 48.30450439,  5.69804382,end
timer_stats,697863771178778,PAPI_L3_TCM,2, 48.39947510,  5.70851135,end
timer_stats,697863772299539,PAPI_L3_TCM,1, 48.57647705,  5.72955322,end
timer_stats,697863773442647,PAPI_L3_TCM,0, 48.67114258,  5.73983764,end
timer_stats,697863774558036,PAPI_L3_TCM,2, 48.75970459,  5.75082397,end
timer_stats,697863775675592,PAPI_L3_TCM,1, 48.85229492,  5.76200867,end
timer_stats,697863776790224,PAPI_L3_TCM,1, 48.95434570,  5.77223205,end
timer_stats,697863777903516,PAPI_L3_TCM,1, 49.04675293,  5.78300476,end
timer_stats,697863779015245,PAPI_L3_TCM,1, 49.14184570,  5.79328918,end
timer_stats,697863780129588,PAPI_L3_TCM,0, 49.23339844,  5.80407715,end
timer_stats,697863781222247,PAPI_L3_TCM,5, 49.33093262,  5.81991577,end
timer_stats,697863782358617,PAPI_L3_TCM,0, 49.52178955,  5.83581543,end
timer_stats,697863783498970,PAPI_L3_TCM,2, 49.61157226,  5.84588623,end
timer_stats,697863784632588,PAPI_L3_TCM,0, 49.70037842,  5.85618591,end
timer_stats,697863785766102,PAPI_L3_TCM,1, 49.78375244,  5.86524963,end
timer_stats,697863786902109,PAPI_L3_TCM,0, 49.87164307,  5.87400818,end
timer_stats,697863788033320,PAPI_L3_TCM,1, 49.96105957,  5.88252258,end
timer_stats,697863789167795,PAPI_L3_TCM,2, 50.04852295,  5.89152527,end
timer_stats,697863790302463,PAPI_L3_TCM,1, 50.16961670,  5.90547180,end
timer_stats,697863791431458,PAPI_L3_TCM,0, 50.30206299,  5.92094421,end
timer_stats,697863792558868,PAPI_L3_TCM,2, 50.38623047,  5.92974853,end
timer_stats,697863793689577,PAPI_L3_TCM,0, 50.46673584,  5.93859863,end
timer_stats,697863794824475,PAPI_L3_TCM,1, 50.54937744,  5.94717407,end
timer_stats,697863795960686,PAPI_L3_TCM,0, 50.62921143,  5.95600891,end
timer_stats,697863797096761,PAPI_L3_TCM,1, 50.71441650,  5.96478271,end
timer_stats,697863798216299,PAPI_L3_TCM,0, 50.79656982,  5.97360229,end
timer_stats,697863799362977,PAPI_L3_TCM,1, 50.97888184,  5.99438477,end
timer_stats,697863800500308,PAPI_L3_TCM,0, 51.06457519,  6.00314331,end
timer_stats,697863801638769,PAPI_L3_TCM,3, 51.15344238,  6.01168823,end
timer_stats,697863802781467,PAPI_L3_TCM,0, 51.23748779,  6.02049255,end
timer_stats,697863803918076,PAPI_L3_TCM,1, 51.32281494,  6.02931213,end
timer_stats,697863805055477,PAPI_L3_TCM,0, 51.41210937,  6.03807068,end
timer_stats,697863806202773,PAPI_L3_TCM,1, 51.49609375,  6.04710388,end
timer_stats,697863807342714,PAPI_L3_TCM,0, 51.66571045,  6.06619263,end
timer_stats,697863808483316,PAPI_L3_TCM,1, 51.75231934,  6.07496643,end
timer_stats,697863809624975,PAPI_L3_TCM,0, 51.84033203,  6.08372497,end
timer_stats,697863810764551,PAPI_L3_TCM,1, 51.92590332,  6.09254455,end
timer_stats,697863811904807,PAPI_L3_TCM,0, 52.00933838,  6.10157776,end
timer_stats,697863813027869,PAPI_L3_TCM,1, 52.10192871,  6.11076355,end
timer_stats,697863814153534,PAPI_L3_TCM,0, 52.18621826,  6.11955261,end
timer_stats,697863815292159,PAPI_L3_TCM,3, 52.35137939,  6.13914490,end
timer_stats,697863816423093,PAPI_L3_TCM,0, 52.43969726,  6.14811707,end
timer_stats,697863817557326,PAPI_L3_TCM,2, 52.52978515,  6.15687561,end
timer_stats,697863818685853,PAPI_L3_TCM,1, 52.61590576,  6.16564941,end
timer_stats,697863819813969,PAPI_L3_TCM,2, 52.70404053,  6.17440796,end
timer_stats,697863820928302,PAPI_L3_TCM,0, 52.78723144,  6.18318176,end
timer_stats,697863822039014,PAPI_L3_TCM,1, 52.86907959,  6.19194031,end
timer_stats,697863823132087,PAPI_L3_TCM,0, 52.95324707,  6.20091247,end
timer_stats,697863824250700,PAPI_L3_TCM,1, 53.08398437,  6.21464538,end
timer_stats,697863825371451,PAPI_L3_TCM,0, 53.20629883,  6.23005676,end
timer_stats,697863826492416,PAPI_L3_TCM,1, 53.28723144,  6.23889160,end
timer_stats,697863827612372,PAPI_L3_TCM,0, 53.37451172,  6.24765015,end
timer_stats,697863828727722,PAPI_L3_TCM,2, 53.45977783,  6.25619507,end
timer_stats,697863829848909,PAPI_L3_TCM,1, 53.54565430,  6.26516724,end
timer_stats,697863830975280,PAPI_L3_TCM,2, 53.63165283,  6.27548218,end
timer_stats,697863832110461,PAPI_L3_TCM,3, 53.72015381,  6.28555298,end
timer_stats,697863833217920,PAPI_L3_TCM,1, 53.80560303,  6.29586792,end
timer_stats,697863834348242,PAPI_L3_TCM,0, 53.96893310,  6.31652832,end
timer_stats,697863835491119,PAPI_L3_TCM,1, 54.05126953,  6.32664490,end
timer_stats,697863836636443,PAPI_L3_TCM,1, 54.13720703,  6.33647156,end
timer_stats,697863837764895,PAPI_L3_TCM,2, 54.22302246,  6.34657287,end
timer_stats,697863838889996,PAPI_L3_TCM,1, 54.30615234,  6.35667419,end
timer_stats,697863840018671,PAPI_L3_TCM,2, 54.39160156,  6.36698913,end
timer_stats,697863841137969,PAPI_L3_TCM,0, 54.47760010,  6.37730408,end
timer_stats,697863842266822,PAPI_L3_TCM,1, 54.56658935,  6.38740540,end
timer_stats,697863843397836,PAPI_L3_TCM,0, 54.74450684,  6.40757751,end
timer_stats,697863844525812,PAPI_L3_TCM,2, 54.83697510,  6.41764832,end
timer_stats,697863845653628,PAPI_L3_TCM,1, 54.93457031,  6.42791748,end
timer_stats,697863846779698,PAPI_L3_TCM,3, 55.02734375,  6.43823242,end
timer_stats,697863847903127,PAPI_L3_TCM,0, 55.11871338,  6.44879150,end
timer_stats,697863849036396,PAPI_L3_TCM,2, 55.21252441,  6.45867920,end
timer_stats,697863850160274,PAPI_L3_TCM,0, 55.30938721,  6.46875000,end
timer_stats,697863851285864,PAPI_L3_TCM,1, 55.44250488,  6.48428345,end
timer_stats,697863852413045,PAPI_L3_TCM,2, 55.58374023,  6.49902344,end
timer_stats,697863853557651,PAPI_L3_TCM,3, 55.67749023,  6.50971985,end
timer_stats,697863854682430,PAPI_L3_TCM,1, 55.77630615,  6.52110290,end
timer_stats,697863855804819,PAPI_L3_TCM,2, 55.86529541,  6.53208923,end
timer_stats,697863856931313,PAPI_L3_TCM,13, 55.96496582,  6.54254150,end
timer_stats,697863858039819,PAPI_L3_TCM,4, 56.05554199,  6.55305481,end
timer_stats,697863859141585,PAPI_L3_TCM,0, 56.14306640,  6.56358337,end
timer_stats,697863860253101,PAPI_L3_TCM,1, 56.22961426,  6.57435608,end
timer_stats,697863861365881,PAPI_L3_TCM,0, 56.36724853,  6.58976745,end
timer_stats,697863862492723,PAPI_L3_TCM,1, 56.49072265,  6.60391235,end
timer_stats,697863863616930,PAPI_L3_TCM,1, 56.57733154,  6.61270142,end
timer_stats,697863864724031,PAPI_L3_TCM,2, 56.66625976,  6.62254333,end
timer_stats,697863865845976,PAPI_L3_TCM,0, 56.75115967,  6.63130188,end
timer_stats,697863866964455,PAPI_L3_TCM,1, 56.83605957,  6.63986206,end
timer_stats,697863868085895,PAPI_L3_TCM,1, 56.91925049,  6.64505005,end
timer_stats,697863869183657,PAPI_L3_TCM,2, 57.00280762,  6.65386963,end
timer_stats,697863870307469,PAPI_L3_TCM,0, 57.13232422,  6.66937256,end
timer_stats,697863871430767,PAPI_L3_TCM,1, 57.26110840,  6.68508911,end
timer_stats,697863872532461,PAPI_L3_TCM,2, 57.35168457,  6.69540405,end
timer_stats,697863873649317,PAPI_L3_TCM,2, 57.43426514,  6.70419311,end
timer_stats,697863874765404,PAPI_L3_TCM,1, 57.52294922,  6.70936584,end
timer_stats,697863875887405,PAPI_L3_TCM,1, 57.60534668,  6.71817017,end
timer_stats,697863877011235,PAPI_L3_TCM,2, 57.68664551,  6.72720337,end
timer_stats,697863878140158,PAPI_L3_TCM,1, 57.77001953,  6.73187256,end
timer_stats,697863879270781,PAPI_L3_TCM,0, 57.85076904,  6.74067688,end
timer_stats,697863880400749,PAPI_L3_TCM,5, 58.01831055,  6.76133728,end
timer_stats,697863881504239,PAPI_L3_TCM,3, 58.10321045,  6.77165222,end
timer_stats,697863882608370,PAPI_L3_TCM,2, 58.19525146,  6.78167725,end
timer_stats,697863883691384,PAPI_L3_TCM,1, 58.27734375,  6.79180908,end
timer_stats,697863884794339,PAPI_L3_TCM,1, 58.36328125,  6.80165100,end
timer_stats,697863885898101,PAPI_L3_TCM,0, 58.45013428,  6.81173706,end
timer_stats,697863887002148,PAPI_L3_TCM,3, 58.54534912,  6.82174682,end
timer_stats,697863888105180,PAPI_L3_TCM,0, 58.62908935,  6.83184814,end
timer_stats,697863889187497,PAPI_L3_TCM,2, 58.71527099,  6.84088135,end
timer_stats,697863890283140,PAPI_L3_TCM,3, 58.80786133,  6.85116577,end
timer_stats,697863891380179,PAPI_L3_TCM,1, 58.94750976,  6.86685181,end
timer_stats,697863892475638,PAPI_L3_TCM,0, 59.08520508,  6.88250732,end
timer_stats,697863893579777,PAPI_L3_TCM,1, 59.17114258,  6.89306640,end
timer_stats,697863894689745,PAPI_L3_TCM,0, 59.26727295,  6.90356445,end
timer_stats,697863895789912,PAPI_L3_TCM,1, 59.36132812,  6.91384888,end
timer_stats,697863896891244,PAPI_L3_TCM,0, 59.45013428,  6.92446899,end
timer_stats,697863897990643,PAPI_L3_TCM,1, 59.54443359,  6.93499756,end
timer_stats,697863899090407,PAPI_L3_TCM,0, 59.63616943,  6.94554138,end
timer_stats,697863900190969,PAPI_L3_TCM,1, 59.73193359,  6.95603943,end
timer_stats,697863901271619,PAPI_L3_TCM,0, 59.82171631,  6.96635437,end
timer_stats,697863902372646,PAPI_L3_TCM,3, 59.96130371,  6.97663879,end
timer_stats,697863903477790,PAPI_L3_TCM,8, 60.10229492,  6.99789429,end
timer_stats,697863904584618,PAPI_L3_TCM,8, 60.18780518,  7.00639343,end
timer_stats,697863905705626,PAPI_L3_TCM,11, 60.26702881,  7.01367187,end
