timer_stats,696747100868765,PAPI_L3_TCM,176,  0.08941650,  0.01055908,end
timer_stats,696747101968259,PAPI_L3_TCM,27,  0.18408203,  0.02127075,end
timer_stats,696747103047798,PAPI_L3_TCM,3,  0.27105713,  0.03149414,end
timer_stats,696747104174182,PAPI_L3_TCM,2,  0.36444092,  0.04219055,end
timer_stats,696747105280817,PAPI_L3_TCM,5,  0.45422363,  0.05168152,end
timer_stats,696747106426455,PAPI_L3_TCM,5,  0.64202881,  0.06526184,end
timer_stats,696747107586143,PAPI_L3_TCM,0,  0.73791504,  0.08160400,end
timer_stats,696747108766802,PAPI_L3_TCM,8,  0.83447266,  0.09033203,end
timer_stats,696747109952820,PAPI_L3_TCM,1,  0.92218018,  0.10003662,end
timer_stats,696747111134348,PAPI_L3_TCM,0,  1.01684570,  0.10876465,end
timer_stats,696747112272296,PAPI_L3_TCM,0,  1.10760498,  0.11846924,end
timer_stats,696747113409041,PAPI_L3_TCM,1,  1.25067139,  0.12817383,end
timer_stats,696747114565962,PAPI_L3_TCM,1,  1.38641357,  0.14424133,end
timer_stats,696747115722501,PAPI_L3_TCM,4,  1.48321533,  0.15443420,end
timer_stats,696747116899932,PAPI_L3_TCM,2,  1.57366943,  0.16587830,end
timer_stats,696747118070380,PAPI_L3_TCM,4,  1.66680908,  0.17626953,end
timer_stats,696747119350632,PAPI_L3_TCM,0,  1.78460693,  0.18986511,end
timer_stats,696747120620384,PAPI_L3_TCM,0,  2.01879883,  0.21424866,end
timer_stats,696747121890952,PAPI_L3_TCM,5,  2.14227295,  0.22834778,end
timer_stats,696747122997277,PAPI_L3_TCM,0,  2.26110840,  0.23857117,end
timer_stats,696747124104572,PAPI_L3_TCM,0,  2.37420654,  0.25178528,end
timer_stats,696747125208236,PAPI_L3_TCM,1,  2.51959228,  0.26475525,end
timer_stats,696747126313471,PAPI_L3_TCM,0,  2.66265869,  0.27732849,end
timer_stats,696747127414507,PAPI_L3_TCM,1,  2.79827881,  0.29043579,end
timer_stats,696747128510657,PAPI_L3_TCM,4,  3.00811767,  0.30943298,end
timer_stats,696747129608524,PAPI_L3_TCM,2,  3.25469971,  0.33006286,end
timer_stats,696747130705233,PAPI_L3_TCM,0,  3.43078613,  0.34393311,end
timer_stats,696747131801680,PAPI_L3_TCM,2,  3.62695312,  0.35775757,end
timer_stats,696747132890887,PAPI_L3_TCM,0,  3.81170654,  0.36973572,end
timer_stats,696747133979335,PAPI_L3_TCM,5,  4.00665283,  0.38432312,end
timer_stats,696747135061474,PAPI_L3_TCM,1,  4.20562744,  0.39857483,end
timer_stats,696747136151122,PAPI_L3_TCM,8,  4.39770508,  0.41384888,end
timer_stats,696747137243200,PAPI_L3_TCM,5,  4.61083984,  0.42863464,end
timer_stats,696747138334758,PAPI_L3_TCM,1,  4.82312012,  0.44305420,end
timer_stats,696747141760322,PAPI_L3_TCM,69,  5.50476074,  0.49511719,end
timer_stats,696747142860640,PAPI_L3_TCM,18,  5.67987060,  0.50895691,end
timer_stats,696747143948176,PAPI_L3_TCM,9,  5.85339355,  0.52423096,end
timer_stats,696747145034037,PAPI_L3_TCM,3,  6.05932617,  0.54101562,end
timer_stats,696747146116439,PAPI_L3_TCM,2,  6.27746582,  0.55541992,end
timer_stats,696747147197000,PAPI_L3_TCM,4,  6.49420166,  0.57051086,end
timer_stats,696747148277385,PAPI_L3_TCM,3,  6.72241211,  0.58532715,end
timer_stats,696747149359423,PAPI_L3_TCM,4,  6.92291260,  0.59999084,end
timer_stats,696747150442957,PAPI_L3_TCM,12,  7.24749756,  0.62338257,end
timer_stats,696747151525013,PAPI_L3_TCM,3,  7.45916748,  0.63804626,end
timer_stats,696747152607146,PAPI_L3_TCM,6,  7.78948975,  0.66093445,end
timer_stats,696747153689378,PAPI_L3_TCM,7,  8.01312256,  0.67617798,end
timer_stats,696747154770699,PAPI_L3_TCM,6,  8.23419189,  0.69136047,end
timer_stats,696747155855793,PAPI_L3_TCM,7,  8.44262695,  0.70684814,end
timer_stats,696747156939486,PAPI_L3_TCM,4,  8.66430664,  0.72207641,end
timer_stats,696747158021969,PAPI_L3_TCM,4,  8.88110351,  0.73756409,end
timer_stats,696747159104831,PAPI_L3_TCM,2,  9.09851074,  0.75236511,end
timer_stats,696747160187342,PAPI_L3_TCM,5,  9.32458496,  0.76780701,end
timer_stats,696747161272024,PAPI_L3_TCM,3,  9.54333496,  0.78376770,end
timer_stats,696747162354941,PAPI_L3_TCM,11,  9.77136230,  0.79911804,end
timer_stats,696747168350537,PAPI_L3_TCM,279, 11.09271240,  0.89079285,end
timer_stats,696747169441381,PAPI_L3_TCM,129, 11.37188721,  0.91217041,end
timer_stats,696747170521253,PAPI_L3_TCM,3, 11.65985107,  0.93635559,end
timer_stats,696747171602973,PAPI_L3_TCM,1, 11.87835693,  0.95141601,end
timer_stats,696747172687641,PAPI_L3_TCM,1, 12.11187744,  0.96641541,end
timer_stats,696747173774378,PAPI_L3_TCM,6, 12.34289551,  0.98141479,end
timer_stats,696747174858717,PAPI_L3_TCM,0, 12.55889892,  0.99623108,end
timer_stats,696747175943064,PAPI_L3_TCM,7, 12.77978516,  1.01155090,end
timer_stats,696747177026922,PAPI_L3_TCM,2, 13.01306152,  1.02680969,end
timer_stats,696747178112330,PAPI_L3_TCM,8, 13.22637939,  1.04190063,end
timer_stats,696747179197618,PAPI_L3_TCM,7, 13.46136474,  1.05691528,end
timer_stats,696747180280796,PAPI_L3_TCM,5, 13.67364502,  1.07200622,end
timer_stats,696747181365104,PAPI_L3_TCM,5, 13.89129639,  1.08775329,end
timer_stats,696747182453530,PAPI_L3_TCM,17, 14.12579346,  1.10269165,end
timer_stats,696747183536725,PAPI_L3_TCM,12, 14.45355224,  1.12632751,end
timer_stats,696747184621711,PAPI_L3_TCM,8, 14.77410889,  1.15016174,end
timer_stats,696747187845724,PAPI_L3_TCM,19, 15.30499267,  1.19349670,end
timer_stats,696747188931716,PAPI_L3_TCM,4, 15.48620605,  1.21041870,end
timer_stats,696747190016024,PAPI_L3_TCM,14, 15.71148682,  1.22679138,end
timer_stats,696747191095030,PAPI_L3_TCM,25, 15.94171142,  1.24330139,end
timer_stats,696747192165851,PAPI_L3_TCM,26, 16.16906738,  1.26087952,end
timer_stats,696747193256894,PAPI_L3_TCM,11, 16.38568115,  1.27745056,end
timer_stats,696747194344772,PAPI_L3_TCM,5, 16.60107422,  1.29383850,end
timer_stats,696747195433425,PAPI_L3_TCM,16, 16.81884766,  1.31135559,end
timer_stats,696747196521243,PAPI_L3_TCM,15, 17.14147949,  1.33770752,end
timer_stats,696747197606024,PAPI_L3_TCM,14, 17.48901367,  1.35491943,end
timer_stats,696747198690439,PAPI_L3_TCM,6, 17.71093750,  1.38081360,end
timer_stats,696747199776143,PAPI_L3_TCM,9, 17.94177246,  1.39802551,end
timer_stats,696747200860391,PAPI_L3_TCM,9, 18.17010498,  1.41744995,end
timer_stats,696747201945089,PAPI_L3_TCM,9, 18.39520264,  1.43484497,end
timer_stats,696747203029398,PAPI_L3_TCM,6, 18.62249756,  1.45254517,end
timer_stats,696747204113851,PAPI_L3_TCM,9, 18.84625244,  1.47000122,end
timer_stats,696747205197602,PAPI_L3_TCM,4, 19.07293701,  1.48762512,end
timer_stats,696747206281516,PAPI_L3_TCM,5, 19.30786133,  1.50500488,end
timer_stats,696747207363645,PAPI_L3_TCM,5, 19.53326416,  1.52307129,end
timer_stats,696747208446899,PAPI_L3_TCM,3, 19.85949707,  1.54853821,end
timer_stats,696747211486703,PAPI_L3_TCM,26, 20.54882812,  1.59155273,end
timer_stats,696747212574803,PAPI_L3_TCM,15, 20.89282226,  1.62585449,end
timer_stats,696747213660033,PAPI_L3_TCM,4, 21.11608887,  1.64283752,end
timer_stats,696747214744640,PAPI_L3_TCM,4, 21.34326172,  1.65956116,end
timer_stats,696747215827809,PAPI_L3_TCM,6, 21.57427978,  1.67701721,end
timer_stats,696747216910269,PAPI_L3_TCM,7, 21.79846191,  1.69451904,end
timer_stats,696747217994041,PAPI_L3_TCM,2, 22.01483154,  1.71173096,end
timer_stats,696747219079146,PAPI_L3_TCM,15, 22.25469971,  1.72865295,end
timer_stats,696747220163761,PAPI_L3_TCM,3, 22.48919678,  1.74610901,end
timer_stats,696747221247602,PAPI_L3_TCM,2, 22.70361328,  1.76335144,end
timer_stats,696747224556320,PAPI_L3_TCM,32, 23.36895752,  1.82350159,end
timer_stats,696747225643264,PAPI_L3_TCM,28, 23.65789795,  1.84680176,end
timer_stats,696747226728174,PAPI_L3_TCM,1, 23.88055420,  1.86503601,end
timer_stats,696747227811852,PAPI_L3_TCM,3, 24.10260010,  1.88250732,end
timer_stats,696747228900436,PAPI_L3_TCM,7, 24.32977295,  1.89880371,end
timer_stats,696747229986004,PAPI_L3_TCM,9, 24.56048584,  1.91511536,end
timer_stats,696747231069499,PAPI_L3_TCM,1, 24.76953125,  1.93208313,end
timer_stats,696747232153120,PAPI_L3_TCM,5, 25.00250244,  1.95132446,end
timer_stats,696747233238204,PAPI_L3_TCM,7, 25.22802734,  1.97039795,end
timer_stats,696747234321779,PAPI_L3_TCM,5, 25.46746826,  1.98757935,end
timer_stats,696747235413932,PAPI_L3_TCM,6, 25.67626953,  2.00413513,end
timer_stats,696747236494109,PAPI_L3_TCM,2, 25.90362549,  2.02210998,end
timer_stats,696747237577343,PAPI_L3_TCM,1, 26.23590088,  2.04696655,end
timer_stats,696747238656973,PAPI_L3_TCM,4, 26.57525635,  2.07394409,end
timer_stats,696747239737846,PAPI_L3_TCM,5, 26.78460693,  2.09092712,end
timer_stats,696747240819362,PAPI_L3_TCM,7, 27.01239014,  2.10736084,end
timer_stats,696747241896293,PAPI_L3_TCM,4, 27.22473144,  2.12426758,end
timer_stats,696747242977439,PAPI_L3_TCM,6, 27.43426514,  2.14091492,end
timer_stats,696747244023159,PAPI_L3_TCM,4, 27.64703369,  2.15628052,end
timer_stats,696747245104921,PAPI_L3_TCM,6, 27.85070801,  2.17237854,end
timer_stats,696747246182647,PAPI_L3_TCM,2, 28.04449463,  2.18772888,end
timer_stats,696747247262981,PAPI_L3_TCM,4, 28.24212646,  2.20280456,end
timer_stats,696747248342547,PAPI_L3_TCM,0, 28.43713379,  2.21823120,end
timer_stats,696747249422200,PAPI_L3_TCM,3, 28.62359619,  2.23342895,end
timer_stats,696747250505624,PAPI_L3_TCM,3, 28.80499268,  2.24908447,end
timer_stats,696747251583988,PAPI_L3_TCM,4, 29.13226318,  2.26998901,end
timer_stats,696747253245658,PAPI_L3_TCM,21, 29.28625488,  2.29042053,end
timer_stats,696747254351954,PAPI_L3_TCM,55, 29.41937256,  2.30372620,end
timer_stats,696747255449442,PAPI_L3_TCM,0, 29.58605957,  2.31883240,end
timer_stats,696747256543947,PAPI_L3_TCM,5, 29.82678223,  2.33908081,end
timer_stats,696747257645479,PAPI_L3_TCM,5, 30.08270264,  2.35975647,end
timer_stats,696747258741539,PAPI_L3_TCM,1, 30.25439453,  2.37396240,end
timer_stats,696747259837541,PAPI_L3_TCM,1, 30.41625976,  2.38833618,end
timer_stats,696747260939076,PAPI_L3_TCM,4, 30.57476807,  2.40251160,end
timer_stats,696747262034991,PAPI_L3_TCM,2, 30.73834228,  2.41555786,end
timer_stats,696747263128857,PAPI_L3_TCM,4, 30.89764404,  2.43154907,end
timer_stats,696747264224057,PAPI_L3_TCM,8, 31.05871582,  2.44525146,end
timer_stats,696747265310375,PAPI_L3_TCM,6, 31.21337890,  2.45901489,end
timer_stats,696747266405484,PAPI_L3_TCM,2, 31.35864258,  2.47193909,end
timer_stats,696747267499562,PAPI_L3_TCM,2, 31.51477051,  2.48599243,end
timer_stats,696747268592266,PAPI_L3_TCM,5, 31.80603027,  2.51280212,end
timer_stats,696747269693411,PAPI_L3_TCM,3, 31.95556640,  2.52626038,end
timer_stats,696747270802262,PAPI_L3_TCM,4, 32.09606934,  2.53999328,end
timer_stats,696747271908915,PAPI_L3_TCM,4, 32.23822021,  2.55276489,end
timer_stats,696747273026861,PAPI_L3_TCM,4, 32.38653564,  2.56561279,end
timer_stats,696747274140183,PAPI_L3_TCM,4, 32.51550293,  2.57801819,end
timer_stats,696747275252405,PAPI_L3_TCM,6, 32.65893555,  2.59111023,end
timer_stats,696747276361735,PAPI_L3_TCM,1, 32.79150390,  2.60398865,end
timer_stats,696747277489046,PAPI_L3_TCM,3, 32.93798828,  2.61633301,end
timer_stats,696747278607468,PAPI_L3_TCM,4, 33.11706543,  2.63285827,end
timer_stats,696747279726607,PAPI_L3_TCM,2, 33.31439209,  2.64915466,end
timer_stats,696747280839907,PAPI_L3_TCM,7, 33.43676758,  2.66046142,end
timer_stats,696747281957442,PAPI_L3_TCM,2, 33.56237793,  2.67153931,end
timer_stats,696747283077096,PAPI_L3_TCM,1, 33.68914795,  2.68183899,end
timer_stats,696747284201112,PAPI_L3_TCM,2, 33.80963135,  2.69291687,end
timer_stats,696747285285497,PAPI_L3_TCM,6, 33.94311523,  2.70393371,end
timer_stats,696747291625111,PAPI_L3_TCM,253, 34.76666260,  2.78256226,end
timer_stats,696747292763863,PAPI_L3_TCM,138, 34.96411133,  2.80317688,end
timer_stats,696747293909793,PAPI_L3_TCM,8, 35.09985351,  2.81503296,end
timer_stats,696747295050567,PAPI_L3_TCM,4, 35.23590088,  2.82673645,end
timer_stats,696747296166294,PAPI_L3_TCM,3, 35.36761475,  2.83866882,end
timer_stats,696747297294558,PAPI_L3_TCM,2, 35.49902344,  2.85029602,end
timer_stats,696747298437320,PAPI_L3_TCM,1, 35.61968994,  2.86260986,end
timer_stats,696747299578116,PAPI_L3_TCM,3, 35.79486084,  2.88044739,end
timer_stats,696747300723186,PAPI_L3_TCM,1, 35.98730469,  2.89799499,end
timer_stats,696747301873555,PAPI_L3_TCM,3, 36.10546875,  2.90956116,end
timer_stats,696747303023309,PAPI_L3_TCM,0, 36.21984863,  2.92112732,end
timer_stats,696747304168226,PAPI_L3_TCM,3, 36.34619140,  2.93264770,end
timer_stats,696747305299922,PAPI_L3_TCM,1, 36.46514893,  2.94424438,end
timer_stats,696747306449171,PAPI_L3_TCM,2, 36.58422851,  2.95556640,end
timer_stats,696747307595781,PAPI_L3_TCM,2, 36.75396728,  2.97265625,end
timer_stats,696747308745806,PAPI_L3_TCM,2, 36.92468262,  2.98945617,end
timer_stats,696747309896558,PAPI_L3_TCM,0, 37.03955078,  3.00178528,end
timer_stats,696747311044523,PAPI_L3_TCM,2, 37.15142822,  3.01387024,end
timer_stats,696747312191617,PAPI_L3_TCM,2, 37.26947021,  3.02490234,end
timer_stats,696747313324660,PAPI_L3_TCM,2, 37.37951660,  3.03651428,end
timer_stats,696747314469297,PAPI_L3_TCM,0, 37.49389648,  3.04806519,end
timer_stats,696747315628237,PAPI_L3_TCM,2, 37.66674805,  3.06518555,end
timer_stats,696747316778239,PAPI_L3_TCM,0, 37.83520508,  3.08256531,end
timer_stats,696747317937985,PAPI_L3_TCM,1, 37.93914795,  3.09327698,end
timer_stats,696747319094306,PAPI_L3_TCM,0, 38.04248047,  3.10424805,end
timer_stats,696747320246013,PAPI_L3_TCM,3, 38.14410400,  3.11520386,end
timer_stats,696747321378722,PAPI_L3_TCM,0, 38.25390625,  3.12657165,end
timer_stats,696747322533643,PAPI_L3_TCM,2, 38.35394287,  3.13729858,end
timer_stats,696747323690810,PAPI_L3_TCM,0, 38.54797363,  3.15853882,end
timer_stats,696747324843681,PAPI_L3_TCM,2, 38.64965820,  3.16952515,end
timer_stats,696747325997680,PAPI_L3_TCM,0, 38.74621582,  3.18002319,end
timer_stats,696747327149070,PAPI_L3_TCM,1, 38.83923340,  3.19100952,end
timer_stats,696747328299197,PAPI_L3_TCM,1, 38.93835449,  3.20126343,end
timer_stats,696747329439824,PAPI_L3_TCM,4, 39.04077148,  3.21176147,end
timer_stats,696747330596422,PAPI_L3_TCM,3, 39.18829346,  3.22894287,end
timer_stats,696747331753165,PAPI_L3_TCM,4, 39.33245850,  3.24554443,end
timer_stats,696747332913417,PAPI_L3_TCM,4, 39.44207763,  3.25689697,end
timer_stats,696747334059990,PAPI_L3_TCM,1, 39.53894043,  3.26824951,end
