timer_stats,696857144460226,PAPI_L3_TCM,123,  0.16815185,  0.01069641,end
timer_stats,696857145593636,PAPI_L3_TCM,27,  0.30700683,  0.02882385,end
timer_stats,696857146722635,PAPI_L3_TCM,11,  0.40930176,  0.04057312,end
timer_stats,696857147883443,PAPI_L3_TCM,3,  0.50469971,  0.05369568,end
timer_stats,696857149034102,PAPI_L3_TCM,1,  0.61724853,  0.06520080,end
timer_stats,696857150178813,PAPI_L3_TCM,3,  0.72735596,  0.07719421,end
timer_stats,696857151332612,PAPI_L3_TCM,0,  0.82482910,  0.08857727,end
timer_stats,696857152465959,PAPI_L3_TCM,0,  1.03796387,  0.11230469,end
timer_stats,696857153605289,PAPI_L3_TCM,0,  1.13928223,  0.12402344,end
timer_stats,696857154748221,PAPI_L3_TCM,0,  1.23791504,  0.13482666,end
timer_stats,696857155845943,PAPI_L3_TCM,0,  1.34906006,  0.14666748,end
timer_stats,696857157008001,PAPI_L3_TCM,0,  1.45367432,  0.15919495,end
timer_stats,696857158125775,PAPI_L3_TCM,0,  1.56372070,  0.17137146,end
timer_stats,696857159241165,PAPI_L3_TCM,1,  1.69622803,  0.18629456,end
timer_stats,696857160336480,PAPI_L3_TCM,11,  1.82373047,  0.20121765,end
timer_stats,696857161420361,PAPI_L3_TCM,7,  2.07891846,  0.22352600,end
timer_stats,696857162762934,PAPI_L3_TCM,17,  2.21539307,  0.23648071,end
timer_stats,696857163891384,PAPI_L3_TCM,3,  2.35571289,  0.25260925,end
timer_stats,696857165376218,PAPI_L3_TCM,8,  2.49694824,  0.26512146,end
timer_stats,696857166497822,PAPI_L3_TCM,0,  2.74438476,  0.29277039,end
timer_stats,696857167611890,PAPI_L3_TCM,0,  2.89147949,  0.30868530,end
timer_stats,696857168721848,PAPI_L3_TCM,1,  3.04833984,  0.32359314,end
timer_stats,696857169815426,PAPI_L3_TCM,0,  3.23156738,  0.33784485,end
timer_stats,696857170924586,PAPI_L3_TCM,1,  3.40130615,  0.35417175,end
timer_stats,696857172025000,PAPI_L3_TCM,2,  3.61492920,  0.36978149,end
timer_stats,696857173109045,PAPI_L3_TCM,4,  3.81140137,  0.38476562,end
timer_stats,696857174194467,PAPI_L3_TCM,1,  4.02496338,  0.40115356,end
timer_stats,696857175283849,PAPI_L3_TCM,2,  4.23315430,  0.41648865,end
timer_stats,696857176366974,PAPI_L3_TCM,15,  4.44506836,  0.43109131,end
timer_stats,696857177452464,PAPI_L3_TCM,1,  4.76422119,  0.45483398,end
timer_stats,696857178540682,PAPI_L3_TCM,3,  5.07519531,  0.47984314,end
timer_stats,696857179625907,PAPI_L3_TCM,2,  5.28527832,  0.49583435,end
timer_stats,696857180715691,PAPI_L3_TCM,0,  5.48577881,  0.51412964,end
timer_stats,696857181801238,PAPI_L3_TCM,2,  5.70648193,  0.53102112,end
timer_stats,696857182887385,PAPI_L3_TCM,2,  5.90655517,  0.54829407,end
timer_stats,696857183975266,PAPI_L3_TCM,2,  6.12933350,  0.56324768,end
timer_stats,696857185062303,PAPI_L3_TCM,24,  6.34893799,  0.57946777,end
timer_stats,696857186146068,PAPI_L3_TCM,29,  6.54687500,  0.59492493,end
timer_stats,696857187217451,PAPI_L3_TCM,2,  6.72943115,  0.60763550,end
timer_stats,696857189962068,PAPI_L3_TCM,49,  7.21820068,  0.64735413,end
timer_stats,696857191050633,PAPI_L3_TCM,31,  7.38592529,  0.66468811,end
timer_stats,696857192137335,PAPI_L3_TCM,3,  7.59149170,  0.67900085,end
timer_stats,696857193225444,PAPI_L3_TCM,4,  7.81451416,  0.69435119,end
timer_stats,696857194313474,PAPI_L3_TCM,3,  8.02136230,  0.70922851,end
timer_stats,696857195399621,PAPI_L3_TCM,3,  8.24182129,  0.72430420,end
timer_stats,696857196485828,PAPI_L3_TCM,5,  8.56713867,  0.74884033,end
timer_stats,696857197573129,PAPI_L3_TCM,3,  8.88659668,  0.76330566,end
timer_stats,696857198665005,PAPI_L3_TCM,6,  9.06286621,  0.77781677,end
timer_stats,696857199749319,PAPI_L3_TCM,2,  9.25854492,  0.79206848,end
timer_stats,696857200839804,PAPI_L3_TCM,2,  9.47143555,  0.80722046,end
timer_stats,696857201927695,PAPI_L3_TCM,1,  9.68908691,  0.82339478,end
timer_stats,696857203011107,PAPI_L3_TCM,2,  9.90686035,  0.83952331,end
timer_stats,696857204094125,PAPI_L3_TCM,6, 10.11352539,  0.85531616,end
timer_stats,696857205178676,PAPI_L3_TCM,6, 10.33123779,  0.87156677,end
timer_stats,696857206267219,PAPI_L3_TCM,3, 10.56036377,  0.88751221,end
timer_stats,696857207354410,PAPI_L3_TCM,10, 10.78253174,  0.89485168,end
timer_stats,696857208437621,PAPI_L3_TCM,16, 11.09100342,  0.92031860,end
timer_stats,696857209525838,PAPI_L3_TCM,9, 11.40631103,  0.94396972,end
timer_stats,696857210611705,PAPI_L3_TCM,8, 11.63275146,  0.95195007,end
timer_stats,696857211698080,PAPI_L3_TCM,7, 11.85150146,  0.96826172,end
timer_stats,696857212786118,PAPI_L3_TCM,30, 12.05206299,  0.98397827,end
timer_stats,696857213873107,PAPI_L3_TCM,19, 12.21905517,  0.99609375,end
timer_stats,696857214965474,PAPI_L3_TCM,11, 12.41528320,  1.01191711,end
timer_stats,696857216037788,PAPI_L3_TCM,8, 12.63378906,  1.02912903,end
timer_stats,696857217127537,PAPI_L3_TCM,3, 12.84582519,  1.04423523,end
timer_stats,696857218215931,PAPI_L3_TCM,2, 13.05975342,  1.06007385,end
timer_stats,696857219304083,PAPI_L3_TCM,2, 13.26330566,  1.07699585,end
timer_stats,696857220392377,PAPI_L3_TCM,5, 13.60668945,  1.09310913,end
timer_stats,696857221482586,PAPI_L3_TCM,3, 13.81408691,  1.11796570,end
timer_stats,696857222567953,PAPI_L3_TCM,6, 14.13610840,  1.14268494,end
timer_stats,696857223655856,PAPI_L3_TCM,1, 14.36413574,  1.16156006,end
timer_stats,696857224742562,PAPI_L3_TCM,3, 14.58197021,  1.17929077,end
timer_stats,696857225827837,PAPI_L3_TCM,2, 14.79565430,  1.19696045,end
timer_stats,696857226922322,PAPI_L3_TCM,5, 14.99981689,  1.21333313,end
timer_stats,696857228022554,PAPI_L3_TCM,17, 15.21710205,  1.22990417,end
timer_stats,696857229113065,PAPI_L3_TCM,3, 15.43817139,  1.24584961,end
timer_stats,696857230199340,PAPI_L3_TCM,5, 15.64611816,  1.26351929,end
timer_stats,696857231283573,PAPI_L3_TCM,32, 15.87304687,  1.27935791,end
timer_stats,696857232368539,PAPI_L3_TCM,21, 16.04095459,  1.29229736,end
timer_stats,696857233460533,PAPI_L3_TCM,5, 16.32159424,  1.31134033,end
timer_stats,696857234551931,PAPI_L3_TCM,5, 16.64172363,  1.33526611,end
timer_stats,696857235637577,PAPI_L3_TCM,5, 16.85485840,  1.35757446,end
timer_stats,696857236727719,PAPI_L3_TCM,0, 17.06896973,  1.37286377,end
timer_stats,696857237812967,PAPI_L3_TCM,10, 17.29412842,  1.38827515,end
timer_stats,696857238902077,PAPI_L3_TCM,9, 17.50000000,  1.40522766,end
timer_stats,696857239989357,PAPI_L3_TCM,5, 17.71093750,  1.42254639,end
timer_stats,696857241086516,PAPI_L3_TCM,4, 17.93481445,  1.43759155,end
timer_stats,696857242180313,PAPI_L3_TCM,11, 18.14971924,  1.45408630,end
timer_stats,696857243268980,PAPI_L3_TCM,5, 18.34161377,  1.47100830,end
timer_stats,696857244356990,PAPI_L3_TCM,9, 18.56414795,  1.48831177,end
timer_stats,696857245444005,PAPI_L3_TCM,4, 18.88702393,  1.51263428,end
timer_stats,696857246538259,PAPI_L3_TCM,3, 19.11083984,  1.52883911,end
timer_stats,696857247627603,PAPI_L3_TCM,6, 19.42309570,  1.55206299,end
timer_stats,696857248716069,PAPI_L3_TCM,4, 19.63909912,  1.56666565,end
timer_stats,696857249806857,PAPI_L3_TCM,7, 19.85388183,  1.58338928,end
timer_stats,696857250893596,PAPI_L3_TCM,8, 20.05773926,  1.59851074,end
timer_stats,696857251979218,PAPI_L3_TCM,5, 20.27545166,  1.61543274,end
timer_stats,696857253066880,PAPI_L3_TCM,12, 20.49322510,  1.63153076,end
timer_stats,696857254149948,PAPI_L3_TCM,6, 20.70971680,  1.64685058,end
timer_stats,696857255239372,PAPI_L3_TCM,8, 20.91632080,  1.66223144,end
timer_stats,696857256324107,PAPI_L3_TCM,7, 21.12628174,  1.68066406,end
timer_stats,696857257413599,PAPI_L3_TCM,10, 21.35217285,  1.69660950,end
timer_stats,696857258504579,PAPI_L3_TCM,5, 21.68170166,  1.72053528,end
timer_stats,696857259594060,PAPI_L3_TCM,11, 21.99102783,  1.74491882,end
timer_stats,696857260682932,PAPI_L3_TCM,7, 22.21276855,  1.76089477,end
timer_stats,696857261775864,PAPI_L3_TCM,7, 22.43212891,  1.77760315,end
timer_stats,696857262860179,PAPI_L3_TCM,2, 22.63452148,  1.79280090,end
timer_stats,696857263948351,PAPI_L3_TCM,5, 22.85217285,  1.80989075,end
timer_stats,696857265034548,PAPI_L3_TCM,5, 23.06884766,  1.82838440,end
timer_stats,696857266119134,PAPI_L3_TCM,2, 23.27081299,  1.84425354,end
timer_stats,696857267202401,PAPI_L3_TCM,4, 23.49578857,  1.86009216,end
timer_stats,696857268294191,PAPI_L3_TCM,10, 23.71612549,  1.87705993,end
timer_stats,696857274846360,PAPI_L3_TCM,168, 24.91430664,  1.97813415,end
timer_stats,696857275942350,PAPI_L3_TCM,55, 25.11151123,  1.99240112,end
timer_stats,696857277029508,PAPI_L3_TCM,12, 25.33697510,  2.00854492,end
timer_stats,696857278116792,PAPI_L3_TCM,14, 25.55841064,  2.02392578,end
timer_stats,696857279204049,PAPI_L3_TCM,13, 25.77459717,  2.04025268,end
timer_stats,696857280290537,PAPI_L3_TCM,8, 25.99859619,  2.05793762,end
timer_stats,696857281380682,PAPI_L3_TCM,7, 26.22119141,  2.07473755,end
timer_stats,696857282470861,PAPI_L3_TCM,5, 26.45233154,  2.09173584,end
timer_stats,696857283567043,PAPI_L3_TCM,13, 26.89147949,  2.12626648,end
timer_stats,696857284653536,PAPI_L3_TCM,8, 27.11901855,  2.14266968,end
timer_stats,696857285737873,PAPI_L3_TCM,9, 27.35266113,  2.15884399,end
timer_stats,696857286823084,PAPI_L3_TCM,6, 27.57287598,  2.17677307,end
timer_stats,696857287911184,PAPI_L3_TCM,9, 27.80603027,  2.19482422,end
timer_stats,696857288996015,PAPI_L3_TCM,20, 28.03204346,  2.21138000,end
timer_stats,696857290082543,PAPI_L3_TCM,7, 28.24938965,  2.22839355,end
timer_stats,696857291172589,PAPI_L3_TCM,28, 28.49011230,  2.24507141,end
timer_stats,696857292257654,PAPI_L3_TCM,17, 28.71221924,  2.26101684,end
timer_stats,696857293343038,PAPI_L3_TCM,13, 28.93347168,  2.27827453,end
timer_stats,696857294425759,PAPI_L3_TCM,8, 29.17529297,  2.29731750,end
timer_stats,696857295510934,PAPI_L3_TCM,16, 29.51556396,  2.32316589,end
timer_stats,696857296607690,PAPI_L3_TCM,21, 29.85559082,  2.34284973,end
timer_stats,696857297703000,PAPI_L3_TCM,11, 30.06713867,  2.35708618,end
timer_stats,696857298793662,PAPI_L3_TCM,7, 30.28094482,  2.37377930,end
timer_stats,696857299879187,PAPI_L3_TCM,12, 30.50708008,  2.39076233,end
timer_stats,696857300976993,PAPI_L3_TCM,18, 30.73114014,  2.41027832,end
timer_stats,696857302059693,PAPI_L3_TCM,17, 30.95281982,  2.42588806,end
timer_stats,696857303142214,PAPI_L3_TCM,7, 31.18054199,  2.44201660,end
timer_stats,696857304236388,PAPI_L3_TCM,15, 31.41943359,  2.45895386,end
timer_stats,696857305317731,PAPI_L3_TCM,3, 31.64599609,  2.47660827,end
timer_stats,696857306399087,PAPI_L3_TCM,10, 31.87915039,  2.49400330,end
timer_stats,696857307481956,PAPI_L3_TCM,78, 32.14636230,  2.51115417,end
timer_stats,696857308563319,PAPI_L3_TCM,29, 32.46405029,  2.52531433,end
timer_stats,696857309643561,PAPI_L3_TCM,9, 32.69024658,  2.55059814,end
timer_stats,696857310722730,PAPI_L3_TCM,11, 33.03302002,  2.57572937,end
timer_stats,696857311802357,PAPI_L3_TCM,9, 33.26971435,  2.59332275,end
timer_stats,696857312878947,PAPI_L3_TCM,4, 33.53161621,  2.61051941,end
timer_stats,696857313958652,PAPI_L3_TCM,6, 33.74774170,  2.62657165,end
timer_stats,696857315038499,PAPI_L3_TCM,6, 33.98205566,  2.64387512,end
timer_stats,696857316118153,PAPI_L3_TCM,7, 34.22344971,  2.66163635,end
timer_stats,696857317198234,PAPI_L3_TCM,6, 34.46942139,  2.67852783,end
timer_stats,696857318284318,PAPI_L3_TCM,5, 34.70007324,  2.69619751,end
timer_stats,696857319363348,PAPI_L3_TCM,8, 34.93981934,  2.71316528,end
timer_stats,696857320441677,PAPI_L3_TCM,5, 35.18182373,  2.73040771,end
timer_stats,696857321521077,PAPI_L3_TCM,5, 35.44158935,  2.74761963,end
timer_stats,696857322605549,PAPI_L3_TCM,8, 35.76055908,  2.77180481,end
timer_stats,696857323688956,PAPI_L3_TCM,6, 36.07751465,  2.79382324,end
timer_stats,696857324774418,PAPI_L3_TCM,4, 36.28021240,  2.80825806,end
timer_stats,696857325862450,PAPI_L3_TCM,12, 36.52288818,  2.82398987,end
timer_stats,696857330701011,PAPI_L3_TCM,96, 37.45129395,  2.89660644,end
timer_stats,696857331788801,PAPI_L3_TCM,34, 37.67517090,  2.91351318,end
timer_stats,696857332870594,PAPI_L3_TCM,21, 37.91979980,  2.93000793,end
timer_stats,696857333951309,PAPI_L3_TCM,12, 38.17089844,  2.94732666,end
timer_stats,696857335032928,PAPI_L3_TCM,18, 38.43463135,  2.96499634,end
timer_stats,696857336114215,PAPI_L3_TCM,13, 38.68902588,  2.98312378,end
timer_stats,696857337198442,PAPI_L3_TCM,17, 38.92419434,  3.00065613,end
timer_stats,696857338286523,PAPI_L3_TCM,9, 39.14855957,  3.01737976,end
timer_stats,696857339369379,PAPI_L3_TCM,12, 39.38873291,  3.03462219,end
timer_stats,696857340451852,PAPI_L3_TCM,8, 39.63708496,  3.05128479,end
timer_stats,696857341533733,PAPI_L3_TCM,10, 40.01342773,  3.07711792,end
timer_stats,696857342619264,PAPI_L3_TCM,20, 40.25451660,  3.09364319,end
timer_stats,696857344519302,PAPI_L3_TCM,20, 40.64398193,  3.11982727,end
timer_stats,696857345605524,PAPI_L3_TCM,8, 40.99786377,  3.14578247,end
timer_stats,696857346711697,PAPI_L3_TCM,6, 41.34429932,  3.17202759,end
timer_stats,696857347791167,PAPI_L3_TCM,8, 41.61688232,  3.18962097,end
timer_stats,696857348875426,PAPI_L3_TCM,11, 41.84741211,  3.20617676,end
timer_stats,696857349961274,PAPI_L3_TCM,10, 42.09692383,  3.22373962,end
timer_stats,696857351043866,PAPI_L3_TCM,4, 42.33898926,  3.24104309,end
timer_stats,696857352124378,PAPI_L3_TCM,40, 42.55163574,  3.25750732,end
timer_stats,696857353218094,PAPI_L3_TCM,27, 42.80889893,  3.27331543,end
timer_stats,696857354311487,PAPI_L3_TCM,7, 43.01538086,  3.28884888,end
timer_stats,696857355406695,PAPI_L3_TCM,0, 43.23846435,  3.30386352,end
timer_stats,696857356488061,PAPI_L3_TCM,17, 43.48327637,  3.31965637,end
timer_stats,696857357576418,PAPI_L3_TCM,23, 43.70989990,  3.33720398,end
timer_stats,696857358663663,PAPI_L3_TCM,46, 44.12353515,  3.37030029,end
timer_stats,696857359770476,PAPI_L3_TCM,23, 44.34759521,  3.38589478,end
timer_stats,696857360859146,PAPI_L3_TCM,18, 44.55609131,  3.40270996,end
timer_stats,696857361950959,PAPI_L3_TCM,10, 44.74609375,  3.41798401,end
timer_stats,696857363095734,PAPI_L3_TCM,48, 44.94201660,  3.43608093,end
timer_stats,696857364187273,PAPI_L3_TCM,29, 45.13134765,  3.45097351,end
timer_stats,696857365280650,PAPI_L3_TCM,5, 45.30737305,  3.46536255,end
timer_stats,696857366394501,PAPI_L3_TCM,0, 45.49505615,  3.48133850,end
timer_stats,696857367516809,PAPI_L3_TCM,35, 45.70025635,  3.49694824,end
timer_stats,696857368631149,PAPI_L3_TCM,21, 45.89581299,  3.51364136,end
timer_stats,696857369757494,PAPI_L3_TCM,5, 46.24365234,  3.54269409,end
timer_stats,696857370885095,PAPI_L3_TCM,17, 46.39544678,  3.55670166,end
timer_stats,696857372016135,PAPI_L3_TCM,13, 46.57696533,  3.57029724,end
timer_stats,696857373125820,PAPI_L3_TCM,14, 46.74157715,  3.58583069,end
timer_stats,696857374256109,PAPI_L3_TCM,4, 46.88726807,  3.59791565,end
timer_stats,696857375388030,PAPI_L3_TCM,14, 47.04809570,  3.61422729,end
timer_stats,696857376502259,PAPI_L3_TCM,9, 47.22442627,  3.62814331,end
timer_stats,696857377635203,PAPI_L3_TCM,6, 47.43927002,  3.64935303,end
timer_stats,696857378772356,PAPI_L3_TCM,1, 47.68804932,  3.67082214,end
timer_stats,696857379921075,PAPI_L3_TCM,0, 47.82342529,  3.68553162,end
timer_stats,696857381063314,PAPI_L3_TCM,6, 47.99334717,  3.69848633,end
timer_stats,696857382200054,PAPI_L3_TCM,0, 48.14880371,  3.71243286,end
timer_stats,696857383342147,PAPI_L3_TCM,2, 48.30480957,  3.72595215,end
timer_stats,696857384472904,PAPI_L3_TCM,7, 48.43652344,  3.73959351,end
timer_stats,696857385620779,PAPI_L3_TCM,8, 48.68621826,  3.75222778,end
timer_stats,696857386765317,PAPI_L3_TCM,2, 48.90509033,  3.77795410,end
timer_stats,696857387908883,PAPI_L3_TCM,5, 49.05358887,  3.79167175,end
timer_stats,696857389061504,PAPI_L3_TCM,3, 49.20520019,  3.80467224,end
timer_stats,696857391526629,PAPI_L3_TCM,52, 49.48724365,  3.82339478,end
timer_stats,696857392634750,PAPI_L3_TCM,18, 49.63098145,  3.83512878,end
timer_stats,696857393726668,PAPI_L3_TCM,5, 49.93640137,  3.86122131,end
timer_stats,696857394817456,PAPI_L3_TCM,5, 50.10705566,  3.87504578,end
timer_stats,696857395907638,PAPI_L3_TCM,3, 50.25476074,  3.89018249,end
timer_stats,696857397018118,PAPI_L3_TCM,3, 50.42663574,  3.90298462,end
timer_stats,696857398132595,PAPI_L3_TCM,8, 50.56811523,  3.91632080,end
timer_stats,696857399248087,PAPI_L3_TCM,3, 50.73614502,  3.92903137,end
timer_stats,696857400340730,PAPI_L3_TCM,3, 50.87005615,  3.94194031,end
timer_stats,696857401464418,PAPI_L3_TCM,6, 51.02709961,  3.95494080,end
timer_stats,696857402583272,PAPI_L3_TCM,3, 51.18823242,  3.96763611,end
timer_stats,696857403703279,PAPI_L3_TCM,1, 51.40576172,  3.98789978,end
timer_stats,696857404823821,PAPI_L3_TCM,6, 51.62884521,  4.00721741,end
timer_stats,696857405948939,PAPI_L3_TCM,1, 51.77911377,  4.01985168,end
timer_stats,696857407070739,PAPI_L3_TCM,1, 51.91888428,  4.03137207,end
timer_stats,696857408167438,PAPI_L3_TCM,1, 52.06213379,  4.04374695,end
timer_stats,696857409301615,PAPI_L3_TCM,3, 52.20458984,  4.05546570,end
timer_stats,696857410427925,PAPI_L3_TCM,2, 52.34149170,  4.06669617,end
timer_stats,696857411551049,PAPI_L3_TCM,2, 52.47735596,  4.07827759,end
timer_stats,696857412671367,PAPI_L3_TCM,2, 52.66809082,  4.09548950,end
timer_stats,696857413800617,PAPI_L3_TCM,6, 52.87048340,  4.11636352,end
timer_stats,696857414926983,PAPI_L3_TCM,0, 53.00006103,  4.13066101,end
timer_stats,696857416070403,PAPI_L3_TCM,1, 53.13446045,  4.14404297,end
timer_stats,696857417198113,PAPI_L3_TCM,0, 53.25634765,  4.15968323,end
timer_stats,696857418327715,PAPI_L3_TCM,1, 53.39758301,  4.17170715,end
timer_stats,696857419455917,PAPI_L3_TCM,0, 53.52685547,  4.18434143,end
timer_stats,696857420578774,PAPI_L3_TCM,11, 53.65618896,  4.19627380,end
timer_stats,696857421709732,PAPI_L3_TCM,10, 53.78662109,  4.20733643,end
timer_stats,696857422835387,PAPI_L3_TCM,6, 54.05297851,  4.23083496,end
timer_stats,696857423962613,PAPI_L3_TCM,1, 54.18524170,  4.24185180,end
timer_stats,696857425090516,PAPI_L3_TCM,1, 54.30694580,  4.25608826,end
timer_stats,696857426217873,PAPI_L3_TCM,3, 54.43634033,  4.27067566,end
timer_stats,696857427348898,PAPI_L3_TCM,3, 54.56646728,  4.28219604,end
timer_stats,696857428472877,PAPI_L3_TCM,2, 54.69763184,  4.29350281,end
timer_stats,696857429600687,PAPI_L3_TCM,6, 54.83081055,  4.30459595,end
timer_stats,696857430726289,PAPI_L3_TCM,2, 55.08349609,  4.32102966,end
timer_stats,696857431854131,PAPI_L3_TCM,2, 55.20996094,  4.33776855,end
timer_stats,696857432974953,PAPI_L3_TCM,0, 55.33813476,  4.34979248,end
timer_stats,696857434096071,PAPI_L3_TCM,3, 55.46826172,  4.36111450,end
timer_stats,696857435218178,PAPI_L3_TCM,3, 55.60186767,  4.37240601,end
timer_stats,696857436318822,PAPI_L3_TCM,1, 55.72949219,  4.38423157,end
timer_stats,696857437459012,PAPI_L3_TCM,0, 55.86627197,  4.39573669,end
timer_stats,696857438953801,PAPI_L3_TCM,4061, 56.11065674,  4.42044067,end
timer_stats,696857440081480,PAPI_L3_TCM,31, 56.25323486,  4.43394470,end
timer_stats,696857441206625,PAPI_L3_TCM,7, 56.37719726,  4.44573975,end
timer_stats,696857442345048,PAPI_L3_TCM,1, 56.50012207,  4.45660400,end
timer_stats,696857443470192,PAPI_L3_TCM,1, 56.63391113,  4.46772766,end
timer_stats,696857444584814,PAPI_L3_TCM,1, 56.76184082,  4.47901916,end
timer_stats,696857445710889,PAPI_L3_TCM,5, 56.88677978,  4.49078369,end
timer_stats,696857446835928,PAPI_L3_TCM,1, 57.14471435,  4.51466370,end
timer_stats,696857447973354,PAPI_L3_TCM,2, 57.27343750,  4.52549744,end
timer_stats,696857449100590,PAPI_L3_TCM,1, 57.39874268,  4.53784180,end
timer_stats,696857450194628,PAPI_L3_TCM,16, 57.53552246,  4.55273437,end
timer_stats,696857451267824,PAPI_L3_TCM,1, 57.66113281,  4.56477356,end
timer_stats,696857452339862,PAPI_L3_TCM,1, 57.78442383,  4.57568359,end
timer_stats,696857453459703,PAPI_L3_TCM,3, 57.90844726,  4.58842468,end
timer_stats,696857454583981,PAPI_L3_TCM,6, 58.03979492,  4.59963989,end
