timer_stats,656116730151383,PAPI_L3_TCM,485,  0.07562256,  0.01022339,end
timer_stats,656116731272708,PAPI_L3_TCM,40,  0.13616943,  0.02047729,end
timer_stats,656116732390752,PAPI_L3_TCM,5,  0.20336914,  0.03202820,end
timer_stats,656116733534527,PAPI_L3_TCM,7,  0.27423096,  0.04249573,end
timer_stats,656116734863516,PAPI_L3_TCM,59,  0.42248535,  0.06303406,end
timer_stats,656116736017961,PAPI_L3_TCM,0,  0.49212646,  0.07402038,end
timer_stats,656116737165346,PAPI_L3_TCM,2,  0.56414795,  0.08451843,end
timer_stats,656116738332221,PAPI_L3_TCM,2,  0.63177490,  0.09477234,end
timer_stats,656116739490833,PAPI_L3_TCM,3,  0.69952393,  0.10533142,end
timer_stats,656116740640925,PAPI_L3_TCM,5,  0.78057861,  0.12117004,end
timer_stats,656116741802710,PAPI_L3_TCM,5,  0.89385986,  0.13160705,end
timer_stats,656116742947245,PAPI_L3_TCM,0,  0.99670410,  0.14765930,end
timer_stats,656116744085386,PAPI_L3_TCM,1,  1.07128906,  0.15815735,end
timer_stats,656116745407488,PAPI_L3_TCM,25,  1.16754150,  0.16941833,end
timer_stats,656116746558130,PAPI_L3_TCM,2,  1.25299072,  0.18104553,end
timer_stats,656116747682984,PAPI_L3_TCM,1,  1.38610840,  0.19238281,end
timer_stats,656116748791934,PAPI_L3_TCM,1,  1.41796875,  0.20407104,end
timer_stats,656116749881711,PAPI_L3_TCM,0,  1.59661865,  0.22689819,end
timer_stats,656116750976445,PAPI_L3_TCM,1,  1.69964600,  0.23728943,end
timer_stats,656116752065573,PAPI_L3_TCM,2,  1.78082275,  0.24737549,end
timer_stats,656116753144084,PAPI_L3_TCM,0,  1.88391113,  0.25781250,end
timer_stats,656116754225168,PAPI_L3_TCM,0,  1.96038818,  0.26840210,end
timer_stats,656116755306537,PAPI_L3_TCM,0,  2.05407715,  0.27890014,end
timer_stats,656116756394197,PAPI_L3_TCM,2,  2.15277100,  0.28915405,end
timer_stats,656116757474976,PAPI_L3_TCM,0,  2.23272705,  0.29975891,end
timer_stats,656116758555730,PAPI_L3_TCM,0,  2.32794189,  0.31050110,end
timer_stats,656116759635681,PAPI_L3_TCM,0,  2.43682861,  0.32093811,end
timer_stats,656116760719536,PAPI_L3_TCM,2,  2.56982422,  0.33648681,end
timer_stats,656116761822588,PAPI_L3_TCM,0,  2.68688965,  0.35194397,end
timer_stats,656116762924725,PAPI_L3_TCM,0,  2.77056885,  0.36225891,end
timer_stats,656116764018487,PAPI_L3_TCM,0,  2.87005615,  0.37222290,end
timer_stats,656116765104844,PAPI_L3_TCM,2,  2.95385742,  0.38235474,end
timer_stats,656116766209119,PAPI_L3_TCM,0,  3.03466797,  0.39437866,end
timer_stats,656116767319944,PAPI_L3_TCM,0,  3.12036133,  0.40617370,end
timer_stats,656116768406525,PAPI_L3_TCM,2,  3.21990967,  0.41737366,end
timer_stats,656116769508890,PAPI_L3_TCM,0,  3.29528809,  0.42770386,end
timer_stats,656116770930989,PAPI_L3_TCM,22,  3.47552490,  0.45117187,end
timer_stats,656116772095058,PAPI_L3_TCM,3,  3.56671142,  0.46281433,end
timer_stats,656116773243533,PAPI_L3_TCM,4,  3.65911865,  0.47323608,end
timer_stats,656116774365098,PAPI_L3_TCM,9,  3.75823975,  0.48388672,end
timer_stats,656116775496466,PAPI_L3_TCM,0,  3.84906006,  0.49458313,end
timer_stats,656116776652107,PAPI_L3_TCM,0,  3.93432617,  0.50529480,end
timer_stats,656116777873559,PAPI_L3_TCM,20,  4.05078125,  0.52114868,end
timer_stats,656116778994388,PAPI_L3_TCM,2,  4.19262695,  0.53863525,end
timer_stats,656116780112562,PAPI_L3_TCM,0,  4.28057861,  0.55133056,end
timer_stats,656116781213820,PAPI_L3_TCM,1,  4.40429687,  0.56401062,end
timer_stats,656116782318291,PAPI_L3_TCM,2,  4.49206543,  0.57695007,end
timer_stats,656116783447961,PAPI_L3_TCM,1,  4.60241699,  0.59039307,end
timer_stats,656116784588578,PAPI_L3_TCM,0,  4.72930908,  0.60380554,end
timer_stats,656116785733132,PAPI_L3_TCM,0,  4.84826660,  0.61633301,end
timer_stats,656116786862231,PAPI_L3_TCM,1,  5.00775146,  0.63587952,end
timer_stats,656116787978485,PAPI_L3_TCM,1,  5.20483398,  0.65551758,end
timer_stats,656116789100863,PAPI_L3_TCM,0,  5.32196045,  0.66819763,end
timer_stats,656116790208235,PAPI_L3_TCM,0,  5.44543457,  0.68034363,end
timer_stats,656116791330566,PAPI_L3_TCM,0,  5.57354736,  0.69270325,end
timer_stats,656116792425638,PAPI_L3_TCM,3,  5.69714355,  0.70512390,end
timer_stats,656116793515711,PAPI_L3_TCM,0,  5.84594727,  0.71754456,end
timer_stats,656116794610703,PAPI_L3_TCM,1,  6.02386475,  0.72946167,end
timer_stats,656116795695402,PAPI_L3_TCM,1,  6.20220947,  0.74208069,end
timer_stats,656116796779233,PAPI_L3_TCM,1,  6.37133789,  0.75476074,end
timer_stats,656116797883306,PAPI_L3_TCM,0,  6.63366699,  0.77291870,end
timer_stats,656116798984876,PAPI_L3_TCM,0,  6.91375732,  0.79110718,end
timer_stats,656116800069823,PAPI_L3_TCM,2,  7.08953857,  0.80268860,end
timer_stats,656116801152967,PAPI_L3_TCM,1,  7.26110840,  0.81405640,end
timer_stats,656116802241701,PAPI_L3_TCM,0,  7.43597412,  0.82539368,end
timer_stats,656116803336170,PAPI_L3_TCM,0,  7.61779785,  0.83644104,end
timer_stats,656116804419807,PAPI_L3_TCM,0,  7.79840088,  0.84776306,end
timer_stats,656116805510218,PAPI_L3_TCM,1,  7.96875000,  0.85916138,end
timer_stats,656116806595124,PAPI_L3_TCM,0,  8.15106201,  0.87074280,end
timer_stats,656116807694468,PAPI_L3_TCM,0,  8.33599853,  0.88180542,end
timer_stats,656116808787913,PAPI_L3_TCM,0,  8.50427246,  0.89349365,end
timer_stats,656116809888697,PAPI_L3_TCM,1,  8.76336670,  0.91067505,end
timer_stats,656116810987739,PAPI_L3_TCM,0,  9.03967285,  0.92781067,end
timer_stats,656116812076971,PAPI_L3_TCM,2,  9.20446777,  0.93920898,end
timer_stats,656116813162062,PAPI_L3_TCM,0,  9.39422607,  0.95045471,end
timer_stats,656116814247739,PAPI_L3_TCM,1,  9.57232666,  0.96153259,end
timer_stats,656116815337621,PAPI_L3_TCM,0,  9.75463867,  0.97286987,end
timer_stats,656116816425600,PAPI_L3_TCM,0,  9.93109131,  0.98423767,end
timer_stats,656116817517384,PAPI_L3_TCM,0, 10.10821533,  0.99514771,end
timer_stats,656116818600899,PAPI_L3_TCM,1, 10.27789307,  1.00657654,end
timer_stats,656116819690259,PAPI_L3_TCM,0, 10.45458984,  1.01770019,end
timer_stats,656116820777507,PAPI_L3_TCM,0, 10.63403320,  1.02879333,end
timer_stats,656116821875364,PAPI_L3_TCM,0, 10.98150635,  1.05154419,end
timer_stats,656116822957023,PAPI_L3_TCM,0, 11.17431641,  1.06282043,end
timer_stats,656116824022220,PAPI_L3_TCM,2, 11.35003662,  1.07418823,end
timer_stats,656116825110016,PAPI_L3_TCM,0, 11.53082275,  1.08554077,end
timer_stats,656116826203771,PAPI_L3_TCM,0, 11.70098877,  1.09692383,end
timer_stats,656116827296444,PAPI_L3_TCM,2, 11.88385010,  1.10803223,end
timer_stats,656116828385045,PAPI_L3_TCM,2, 12.05853271,  1.11964416,end
timer_stats,656116829468990,PAPI_L3_TCM,2, 12.30694580,  1.13304138,end
timer_stats,656116830552082,PAPI_L3_TCM,0, 12.55395508,  1.14593506,end
timer_stats,656116831637687,PAPI_L3_TCM,0, 12.81988525,  1.15927124,end
timer_stats,656116832719372,PAPI_L3_TCM,2, 13.06378174,  1.17242431,end
timer_stats,656116833800561,PAPI_L3_TCM,2, 13.31640625,  1.18553161,end
timer_stats,656116834881569,PAPI_L3_TCM,2, 13.58105469,  1.19862366,end
timer_stats,656116835963135,PAPI_L3_TCM,2, 14.09033203,  1.22546387,end
timer_stats,656116837146447,PAPI_L3_TCM,11, 14.33874512,  1.23728943,end
timer_stats,656116838263115,PAPI_L3_TCM,2, 14.53271484,  1.24882507,end
timer_stats,656116839494290,PAPI_L3_TCM,1, 14.73632812,  1.26106262,end
timer_stats,656116840670560,PAPI_L3_TCM,4, 14.94476318,  1.27275085,end
timer_stats,656116841762235,PAPI_L3_TCM,0, 15.13879394,  1.28546142,end
timer_stats,656116853880297,PAPI_L3_TCM,123, 17.38403320,  1.44508362,end
timer_stats,656116854970481,PAPI_L3_TCM,33, 17.73907471,  1.47038269,end
timer_stats,656116856053439,PAPI_L3_TCM,20, 17.97888183,  1.48387146,end
timer_stats,656116857134151,PAPI_L3_TCM,3, 18.20843506,  1.49763489,end
timer_stats,656116858210323,PAPI_L3_TCM,2, 18.43475342,  1.51113892,end
timer_stats,656116859288870,PAPI_L3_TCM,1, 18.68750000,  1.52502441,end
timer_stats,656116860368976,PAPI_L3_TCM,3, 18.93414307,  1.53848267,end
timer_stats,656116861447908,PAPI_L3_TCM,0, 19.17437744,  1.55241394,end
timer_stats,656116862527857,PAPI_L3_TCM,4, 19.41302490,  1.56636047,end
timer_stats,656116863605505,PAPI_L3_TCM,1, 19.64904785,  1.58027649,end
timer_stats,656116864684457,PAPI_L3_TCM,6, 19.89190674,  1.59420776,end
timer_stats,656116865762798,PAPI_L3_TCM,1, 20.13818359,  1.60835266,end
timer_stats,656116866841018,PAPI_L3_TCM,4, 20.50292969,  1.62908935,end
timer_stats,656116867917740,PAPI_L3_TCM,3, 20.76428223,  1.64341736,end
timer_stats,656116868995590,PAPI_L3_TCM,3, 21.14294433,  1.66413879,end
timer_stats,656116870072826,PAPI_L3_TCM,1, 21.39440918,  1.67822265,end
timer_stats,656116871149732,PAPI_L3_TCM,3, 21.64862061,  1.69232178,end
timer_stats,656116872226661,PAPI_L3_TCM,9, 21.89642334,  1.70620727,end
timer_stats,656116873305161,PAPI_L3_TCM,2, 22.14746094,  1.72079468,end
timer_stats,656116874382868,PAPI_L3_TCM,0, 22.38555908,  1.73463440,end
timer_stats,656116875462261,PAPI_L3_TCM,5, 22.65222168,  1.74847412,end
timer_stats,656116876539997,PAPI_L3_TCM,11, 22.89508057,  1.76258850,end
timer_stats,656116877617664,PAPI_L3_TCM,6, 23.14642334,  1.77647400,end
timer_stats,656116878694243,PAPI_L3_TCM,2, 23.39874268,  1.79060364,end
timer_stats,656116879778187,PAPI_L3_TCM,1, 23.67126465,  1.80442810,end
timer_stats,656116880856098,PAPI_L3_TCM,13, 23.91174316,  1.81831360,end
timer_stats,656116881946288,PAPI_L3_TCM,283, 24.41113281,  1.84654236,end
timer_stats,656116883023015,PAPI_L3_TCM,3, 24.66815186,  1.86111450,end
timer_stats,656116884099324,PAPI_L3_TCM,3, 24.91363525,  1.87524414,end
timer_stats,656116885176313,PAPI_L3_TCM,0, 25.17498779,  1.88934326,end
timer_stats,656116886254532,PAPI_L3_TCM,3, 25.43133545,  1.90321350,end
timer_stats,656116887331031,PAPI_L3_TCM,4, 25.67639160,  1.91712952,end
timer_stats,656116888407510,PAPI_L3_TCM,8, 25.92718506,  1.93103027,end
timer_stats,656116889484186,PAPI_L3_TCM,2, 26.18408203,  1.94470215,end
timer_stats,656116890560829,PAPI_L3_TCM,3, 26.43963623,  1.95861816,end
timer_stats,656116891638071,PAPI_L3_TCM,2, 26.69470215,  1.97232056,end
timer_stats,656116892715306,PAPI_L3_TCM,6, 26.94531250,  1.98602295,end
timer_stats,656116893792383,PAPI_L3_TCM,0, 27.21350097,  1.99967956,end
timer_stats,656116894868899,PAPI_L3_TCM,3, 27.59472656,  2.02090454,end
timer_stats,656116895945966,PAPI_L3_TCM,2, 27.84521484,  2.03422546,end
timer_stats,656116897023593,PAPI_L3_TCM,5, 28.25415039,  2.05535889,end
timer_stats,656116898099503,PAPI_L3_TCM,5, 28.50842285,  2.06925964,end
timer_stats,656116899175417,PAPI_L3_TCM,3, 28.76232910,  2.08317566,end
timer_stats,656116900251228,PAPI_L3_TCM,7, 29.02111816,  2.09709167,end
timer_stats,656116901327961,PAPI_L3_TCM,3, 29.28381347,  2.11076355,end
timer_stats,656116902406389,PAPI_L3_TCM,0, 29.52606201,  2.12423706,end
timer_stats,656116903482360,PAPI_L3_TCM,3, 29.78900146,  2.13810730,end
timer_stats,656116907789162,PAPI_L3_TCM,408, 30.70697021,  2.20628357,end
timer_stats,656116908876877,PAPI_L3_TCM,130, 30.87384033,  2.22314453,end
timer_stats,656116909952174,PAPI_L3_TCM,9, 31.35559082,  2.25265503,end
timer_stats,656116911026040,PAPI_L3_TCM,5, 31.59747314,  2.26788330,end
timer_stats,656116912099795,PAPI_L3_TCM,0, 31.86157226,  2.28298950,end
timer_stats,656116913175527,PAPI_L3_TCM,12, 32.11431885,  2.29841614,end
timer_stats,656116914253144,PAPI_L3_TCM,11, 32.36425781,  2.31356811,end
timer_stats,656116915327522,PAPI_L3_TCM,3, 32.61285400,  2.32919311,end
timer_stats,656116916403036,PAPI_L3_TCM,0, 32.88049316,  2.34547424,end
timer_stats,656116917476591,PAPI_L3_TCM,6, 33.13140869,  2.36036682,end
timer_stats,656116918550956,PAPI_L3_TCM,3, 33.37762451,  2.37733459,end
timer_stats,656116919625550,PAPI_L3_TCM,4, 33.63348389,  2.39312744,end
timer_stats,656116920699891,PAPI_L3_TCM,6, 33.91119385,  2.40954590,end
timer_stats,656116921775138,PAPI_L3_TCM,3, 34.17980957,  2.42556763,end
timer_stats,656116922849331,PAPI_L3_TCM,3, 34.43121338,  2.44018554,end
timer_stats,656116923923106,PAPI_L3_TCM,3, 34.69384765,  2.45506286,end
timer_stats,656116924998537,PAPI_L3_TCM,0, 35.22802734,  2.48519897,end
timer_stats,656116926072428,PAPI_L3_TCM,5, 35.48242187,  2.50056457,end
timer_stats,656116927145667,PAPI_L3_TCM,3, 35.73486328,  2.51567077,end
timer_stats,656116928218971,PAPI_L3_TCM,4, 35.99755859,  2.53085327,end
timer_stats,656116929292860,PAPI_L3_TCM,8, 36.25970459,  2.54663086,end
timer_stats,656116930366936,PAPI_L3_TCM,3, 36.52093506,  2.56237793,end
timer_stats,656116931439903,PAPI_L3_TCM,2, 36.78045654,  2.57752991,end
timer_stats,656116932514435,PAPI_L3_TCM,3, 37.04730224,  2.59286499,end
timer_stats,656116933588916,PAPI_L3_TCM,2, 37.31323242,  2.60820007,end
timer_stats,656116934662808,PAPI_L3_TCM,3, 37.57434082,  2.62408447,end
timer_stats,656116935736851,PAPI_L3_TCM,1, 37.84265137,  2.63967895,end
timer_stats,656116936811641,PAPI_L3_TCM,10, 38.10552978,  2.65504455,end
timer_stats,656116937885477,PAPI_L3_TCM,0, 38.38366699,  2.67077637,end
timer_stats,656116938958713,PAPI_L3_TCM,2, 38.64166260,  2.68630981,end
timer_stats,656116940016411,PAPI_L3_TCM,1, 39.17663574,  2.70938110,end
timer_stats,656116941090252,PAPI_L3_TCM,2, 39.43255615,  2.73260498,end
timer_stats,656116942165152,PAPI_L3_TCM,6, 39.69079590,  2.74853515,end
timer_stats,656116943239447,PAPI_L3_TCM,4, 39.95227051,  2.76416015,end
timer_stats,656116944313141,PAPI_L3_TCM,3, 40.21832275,  2.78027344,end
timer_stats,656116945386430,PAPI_L3_TCM,5, 40.48748779,  2.79562378,end
timer_stats,656116946461882,PAPI_L3_TCM,5, 40.74481201,  2.81095886,end
timer_stats,656116947535874,PAPI_L3_TCM,2, 41.01129150,  2.82678223,end
timer_stats,656116948610056,PAPI_L3_TCM,4, 41.29138184,  2.84188843,end
timer_stats,656116949683195,PAPI_L3_TCM,5, 41.53369141,  2.85661316,end
timer_stats,656116950756606,PAPI_L3_TCM,3, 41.79486084,  2.87174988,end
timer_stats,656116951830351,PAPI_L3_TCM,3, 42.07269287,  2.88679504,end
timer_stats,656116952903849,PAPI_L3_TCM,0, 42.31793213,  2.90275574,end
timer_stats,656116953977220,PAPI_L3_TCM,4, 42.59405518,  2.91877746,end
timer_stats,656116955050966,PAPI_L3_TCM,2, 43.12506104,  2.95094299,end
timer_stats,656116956124778,PAPI_L3_TCM,16, 43.38415527,  2.96575928,end
timer_stats,656116960066482,PAPI_L3_TCM,159, 44.17779541,  3.02375793,end
timer_stats,656116961151841,PAPI_L3_TCM,85, 44.49951172,  3.04469299,end
timer_stats,656116962231741,PAPI_L3_TCM,8, 44.76165771,  3.06034851,end
timer_stats,656116963305991,PAPI_L3_TCM,6, 45.01818848,  3.07597351,end
timer_stats,656116964381514,PAPI_L3_TCM,2, 45.28668213,  3.09130859,end
timer_stats,656116965458122,PAPI_L3_TCM,7, 45.56127930,  3.10682678,end
timer_stats,656116966532690,PAPI_L3_TCM,1, 45.84204101,  3.12207031,end
timer_stats,656116967607784,PAPI_L3_TCM,5, 46.09674072,  3.13789368,end
timer_stats,656116968683046,PAPI_L3_TCM,3, 46.36437988,  3.15353394,end
timer_stats,656116969759228,PAPI_L3_TCM,2, 46.63134765,  3.16906738,end
timer_stats,656116970833798,PAPI_L3_TCM,1, 46.90771484,  3.18583679,end
timer_stats,656116971908658,PAPI_L3_TCM,4, 47.17883301,  3.20205688,end
timer_stats,656116972984425,PAPI_L3_TCM,8, 47.57238769,  3.22589111,end
timer_stats,656116974059109,PAPI_L3_TCM,8, 47.85382080,  3.24162292,end
timer_stats,656116975132916,PAPI_L3_TCM,3, 48.25207519,  3.26565552,end
timer_stats,656116976206687,PAPI_L3_TCM,6, 48.52984619,  3.28140259,end
timer_stats,656116977280790,PAPI_L3_TCM,6, 48.79119873,  3.29670715,end
timer_stats,656116978355067,PAPI_L3_TCM,1, 49.06500244,  3.31250000,end
timer_stats,656116979429279,PAPI_L3_TCM,5, 49.35620117,  3.32768249,end
timer_stats,656116980504292,PAPI_L3_TCM,3, 49.60437012,  3.34355163,end
timer_stats,656116981578829,PAPI_L3_TCM,3, 49.86993408,  3.35937500,end
timer_stats,656116982654026,PAPI_L3_TCM,2, 50.14715576,  3.37489319,end
timer_stats,656116983728294,PAPI_L3_TCM,3, 50.44720459,  3.39060974,end
timer_stats,656116984802877,PAPI_L3_TCM,4, 50.68908691,  3.40666199,end
timer_stats,656116985877966,PAPI_L3_TCM,4, 50.95727539,  3.42260742,end
timer_stats,656116986952243,PAPI_L3_TCM,5, 51.23645020,  3.43829346,end
timer_stats,656116988014754,PAPI_L3_TCM,6, 51.63629150,  3.46208191,end
timer_stats,656116989089634,PAPI_L3_TCM,3, 51.90368652,  3.47831726,end
timer_stats,656116990164538,PAPI_L3_TCM,7, 52.20996094,  3.49491882,end
timer_stats,656116991239160,PAPI_L3_TCM,9, 52.59832763,  3.51951599,end
timer_stats,656116992314152,PAPI_L3_TCM,10, 52.89373779,  3.53471374,end
timer_stats,656116993388687,PAPI_L3_TCM,7, 53.14477539,  3.55381775,end
timer_stats,656116994465832,PAPI_L3_TCM,11, 53.41766357,  3.57337952,end
timer_stats,656116995542143,PAPI_L3_TCM,12, 53.69573974,  3.59170532,end
timer_stats,656116996617505,PAPI_L3_TCM,8, 53.99523926,  3.60737610,end
timer_stats,656116997691929,PAPI_L3_TCM,4, 54.22259521,  3.62286377,end
timer_stats,656116998765476,PAPI_L3_TCM,1, 54.50415039,  3.63809204,end
timer_stats,656116999840191,PAPI_L3_TCM,6, 54.77581787,  3.65357971,end
timer_stats,656117000915893,PAPI_L3_TCM,2, 55.04211426,  3.66908264,end
timer_stats,656117001990247,PAPI_L3_TCM,4, 55.31848144,  3.68536377,end
timer_stats,656117003064725,PAPI_L3_TCM,8, 55.72021484,  3.71009827,end
timer_stats,656117006727442,PAPI_L3_TCM,160, 56.54821777,  3.75834656,end
timer_stats,656117007815677,PAPI_L3_TCM,59, 56.74554443,  3.77568054,end
timer_stats,656117008891657,PAPI_L3_TCM,6, 57.00561523,  3.79119873,end
timer_stats,656117009967183,PAPI_L3_TCM,7, 57.25830078,  3.80682373,end
timer_stats,656117011042607,PAPI_L3_TCM,5, 57.54937744,  3.82225036,end
timer_stats,656117012116319,PAPI_L3_TCM,4, 57.95263672,  3.84591675,end
timer_stats,656117013190365,PAPI_L3_TCM,3, 58.33178711,  3.86978149,end
timer_stats,656117014265038,PAPI_L3_TCM,2, 58.60180664,  3.88601684,end
timer_stats,656117015339741,PAPI_L3_TCM,6, 58.86932373,  3.90223694,end
timer_stats,656117016414591,PAPI_L3_TCM,2, 59.14282226,  3.91841125,end
timer_stats,656117017490159,PAPI_L3_TCM,7, 59.44195557,  3.93420410,end
timer_stats,656117018564477,PAPI_L3_TCM,7, 59.70867920,  3.94223022,end
timer_stats,656117019639704,PAPI_L3_TCM,11, 59.98797607,  3.95837402,end
timer_stats,656117020714388,PAPI_L3_TCM,1, 60.25134277,  3.97430420,end
timer_stats,656117021789686,PAPI_L3_TCM,5, 60.48651123,  3.99038696,end
timer_stats,656117022863886,PAPI_L3_TCM,2, 60.76086426,  4.00636291,end
timer_stats,656117023938866,PAPI_L3_TCM,10, 61.06408691,  4.02191162,end
timer_stats,656117025014160,PAPI_L3_TCM,6, 61.33886719,  4.03784180,end
timer_stats,656117026089782,PAPI_L3_TCM,5, 61.84606934,  4.06243896,end
timer_stats,656117027164199,PAPI_L3_TCM,5, 62.11541748,  4.08610534,end
timer_stats,656117028597836,PAPI_L3_TCM,4221, 62.40258789,  4.10202026,end
timer_stats,656117029678694,PAPI_L3_TCM,47, 62.64807129,  4.11863708,end
timer_stats,656117030755282,PAPI_L3_TCM,11, 62.92071533,  4.13473511,end
timer_stats,656117031830607,PAPI_L3_TCM,4, 63.22546387,  4.15129089,end
timer_stats,656117032906036,PAPI_L3_TCM,4, 63.47875976,  4.16726685,end
timer_stats,656117033980872,PAPI_L3_TCM,2, 63.74157715,  4.18322754,end
timer_stats,656117035055591,PAPI_L3_TCM,8, 64.13690186,  4.20756531,end
timer_stats,656117036129245,PAPI_L3_TCM,7, 64.43743896,  4.22297668,end
timer_stats,656117037203024,PAPI_L3_TCM,4, 64.70471191,  4.23893738,end
timer_stats,656117038276899,PAPI_L3_TCM,2, 65.11016846,  4.26339722,end
timer_stats,656117039350535,PAPI_L3_TCM,3, 65.38629150,  4.27960205,end
timer_stats,656117040424318,PAPI_L3_TCM,2, 65.65118408,  4.29524231,end
timer_stats,656117041497874,PAPI_L3_TCM,2, 65.92413330,  4.31092834,end
timer_stats,656117042572361,PAPI_L3_TCM,1, 66.18127441,  4.32669067,end
timer_stats,656117043645706,PAPI_L3_TCM,4, 66.43280029,  4.34246826,end
timer_stats,656117044720850,PAPI_L3_TCM,6, 66.72583008,  4.35888672,end
timer_stats,656117045795291,PAPI_L3_TCM,9, 67.00183105,  4.37461853,end
timer_stats,656117046869961,PAPI_L3_TCM,5, 67.25665283,  4.39012146,end
timer_stats,656117047943800,PAPI_L3_TCM,4, 67.50445557,  4.40617370,end
timer_stats,656117049018967,PAPI_L3_TCM,1, 67.80444336,  4.42152405,end
timer_stats,656117050093183,PAPI_L3_TCM,4, 68.21148682,  4.44548035,end
timer_stats,656117054406560,PAPI_L3_TCM,232, 69.22503662,  4.53559875,end
timer_stats,656117055513702,PAPI_L3_TCM,64, 69.39953613,  4.55018616,end
timer_stats,656117056591575,PAPI_L3_TCM,8, 69.70697021,  4.56394958,end
timer_stats,656117057669065,PAPI_L3_TCM,9, 69.97271728,  4.57785034,end
timer_stats,656117058744914,PAPI_L3_TCM,4, 70.22552490,  4.59178162,end
timer_stats,656117059820526,PAPI_L3_TCM,6, 70.49578857,  4.60566711,end
timer_stats,656117060896546,PAPI_L3_TCM,3, 70.75988769,  4.62025452,end
timer_stats,656117061972182,PAPI_L3_TCM,5, 71.00238037,  4.63468933,end
timer_stats,656117063047394,PAPI_L3_TCM,0, 71.31134033,  4.64869690,end
timer_stats,656117064122889,PAPI_L3_TCM,6, 71.80468750,  4.67654419,end
timer_stats,656117065198562,PAPI_L3_TCM,3, 71.94573974,  4.68392944,end
timer_stats,656117066274590,PAPI_L3_TCM,6, 72.37457275,  4.70487976,end
timer_stats,656117067350541,PAPI_L3_TCM,5, 72.64440918,  4.71900940,end
timer_stats,656117068427448,PAPI_L3_TCM,13, 72.90789795,  4.73284912,end
timer_stats,656117069504869,PAPI_L3_TCM,33, 73.15264892,  4.74353027,end
timer_stats,656117070580240,PAPI_L3_TCM,25, 73.38922119,  4.75010681,end
timer_stats,656117071658091,PAPI_L3_TCM,16, 73.64349365,  4.76232910,end
timer_stats,656117072733883,PAPI_L3_TCM,13, 73.87902832,  4.77368164,end
timer_stats,656117073803284,PAPI_L3_TCM,3, 74.10522461,  4.78640747,end
timer_stats,656117074869598,PAPI_L3_TCM,3, 74.30364990,  4.79968262,end
timer_stats,656117075935474,PAPI_L3_TCM,1, 74.49865723,  4.81315613,end
timer_stats,656117077016013,PAPI_L3_TCM,13, 74.69427490,  4.82687378,end
timer_stats,656117078094925,PAPI_L3_TCM,16, 75.09521484,  4.84405517,end
timer_stats,656117079171266,PAPI_L3_TCM,3, 75.38049316,  4.86859131,end
timer_stats,656117080246662,PAPI_L3_TCM,2, 75.64306640,  4.88470459,end
timer_stats,656117081322740,PAPI_L3_TCM,4, 76.04638672,  4.90885925,end
timer_stats,656117082398800,PAPI_L3_TCM,3, 76.32281494,  4.92572021,end
timer_stats,656117083475111,PAPI_L3_TCM,7, 76.60437012,  4.94290161,end
timer_stats,656117084551997,PAPI_L3_TCM,14, 76.85510254,  4.95982361,end
timer_stats,656117085627949,PAPI_L3_TCM,3, 77.14343262,  4.97615051,end
timer_stats,656117086703163,PAPI_L3_TCM,1, 77.41961670,  4.99229431,end
timer_stats,656117087780489,PAPI_L3_TCM,4, 77.69921875,  5.00807190,end
timer_stats,656117088857551,PAPI_L3_TCM,6, 77.97131348,  5.02420044,end
timer_stats,656117089933147,PAPI_L3_TCM,4, 78.22973633,  5.04035950,end
timer_stats,656117091009606,PAPI_L3_TCM,6, 78.50836182,  5.05619812,end
timer_stats,656117092085121,PAPI_L3_TCM,9, 78.78558349,  5.07234192,end
timer_stats,656117093161109,PAPI_L3_TCM,7, 79.19091797,  5.09693909,end
timer_stats,656117094236946,PAPI_L3_TCM,4, 79.59857178,  5.12112427,end
timer_stats,656117095313188,PAPI_L3_TCM,3, 79.88226318,  5.13671875,end
timer_stats,656117096388947,PAPI_L3_TCM,9, 80.15643310,  5.15309143,end
timer_stats,656117097464631,PAPI_L3_TCM,5, 80.42559814,  5.16899109,end
timer_stats,656117098541496,PAPI_L3_TCM,8, 80.71313477,  5.18479919,end
timer_stats,656117099617233,PAPI_L3_TCM,2, 80.96826172,  5.20069885,end
timer_stats,656117100693781,PAPI_L3_TCM,6, 81.24499512,  5.21632385,end
timer_stats,656117101769020,PAPI_L3_TCM,1, 81.51965332,  5.23271179,end
timer_stats,656117102844227,PAPI_L3_TCM,2, 81.79333496,  5.24885559,end
timer_stats,656117103919792,PAPI_L3_TCM,1, 82.06781006,  5.26501465,end
timer_stats,656117104996185,PAPI_L3_TCM,6, 82.33782959,  5.28117370,end
timer_stats,656117106071618,PAPI_L3_TCM,3, 82.61669922,  5.29730225,end
timer_stats,656117107148411,PAPI_L3_TCM,10, 83.02777099,  5.32182312,end
timer_stats,656117108225571,PAPI_L3_TCM,15, 83.30255127,  5.33876037,end
timer_stats,656117109302103,PAPI_L3_TCM,5, 83.72058105,  5.36315918,end
timer_stats,656117110377375,PAPI_L3_TCM,3, 83.98876953,  5.37927246,end
timer_stats,656117111451507,PAPI_L3_TCM,4, 84.26336670,  5.39540100,end
timer_stats,656117114720822,PAPI_L3_TCM,209, 84.95379639,  5.43562317,end
timer_stats,656117115834368,PAPI_L3_TCM,81, 85.14324951,  5.45240784,end
timer_stats,656117116908674,PAPI_L3_TCM,11, 85.40264892,  5.46795654,end
timer_stats,656117117996100,PAPI_L3_TCM,7, 85.65563965,  5.48309326,end
timer_stats,656117119071693,PAPI_L3_TCM,1, 85.90893555,  5.49822998,end
timer_stats,656117120147327,PAPI_L3_TCM,2, 86.18707275,  5.51400757,end
timer_stats,656117121221295,PAPI_L3_TCM,0, 86.56707764,  5.52957153,end
timer_stats,656117122295083,PAPI_L3_TCM,2, 86.96185303,  5.55303955,end
timer_stats,656117123368850,PAPI_L3_TCM,1, 87.21807861,  5.56840515,end
timer_stats,656117124443378,PAPI_L3_TCM,7, 87.48547363,  5.58392334,end
timer_stats,656117125517179,PAPI_L3_TCM,1, 87.74694824,  5.59948730,end
timer_stats,656117126591698,PAPI_L3_TCM,6, 88.01953125,  5.61474609,end
timer_stats,656117127666650,PAPI_L3_TCM,0, 88.27752685,  5.63070679,end
timer_stats,656117128741077,PAPI_L3_TCM,2, 88.54901123,  5.64625549,end
timer_stats,656117129814215,PAPI_L3_TCM,1, 88.80718994,  5.66249084,end
timer_stats,656117130887791,PAPI_L3_TCM,2, 89.05926514,  5.67811584,end
timer_stats,656117131961489,PAPI_L3_TCM,0, 89.32507324,  5.69345093,end
timer_stats,656117133035319,PAPI_L3_TCM,3, 89.60333252,  5.70942688,end
timer_stats,656117134108954,PAPI_L3_TCM,1, 89.85711670,  5.72525024,end
timer_stats,656117135182815,PAPI_L3_TCM,2, 90.11846924,  5.74131775,end
timer_stats,656117136256526,PAPI_L3_TCM,3, 90.52160644,  5.76457214,end
timer_stats,656117137331282,PAPI_L3_TCM,5, 90.89581299,  5.78851318,end
timer_stats,656117138404705,PAPI_L3_TCM,8, 91.17071533,  5.80432129,end
timer_stats,656117139478126,PAPI_L3_TCM,3, 91.42285156,  5.81971741,end
timer_stats,656117140552598,PAPI_L3_TCM,5, 91.68804932,  5.83528137,end
timer_stats,656117141625986,PAPI_L3_TCM,2, 91.93670654,  5.85090637,end
timer_stats,656117142699437,PAPI_L3_TCM,1, 92.21405029,  5.86688232,end
timer_stats,656117143773624,PAPI_L3_TCM,7, 92.48205566,  5.88284302,end
timer_stats,656117144848294,PAPI_L3_TCM,7, 92.74237061,  5.89840698,end
timer_stats,656117145922537,PAPI_L3_TCM,2, 93.00665283,  5.91441345,end
timer_stats,656117146996652,PAPI_L3_TCM,1, 93.26983642,  5.93077087,end
timer_stats,656117148070157,PAPI_L3_TCM,2, 93.53002930,  5.94659424,end
timer_stats,656117149144655,PAPI_L3_TCM,7, 93.79248047,  5.96224976,end
timer_stats,656117150219391,PAPI_L3_TCM,5, 94.18591308,  5.98561096,end
timer_stats,656117151294096,PAPI_L3_TCM,2, 94.58654785,  6.00903320,end
timer_stats,656117152368491,PAPI_L3_TCM,7, 94.85479736,  6.02537537,end
timer_stats,656117153442855,PAPI_L3_TCM,3, 95.12402344,  6.04063415,end
timer_stats,656117154516620,PAPI_L3_TCM,5, 95.37048340,  6.05651855,end
timer_stats,656117155591296,PAPI_L3_TCM,5, 95.63922119,  6.07254028,end
timer_stats,656117156665390,PAPI_L3_TCM,1, 95.90930176,  6.08804321,end
timer_stats,656117157739241,PAPI_L3_TCM,0, 96.18060303,  6.10400391,end
timer_stats,656117158812980,PAPI_L3_TCM,2, 96.43688965,  6.11936951,end
timer_stats,656117159887882,PAPI_L3_TCM,2, 96.69702148,  6.13568115,end
timer_stats,656117160963367,PAPI_L3_TCM,10, 96.97009277,  6.15147400,end
timer_stats,656117162037863,PAPI_L3_TCM,2, 97.20886230,  6.16659546,end
timer_stats,656117163111764,PAPI_L3_TCM,5, 97.47467041,  6.18217468,end
timer_stats,656117164185466,PAPI_L3_TCM,6, 97.75018311,  6.19770813,end
timer_stats,656117165260117,PAPI_L3_TCM,6, 98.26672363,  6.22868347,end
timer_stats,656117166333780,PAPI_L3_TCM,1, 98.52587891,  6.24382019,end
timer_stats,656117167407790,PAPI_L3_TCM,3, 98.79260254,  6.25987244,end
timer_stats,656117168482823,PAPI_L3_TCM,0, 99.04974365,  6.27517700,end
timer_stats,656117169557356,PAPI_L3_TCM,3, 99.30841064,  6.29084778,end
timer_stats,656117170631688,PAPI_L3_TCM,3, 99.57336426,  6.30618286,end
timer_stats,656117171706144,PAPI_L3_TCM,5, 99.83001709,  6.32206726,end
timer_stats,656117172780509,PAPI_L3_TCM,11,100.10931396,  6.33738708,end
timer_stats,656117173853876,PAPI_L3_TCM,3,100.36645508,  6.35301208,end
timer_stats,656117174927613,PAPI_L3_TCM,1,100.61486816,  6.36859131,end
timer_stats,656117176006857,PAPI_L3_TCM,2,100.87963867,  6.38415527,end
timer_stats,656117177081817,PAPI_L3_TCM,5,101.15240478,  6.39953613,end
timer_stats,656117178156180,PAPI_L3_TCM,4,101.41265869,  6.41468811,end
timer_stats,656117181589611,PAPI_L3_TCM,188,102.35034180,  6.49217224,end
timer_stats,656117182675491,PAPI_L3_TCM,78,102.55865478,  6.50924682,end
timer_stats,656117183752518,PAPI_L3_TCM,1,102.81585693,  6.52424621,end
timer_stats,656117184828538,PAPI_L3_TCM,3,103.09057617,  6.53997803,end
timer_stats,656117185903497,PAPI_L3_TCM,2,103.35479736,  6.55595398,end
timer_stats,656117186977797,PAPI_L3_TCM,1,103.61486816,  6.57121277,end
timer_stats,656117188017214,PAPI_L3_TCM,3,103.88262939,  6.58663940,end
timer_stats,656117189091999,PAPI_L3_TCM,2,104.16729736,  6.60183716,end
timer_stats,656117190166357,PAPI_L3_TCM,1,104.41058349,  6.61764526,end
timer_stats,656117191240995,PAPI_L3_TCM,4,104.93963623,  6.64962768,end
timer_stats,656117192315958,PAPI_L3_TCM,2,105.21014404,  6.66482544,end
timer_stats,656117193390611,PAPI_L3_TCM,5,105.48675537,  6.68075561,end
timer_stats,656117194464806,PAPI_L3_TCM,1,105.75762939,  6.69667053,end
timer_stats,656117195539875,PAPI_L3_TCM,3,106.01666260,  6.71264648,end
timer_stats,656117196614330,PAPI_L3_TCM,2,106.28570557,  6.72833252,end
timer_stats,656117197689399,PAPI_L3_TCM,3,106.55847168,  6.74426269,end
timer_stats,656117198764264,PAPI_L3_TCM,0,106.81719971,  6.75996399,end
timer_stats,656117199839950,PAPI_L3_TCM,6,107.08837891,  6.77589416,end
timer_stats,656117200914896,PAPI_L3_TCM,1,107.35919189,  6.79161072,end
timer_stats,656117201989141,PAPI_L3_TCM,4,107.62823486,  6.80731201,end
timer_stats,656117203063277,PAPI_L3_TCM,1,107.87713623,  6.82307434,end
timer_stats,656117204138010,PAPI_L3_TCM,4,108.15136719,  6.83874512,end
timer_stats,656117205212185,PAPI_L3_TCM,0,108.40997314,  6.85449219,end
timer_stats,656117206286445,PAPI_L3_TCM,2,108.93695068,  6.87773132,end
timer_stats,656117207360338,PAPI_L3_TCM,0,109.21942139,  6.89486694,end
timer_stats,656117208435534,PAPI_L3_TCM,4,109.48632812,  6.91033935,end
timer_stats,656117209510731,PAPI_L3_TCM,6,109.75360107,  6.92610168,end
timer_stats,656117210586000,PAPI_L3_TCM,6,110.02648926,  6.94183350,end
timer_stats,656117211660786,PAPI_L3_TCM,1,110.29431152,  6.95783996,end
timer_stats,656117212736018,PAPI_L3_TCM,8,110.56549072,  6.97357178,end
timer_stats,656117213810271,PAPI_L3_TCM,0,110.82403564,  6.98907471,end
timer_stats,656117214884396,PAPI_L3_TCM,2,111.09136963,  7.00506592,end
timer_stats,656117215958754,PAPI_L3_TCM,1,111.36798096,  7.02050781,end
timer_stats,656117217034189,PAPI_L3_TCM,10,111.62872314,  7.03579712,end
timer_stats,656117218109027,PAPI_L3_TCM,7,111.90100098,  7.05183411,end
timer_stats,656117219183421,PAPI_L3_TCM,2,112.16613769,  7.06723022,end
timer_stats,656117220258797,PAPI_L3_TCM,6,112.56567383,  7.08271789,end
timer_stats,656117221334013,PAPI_L3_TCM,1,112.96057129,  7.11352539,end
timer_stats,656117222408562,PAPI_L3_TCM,4,113.23437500,  7.12921142,end
timer_stats,656117223483225,PAPI_L3_TCM,2,113.51269531,  7.14489746,end
timer_stats,656117224558215,PAPI_L3_TCM,6,113.77105713,  7.16116333,end
timer_stats,656117225633144,PAPI_L3_TCM,5,114.03784180,  7.17654419,end
timer_stats,656117226708349,PAPI_L3_TCM,2,114.31585693,  7.18452454,end
timer_stats,656117227782736,PAPI_L3_TCM,3,114.57250976,  7.20072937,end
timer_stats,656117228858523,PAPI_L3_TCM,8,114.84490967,  7.21713257,end
timer_stats,656117229933466,PAPI_L3_TCM,9,115.12207031,  7.23320007,end
timer_stats,656117231008372,PAPI_L3_TCM,2,115.37579346,  7.24894714,end
timer_stats,656117232082333,PAPI_L3_TCM,5,115.64605713,  7.26467895,end
timer_stats,656117233157115,PAPI_L3_TCM,2,115.91992187,  7.28012085,end
timer_stats,656117234232165,PAPI_L3_TCM,4,116.18182373,  7.29583740,end
timer_stats,656117235306055,PAPI_L3_TCM,1,116.71893310,  7.32731628,end
timer_stats,656117236380909,PAPI_L3_TCM,10,116.98681640,  7.34252930,end
timer_stats,656117237455310,PAPI_L3_TCM,3,117.26306152,  7.35821533,end
timer_stats,656117238529756,PAPI_L3_TCM,3,117.53143310,  7.37423706,end
timer_stats,656117239603682,PAPI_L3_TCM,0,117.79571533,  7.39021301,end
timer_stats,656117240677331,PAPI_L3_TCM,7,118.04864502,  7.40603638,end
timer_stats,656117241751444,PAPI_L3_TCM,2,118.32153320,  7.42146301,end
timer_stats,656117242826478,PAPI_L3_TCM,4,118.59631348,  7.43682861,end
timer_stats,656117243901064,PAPI_L3_TCM,8,118.85858154,  7.45259094,end
timer_stats,656117244976550,PAPI_L3_TCM,7,119.12060547,  7.46809387,end
timer_stats,656117246050791,PAPI_L3_TCM,1,119.40661621,  7.48353577,end
timer_stats,656117249818342,PAPI_L3_TCM,223,120.34710693,  7.56294250,end
timer_stats,656117250908514,PAPI_L3_TCM,63,120.54565430,  7.57820129,end
timer_stats,656117251985779,PAPI_L3_TCM,13,120.78784180,  7.59323120,end
timer_stats,656117253062863,PAPI_L3_TCM,2,121.03863525,  7.60742187,end
timer_stats,656117254138164,PAPI_L3_TCM,7,121.28820801,  7.62229919,end
timer_stats,656117255212984,PAPI_L3_TCM,2,121.53662109,  7.63717651,end
timer_stats,656117256287337,PAPI_L3_TCM,3,121.91998291,  7.65177917,end
timer_stats,656117257362134,PAPI_L3_TCM,1,122.29223633,  7.68124390,end
timer_stats,656117258436416,PAPI_L3_TCM,2,122.54425049,  7.69540405,end
timer_stats,656117259511092,PAPI_L3_TCM,6,122.79833984,  7.70977783,end
timer_stats,656117260586508,PAPI_L3_TCM,2,123.04443359,  7.72419739,end
timer_stats,656117261660461,PAPI_L3_TCM,2,123.29797363,  7.73974609,end
timer_stats,656117262734822,PAPI_L3_TCM,2,123.55249023,  7.75404358,end
timer_stats,656117263808729,PAPI_L3_TCM,1,123.80212402,  7.76863098,end
timer_stats,656117264883358,PAPI_L3_TCM,4,124.04620361,  7.78279114,end
timer_stats,656117265957965,PAPI_L3_TCM,2,124.30120849,  7.79760742,end
timer_stats,656117267031602,PAPI_L3_TCM,2,124.56036377,  7.81219482,end
timer_stats,656117268107036,PAPI_L3_TCM,4,124.79736328,  7.82856750,end
timer_stats,656117269182313,PAPI_L3_TCM,14,125.06402588,  7.83547974,end
timer_stats,656117270257209,PAPI_L3_TCM,3,125.43267822,  7.85028076,end
timer_stats,656117271331128,PAPI_L3_TCM,3,125.68658447,  7.86463928,end
timer_stats,656117272404827,PAPI_L3_TCM,4,126.05645752,  7.89405823,end
timer_stats,656117273478130,PAPI_L3_TCM,5,126.29980469,  7.90821838,end
timer_stats,656117274551342,PAPI_L3_TCM,3,126.55242920,  7.92280579,end
timer_stats,656117275625674,PAPI_L3_TCM,1,126.79998779,  7.93722534,end
timer_stats,656117276700466,PAPI_L3_TCM,1,127.04425049,  7.95164490,end
timer_stats,656117277776180,PAPI_L3_TCM,5,127.29711914,  7.96578979,end
timer_stats,656117278850048,PAPI_L3_TCM,1,127.55157471,  7.98062134,end
timer_stats,656117279925056,PAPI_L3_TCM,3,127.79461670,  7.99522400,end
timer_stats,656117280998823,PAPI_L3_TCM,5,128.04168701,  8.00939941,end
timer_stats,656117282073642,PAPI_L3_TCM,1,128.29681396,  8.02423096,end
timer_stats,656117283147330,PAPI_L3_TCM,4,128.53149414,  8.03887939,end
timer_stats,656117284221131,PAPI_L3_TCM,12,128.78070068,  8.05395508,end
timer_stats,656117285295537,PAPI_L3_TCM,1,129.14581299,  8.06834412,end
timer_stats,656117286369446,PAPI_L3_TCM,7,129.51141357,  8.09759521,end
timer_stats,656117287444447,PAPI_L3_TCM,6,129.77001953,  8.11193848,end
timer_stats,656117288517974,PAPI_L3_TCM,3,130.01879883,  8.12655640,end
timer_stats,656117289592874,PAPI_L3_TCM,4,130.26214599,  8.14099121,end
timer_stats,656117290667996,PAPI_L3_TCM,7,130.51959228,  8.15556335,end
timer_stats,656117291741196,PAPI_L3_TCM,1,130.76428222,  8.16995239,end
timer_stats,656117292815725,PAPI_L3_TCM,1,131.01275635,  8.18457031,end
timer_stats,656117293889925,PAPI_L3_TCM,3,131.26232910,  8.19889831,end
timer_stats,656117294963868,PAPI_L3_TCM,2,131.50897217,  8.21348572,end
timer_stats,656117296014560,PAPI_L3_TCM,8,131.76708984,  8.22805786,end
timer_stats,656117297089033,PAPI_L3_TCM,2,132.00762939,  8.24288940,end
timer_stats,656117298163605,PAPI_L3_TCM,1,132.25152588,  8.25744629,end
timer_stats,656117299237690,PAPI_L3_TCM,1,132.49774170,  8.27253723,end
timer_stats,656117300311271,PAPI_L3_TCM,3,132.75677490,  8.28729248,end
timer_stats,656117301385940,PAPI_L3_TCM,3,133.14105224,  8.30989075,end
timer_stats,656117302460503,PAPI_L3_TCM,1,133.51782226,  8.33227539,end
timer_stats,656117303551138,PAPI_L3_TCM,10,133.77191162,  8.34823608,end
timer_stats,656117304625331,PAPI_L3_TCM,2,134.01599121,  8.36323547,end
timer_stats,656117305699884,PAPI_L3_TCM,2,134.25988769,  8.37823486,end
timer_stats,656117306774397,PAPI_L3_TCM,0,134.51379394,  8.39321899,end
timer_stats,656117307848848,PAPI_L3_TCM,2,134.77795410,  8.40795898,end
timer_stats,656117308923105,PAPI_L3_TCM,4,135.03131103,  8.42291260,end
timer_stats,656117309997866,PAPI_L3_TCM,4,135.28186035,  8.43794250,end
timer_stats,656117311072759,PAPI_L3_TCM,0,135.52575684,  8.45251465,end
timer_stats,656117312147137,PAPI_L3_TCM,3,135.77868652,  8.46728516,end
timer_stats,656117313222063,PAPI_L3_TCM,3,136.03857422,  8.48204040,end
timer_stats,656117314296399,PAPI_L3_TCM,6,136.40924072,  8.49653625,end
timer_stats,656117315371215,PAPI_L3_TCM,0,136.65234375,  8.51925659,end
timer_stats,656117316445724,PAPI_L3_TCM,1,137.04656982,  8.54272461,end
timer_stats,656117317519114,PAPI_L3_TCM,0,137.29376221,  8.55725098,end
timer_stats,656117318593334,PAPI_L3_TCM,6,137.54559326,  8.57225037,end
timer_stats,656117319666885,PAPI_L3_TCM,0,137.79400635,  8.58724976,end
timer_stats,656117320741735,PAPI_L3_TCM,4,138.04821777,  8.60197449,end
timer_stats,656117321816635,PAPI_L3_TCM,1,138.30035400,  8.61698914,end
timer_stats,656117322891212,PAPI_L3_TCM,3,138.55603027,  8.63198853,end
timer_stats,656117323964837,PAPI_L3_TCM,1,138.80273438,  8.64675903,end
timer_stats,656117325039645,PAPI_L3_TCM,7,139.04833984,  8.66160583,end
timer_stats,656117326114105,PAPI_L3_TCM,1,139.30914307,  8.67594910,end
timer_stats,656117327188573,PAPI_L3_TCM,1,139.55505371,  8.69078064,end
timer_stats,656117330870214,PAPI_L3_TCM,112,140.43157959,  8.76701355,end
timer_stats,656117331956338,PAPI_L3_TCM,64,140.62359619,  8.77433777,end
timer_stats,656117333033221,PAPI_L3_TCM,3,140.87432861,  8.78787231,end
timer_stats,656117334107827,PAPI_L3_TCM,6,141.14410400,  8.80111694,end
timer_stats,656117335181160,PAPI_L3_TCM,2,141.39697266,  8.81555176,end
timer_stats,656117336259476,PAPI_L3_TCM,7,141.66809082,  8.82901001,end
timer_stats,656117337336169,PAPI_L3_TCM,9,141.94122314,  8.84246826,end
timer_stats,656117338411264,PAPI_L3_TCM,4,142.32830810,  8.86306763,end
timer_stats,656117339489297,PAPI_L3_TCM,5,142.73474121,  8.88365173,end
timer_stats,656117340564986,PAPI_L3_TCM,3,142.99700928,  8.89730835,end
timer_stats,656117341640497,PAPI_L3_TCM,1,143.26739502,  8.91076660,end
timer_stats,656117342722823,PAPI_L3_TCM,2,143.52209472,  8.92449951,end
timer_stats,656117343798356,PAPI_L3_TCM,10,143.80212402,  8.93794250,end
timer_stats,656117344874338,PAPI_L3_TCM,8,144.06787109,  8.95184326,end
timer_stats,656117345949058,PAPI_L3_TCM,1,144.33044434,  8.96534729,end
timer_stats,656117347023660,PAPI_L3_TCM,4,144.60394287,  8.97921753,end
timer_stats,656117348098192,PAPI_L3_TCM,0,144.85638428,  8.99317932,end
timer_stats,656117349173166,PAPI_L3_TCM,2,145.14172363,  9.00659180,end
timer_stats,656117350248398,PAPI_L3_TCM,2,145.39410400,  9.02030945,end
timer_stats,656117351323333,PAPI_L3_TCM,4,145.66845703,  9.03375244,end
timer_stats,656117352398482,PAPI_L3_TCM,1,146.07263184,  9.05407715,end
timer_stats,656117353474229,PAPI_L3_TCM,2,146.46240234,  9.07601929,end
timer_stats,656117354549820,PAPI_L3_TCM,0,146.73553467,  9.09141540,end
timer_stats,656117355624075,PAPI_L3_TCM,5,147.00347900,  9.10693359,end
timer_stats,656117356698582,PAPI_L3_TCM,9,147.26971435,  9.12246704,end
timer_stats,656117357772913,PAPI_L3_TCM,2,147.52600098,  9.13807678,end
timer_stats,656117358846727,PAPI_L3_TCM,0,147.79217529,  9.15391540,end
timer_stats,656117359920472,PAPI_L3_TCM,2,148.06951904,  9.16955566,end
timer_stats,656117360994379,PAPI_L3_TCM,0,148.32043457,  9.18495178,end
timer_stats,656117362068345,PAPI_L3_TCM,1,148.58886719,  9.20048523,end
timer_stats,656117363141865,PAPI_L3_TCM,2,148.85443115,  9.21624756,end
timer_stats,656117364215941,PAPI_L3_TCM,1,149.13281250,  9.23202515,end
timer_stats,656117365289436,PAPI_L3_TCM,1,149.39886475,  9.24855041,end
timer_stats,656117366362417,PAPI_L3_TCM,2,149.67016602,  9.26478577,end
timer_stats,656117367436399,PAPI_L3_TCM,1,150.05633545,  9.28810120,end
timer_stats,656117368511222,PAPI_L3_TCM,6,150.45745849,  9.31187439,end
timer_stats,656117369585717,PAPI_L3_TCM,3,150.72198486,  9.32691955,end
timer_stats,656117370659971,PAPI_L3_TCM,3,150.99743652,  9.34268188,end
timer_stats,656117371734484,PAPI_L3_TCM,0,151.26171875,  9.35873413,end
timer_stats,656117372810179,PAPI_L3_TCM,11,151.53637695,  9.37446594,end
timer_stats,656117373884901,PAPI_L3_TCM,0,151.79797363,  9.39010620,end
timer_stats,656117374959645,PAPI_L3_TCM,3,152.07012939,  9.40567017,end
timer_stats,656117376014434,PAPI_L3_TCM,10,152.33605957,  9.42144775,end
timer_stats,656117377089464,PAPI_L3_TCM,3,152.60217285,  9.43692017,end
timer_stats,656117378163970,PAPI_L3_TCM,1,152.86688232,  9.45219421,end
timer_stats,656117379253410,PAPI_L3_TCM,7,153.14331055,  9.46788025,end
timer_stats,656117380328361,PAPI_L3_TCM,0,153.40533447,  9.48355102,end
timer_stats,656117381402729,PAPI_L3_TCM,2,153.80389404,  9.50883484,end
timer_stats,656117382477275,PAPI_L3_TCM,0,154.08441162,  9.52476501,end
timer_stats,656117383552090,PAPI_L3_TCM,4,154.48150635,  9.54847717,end
timer_stats,656117384626470,PAPI_L3_TCM,4,154.74938965,  9.56419372,end
timer_stats,656117385701832,PAPI_L3_TCM,7,155.03039551,  9.58016968,end
timer_stats,656117386775772,PAPI_L3_TCM,3,155.28710937,  9.59622192,end
timer_stats,656117387849484,PAPI_L3_TCM,1,155.55902099,  9.61224365,end
timer_stats,656117388923567,PAPI_L3_TCM,7,155.82250977,  9.62831116,end
timer_stats,656117389996841,PAPI_L3_TCM,1,156.08441162,  9.64404297,end
timer_stats,656117391070352,PAPI_L3_TCM,1,156.34924316,  9.66027832,end
timer_stats,656117392144272,PAPI_L3_TCM,3,156.63293457,  9.67594910,end
timer_stats,656117393217428,PAPI_L3_TCM,7,156.87731934,  9.69282532,end
timer_stats,656117394291771,PAPI_L3_TCM,7,157.15863037,  9.70825195,end
timer_stats,656117395366506,PAPI_L3_TCM,5,157.41937256,  9.72377014,end
timer_stats,656117396440831,PAPI_L3_TCM,3,157.83068847,  9.73979187,end
timer_stats,656117397515159,PAPI_L3_TCM,2,158.22393799,  9.77108765,end
timer_stats,656117398589700,PAPI_L3_TCM,1,158.48901367,  9.78761291,end
timer_stats,656117399663922,PAPI_L3_TCM,3,158.74822998,  9.80335999,end
timer_stats,656117400739286,PAPI_L3_TCM,10,159.03295898,  9.81979370,end
timer_stats,656117401814737,PAPI_L3_TCM,4,159.29675293,  9.83554077,end
timer_stats,656117405879373,PAPI_L3_TCM,319,160.22918701,  9.91534424,end
timer_stats,656117406973545,PAPI_L3_TCM,131,160.41375732,  9.93177795,end
timer_stats,656117408024394,PAPI_L3_TCM,5,160.67486572,  9.94718933,end
timer_stats,656117409099028,PAPI_L3_TCM,1,160.94244385,  9.96324158,end
timer_stats,656117410173451,PAPI_L3_TCM,2,161.20129395,  9.97885132,end
timer_stats,656117411247230,PAPI_L3_TCM,1,161.47070312,  9.99443054,end
timer_stats,656117412322149,PAPI_L3_TCM,8,161.73034668, 10.01029968,end
timer_stats,656117413396952,PAPI_L3_TCM,1,162.12121582, 10.03373718,end
timer_stats,656117414472126,PAPI_L3_TCM,3,162.51666260, 10.05731201,end
timer_stats,656117415547337,PAPI_L3_TCM,0,162.79290771, 10.07315063,end
timer_stats,656117416621545,PAPI_L3_TCM,11,163.05725098, 10.08901977,end
timer_stats,656117417695734,PAPI_L3_TCM,0,163.32830810, 10.10485840,end
timer_stats,656117418779404,PAPI_L3_TCM,7,163.58966064, 10.12011719,end
timer_stats,656117419854390,PAPI_L3_TCM,1,163.85321045, 10.13600159,end
timer_stats,656117420930401,PAPI_L3_TCM,11,164.11254883, 10.15161133,end
timer_stats,656117422004745,PAPI_L3_TCM,3,164.38800049, 10.16746521,end
timer_stats,656117423079375,PAPI_L3_TCM,4,164.63763428, 10.18334961,end
timer_stats,656117424153874,PAPI_L3_TCM,4,164.90649414, 10.19908142,end
timer_stats,656117425227553,PAPI_L3_TCM,7,165.16943359, 10.21456909,end
timer_stats,656117426300975,PAPI_L3_TCM,1,165.44531250, 10.23063659,end
timer_stats,656117427375532,PAPI_L3_TCM,2,165.70196533, 10.24620056,end
timer_stats,656117428449949,PAPI_L3_TCM,5,165.96789551, 10.26228332,end
timer_stats,656117429523885,PAPI_L3_TCM,3,166.49334717, 10.29412842,end
timer_stats,656117430596125,PAPI_L3_TCM,3,166.75653076, 10.30972290,end
timer_stats,656117431670660,PAPI_L3_TCM,3,167.02813721, 10.32527160,end
timer_stats,656117432745845,PAPI_L3_TCM,5,167.29949951, 10.34112549,end
timer_stats,656117433819593,PAPI_L3_TCM,3,167.54974365, 10.35697937,end
timer_stats,656117434893760,PAPI_L3_TCM,5,167.81555176, 10.37303162,end
timer_stats,656117435968302,PAPI_L3_TCM,6,168.08892822, 10.38887024,end
timer_stats,656117437043864,PAPI_L3_TCM,5,168.35693359, 10.40444946,end
timer_stats,656117438118704,PAPI_L3_TCM,7,168.63134766, 10.41999817,end
timer_stats,656117439192232,PAPI_L3_TCM,2,168.89239502, 10.43588257,end
timer_stats,656117440266361,PAPI_L3_TCM,15,169.15087891, 10.45274353,end
timer_stats,656117441340862,PAPI_L3_TCM,9,169.41607666, 10.46849060,end
timer_stats,656117442414847,PAPI_L3_TCM,5,169.67230224, 10.48460388,end
timer_stats,656117443487944,PAPI_L3_TCM,4,170.21557617, 10.50033569,end
timer_stats,656117444563686,PAPI_L3_TCM,5,170.47564697, 10.53240967,end
timer_stats,656117445639333,PAPI_L3_TCM,4,170.74511719, 10.54843139,end
timer_stats,656117446714365,PAPI_L3_TCM,8,171.00720215, 10.56396484,end
timer_stats,656117447787508,PAPI_L3_TCM,1,171.27746582, 10.57977295,end
timer_stats,656117448862512,PAPI_L3_TCM,20,171.52990722, 10.59587097,end
timer_stats,656117449936669,PAPI_L3_TCM,9,171.80816650, 10.61103821,end
timer_stats,656117451010466,PAPI_L3_TCM,5,172.07128906, 10.62675476,end
timer_stats,656117452085009,PAPI_L3_TCM,15,172.33801269, 10.64228821,end
timer_stats,656117453159300,PAPI_L3_TCM,6,172.60467529, 10.65809631,end
timer_stats,656117454234358,PAPI_L3_TCM,3,172.86352539, 10.67367554,end
timer_stats,656117455317503,PAPI_L3_TCM,3,173.11895752, 10.68927002,end
timer_stats,656117456391939,PAPI_L3_TCM,21,173.39215088, 10.70512390,end
timer_stats,656117457466892,PAPI_L3_TCM,8,173.64886474, 10.72067261,end
timer_stats,656117458540608,PAPI_L3_TCM,2,174.18115234, 10.75279236,end
timer_stats,656117459614332,PAPI_L3_TCM,3,174.44683838, 10.76931763,end
timer_stats,656117460687707,PAPI_L3_TCM,4,174.71820068, 10.78482055,end
timer_stats,656117461762318,PAPI_L3_TCM,8,174.97979736, 10.80093384,end
timer_stats,656117462837592,PAPI_L3_TCM,1,175.24108887, 10.81683350,end
timer_stats,656117463911163,PAPI_L3_TCM,4,175.52392578, 10.83233642,end
timer_stats,656117464987744,PAPI_L3_TCM,14,175.78869629, 10.84793091,end
timer_stats,656117466063136,PAPI_L3_TCM,9,176.04821777, 10.86378479,end
timer_stats,656117467136638,PAPI_L3_TCM,1,176.31951904, 10.87902832,end
timer_stats,656117468210013,PAPI_L3_TCM,5,176.58087158, 10.89489746,end
timer_stats,656117469284362,PAPI_L3_TCM,4,176.84112549, 10.91072083,end
timer_stats,656117470357830,PAPI_L3_TCM,4,177.11383057, 10.92657471,end
timer_stats,656117471431207,PAPI_L3_TCM,1,177.38415527, 10.94213867,end
timer_stats,656117472506131,PAPI_L3_TCM,11,177.77404785, 10.95820618,end
timer_stats,656117473580578,PAPI_L3_TCM,1,178.16961670, 10.99034119,end
timer_stats,656117474654271,PAPI_L3_TCM,2,178.42852783, 11.00608826,end
timer_stats,656117475728417,PAPI_L3_TCM,4,178.70104980, 11.02236938,end
timer_stats,656117476803960,PAPI_L3_TCM,6,178.97802734, 11.03819275,end
timer_stats,656117477879392,PAPI_L3_TCM,1,179.23419189, 11.05409241,end
timer_stats,656117478953297,PAPI_L3_TCM,3,179.49127197, 11.07096863,end
timer_stats,656117482880805,PAPI_L3_TCM,125,180.39355469, 11.14385986,end
timer_stats,656117483962966,PAPI_L3_TCM,67,180.60809326, 11.15963745,end
timer_stats,656117485040770,PAPI_L3_TCM,3,180.87176514, 11.17520142,end
timer_stats,656117486116395,PAPI_L3_TCM,9,181.14501953, 11.19052124,end
timer_stats,656117487191792,PAPI_L3_TCM,2,181.40936279, 11.20567322,end
timer_stats,656117488266633,PAPI_L3_TCM,5,181.67791748, 11.22099304,end
timer_stats,656117489342367,PAPI_L3_TCM,3,181.94006348, 11.23689270,end
timer_stats,656117490416731,PAPI_L3_TCM,3,182.21881103, 11.25238037,end
timer_stats,656117491490743,PAPI_L3_TCM,2,182.48248291, 11.26748657,end
timer_stats,656117492565576,PAPI_L3_TCM,7,183.01269531, 11.29885864,end
timer_stats,656117493640463,PAPI_L3_TCM,4,183.28295898, 11.31463623,end
timer_stats,656117494715805,PAPI_L3_TCM,6,183.56036377, 11.33018494,end
timer_stats,656117495789879,PAPI_L3_TCM,0,183.82342529, 11.34596252,end
timer_stats,656117496864610,PAPI_L3_TCM,2,184.09027099, 11.36230469,end
timer_stats,656117497939144,PAPI_L3_TCM,5,184.36389160, 11.37777710,end
timer_stats,656117499012405,PAPI_L3_TCM,4,184.63665771, 11.39331055,end
timer_stats,656117500085402,PAPI_L3_TCM,0,184.90747070, 11.40882873,end
timer_stats,656117501158925,PAPI_L3_TCM,4,185.18115234, 11.42460632,end
timer_stats,656117502232067,PAPI_L3_TCM,2,185.45318603, 11.44035339,end
timer_stats,656117503305590,PAPI_L3_TCM,4,185.71899414, 11.45608520,end
timer_stats,656117504378365,PAPI_L3_TCM,5,185.99017334, 11.47187805,end
timer_stats,656117505452769,PAPI_L3_TCM,4,186.25146484, 11.48789978,end
timer_stats,656117506526952,PAPI_L3_TCM,1,186.53277588, 11.50361633,end
timer_stats,656117507599969,PAPI_L3_TCM,3,187.07666016, 11.52713013,end
timer_stats,656117508674977,PAPI_L3_TCM,7,187.33929443, 11.55110168,end
timer_stats,656117509749870,PAPI_L3_TCM,3,187.60882568, 11.56712341,end
timer_stats,656117510824593,PAPI_L3_TCM,5,187.86853027, 11.58283996,end
timer_stats,656117511898937,PAPI_L3_TCM,2,188.15850830, 11.59906006,end
timer_stats,656117512974152,PAPI_L3_TCM,9,188.41821289, 11.61459351,end
timer_stats,656117514048652,PAPI_L3_TCM,8,188.68273926, 11.63034057,end
timer_stats,656117515121957,PAPI_L3_TCM,5,188.95544434, 11.64608765,end
timer_stats,656117516195603,PAPI_L3_TCM,7,189.22253418, 11.66213989,end
timer_stats,656117517269576,PAPI_L3_TCM,0,189.49536133, 11.67790222,end
timer_stats,656117518344221,PAPI_L3_TCM,4,189.76550293, 11.69375610,end
timer_stats,656117519419690,PAPI_L3_TCM,0,190.03771972, 11.70924377,end
timer_stats,656117520495135,PAPI_L3_TCM,10,190.43322754, 11.73365784,end
timer_stats,656117521569606,PAPI_L3_TCM,4,190.71710205, 11.74958801,end
timer_stats,656117522644246,PAPI_L3_TCM,5,191.12280273, 11.77362060,end
timer_stats,656117523718729,PAPI_L3_TCM,4,191.38494873, 11.78965759,end
timer_stats,656117524792355,PAPI_L3_TCM,9,191.65893555, 11.80534363,end
timer_stats,656117525866920,PAPI_L3_TCM,0,191.93762207, 11.82205200,end
timer_stats,656117526941724,PAPI_L3_TCM,3,192.20147705, 11.83851624,end
timer_stats,656117528014673,PAPI_L3_TCM,7,192.47009277, 11.85453796,end
timer_stats,656117529089781,PAPI_L3_TCM,2,192.73291016, 11.87112427,end
timer_stats,656117530165078,PAPI_L3_TCM,3,193.00946045, 11.88676453,end
timer_stats,656117531239925,PAPI_L3_TCM,5,193.28356934, 11.90281677,end
timer_stats,656117532316110,PAPI_L3_TCM,2,193.54895019, 11.91813660,end
timer_stats,656117533390805,PAPI_L3_TCM,11,193.80438232, 11.93368530,end
timer_stats,656117534465993,PAPI_L3_TCM,9,194.08056641, 11.95069885,end
timer_stats,656117535540913,PAPI_L3_TCM,5,194.48425293, 11.97418213,end
timer_stats,656117536615008,PAPI_L3_TCM,2,194.90332031, 11.99768066,end
timer_stats,656117537689344,PAPI_L3_TCM,6,195.16589355, 12.01353455,end
timer_stats,656117538762562,PAPI_L3_TCM,0,195.43896484, 12.02925110,end
timer_stats,656117539837218,PAPI_L3_TCM,5,195.71813965, 12.04443359,end
timer_stats,656117540913181,PAPI_L3_TCM,8,195.97442627, 12.05976868,end
timer_stats,656117541986362,PAPI_L3_TCM,2,196.24847412, 12.07585144,end
timer_stats,656117543059827,PAPI_L3_TCM,4,196.51824951, 12.09159851,end
timer_stats,656117544132971,PAPI_L3_TCM,4,196.78369141, 12.10769653,end
timer_stats,656117545206625,PAPI_L3_TCM,2,197.06311035, 12.12426758,end
timer_stats,656117546280208,PAPI_L3_TCM,3,197.32244873, 12.14002991,end
timer_stats,656117547353501,PAPI_L3_TCM,2,197.60662842, 12.15554810,end
timer_stats,656117548427345,PAPI_L3_TCM,7,197.88128662, 12.17106628,end
timer_stats,656117551836393,PAPI_L3_TCM,166,198.78302002, 12.24995422,end
timer_stats,656117552930439,PAPI_L3_TCM,61,199.00164795, 12.26573181,end
timer_stats,656117554007775,PAPI_L3_TCM,4,199.26367187, 12.28153992,end
timer_stats,656117555083591,PAPI_L3_TCM,2,199.52606201, 12.29690552,end
timer_stats,656117556159252,PAPI_L3_TCM,3,199.78515625, 12.31204223,end
timer_stats,656117557235619,PAPI_L3_TCM,6,200.05072021, 12.32740784,end
timer_stats,656117558311872,PAPI_L3_TCM,0,200.31036377, 12.34278870,end
timer_stats,656117559387241,PAPI_L3_TCM,3,200.57324219, 12.35792541,end
timer_stats,656117560462479,PAPI_L3_TCM,3,200.82757568, 12.37355041,end
timer_stats,656117561537949,PAPI_L3_TCM,1,201.09375000, 12.38912964,end
timer_stats,656117562612324,PAPI_L3_TCM,1,201.47760010, 12.41230774,end
timer_stats,656117563687493,PAPI_L3_TCM,3,201.87500000, 12.43583679,end
timer_stats,656117564763623,PAPI_L3_TCM,4,202.12927246, 12.45120239,end
timer_stats,656117565838728,PAPI_L3_TCM,3,202.40264892, 12.46665955,end
timer_stats,656117566913964,PAPI_L3_TCM,1,202.65576172, 12.48226929,end
timer_stats,656117567990309,PAPI_L3_TCM,2,202.91650391, 12.49758911,end
timer_stats,656117569072693,PAPI_L3_TCM,4,203.17871094, 12.51387024,end
timer_stats,656117570147838,PAPI_L3_TCM,2,203.45410156, 12.52938843,end
timer_stats,656117571223525,PAPI_L3_TCM,1,203.71160889, 12.54524231,end
timer_stats,656117572300198,PAPI_L3_TCM,10,203.97387695, 12.56098938,end
timer_stats,656117573377323,PAPI_L3_TCM,6,204.22570801, 12.57611084,end
timer_stats,656117574452536,PAPI_L3_TCM,3,204.49261475, 12.59141540,end
timer_stats,656117575527761,PAPI_L3_TCM,1,204.74859619, 12.60678101,end
timer_stats,656117576603624,PAPI_L3_TCM,3,205.14074707, 12.62973022,end
timer_stats,656117577680923,PAPI_L3_TCM,0,205.53509521, 12.64506531,end
timer_stats,656117578756526,PAPI_L3_TCM,1,205.78753662, 12.66886902,end
timer_stats,656117579831975,PAPI_L3_TCM,1,206.05224609, 12.68516540,end
timer_stats,656117580908172,PAPI_L3_TCM,9,206.32244873, 12.70039368,end
timer_stats,656117581984417,PAPI_L3_TCM,7,206.57519531, 12.71569824,end
timer_stats,656117583060779,PAPI_L3_TCM,6,206.84057617, 12.73127746,end
timer_stats,656117584136337,PAPI_L3_TCM,2,207.09564209, 12.74664307,end
timer_stats,656117585211828,PAPI_L3_TCM,2,207.36151123, 12.76199341,end
timer_stats,656117586287336,PAPI_L3_TCM,1,207.62304687, 12.77734375,end
timer_stats,656117587362374,PAPI_L3_TCM,3,207.88708496, 12.79266357,end
timer_stats,656117588436974,PAPI_L3_TCM,1,208.13739014, 12.80897522,end
timer_stats,656117589512480,PAPI_L3_TCM,2,208.40722656, 12.82470703,end
timer_stats,656117590590622,PAPI_L3_TCM,5,208.66876221, 12.84004211,end
timer_stats,656117591666715,PAPI_L3_TCM,12,209.05865478, 12.86410522,end
timer_stats,656117592744435,PAPI_L3_TCM,18,209.45031738, 12.88768005,end
timer_stats,656117593820081,PAPI_L3_TCM,1,209.70385742, 12.90327453,end
timer_stats,656117594895473,PAPI_L3_TCM,0,209.97760010, 12.91859436,end
timer_stats,656117595971064,PAPI_L3_TCM,5,210.23913574, 12.93464661,end
timer_stats,656117597046151,PAPI_L3_TCM,1,210.49414062, 12.94999695,end
timer_stats,656117598120888,PAPI_L3_TCM,6,210.74664307, 12.96707153,end
timer_stats,656117599195837,PAPI_L3_TCM,4,211.01702881, 12.98213196,end
timer_stats,656117600270523,PAPI_L3_TCM,5,211.27801514, 12.99871826,end
timer_stats,656117601346352,PAPI_L3_TCM,0,211.53613281, 13.01423645,end
timer_stats,656117602421896,PAPI_L3_TCM,3,211.79498291, 13.02935791,end
timer_stats,656117603497261,PAPI_L3_TCM,2,212.05639648, 13.04472351,end
timer_stats,656117604572007,PAPI_L3_TCM,3,212.31719971, 13.06008911,end
timer_stats,656117605647537,PAPI_L3_TCM,5,212.70996094, 13.08370972,end
timer_stats,656117606723107,PAPI_L3_TCM,5,213.09930420, 13.10710144,end
timer_stats,656117607798514,PAPI_L3_TCM,1,213.35632324, 13.12249756,end
timer_stats,656117608874691,PAPI_L3_TCM,3,213.63043213, 13.13806152,end
timer_stats,656117609950398,PAPI_L3_TCM,1,213.88909912, 13.15344238,end
timer_stats,656117611025694,PAPI_L3_TCM,1,214.14813232, 13.16957092,end
timer_stats,656117612100319,PAPI_L3_TCM,0,214.41156006, 13.18467712,end
timer_stats,656117613174625,PAPI_L3_TCM,2,214.67626953, 13.19978332,end
timer_stats,656117614249894,PAPI_L3_TCM,0,214.92309570, 13.21519470,end
timer_stats,656117615325430,PAPI_L3_TCM,6,215.18286133, 13.23052978,end
timer_stats,656117616400588,PAPI_L3_TCM,5,215.43750000, 13.24617004,end
timer_stats,656117617475810,PAPI_L3_TCM,8,215.70306396, 13.26153564,end
timer_stats,656117618550607,PAPI_L3_TCM,3,215.97290039, 13.27687073,end
timer_stats,656117619625420,PAPI_L3_TCM,1,216.35986328, 13.29248047,end
timer_stats,656117620701231,PAPI_L3_TCM,4,216.62365722, 13.31546020,end
timer_stats,656117621777824,PAPI_L3_TCM,3,217.02087402, 13.33952331,end
timer_stats,656117622853559,PAPI_L3_TCM,1,217.27618408, 13.35453796,end
timer_stats,656117623928526,PAPI_L3_TCM,5,217.53216553, 13.37014771,end
timer_stats,656117625004947,PAPI_L3_TCM,1,217.79968262, 13.38522339,end
timer_stats,656117626080495,PAPI_L3_TCM,3,218.05938721, 13.40083313,end
timer_stats,656117627155971,PAPI_L3_TCM,0,218.32153320, 13.41662598,end
timer_stats,656117628229907,PAPI_L3_TCM,5,218.57556152, 13.43199158,end
timer_stats,656117629305205,PAPI_L3_TCM,0,218.82763672, 13.44760132,end
timer_stats,656117630380051,PAPI_L3_TCM,2,219.08984375, 13.46315002,end
timer_stats,656117631455091,PAPI_L3_TCM,1,219.35253906, 13.47846985,end
timer_stats,656117636363793,PAPI_L3_TCM,118,220.49633789, 13.57144165,end
timer_stats,656117637450657,PAPI_L3_TCM,89,220.63323974, 13.58660889,end
timer_stats,656117638526196,PAPI_L3_TCM,6,220.90063477, 13.60147095,end
timer_stats,656117639600800,PAPI_L3_TCM,5,221.30249023, 13.61488342,end
timer_stats,656117640675553,PAPI_L3_TCM,10,221.56671142, 13.63565063,end
timer_stats,656117641750175,PAPI_L3_TCM,3,221.84283447, 13.64956665,end
timer_stats,656117642824359,PAPI_L3_TCM,2,222.24621582, 13.67015075,end
timer_stats,656117643898219,PAPI_L3_TCM,2,222.51226807, 13.68385315,end
timer_stats,656117644972886,PAPI_L3_TCM,3,222.77441406, 13.69732666,end
timer_stats,656117646047209,PAPI_L3_TCM,1,223.03997803, 13.71102905,end
timer_stats,656117647121328,PAPI_L3_TCM,4,223.31207275, 13.72491455,end
timer_stats,656117648195850,PAPI_L3_TCM,1,223.57971191, 13.73861694,end
timer_stats,656117649269738,PAPI_L3_TCM,1,223.84625244, 13.74499512,end
timer_stats,656117650344488,PAPI_L3_TCM,0,224.11993408, 13.75839233,end
timer_stats,656117651417367,PAPI_L3_TCM,3,224.37109375, 13.77375793,end
timer_stats,656117652491296,PAPI_L3_TCM,4,224.64508057, 13.78709412,end
timer_stats,656117653566211,PAPI_L3_TCM,2,224.91473389, 13.80099487,end
timer_stats,656117654641105,PAPI_L3_TCM,2,225.31195068, 13.81510925,end
timer_stats,656117655714903,PAPI_L3_TCM,2,225.71508789, 13.82891846,end
timer_stats,656117656789632,PAPI_L3_TCM,6,225.97058105, 13.84968567,end
timer_stats,656117657863310,PAPI_L3_TCM,1,226.25781250, 13.86332703,end
timer_stats,656117658959265,PAPI_L3_TCM,47,226.48547363, 13.87654114,end
timer_stats,656117660026689,PAPI_L3_TCM,31,226.71685791, 13.88792419,end
timer_stats,656117661104766,PAPI_L3_TCM,21,226.95526123, 13.89924621,end
timer_stats,656117662181426,PAPI_L3_TCM,3,227.21600342, 13.91320801,end
timer_stats,656117663255894,PAPI_L3_TCM,0,227.46429443, 13.92648315,end
timer_stats,656117664330184,PAPI_L3_TCM,2,227.73925781, 13.93333435,end
timer_stats,656117665404035,PAPI_L3_TCM,3,228.00079346, 13.94705200,end
timer_stats,656117666723545,PAPI_L3_TCM,56,228.50549316, 13.97135925,end
timer_stats,656117667805146,PAPI_L3_TCM,8,228.75085449, 13.98533630,end
timer_stats,656117668880406,PAPI_L3_TCM,3,229.01013184, 13.99929810,end
timer_stats,656117669956543,PAPI_L3_TCM,0,229.23931885, 14.01019287,end
timer_stats,656117671202243,PAPI_L3_TCM,13,229.49768066, 14.02484131,end
timer_stats,656117672278125,PAPI_L3_TCM,1,229.72283935, 14.03890991,end
timer_stats,656117673352416,PAPI_L3_TCM,4,229.94970703, 14.05299377,end
timer_stats,656117674425408,PAPI_L3_TCM,2,230.22430420, 14.06622314,end
timer_stats,656117675500765,PAPI_L3_TCM,2,230.48779297, 14.07946777,end
timer_stats,656117676573163,PAPI_L3_TCM,1,230.74230957, 14.09298706,end
timer_stats,656117677646628,PAPI_L3_TCM,2,231.12994385, 14.11204529,end
timer_stats,656117678723550,PAPI_L3_TCM,1,231.37445068, 14.12461853,end
timer_stats,656117679797083,PAPI_L3_TCM,2,231.75701904, 14.14505005,end
timer_stats,656117680868364,PAPI_L3_TCM,0,232.01330566, 14.15850830,end
timer_stats,656117681945991,PAPI_L3_TCM,2,232.25122070, 14.17184448,end
timer_stats,656117683021349,PAPI_L3_TCM,1,232.49621582, 14.18150330,end
timer_stats,656117684095836,PAPI_L3_TCM,3,232.73980713, 14.19480896,end
timer_stats,656117685169782,PAPI_L3_TCM,0,232.98815918, 14.20857239,end
timer_stats,656117686241569,PAPI_L3_TCM,1,233.24316406, 14.22207642,end
timer_stats,656117687315253,PAPI_L3_TCM,0,233.49261475, 14.23603821,end
timer_stats,656117688390516,PAPI_L3_TCM,4,233.72509766, 14.24987793,end
timer_stats,656117689466686,PAPI_L3_TCM,1,233.97717285, 14.26339722,end
timer_stats,656117690540703,PAPI_L3_TCM,2,234.23394775, 14.27668762,end
timer_stats,656117691778433,PAPI_L3_TCM,6,234.73748779, 14.29515076,end
timer_stats,656117693079516,PAPI_L3_TCM,29,234.97210693, 14.31549072,end
timer_stats,656117694178781,PAPI_L3_TCM,27,235.18957519, 14.33140564,end
timer_stats,656117695269667,PAPI_L3_TCM,8,235.43548584, 14.34600830,end
timer_stats,656117696581467,PAPI_L3_TCM,64,235.69671631, 14.36120605,end
timer_stats,656117697686575,PAPI_L3_TCM,22,235.89440918, 14.37242126,end
timer_stats,656117698786575,PAPI_L3_TCM,6,236.25299072, 14.39505005,end
timer_stats,656117699881138,PAPI_L3_TCM,10,236.49615478, 14.41114807,end
timer_stats,656117700983189,PAPI_L3_TCM,0,236.82769775, 14.43371582,end
timer_stats,656117703459624,PAPI_L3_TCM,2,237.22540283, 14.45896912,end
timer_stats,656117704568971,PAPI_L3_TCM,1,237.37957764, 14.47515869,end
timer_stats,656117705681505,PAPI_L3_TCM,1,237.60095215, 14.49044800,end
timer_stats,656117706793103,PAPI_L3_TCM,3,238.05926514, 14.52098083,end
timer_stats,656117707905543,PAPI_L3_TCM,2,238.28637695, 14.53512573,end
timer_stats,656117709017682,PAPI_L3_TCM,1,238.50421142, 14.54953003,end
timer_stats,656117710134404,PAPI_L3_TCM,2,238.72991943, 14.56346130,end
timer_stats,656117711249593,PAPI_L3_TCM,1,238.95117187, 14.57763672,end
timer_stats,656117712364341,PAPI_L3_TCM,1,239.17388916, 14.59161377,end
timer_stats,656117713478113,PAPI_L3_TCM,0,239.39672851, 14.60557556,end
timer_stats,656117714591061,PAPI_L3_TCM,1,239.64422607, 14.61990356,end
timer_stats,656117715704254,PAPI_L3_TCM,3,239.96630859, 14.64138794,end
timer_stats,656117716821454,PAPI_L3_TCM,3,240.16986084, 14.65643310,end
timer_stats,656117717941203,PAPI_L3_TCM,1,240.51788330, 14.67800903,end
timer_stats,656117719061210,PAPI_L3_TCM,2,240.73797607, 14.69358826,end
timer_stats,656117720156162,PAPI_L3_TCM,3,240.96429443, 14.70748901,end
timer_stats,656117721276519,PAPI_L3_TCM,8,241.17883301, 14.72172546,end
timer_stats,656117722396034,PAPI_L3_TCM,0,241.39508057, 14.73612976,end
timer_stats,656117723515393,PAPI_L3_TCM,1,241.60931396, 14.75013733,end
timer_stats,656117724636048,PAPI_L3_TCM,1,241.84490967, 14.76385498,end
timer_stats,656117725753750,PAPI_L3_TCM,2,242.13500976, 14.78514099,end
timer_stats,656117726875015,PAPI_L3_TCM,0,242.49359131, 14.80624389,end
timer_stats,656117727992445,PAPI_L3_TCM,3,242.68176269, 14.82028198,end
timer_stats,656117729120190,PAPI_L3_TCM,1,242.89410400, 14.83425903,end
timer_stats,656117730263617,PAPI_L3_TCM,2,243.11437988, 14.84815979,end
timer_stats,656117731403034,PAPI_L3_TCM,0,243.32141113, 14.86218262,end
timer_stats,656117732535385,PAPI_L3_TCM,2,243.54626465, 14.87661743,end
timer_stats,656117733672102,PAPI_L3_TCM,1,243.84423828, 14.89753723,end
timer_stats,656117734808947,PAPI_L3_TCM,3,244.03607178, 14.91094971,end
timer_stats,656117735944984,PAPI_L3_TCM,0,244.35290527, 14.93154907,end
timer_stats,656117737080050,PAPI_L3_TCM,2,244.57434082, 14.94534302,end
timer_stats,656117738224521,PAPI_L3_TCM,0,244.76153564, 14.95903015,end
timer_stats,656117739366558,PAPI_L3_TCM,1,244.99084473, 14.97245788,end
timer_stats,656117740500843,PAPI_L3_TCM,1,245.20294189, 14.98768616,end
timer_stats,656117741641037,PAPI_L3_TCM,1,245.38244629, 15.00204468,end
timer_stats,656117742784374,PAPI_L3_TCM,0,245.79571533, 15.03054810,end
timer_stats,656117743924973,PAPI_L3_TCM,2,246.00708008, 15.04481506,end
timer_stats,656117745059912,PAPI_L3_TCM,0,246.23083496, 15.05876160,end
timer_stats,656117746204425,PAPI_L3_TCM,2,246.43988037, 15.07347107,end
timer_stats,656117747345212,PAPI_L3_TCM,6,246.62976074, 15.08749390,end
timer_stats,656117748484055,PAPI_L3_TCM,1,246.81158447, 15.10063171,end
timer_stats,656117749625959,PAPI_L3_TCM,0,247.01788330, 15.11418152,end
timer_stats,656117750770617,PAPI_L3_TCM,1,247.26959228, 15.13412476,end
timer_stats,656117751921597,PAPI_L3_TCM,0,247.54046631, 15.15391540,end
timer_stats,656117753058006,PAPI_L3_TCM,2,247.74908447, 15.16729736,end
timer_stats,656117754180883,PAPI_L3_TCM,0,247.93792724, 15.18096924,end
timer_stats,656117755330725,PAPI_L3_TCM,3,248.08898926, 15.19454956,end
timer_stats,656117756475473,PAPI_L3_TCM,0,248.27325439, 15.20845032,end
timer_stats,656117757618025,PAPI_L3_TCM,2,248.47442627, 15.22184753,end
timer_stats,656117758760426,PAPI_L3_TCM,0,248.64782715, 15.23507690,end
timer_stats,656117759909874,PAPI_L3_TCM,1,248.98870849, 15.26213074,end
timer_stats,656117761045416,PAPI_L3_TCM,0,249.18164062, 15.27485657,end
timer_stats,656117762194255,PAPI_L3_TCM,3,249.33898926, 15.28822327,end
timer_stats,656117763342911,PAPI_L3_TCM,2,249.51940918, 15.30099487,end
timer_stats,656117764477407,PAPI_L3_TCM,3,249.69628906, 15.31468201,end
timer_stats,656117765624605,PAPI_L3_TCM,0,249.86853027, 15.32820129,end
timer_stats,656117766770226,PAPI_L3_TCM,1,250.13238525, 15.34805298,end
timer_stats,656117767916065,PAPI_L3_TCM,0,250.40948486, 15.36878967,end
timer_stats,656117769055755,PAPI_L3_TCM,1,250.56060791, 15.38212585,end
timer_stats,656117770207554,PAPI_L3_TCM,0,250.75756836, 15.39530945,end
timer_stats,656117771354539,PAPI_L3_TCM,2,250.90136719, 15.40823364,end
timer_stats,656117772503111,PAPI_L3_TCM,1,251.09307861, 15.42205810,end
timer_stats,656117776298503,PAPI_L3_TCM,13,251.74670410, 15.47645569,end
timer_stats,656117777443070,PAPI_L3_TCM,8,251.88037109, 15.48939514,end
timer_stats,656117778586983,PAPI_L3_TCM,2,252.02929687, 15.50184631,end
timer_stats,656117779731858,PAPI_L3_TCM,0,252.20153809, 15.51440430,end
timer_stats,656117780874587,PAPI_L3_TCM,1,252.50006103, 15.53996277,end
timer_stats,656117782032912,PAPI_L3_TCM,0,252.67932129, 15.55226135,end
timer_stats,656117783195153,PAPI_L3_TCM,3,252.84100342, 15.56488037,end
timer_stats,656117784366128,PAPI_L3_TCM,1,252.99847412, 15.57775879,end
timer_stats,656117785521389,PAPI_L3_TCM,5,253.16888428, 15.59082031,end
timer_stats,656117786678556,PAPI_L3_TCM,0,253.32916260, 15.60369873,end
timer_stats,656117787839589,PAPI_L3_TCM,1,253.57965088, 15.62342834,end
timer_stats,656117788995801,PAPI_L3_TCM,1,253.81469727, 15.64276123,end
timer_stats,656117790157611,PAPI_L3_TCM,2,253.97412109, 15.65515137,end
timer_stats,656117791321318,PAPI_L3_TCM,0,254.13659668, 15.66757202,end
timer_stats,656117792485197,PAPI_L3_TCM,3,254.29022217, 15.67997742,end
timer_stats,656117793642469,PAPI_L3_TCM,0,254.42926025, 15.69200134,end
timer_stats,656117794811769,PAPI_L3_TCM,2,254.58129883, 15.70393371,end
timer_stats,656117795970611,PAPI_L3_TCM,0,254.86932373, 15.72795105,end
timer_stats,656117797148942,PAPI_L3_TCM,2,255.01977539, 15.73991394,end
timer_stats,656117798308808,PAPI_L3_TCM,0,255.16131592, 15.75189209,end
timer_stats,656117799451355,PAPI_L3_TCM,1,255.30859375, 15.76382446,end
timer_stats,656117800610387,PAPI_L3_TCM,0,255.45123291, 15.77606201,end
timer_stats,656117801753759,PAPI_L3_TCM,2,255.59649658, 15.78807068,end
timer_stats,656117802897195,PAPI_L3_TCM,0,255.80444336, 15.80635071,end
timer_stats,656117804063425,PAPI_L3_TCM,2,256.01208496, 15.82435608,end
timer_stats,656117805213044,PAPI_L3_TCM,0,256.15155029, 15.83660889,end
timer_stats,656117806361054,PAPI_L3_TCM,1,256.29785156, 15.84857178,end
timer_stats,656117807505489,PAPI_L3_TCM,0,256.43066406, 15.86062622,end
timer_stats,656117808660058,PAPI_L3_TCM,2,256.57458496, 15.87286377,end
timer_stats,656117809806083,PAPI_L3_TCM,0,256.70458984, 15.88496399,end
timer_stats,656117810952238,PAPI_L3_TCM,2,256.99560547, 15.90885925,end
timer_stats,656117812115609,PAPI_L3_TCM,0,257.12957764, 15.92063904,end
timer_stats,656117813277663,PAPI_L3_TCM,2,257.27282715, 15.93286133,end
timer_stats,656117814434388,PAPI_L3_TCM,0,257.41735840, 15.94509888,end
timer_stats,656117815591206,PAPI_L3_TCM,2,257.55010986, 15.95761108,end
timer_stats,656117816746810,PAPI_L3_TCM,0,257.69299316, 15.96957397,end
timer_stats,656117817896361,PAPI_L3_TCM,1,257.89392090, 15.98759460,end
timer_stats,656117819051393,PAPI_L3_TCM,0,258.09924316, 16.00559997,end
timer_stats,656117820187647,PAPI_L3_TCM,3,258.23718262, 16.01760864,end
timer_stats,656117821351257,PAPI_L3_TCM,0,258.36383057, 16.02941894,end
timer_stats,656117822520020,PAPI_L3_TCM,2,258.49816894, 16.04289246,end
timer_stats,656117823684795,PAPI_L3_TCM,1,258.63317871, 16.05465698,end
timer_stats,656117824847766,PAPI_L3_TCM,2,258.75842285, 16.06620789,end
timer_stats,656117826012985,PAPI_L3_TCM,0,259.00891113, 16.08940124,end
timer_stats,656117827179093,PAPI_L3_TCM,1,259.12872314, 16.10099792,end
timer_stats,656117828307287,PAPI_L3_TCM,1,259.25756836, 16.11231994,end
timer_stats,656117829481058,PAPI_L3_TCM,2,259.38116455, 16.12390137,end
timer_stats,656117830646976,PAPI_L3_TCM,0,259.50421142, 16.13551330,end
timer_stats,656117831812771,PAPI_L3_TCM,2,259.62707519, 16.14662170,end
timer_stats,656117832979532,PAPI_L3_TCM,1,259.87500000, 16.16978454,end
timer_stats,656117834145057,PAPI_L3_TCM,1,260.00122070, 16.18138122,end
timer_stats,656117835310954,PAPI_L3_TCM,0,260.12408447, 16.19296265,end
timer_stats,656117836478072,PAPI_L3_TCM,2,260.24993896, 16.20452881,end
timer_stats,656117837645468,PAPI_L3_TCM,0,260.37738037, 16.21582031,end
timer_stats,656117838810238,PAPI_L3_TCM,2,260.49627685, 16.22770691,end
timer_stats,656117839975215,PAPI_L3_TCM,0,260.74841308, 16.25090027,end
timer_stats,656117841150026,PAPI_L3_TCM,4,260.86889648, 16.26275635,end
timer_stats,656117842319361,PAPI_L3_TCM,0,260.99078369, 16.27461243,end
timer_stats,656117843488059,PAPI_L3_TCM,1,261.11798096, 16.28642273,end
timer_stats,656117844709951,PAPI_L3_TCM,5,261.23901367, 16.29803467,end
timer_stats,656117846142480,PAPI_L3_TCM,19,261.48199463, 16.31996155,end
timer_stats,656117847394034,PAPI_L3_TCM,6,261.59191894, 16.33113098,end
timer_stats,656117848603751,PAPI_L3_TCM,4,261.72100830, 16.34231567,end
timer_stats,656117849775066,PAPI_L3_TCM,2,261.84570312, 16.35385132,end
timer_stats,656117850942001,PAPI_L3_TCM,1,262.08996582, 16.37677002,end
timer_stats,656117852105419,PAPI_L3_TCM,1,262.20379639, 16.38816833,end
timer_stats,656117853251258,PAPI_L3_TCM,0,262.32550049, 16.39953613,end
timer_stats,656117854417479,PAPI_L3_TCM,0,262.44848633, 16.41110229,end
timer_stats,656117855569423,PAPI_L3_TCM,2,262.56573486, 16.42269897,end
timer_stats,656117856733517,PAPI_L3_TCM,1,262.68762207, 16.43380737,end
timer_stats,656117857888313,PAPI_L3_TCM,2,262.80346680, 16.44519043,end
timer_stats,656117859039687,PAPI_L3_TCM,0,263.04431152, 16.46846008,end
timer_stats,656117860194254,PAPI_L3_TCM,1,263.16528320, 16.47978210,end
timer_stats,656117861361622,PAPI_L3_TCM,1,263.28320312, 16.49092102,end
timer_stats,656117862528580,PAPI_L3_TCM,0,263.40148926, 16.50230408,end
timer_stats,656117863695532,PAPI_L3_TCM,0,263.52008057, 16.51365662,end
timer_stats,656117864864277,PAPI_L3_TCM,2,263.64404297, 16.52525329,end
timer_stats,656117866031925,PAPI_L3_TCM,0,263.87805176, 16.54782104,end
timer_stats,656117867191130,PAPI_L3_TCM,5,264.00238037, 16.55938721,end
timer_stats,656117868342767,PAPI_L3_TCM,1,264.12463379, 16.57073975,end
timer_stats,656117869504251,PAPI_L3_TCM,1,264.24438477, 16.58209228,end
timer_stats,656117870682562,PAPI_L3_TCM,0,264.36376953, 16.59347534,end
timer_stats,656117871850880,PAPI_L3_TCM,1,264.48052978, 16.60485840,end
timer_stats,656117873022705,PAPI_L3_TCM,3,264.71569824, 16.62850952,end
timer_stats,656117874192849,PAPI_L3_TCM,1,264.84545898, 16.63977051,end
timer_stats,656117875371937,PAPI_L3_TCM,1,264.95770264, 16.65089416,end
timer_stats,656117876559232,PAPI_L3_TCM,2,265.07061767, 16.66180420,end
timer_stats,656117877740977,PAPI_L3_TCM,1,265.17736816, 16.67323303,end
timer_stats,656117878925249,PAPI_L3_TCM,0,265.34826660, 16.68994140,end
timer_stats,656117880106731,PAPI_L3_TCM,1,265.51165771, 16.70710754,end
timer_stats,656117881274063,PAPI_L3_TCM,0,265.62316894, 16.71850586,end
timer_stats,656117882454839,PAPI_L3_TCM,2,265.72894287, 16.72990417,end
timer_stats,656117883640257,PAPI_L3_TCM,1,265.83758545, 16.74082947,end
timer_stats,656117884821815,PAPI_L3_TCM,1,265.94958496, 16.75195312,end
timer_stats,656117886012552,PAPI_L3_TCM,2,266.17010498, 16.77470398,end
timer_stats,656117887196117,PAPI_L3_TCM,0,266.28363037, 16.78559875,end
timer_stats,656117888378226,PAPI_L3_TCM,3,266.39227295, 16.79727173,end
timer_stats,656117889557950,PAPI_L3_TCM,0,266.49847412, 16.80867004,end
timer_stats,656117890734223,PAPI_L3_TCM,0,266.61535644, 16.81932068,end
timer_stats,656117891909981,PAPI_L3_TCM,2,266.76727295, 16.83587646,end
timer_stats,656117893092011,PAPI_L3_TCM,2,266.93878174, 16.85260010,end
timer_stats,656117894275582,PAPI_L3_TCM,0,267.03900146, 16.86380005,end
timer_stats,656117895457237,PAPI_L3_TCM,1,267.14135742, 16.87521362,end
timer_stats,656117896639005,PAPI_L3_TCM,1,267.25750732, 16.88604736,end
timer_stats,656117897821949,PAPI_L3_TCM,0,267.36163330, 16.89700317,end
timer_stats,656117899015155,PAPI_L3_TCM,395,267.57165527, 16.91845703,end
timer_stats,656117900178853,PAPI_L3_TCM,3,267.68280029, 16.92962646,end
timer_stats,656117901356770,PAPI_L3_TCM,3,267.78570557, 16.94058228,end
timer_stats,656117902536913,PAPI_L3_TCM,3,267.89440918, 16.95175171,end
timer_stats,656117903735318,PAPI_L3_TCM,0,268.00085449, 16.96267700,end
timer_stats,656117904908951,PAPI_L3_TCM,2,268.21417236, 16.98475647,end
timer_stats,656117906085238,PAPI_L3_TCM,0,268.32379150, 16.99589539,end
timer_stats,656117907259105,PAPI_L3_TCM,1,268.43011475, 17.00703430,end
timer_stats,656117908432205,PAPI_L3_TCM,1,268.53637695, 17.01820374,end
timer_stats,656117909607380,PAPI_L3_TCM,1,268.64178467, 17.02912903,end
timer_stats,656117910775637,PAPI_L3_TCM,0,268.74871826, 17.04029846,end
timer_stats,656117911961739,PAPI_L3_TCM,1,268.90765381, 17.05680847,end
timer_stats,656117913146321,PAPI_L3_TCM,1,269.07263183, 17.07377624,end
timer_stats,656117914327769,PAPI_L3_TCM,2,269.17462158, 17.08493042,end
timer_stats,656117915504318,PAPI_L3_TCM,0,269.26898193, 17.09521484,end
timer_stats,656117916700207,PAPI_L3_TCM,1,269.36822510, 17.10571289,end
timer_stats,656117917880198,PAPI_L3_TCM,0,269.45495605, 17.11627197,end
timer_stats,656117919053067,PAPI_L3_TCM,1,269.62689209, 17.13740539,end
timer_stats,656117920210718,PAPI_L3_TCM,1,269.71807861, 17.14640808,end
timer_stats,656117921393824,PAPI_L3_TCM,1,269.80664062, 17.15539551,end
timer_stats,656117922575795,PAPI_L3_TCM,0,269.89642334, 17.16442871,end
timer_stats,656117923756933,PAPI_L3_TCM,1,269.98388672, 17.17341614,end
timer_stats,656117924947172,PAPI_L3_TCM,1,270.15728760, 17.19300842,end
timer_stats,656117926145400,PAPI_L3_TCM,1,270.24987793, 17.20329284,end
timer_stats,656117927326597,PAPI_L3_TCM,0,270.33837891, 17.21226501,end
timer_stats,656117928512647,PAPI_L3_TCM,2,270.42382812, 17.22157287,end
timer_stats,656117929697198,PAPI_L3_TCM,0,270.51049805, 17.23057556,end
timer_stats,656117930879023,PAPI_L3_TCM,1,270.59674072, 17.24470520,end
timer_stats,656117932061115,PAPI_L3_TCM,1,270.77770996, 17.26036072,end
timer_stats,656117933247253,PAPI_L3_TCM,1,270.86248779, 17.26939392,end
timer_stats,656117934429608,PAPI_L3_TCM,0,270.95068359, 17.27839661,end
timer_stats,656117935608560,PAPI_L3_TCM,1,271.03729248, 17.28715515,end
timer_stats,656117936791022,PAPI_L3_TCM,2,271.12500000, 17.29591369,end
timer_stats,656117937979070,PAPI_L3_TCM,1,271.29547119, 17.31013489,end
timer_stats,656117939162255,PAPI_L3_TCM,0,271.39044189, 17.32572937,end
timer_stats,656117940343458,PAPI_L3_TCM,3,271.46972656, 17.33633423,end
timer_stats,656117941527522,PAPI_L3_TCM,3,271.55560303, 17.34616089,end
timer_stats,656117942707997,PAPI_L3_TCM,1,271.64251709, 17.35514831,end
timer_stats,656117943891374,PAPI_L3_TCM,0,271.72595215, 17.36907959,end
timer_stats,656117945076077,PAPI_L3_TCM,2,271.89581299, 17.38476562,end
timer_stats,656117946257448,PAPI_L3_TCM,0,271.98120117, 17.39352417,end
timer_stats,656117947441160,PAPI_L3_TCM,1,272.07165527, 17.40249634,end
timer_stats,656117948622412,PAPI_L3_TCM,1,272.16418457, 17.40603638,end
timer_stats,656117949805640,PAPI_L3_TCM,1,272.24188232, 17.41513061,end
timer_stats,656117950988492,PAPI_L3_TCM,0,272.37500000, 17.42953491,end
timer_stats,656117952159620,PAPI_L3_TCM,2,272.49505615, 17.44522095,end
timer_stats,656117953341970,PAPI_L3_TCM,0,272.57397461, 17.45425415,end
timer_stats,656117954509643,PAPI_L3_TCM,1,272.65881348, 17.46322632,end
timer_stats,656117955679100,PAPI_L3_TCM,0,272.74945068, 17.47216797,end
timer_stats,656117956850380,PAPI_L3_TCM,2,272.83526611, 17.48094177,end
timer_stats,656117958021395,PAPI_L3_TCM,0,272.99114990, 17.49891662,end
timer_stats,656117959186007,PAPI_L3_TCM,1,273.08233642, 17.50938415,end
timer_stats,656117960355945,PAPI_L3_TCM,1,273.15686035, 17.51847839,end
timer_stats,656117961536523,PAPI_L3_TCM,1,273.23913574, 17.52748108,end
timer_stats,656117962712008,PAPI_L3_TCM,0,273.32946777, 17.53639221,end
timer_stats,656117963891537,PAPI_L3_TCM,1,273.40435791, 17.54524231,end
timer_stats,656117965074092,PAPI_L3_TCM,1,273.54217529, 17.55929565,end
timer_stats,656117966265027,PAPI_L3_TCM,2,273.65386963, 17.57348633,end
timer_stats,656117967442633,PAPI_L3_TCM,0,273.73486328, 17.58248901,end
timer_stats,656117968606347,PAPI_L3_TCM,2,273.81524658, 17.59149170,end
timer_stats,656117969771255,PAPI_L3_TCM,0,273.90557861, 17.60040283,end
timer_stats,656117970950860,PAPI_L3_TCM,1,274.03521728, 17.61613464,end
timer_stats,656117972128209,PAPI_L3_TCM,1,274.14483642, 17.63032532,end
timer_stats,656117973313057,PAPI_L3_TCM,1,274.22900391, 17.63955688,end
timer_stats,656117974497992,PAPI_L3_TCM,0,274.31018066, 17.64865112,end
timer_stats,656117975679309,PAPI_L3_TCM,0,274.38635254, 17.65771484,end
timer_stats,656117976864585,PAPI_L3_TCM,1,274.47546387, 17.66662598,end
timer_stats,656117978048663,PAPI_L3_TCM,1,274.62951660, 17.68472290,end
timer_stats,656117979228400,PAPI_L3_TCM,0,274.71276855, 17.69546509,end
timer_stats,656117980411987,PAPI_L3_TCM,2,274.79351807, 17.70446777,end
timer_stats,656117981589081,PAPI_L3_TCM,0,274.86877441, 17.71328735,end
timer_stats,656117982766867,PAPI_L3_TCM,1,274.95050049, 17.72227478,end
timer_stats,656117983948128,PAPI_L3_TCM,0,275.03753662, 17.73143005,end
timer_stats,656117985140227,PAPI_L3_TCM,1,275.16320801, 17.74537659,end
timer_stats,656117986317910,PAPI_L3_TCM,0,275.27954102, 17.75587463,end
timer_stats,656117987498349,PAPI_L3_TCM,1,275.35681152, 17.76487732,end
timer_stats,656117988679400,PAPI_L3_TCM,1,275.43585205, 17.77366638,end
timer_stats,656117989872753,PAPI_L3_TCM,4,275.51397705, 17.78291321,end
timer_stats,656117991044652,PAPI_L3_TCM,2,275.63977051, 17.79774475,end
timer_stats,656117992224304,PAPI_L3_TCM,3,275.75128174, 17.80665588,end
timer_stats,656117993368743,PAPI_L3_TCM,0,275.82568359, 17.82313537,end
timer_stats,656117994523242,PAPI_L3_TCM,0,275.91351318, 17.83283997,end
timer_stats,656117995670776,PAPI_L3_TCM,0,275.98742676, 17.84291076,end
timer_stats,656117996818088,PAPI_L3_TCM,2,276.06439209, 17.85324097,end
timer_stats,656117997976894,PAPI_L3_TCM,0,276.17553711, 17.86857605,end
