timer_stats,696697200666129,PAPI_L3_TCM,222,  0.12512207,  0.01174927,end
timer_stats,696697201858189,PAPI_L3_TCM,37,  0.25067139,  0.02421570,end
timer_stats,696697203027971,PAPI_L3_TCM,1,  0.36981201,  0.03706360,end
timer_stats,696697204171929,PAPI_L3_TCM,2,  0.48248291,  0.05470276,end
timer_stats,696697205291336,PAPI_L3_TCM,5,  0.72949219,  0.07170105,end
timer_stats,696697206441981,PAPI_L3_TCM,1,  0.85131836,  0.08297729,end
timer_stats,696697207657010,PAPI_L3_TCM,17,  0.96374512,  0.09452820,end
timer_stats,696697208779001,PAPI_L3_TCM,10,  1.08978271,  0.10647583,end
timer_stats,696697209913210,PAPI_L3_TCM,5,  1.20623779,  0.11796570,end
timer_stats,696697211034514,PAPI_L3_TCM,16,  1.32647705,  0.12940979,end
timer_stats,696697212150693,PAPI_L3_TCM,2,  1.44512939,  0.14277649,end
timer_stats,696697213276857,PAPI_L3_TCM,1,  1.68017578,  0.16085815,end
timer_stats,696697214439513,PAPI_L3_TCM,2,  1.79461670,  0.17961120,end
timer_stats,696697215609898,PAPI_L3_TCM,2,  1.90881348,  0.19259644,end
timer_stats,696697216775573,PAPI_L3_TCM,2,  2.02288818,  0.20443726,end
timer_stats,696697217944234,PAPI_L3_TCM,6,  2.13592529,  0.21746826,end
timer_stats,696697219083153,PAPI_L3_TCM,1,  2.25897217,  0.22897339,end
timer_stats,696697220179529,PAPI_L3_TCM,9,  2.38012695,  0.24366760,end
timer_stats,696697221617998,PAPI_L3_TCM,6,  2.67657471,  0.27053833,end
timer_stats,696697222723744,PAPI_L3_TCM,16,  2.82128906,  0.28695679,end
timer_stats,696697224403935,PAPI_L3_TCM,39,  3.09185791,  0.31387329,end
timer_stats,696697225504384,PAPI_L3_TCM,9,  3.24444580,  0.32852173,end
timer_stats,696697226603109,PAPI_L3_TCM,3,  3.39776611,  0.34306335,end
timer_stats,696697227702218,PAPI_L3_TCM,13,  3.56744385,  0.35758972,end
timer_stats,696697228793511,PAPI_L3_TCM,22,  3.72296142,  0.37123108,end
timer_stats,696697229888498,PAPI_L3_TCM,4,  3.88848877,  0.38444519,end
timer_stats,696697230983047,PAPI_L3_TCM,2,  4.06756592,  0.39855957,end
timer_stats,696697232499757,PAPI_L3_TCM,6,  4.41894531,  0.42739868,end
timer_stats,696697233582335,PAPI_L3_TCM,10,  4.63098144,  0.44352722,end
timer_stats,696697234658960,PAPI_L3_TCM,18,  4.86633301,  0.45980835,end
timer_stats,696697235738394,PAPI_L3_TCM,6,  5.07568359,  0.47715759,end
timer_stats,696697236817846,PAPI_L3_TCM,4,  5.32177734,  0.49368286,end
timer_stats,696697237899585,PAPI_L3_TCM,5,  5.56927490,  0.51007080,end
timer_stats,696697238979495,PAPI_L3_TCM,10,  5.80120850,  0.52587891,end
timer_stats,696697240022413,PAPI_L3_TCM,2,  6.05163574,  0.54183960,end
timer_stats,696697243970715,PAPI_L3_TCM,54,  6.87072754,  0.60263061,end
timer_stats,696697245075656,PAPI_L3_TCM,14,  7.04034424,  0.62176513,end
timer_stats,696697246156873,PAPI_L3_TCM,10,  7.26702881,  0.63667297,end
timer_stats,696697247236261,PAPI_L3_TCM,2,  7.51708984,  0.65209961,end
timer_stats,696697248315790,PAPI_L3_TCM,5,  8.00561523,  0.68379211,end
timer_stats,696697249396361,PAPI_L3_TCM,4,  8.26434326,  0.70057678,end
timer_stats,696697250475846,PAPI_L3_TCM,5,  8.51904297,  0.71763611,end
timer_stats,696697251555929,PAPI_L3_TCM,1,  8.76885986,  0.73411560,end
timer_stats,696697252632630,PAPI_L3_TCM,36,  9.00146484,  0.74728394,end
timer_stats,696697253707247,PAPI_L3_TCM,19,  9.21697998,  0.76420593,end
timer_stats,696697254784720,PAPI_L3_TCM,9,  9.41137695,  0.78172302,end
timer_stats,696697255852691,PAPI_L3_TCM,0,  9.57226562,  0.79498291,end
timer_stats,696697256945224,PAPI_L3_TCM,3,  9.74218750,  0.81034851,end
timer_stats,696697258027185,PAPI_L3_TCM,9,  9.97857666,  0.82696533,end
timer_stats,696697259108929,PAPI_L3_TCM,8, 10.23504639,  0.84251404,end
timer_stats,696697260189655,PAPI_L3_TCM,4, 10.47833252,  0.85806274,end
timer_stats,696697261270393,PAPI_L3_TCM,3, 10.73590088,  0.87483215,end
timer_stats,696697262349226,PAPI_L3_TCM,0, 11.23596191,  0.90756225,end
timer_stats,696697263428976,PAPI_L3_TCM,5, 11.47656250,  0.92344665,end
timer_stats,696697264508517,PAPI_L3_TCM,6, 11.73126221,  0.93966675,end
timer_stats,696697265592121,PAPI_L3_TCM,15, 11.98779297,  0.95668030,end
timer_stats,696697266674702,PAPI_L3_TCM,11, 12.23492432,  0.97486877,end
timer_stats,696697267754248,PAPI_L3_TCM,4, 12.47845459,  0.99084472,end
timer_stats,696697268834017,PAPI_L3_TCM,0, 12.72381592,  1.00758362,end
timer_stats,696697269910048,PAPI_L3_TCM,36, 12.98535156,  1.02442932,end
timer_stats,696697270989310,PAPI_L3_TCM,12, 13.20086670,  1.04299927,end
timer_stats,696697272067812,PAPI_L3_TCM,6, 13.45483398,  1.06153870,end
timer_stats,696697273146355,PAPI_L3_TCM,2, 13.70080566,  1.07759094,end
timer_stats,696697274858274,PAPI_L3_TCM,15, 14.19458008,  1.10179138,end
timer_stats,696697275939003,PAPI_L3_TCM,10, 14.45202637,  1.11747742,end
timer_stats,696697277019874,PAPI_L3_TCM,8, 14.70648193,  1.13282776,end
timer_stats,696697278101380,PAPI_L3_TCM,4, 14.94964600,  1.14941406,end
timer_stats,696697279182280,PAPI_L3_TCM,5, 15.19744873,  1.16511535,end
timer_stats,696697280264329,PAPI_L3_TCM,8, 15.44158935,  1.18046570,end
timer_stats,696697281346066,PAPI_L3_TCM,3, 15.81732178,  1.20343018,end
timer_stats,696697282427324,PAPI_L3_TCM,4, 16.19616699,  1.22795105,end
timer_stats,696697283507273,PAPI_L3_TCM,8, 16.44781494,  1.24395752,end
timer_stats,696697284586694,PAPI_L3_TCM,4, 16.70751953,  1.25975036,end
timer_stats,696697285666079,PAPI_L3_TCM,2, 16.95300293,  1.27523804,end
timer_stats,696697286747444,PAPI_L3_TCM,9, 17.20281982,  1.29075622,end
timer_stats,696697287829516,PAPI_L3_TCM,7, 17.45599365,  1.30628967,end
timer_stats,696697290864030,PAPI_L3_TCM,90, 18.07312012,  1.35272217,end
timer_stats,696697291946530,PAPI_L3_TCM,30, 18.27185058,  1.37174988,end
timer_stats,696697293026304,PAPI_L3_TCM,3, 18.52136230,  1.38972473,end
timer_stats,696697294106255,PAPI_L3_TCM,6, 18.77941894,  1.40666199,end
timer_stats,696697295184837,PAPI_L3_TCM,2, 19.02960205,  1.42304992,end
timer_stats,696697296276658,PAPI_L3_TCM,2, 19.27783203,  1.44097900,end
timer_stats,696697297355920,PAPI_L3_TCM,5, 19.78118896,  1.47375488,end
timer_stats,696697298436003,PAPI_L3_TCM,8, 20.03308105,  1.49111938,end
timer_stats,696697299518890,PAPI_L3_TCM,57, 20.27624512,  1.50511169,end
timer_stats,696697300610291,PAPI_L3_TCM,34, 20.43884277,  1.52140808,end
timer_stats,696697301754986,PAPI_L3_TCM,3, 20.64715576,  1.53726196,end
timer_stats,696697303340732,PAPI_L3_TCM,4, 20.98565674,  1.56278992,end
timer_stats,696697304420972,PAPI_L3_TCM,4, 21.36822510,  1.58953857,end
timer_stats,696697305500285,PAPI_L3_TCM,5, 21.62341308,  1.60661316,end
timer_stats,696697306581278,PAPI_L3_TCM,5, 21.87268066,  1.62463379,end
timer_stats,696697307661306,PAPI_L3_TCM,5, 22.13525390,  1.64268493,end
timer_stats,696697308740381,PAPI_L3_TCM,6, 22.38098144,  1.65960693,end
timer_stats,696697309819432,PAPI_L3_TCM,12, 22.64312744,  1.67781067,end
timer_stats,696697310898748,PAPI_L3_TCM,6, 22.89624023,  1.69549561,end
timer_stats,696697311977440,PAPI_L3_TCM,9, 23.13781738,  1.71392822,end
timer_stats,696697313056581,PAPI_L3_TCM,5, 23.39294433,  1.73144531,end
timer_stats,696697314135470,PAPI_L3_TCM,12, 23.64251709,  1.74940491,end
timer_stats,696697315215250,PAPI_L3_TCM,2, 23.90325928,  1.77032471,end
timer_stats,696697316295516,PAPI_L3_TCM,3, 24.15051269,  1.78880310,end
timer_stats,696697317374479,PAPI_L3_TCM,10, 24.65612793,  1.82446289,end
timer_stats,696697318565756,PAPI_L3_TCM,11, 24.91564941,  1.84288025,end
timer_stats,696697319646319,PAPI_L3_TCM,9, 25.16369629,  1.86183166,end
timer_stats,696697320726775,PAPI_L3_TCM,2, 25.41223144,  1.88027954,end
timer_stats,696697321804666,PAPI_L3_TCM,3, 25.67858887,  1.89846802,end
timer_stats,696697322882230,PAPI_L3_TCM,4, 25.93145752,  1.91662598,end
timer_stats,696697323960474,PAPI_L3_TCM,7, 26.18621826,  1.93501282,end
timer_stats,696697325040305,PAPI_L3_TCM,10, 26.44238281,  1.95484924,end
timer_stats,696697326120233,PAPI_L3_TCM,14, 26.70098877,  1.97357178,end
timer_stats,696697327199535,PAPI_L3_TCM,8, 26.95043945,  1.99227905,end
timer_stats,696697328287711,PAPI_L3_TCM,5, 27.19915771,  2.00891113,end
timer_stats,696697332729234,PAPI_L3_TCM,207, 28.19116211,  2.08702087,end
timer_stats,696697333824507,PAPI_L3_TCM,130, 28.39630127,  2.10467529,end
timer_stats,696697334907509,PAPI_L3_TCM,23, 28.65277100,  2.12232971,end
timer_stats,696697335988133,PAPI_L3_TCM,5, 28.89263916,  2.14045715,end
timer_stats,696697337076595,PAPI_L3_TCM,9, 29.15106201,  2.15902710,end
timer_stats,696697338167478,PAPI_L3_TCM,7, 29.40307617,  2.17614746,end
timer_stats,696697339247936,PAPI_L3_TCM,9, 29.65472412,  2.19447327,end
timer_stats,696697340328657,PAPI_L3_TCM,3, 29.90753174,  2.21264648,end
timer_stats,696697341408857,PAPI_L3_TCM,5, 30.41271973,  2.25010681,end
timer_stats,696697342491668,PAPI_L3_TCM,4, 30.66113281,  2.26741028,end
timer_stats,696697343578932,PAPI_L3_TCM,7, 30.92175293,  2.28471374,end
timer_stats,696697344660098,PAPI_L3_TCM,3, 31.16693115,  2.30174255,end
timer_stats,696697345741094,PAPI_L3_TCM,4, 31.41491699,  2.31983948,end
timer_stats,696697346822112,PAPI_L3_TCM,7, 31.67144775,  2.33856201,end
timer_stats,696697347905363,PAPI_L3_TCM,12, 31.91662597,  2.35592651,end
timer_stats,696697348987281,PAPI_L3_TCM,2, 32.16735840,  2.37275696,end
timer_stats,696697350074179,PAPI_L3_TCM,25, 32.41979980,  2.38967895,end
timer_stats,696697351157551,PAPI_L3_TCM,62, 32.66802978,  2.40734863,end
timer_stats,696697352231464,PAPI_L3_TCM,36, 32.90887451,  2.42507934,end
timer_stats,696697353306017,PAPI_L3_TCM,2, 33.14892578,  2.44087219,end
timer_stats,696697354375816,PAPI_L3_TCM,9, 33.49468994,  2.45652771,end
timer_stats,696697355445876,PAPI_L3_TCM,11, 33.81658935,  2.48703003,end
timer_stats,696697356525666,PAPI_L3_TCM,10, 34.03399658,  2.50213623,end
timer_stats,696697357599064,PAPI_L3_TCM,4, 34.22174072,  2.51705933,end
timer_stats,696697358678049,PAPI_L3_TCM,26, 34.41949463,  2.53251648,end
timer_stats,696697359750313,PAPI_L3_TCM,14, 34.60302734,  2.54843140,end
timer_stats,696697360840548,PAPI_L3_TCM,4, 34.79235840,  2.56385803,end
timer_stats,696697361948255,PAPI_L3_TCM,26, 34.97290039,  2.58114624,end
timer_stats,696697363032148,PAPI_L3_TCM,16, 35.14776611,  2.59513855,end
timer_stats,696697364105051,PAPI_L3_TCM,9, 35.32232666,  2.61000061,end
timer_stats,696697365174021,PAPI_L3_TCM,3, 35.51098633,  2.62393188,end
timer_stats,696697366243443,PAPI_L3_TCM,0, 35.67407226,  2.63775635,end
timer_stats,696697367325637,PAPI_L3_TCM,5, 35.84460449,  2.65206909,end
timer_stats,696697368412482,PAPI_L3_TCM,17, 36.18811035,  2.68080139,end
timer_stats,696697369542603,PAPI_L3_TCM,81, 36.35858154,  2.69535827,end
timer_stats,696697370674802,PAPI_L3_TCM,32, 36.52374268,  2.70849609,end
timer_stats,696697371783652,PAPI_L3_TCM,3, 36.68615723,  2.72267151,end
timer_stats,696697372896269,PAPI_L3_TCM,6, 36.84197998,  2.73725891,end
timer_stats,696697374023753,PAPI_L3_TCM,6, 36.99798584,  2.75120544,end
timer_stats,696697375134609,PAPI_L3_TCM,1, 37.14611816,  2.76461792,end
timer_stats,696697376235976,PAPI_L3_TCM,6, 37.28778076,  2.77638245,end
timer_stats,696697377343267,PAPI_L3_TCM,0, 37.50836182,  2.78848267,end
timer_stats,696697378481081,PAPI_L3_TCM,4, 37.72027588,  2.81382751,end
timer_stats,696697379611352,PAPI_L3_TCM,0, 37.86614990,  2.82666015,end
timer_stats,696697380746051,PAPI_L3_TCM,3, 38.01477051,  2.83949280,end
timer_stats,696697381882854,PAPI_L3_TCM,0, 38.14990234,  2.85241699,end
timer_stats,696697383026384,PAPI_L3_TCM,2, 38.29052734,  2.86480713,end
timer_stats,696697384133049,PAPI_L3_TCM,3, 38.43096924,  2.87721252,end
timer_stats,696697385251623,PAPI_L3_TCM,4, 38.56689453,  2.88980103,end
timer_stats,696697386385124,PAPI_L3_TCM,0, 38.77404785,  2.90791321,end
timer_stats,696697387530794,PAPI_L3_TCM,1, 38.97625732,  2.92651367,end
timer_stats,696697388664903,PAPI_L3_TCM,3, 39.11444092,  2.93893432,end
timer_stats,696697389785860,PAPI_L3_TCM,5, 39.25115967,  2.95109558,end
timer_stats,696697390931973,PAPI_L3_TCM,0, 39.37518310,  2.96543884,end
timer_stats,696697392064528,PAPI_L3_TCM,7, 39.50982666,  2.97831726,end
timer_stats,696697393201377,PAPI_L3_TCM,7, 39.64111328,  2.99182129,end
timer_stats,696697394350384,PAPI_L3_TCM,6, 39.77514648,  3.00418091,end
timer_stats,696697397420018,PAPI_L3_TCM,19, 40.23980713,  3.04711914,end
timer_stats,696697398556592,PAPI_L3_TCM,16, 40.44091797,  3.06741333,end
timer_stats,696697399680168,PAPI_L3_TCM,1, 40.57232666,  3.07977295,end
timer_stats,696697400808747,PAPI_L3_TCM,3, 40.72076416,  3.09371948,end
timer_stats,696697401940267,PAPI_L3_TCM,0, 40.85717773,  3.10581970,end
timer_stats,696697403075864,PAPI_L3_TCM,3, 40.99230957,  3.11933899,end
timer_stats,696697404178275,PAPI_L3_TCM,5, 41.12597656,  3.13122559,end
timer_stats,696697405308171,PAPI_L3_TCM,2, 41.27075195,  3.14225769,end
timer_stats,696697406440978,PAPI_L3_TCM,0, 41.45330810,  3.16006470,end
timer_stats,696697407574150,PAPI_L3_TCM,1, 41.65899658,  3.17840576,end
timer_stats,696697408710218,PAPI_L3_TCM,3, 41.79229736,  3.19032287,end
timer_stats,696697409848309,PAPI_L3_TCM,3, 41.92858887,  3.20454407,end
timer_stats,696697410986771,PAPI_L3_TCM,0, 42.06298828,  3.21711731,end
timer_stats,696697412124582,PAPI_L3_TCM,3, 42.19256592,  3.23233032,end
timer_stats,696697413257610,PAPI_L3_TCM,0, 42.33544922,  3.24388122,end
timer_stats,696697414391475,PAPI_L3_TCM,1, 42.54034424,  3.25549316,end
timer_stats,696697415525836,PAPI_L3_TCM,4, 42.75299072,  3.27845764,end
timer_stats,696697416659068,PAPI_L3_TCM,1, 42.89324951,  3.29023743,end
timer_stats,696697417791635,PAPI_L3_TCM,9, 43.02838135,  3.30299377,end
timer_stats,696697418924610,PAPI_L3_TCM,2, 43.17437744,  3.31509399,end
timer_stats,696697420065665,PAPI_L3_TCM,1, 43.31060791,  3.32630920,end
timer_stats,696697421198349,PAPI_L3_TCM,3, 43.43774414,  3.33877563,end
timer_stats,696697422349711,PAPI_L3_TCM,0, 43.56231689,  3.35140991,end
timer_stats,696697423500996,PAPI_L3_TCM,1, 43.81585693,  3.37513733,end
timer_stats,696697424653938,PAPI_L3_TCM,0, 43.95373535,  3.38682556,end
timer_stats,696697425813453,PAPI_L3_TCM,1, 44.07214355,  3.39778137,end
timer_stats,696697426972967,PAPI_L3_TCM,0, 44.19464111,  3.40888977,end
timer_stats,696697428123302,PAPI_L3_TCM,3, 44.31799316,  3.42001343,end
timer_stats,696697429261377,PAPI_L3_TCM,0, 44.43792724,  3.43074036,end
timer_stats,696697430422012,PAPI_L3_TCM,2, 44.56445312,  3.44308472,end
timer_stats,696697431572483,PAPI_L3_TCM,0, 44.81127930,  3.46411133,end
timer_stats,696697432727907,PAPI_L3_TCM,2, 44.93890381,  3.47525024,end
timer_stats,696697433884979,PAPI_L3_TCM,1, 45.05755615,  3.48666382,end
timer_stats,696697435045147,PAPI_L3_TCM,1, 45.17480469,  3.49745178,end
timer_stats,696697436199522,PAPI_L3_TCM,0, 45.29144287,  3.50767517,end
timer_stats,696697437352417,PAPI_L3_TCM,4, 45.40606689,  3.51791382,end
timer_stats,696697438513662,PAPI_L3_TCM,0, 45.63073730,  3.53921509,end
timer_stats,696697439677391,PAPI_L3_TCM,2, 45.74609375,  3.54946899,end
timer_stats,696697440839382,PAPI_L3_TCM,1, 45.85974121,  3.55975342,end
timer_stats,696697442005376,PAPI_L3_TCM,2, 45.97485351,  3.57000732,end
timer_stats,696697443167848,PAPI_L3_TCM,0, 46.08544922,  3.58081055,end
timer_stats,696697444328716,PAPI_L3_TCM,2, 46.20367432,  3.59130859,end
timer_stats,696697445492278,PAPI_L3_TCM,0, 46.31176758,  3.60699463,end
timer_stats,696697446649243,PAPI_L3_TCM,4, 46.53216553,  3.62356567,end
timer_stats,696697447806777,PAPI_L3_TCM,0, 46.64318848,  3.63400268,end
timer_stats,696697448987089,PAPI_L3_TCM,2, 46.75659179,  3.64468384,end
timer_stats,696697450155717,PAPI_L3_TCM,12, 46.86853027,  3.65530395,end
