timer_stats,696694153958313,PAPI_L3_TCM,348,  0.08715820,  0.00872803,end
timer_stats,696694155087050,PAPI_L3_TCM,28,  0.17016601,  0.01998901,end
timer_stats,696694156197744,PAPI_L3_TCM,6,  0.25201416,  0.03021240,end
timer_stats,696694157322317,PAPI_L3_TCM,13,  0.39324951,  0.04602051,end
timer_stats,696694158514254,PAPI_L3_TCM,13,  0.51782226,  0.06057739,end
timer_stats,696694159621359,PAPI_L3_TCM,5,  0.60876465,  0.07128906,end
timer_stats,696694160787889,PAPI_L3_TCM,2,  0.70001221,  0.08200073,end
timer_stats,696694161959801,PAPI_L3_TCM,2,  0.78399658,  0.09317016,end
timer_stats,696694163129199,PAPI_L3_TCM,3,  0.87628174,  0.10366821,end
timer_stats,696694164271961,PAPI_L3_TCM,5,  0.95654297,  0.11465454,end
timer_stats,696694165390408,PAPI_L3_TCM,1,  1.08569336,  0.13157654,end
timer_stats,696694166521298,PAPI_L3_TCM,1,  1.25201416,  0.15097046,end
timer_stats,696694167629891,PAPI_L3_TCM,0,  1.36651611,  0.16560364,end
timer_stats,696694168728717,PAPI_L3_TCM,1,  1.48400879,  0.17672729,end
timer_stats,696694169834054,PAPI_L3_TCM,0,  1.59899902,  0.18966675,end
timer_stats,696694171183667,PAPI_L3_TCM,2,  1.72021484,  0.20108032,end
timer_stats,696694172302989,PAPI_L3_TCM,0,  1.88238525,  0.21971130,end
timer_stats,696694173414589,PAPI_L3_TCM,5,  2.07653809,  0.23986816,end
timer_stats,696694174517972,PAPI_L3_TCM,7,  2.21209717,  0.25202942,end
timer_stats,696694177911339,PAPI_L3_TCM,3,  2.62573242,  0.28962708,end
timer_stats,696694178998010,PAPI_L3_TCM,1,  2.78363037,  0.30364990,end
timer_stats,696694180080732,PAPI_L3_TCM,5,  2.94732666,  0.31033325,end
timer_stats,696694181160410,PAPI_L3_TCM,3,  3.11334228,  0.32321167,end
timer_stats,696694182239586,PAPI_L3_TCM,2,  3.30706787,  0.33694458,end
timer_stats,696694183319905,PAPI_L3_TCM,1,  3.48010254,  0.34992981,end
timer_stats,696694184402960,PAPI_L3_TCM,1,  3.72686767,  0.36956787,end
timer_stats,696694185486637,PAPI_L3_TCM,4,  4.02270508,  0.39077759,end
timer_stats,696694186568104,PAPI_L3_TCM,4,  4.20190430,  0.40332031,end
timer_stats,696694187646763,PAPI_L3_TCM,17,  4.38238525,  0.41252136,end
timer_stats,696694190969800,PAPI_L3_TCM,33,  4.77392578,  0.44763183,end
timer_stats,696694192028178,PAPI_L3_TCM,24,  4.90393066,  0.46076965,end
timer_stats,696694193113086,PAPI_L3_TCM,1,  5.10919189,  0.47505188,end
timer_stats,696694194194023,PAPI_L3_TCM,1,  5.30566406,  0.48915100,end
timer_stats,696694195275988,PAPI_L3_TCM,4,  5.50408935,  0.50370788,end
timer_stats,696694196357856,PAPI_L3_TCM,3,  5.72039795,  0.51844788,end
timer_stats,696694197447134,PAPI_L3_TCM,4,  6.11785889,  0.54685974,end
timer_stats,696694198529471,PAPI_L3_TCM,4,  6.32690430,  0.56114197,end
timer_stats,696694199611591,PAPI_L3_TCM,5,  6.52093506,  0.57615662,end
timer_stats,696694200710040,PAPI_L3_TCM,6,  6.73291015,  0.59141540,end
timer_stats,696694201791302,PAPI_L3_TCM,5,  6.94714355,  0.60719299,end
timer_stats,696694202871653,PAPI_L3_TCM,3,  7.14715576,  0.62110901,end
timer_stats,696694203956065,PAPI_L3_TCM,6,  7.35919189,  0.63603210,end
timer_stats,696694205040532,PAPI_L3_TCM,11,  7.55169678,  0.64816284,end
timer_stats,696694206122731,PAPI_L3_TCM,7,  7.77020264,  0.66264343,end
timer_stats,696694207204332,PAPI_L3_TCM,5,  7.98187256,  0.67755127,end
timer_stats,696694208285826,PAPI_L3_TCM,7,  8.19396973,  0.69245911,end
timer_stats,696694209367154,PAPI_L3_TCM,3,  8.39721680,  0.70733642,end
timer_stats,696694210448411,PAPI_L3_TCM,1,  8.71038818,  0.73007202,end
timer_stats,696694211529225,PAPI_L3_TCM,4,  9.04254150,  0.75221252,end
timer_stats,696694212610635,PAPI_L3_TCM,6,  9.25738525,  0.76712036,end
timer_stats,696694213694050,PAPI_L3_TCM,65,  9.46618652,  0.78157043,end
timer_stats,696694214782053,PAPI_L3_TCM,5,  9.64898682,  0.79588318,end
timer_stats,696694215869001,PAPI_L3_TCM,3,  9.85516357,  0.81095886,end
timer_stats,696694216955938,PAPI_L3_TCM,2, 10.06018066,  0.82588196,end
timer_stats,696694218040116,PAPI_L3_TCM,3, 10.27563476,  0.84005737,end
timer_stats,696694219124672,PAPI_L3_TCM,8, 10.49053955,  0.85517883,end
timer_stats,696694220207902,PAPI_L3_TCM,2, 10.70324707,  0.86982727,end
timer_stats,696694221291764,PAPI_L3_TCM,5, 10.90972900,  0.88496399,end
timer_stats,696694222376784,PAPI_L3_TCM,1, 11.23443603,  0.89941406,end
timer_stats,696694223461721,PAPI_L3_TCM,7, 11.55908203,  0.92773437,end
timer_stats,696694224545298,PAPI_L3_TCM,3, 11.77575683,  0.94175720,end
timer_stats,696694225629382,PAPI_L3_TCM,5, 11.98358154,  0.95654297,end
timer_stats,696694226714121,PAPI_L3_TCM,3, 12.19866943,  0.97082519,end
timer_stats,696694227798760,PAPI_L3_TCM,7, 12.42285156,  0.98503113,end
timer_stats,696694228883008,PAPI_L3_TCM,2, 12.63159180,  1.00083923,end
timer_stats,696694229968207,PAPI_L3_TCM,8, 12.84399414,  1.01493835,end
timer_stats,696694232872998,PAPI_L3_TCM,60, 13.37414551,  1.05813599,end
timer_stats,696694233956174,PAPI_L3_TCM,29, 13.53466797,  1.07501221,end
timer_stats,696694235037740,PAPI_L3_TCM,1, 13.74981689,  1.09132385,end
timer_stats,696694236117155,PAPI_L3_TCM,8, 13.97637939,  1.10731506,end
timer_stats,696694237197732,PAPI_L3_TCM,1, 14.19714355,  1.12330627,end
timer_stats,696694238277642,PAPI_L3_TCM,8, 14.41973877,  1.13983154,end
timer_stats,696694239357355,PAPI_L3_TCM,4, 14.64910889,  1.15609741,end
timer_stats,696694240436459,PAPI_L3_TCM,5, 14.97003174,  1.18226623,end
timer_stats,696694241516964,PAPI_L3_TCM,2, 15.30468750,  1.20654297,end
timer_stats,696694242596585,PAPI_L3_TCM,6, 15.53686523,  1.22267151,end
timer_stats,696694243676569,PAPI_L3_TCM,4, 15.75549316,  1.23931885,end
timer_stats,696694244755435,PAPI_L3_TCM,7, 15.97418213,  1.25555420,end
timer_stats,696694245834891,PAPI_L3_TCM,1, 16.20556640,  1.27195740,end
timer_stats,696694246914774,PAPI_L3_TCM,8, 16.43554687,  1.28861999,end
timer_stats,696694247994276,PAPI_L3_TCM,4, 16.64538574,  1.30552673,end
timer_stats,696694249080009,PAPI_L3_TCM,8, 16.87493896,  1.32264709,end
timer_stats,696694250158609,PAPI_L3_TCM,2, 17.10125732,  1.33883667,end
timer_stats,696694251237828,PAPI_L3_TCM,7, 17.32989502,  1.35525513,end
timer_stats,696694252317141,PAPI_L3_TCM,4, 17.55694580,  1.37178040,end
timer_stats,696694253396201,PAPI_L3_TCM,4, 17.88897705,  1.39697265,end
timer_stats,696694254476136,PAPI_L3_TCM,10, 18.23376465,  1.41394043,end
timer_stats,696694255555390,PAPI_L3_TCM,6, 18.46606445,  1.43968201,end
timer_stats,696694256636421,PAPI_L3_TCM,8, 18.69372558,  1.45666504,end
timer_stats,696694257716763,PAPI_L3_TCM,5, 18.91827393,  1.47294617,end
timer_stats,696694258795892,PAPI_L3_TCM,10, 19.14855957,  1.48918152,end
timer_stats,696694259874762,PAPI_L3_TCM,9, 19.37237549,  1.50593567,end
timer_stats,696694260954462,PAPI_L3_TCM,8, 19.59729004,  1.52238464,end
timer_stats,696694262033510,PAPI_L3_TCM,4, 19.82562256,  1.53904724,end
timer_stats,696694263112829,PAPI_L3_TCM,2, 20.04901123,  1.55619812,end
timer_stats,696694266864646,PAPI_L3_TCM,95, 20.82122803,  1.61462402,end
timer_stats,696694267972158,PAPI_L3_TCM,41, 20.97875976,  1.63195801,end
timer_stats,696694269059556,PAPI_L3_TCM,9, 21.20208740,  1.64848328,end
timer_stats,696694270144854,PAPI_L3_TCM,4, 21.42663574,  1.66519165,end
timer_stats,696694271229772,PAPI_L3_TCM,5, 21.65893555,  1.68179321,end
timer_stats,696694272315080,PAPI_L3_TCM,3, 21.88873291,  1.69798279,end
timer_stats,696694273399868,PAPI_L3_TCM,9, 22.10223389,  1.71450806,end
timer_stats,696694274486504,PAPI_L3_TCM,3, 22.55413818,  1.73878479,end
timer_stats,696694275570830,PAPI_L3_TCM,25, 22.78582764,  1.76403808,end
timer_stats,696694276670716,PAPI_L3_TCM,34, 23.00177002,  1.78053284,end
timer_stats,696694277739197,PAPI_L3_TCM,5, 23.21923828,  1.79631042,end
timer_stats,696694278809957,PAPI_L3_TCM,11, 23.44158936,  1.81459045,end
timer_stats,696694279879454,PAPI_L3_TCM,4, 23.65515137,  1.83006286,end
timer_stats,696694280968563,PAPI_L3_TCM,5, 23.87292480,  1.84584045,end
timer_stats,696694282042184,PAPI_L3_TCM,3, 24.08642578,  1.86164856,end
timer_stats,696694283124116,PAPI_L3_TCM,16, 24.29943848,  1.87823486,end
timer_stats,696694284200113,PAPI_L3_TCM,18, 24.50854492,  1.89344787,end
timer_stats,696694285271371,PAPI_L3_TCM,8, 24.71063232,  1.90881348,end
timer_stats,696694286349817,PAPI_L3_TCM,20, 24.92205810,  1.92414856,end
timer_stats,696694287421699,PAPI_L3_TCM,6, 25.12011719,  1.94059753,end
timer_stats,696694288490163,PAPI_L3_TCM,3, 25.41174316,  1.96250915,end
timer_stats,696694289558236,PAPI_L3_TCM,4, 25.69073486,  1.98425293,end
timer_stats,696694290625203,PAPI_L3_TCM,5, 25.87725830,  1.99867248,end
timer_stats,696694291693292,PAPI_L3_TCM,5, 26.05792236,  2.01307678,end
timer_stats,696694292760316,PAPI_L3_TCM,3, 26.23846435,  2.02691650,end
timer_stats,696694293829227,PAPI_L3_TCM,4, 26.40319824,  2.04122925,end
timer_stats,696694294896624,PAPI_L3_TCM,3, 26.57073975,  2.05513000,end
timer_stats,696694295967379,PAPI_L3_TCM,5, 26.73889160,  2.06831360,end
timer_stats,696694297070905,PAPI_L3_TCM,38, 26.90106201,  2.08105469,end
timer_stats,696694298179698,PAPI_L3_TCM,10, 27.04162597,  2.09458923,end
timer_stats,696694299275781,PAPI_L3_TCM,7, 27.19714355,  2.10806274,end
timer_stats,696694300378989,PAPI_L3_TCM,6, 27.34912109,  2.12088013,end
timer_stats,696694301494544,PAPI_L3_TCM,31, 27.63757324,  2.13972473,end
timer_stats,696694302605011,PAPI_L3_TCM,1, 27.77819824,  2.15855408,end
timer_stats,696694303716247,PAPI_L3_TCM,1, 27.91400146,  2.17124939,end
timer_stats,696694304830897,PAPI_L3_TCM,2, 28.05718994,  2.18344116,end
timer_stats,696694305940494,PAPI_L3_TCM,2, 28.18792725,  2.19638061,end
timer_stats,696694307055072,PAPI_L3_TCM,1, 28.32379150,  2.20904541,end
timer_stats,696694308141985,PAPI_L3_TCM,6, 28.44970703,  2.22268677,end
timer_stats,696694309254947,PAPI_L3_TCM,1, 28.59344482,  2.23504639,end
timer_stats,696694310385362,PAPI_L3_TCM,1, 28.71588135,  2.24728394,end
timer_stats,696694311519829,PAPI_L3_TCM,0, 28.96405029,  2.27180481,end
timer_stats,696694312647926,PAPI_L3_TCM,10, 29.09442139,  2.28399658,end
timer_stats,696694313788293,PAPI_L3_TCM,2, 29.22125244,  2.29589844,end
timer_stats,696694314935680,PAPI_L3_TCM,3, 29.33843994,  2.30838013,end
timer_stats,696694316068233,PAPI_L3_TCM,3, 29.46313476,  2.32107544,end
timer_stats,696694317191008,PAPI_L3_TCM,2, 29.59252930,  2.33331299,end
timer_stats,696694318344356,PAPI_L3_TCM,1, 29.71264648,  2.34559631,end
timer_stats,696694319490970,PAPI_L3_TCM,1, 29.88525390,  2.36361694,end
timer_stats,696694320631121,PAPI_L3_TCM,1, 30.07061768,  2.38189697,end
timer_stats,696694321793022,PAPI_L3_TCM,3, 30.18780518,  2.39392090,end
timer_stats,696694322942389,PAPI_L3_TCM,1, 30.30371094,  2.40522766,end
timer_stats,696694325310681,PAPI_L3_TCM,36, 30.53790283,  2.43664551,end
timer_stats,696694326457414,PAPI_L3_TCM,0, 30.69348144,  2.45355225,end
timer_stats,696694327605350,PAPI_L3_TCM,2, 30.86950683,  2.47111511,end
timer_stats,696694328729129,PAPI_L3_TCM,3, 30.98107910,  2.48150635,end
timer_stats,696694329872931,PAPI_L3_TCM,1, 31.09112549,  2.49189758,end
timer_stats,696694331019625,PAPI_L3_TCM,0, 31.19567871,  2.50254822,end
timer_stats,696694332172061,PAPI_L3_TCM,2, 31.30236816,  2.51290893,end
timer_stats,696694333319262,PAPI_L3_TCM,2, 31.41363525,  2.52326965,end
timer_stats,696694334484619,PAPI_L3_TCM,2, 31.61853027,  2.53868103,end
timer_stats,696694335655047,PAPI_L3_TCM,0, 31.72668457,  2.55461121,end
timer_stats,696694336821160,PAPI_L3_TCM,4, 31.82751465,  2.56388855,end
timer_stats,696694337991794,PAPI_L3_TCM,0, 31.92675781,  2.57341003,end
timer_stats,696694339168093,PAPI_L3_TCM,3, 32.02502441,  2.58268738,end
timer_stats,696694340334676,PAPI_L3_TCM,2, 32.12786865,  2.59169006,end
timer_stats,696694341500267,PAPI_L3_TCM,2, 32.27850342,  2.60670471,end
timer_stats,696694342665892,PAPI_L3_TCM,0, 32.43621826,  2.62461853,end
timer_stats,696694343833125,PAPI_L3_TCM,2, 32.53790283,  2.63427734,end
timer_stats,696694344999185,PAPI_L3_TCM,1, 32.63745117,  2.64222717,end
timer_stats,696694346163393,PAPI_L3_TCM,3, 32.72692871,  2.65052795,end
timer_stats,696694347344430,PAPI_L3_TCM,0, 32.81896973,  2.65882873,end
timer_stats,696694348508287,PAPI_L3_TCM,2, 32.95104980,  2.67320251,end
timer_stats,696694349677999,PAPI_L3_TCM,0, 33.08599853,  2.68223572,end
timer_stats,696694350844875,PAPI_L3_TCM,1, 33.17254638,  2.68971252,end
timer_stats,696694351987502,PAPI_L3_TCM,1, 33.25848389,  2.69831848,end
timer_stats,696694353138299,PAPI_L3_TCM,5, 33.35418701,  2.70890808,end
timer_stats,696694354299812,PAPI_L3_TCM,0, 33.44018555,  2.71867371,end
timer_stats,696694355433093,PAPI_L3_TCM,2, 33.52606201,  2.72776794,end
timer_stats,696694356580963,PAPI_L3_TCM,1, 33.70581054,  2.74945068,end
