timer_stats,656619079867116,PAPI_L3_TCM,447,  0.07580566,  0.01031494,end
timer_stats,656619081027744,PAPI_L3_TCM,48,  0.16888428,  0.02120972,end
timer_stats,656619082178593,PAPI_L3_TCM,9,  0.24945068,  0.03207397,end
timer_stats,656619083511365,PAPI_L3_TCM,67,  0.41735840,  0.05502319,end
timer_stats,656619084647715,PAPI_L3_TCM,25,  0.51373291,  0.06570434,end
timer_stats,656619085783517,PAPI_L3_TCM,7,  0.60601807,  0.07656860,end
timer_stats,656619086935073,PAPI_L3_TCM,1,  0.68750000,  0.08709717,end
timer_stats,656619088063356,PAPI_L3_TCM,5,  0.77233887,  0.09829712,end
timer_stats,656619089191260,PAPI_L3_TCM,6,  0.86260986,  0.10922241,end
timer_stats,656619090344535,PAPI_L3_TCM,2,  0.94531250,  0.12115478,end
timer_stats,656619091498953,PAPI_L3_TCM,0,  1.12756348,  0.14334106,end
timer_stats,656619092742925,PAPI_L3_TCM,27,  1.22204590,  0.15429687,end
timer_stats,656619093903442,PAPI_L3_TCM,4,  1.32696533,  0.16543579,end
timer_stats,656619095040393,PAPI_L3_TCM,0,  1.42028808,  0.17660522,end
timer_stats,656619096151565,PAPI_L3_TCM,3,  1.51806640,  0.18746948,end
timer_stats,656619097270997,PAPI_L3_TCM,2,  1.61242676,  0.19842529,end
timer_stats,656619098406638,PAPI_L3_TCM,5,  1.71246338,  0.20938110,end
timer_stats,656619099544190,PAPI_L3_TCM,0,  1.90808105,  0.23039245,end
timer_stats,656619100660423,PAPI_L3_TCM,3,  2.00219726,  0.24067688,end
timer_stats,656619101794456,PAPI_L3_TCM,1,  2.09381103,  0.25074768,end
timer_stats,656619102957347,PAPI_L3_TCM,0,  2.18859863,  0.26081848,end
timer_stats,656619104098129,PAPI_L3_TCM,2,  2.27648926,  0.27091980,end
timer_stats,656619105240624,PAPI_L3_TCM,1,  2.37316894,  0.28092956,end
timer_stats,656619106383975,PAPI_L3_TCM,0,  2.47070312,  0.29145813,end
timer_stats,656619107527780,PAPI_L3_TCM,0,  2.66229248,  0.31251526,end
timer_stats,656619108669875,PAPI_L3_TCM,1,  2.76666260,  0.32301330,end
timer_stats,656619109811166,PAPI_L3_TCM,0,  2.85845947,  0.33335876,end
timer_stats,656619110954455,PAPI_L3_TCM,1,  2.95855713,  0.34362793,end
timer_stats,656619112096535,PAPI_L3_TCM,1,  3.05859375,  0.35391235,end
timer_stats,656619113239494,PAPI_L3_TCM,0,  3.15832520,  0.36489868,end
timer_stats,656619114382075,PAPI_L3_TCM,1,  3.24981689,  0.37472534,end
timer_stats,656619115522650,PAPI_L3_TCM,0,  3.38787842,  0.39059448,end
timer_stats,656619116663835,PAPI_L3_TCM,1,  3.54669189,  0.40815735,end
timer_stats,656619117804597,PAPI_L3_TCM,1,  3.64337158,  0.42073059,end
timer_stats,656619118917744,PAPI_L3_TCM,2,  3.74279785,  0.43165588,end
timer_stats,656619120067679,PAPI_L3_TCM,2,  3.84100342,  0.44197083,end
timer_stats,656619121209071,PAPI_L3_TCM,0,  3.93884277,  0.45317078,end
timer_stats,656619122351129,PAPI_L3_TCM,0,  4.03424072,  0.46345520,end
timer_stats,656619123493704,PAPI_L3_TCM,3,  4.22460937,  0.48498535,end
timer_stats,656619124635595,PAPI_L3_TCM,4,  4.32049560,  0.49525452,end
timer_stats,656619125780030,PAPI_L3_TCM,3,  4.41967773,  0.50575256,end
timer_stats,656619126923828,PAPI_L3_TCM,3,  4.51763916,  0.51603699,end
timer_stats,656619128072710,PAPI_L3_TCM,4,  4.61114502,  0.52656555,end
timer_stats,656619129212562,PAPI_L3_TCM,3,  4.71325684,  0.53681946,end
timer_stats,656619130351930,PAPI_L3_TCM,2,  4.80682373,  0.54716492,end
timer_stats,656619131494597,PAPI_L3_TCM,2,  4.94506836,  0.56285095,end
timer_stats,656619132640096,PAPI_L3_TCM,6,  5.09808350,  0.57829284,end
timer_stats,656619133868482,PAPI_L3_TCM,22,  5.19897461,  0.58926391,end
timer_stats,656619135263821,PAPI_L3_TCM,31,  5.31622314,  0.60089111,end
timer_stats,656619136400442,PAPI_L3_TCM,5,  5.42364502,  0.61300659,end
timer_stats,656619137526670,PAPI_L3_TCM,2,  5.63378906,  0.62916565,end
timer_stats,656619138671028,PAPI_L3_TCM,2,  5.73315430,  0.64521790,end
timer_stats,656619139836860,PAPI_L3_TCM,2,  5.83172607,  0.65545654,end
timer_stats,656619140990455,PAPI_L3_TCM,16,  5.93475342,  0.66546631,end
timer_stats,656619142165193,PAPI_L3_TCM,6,  6.03045654,  0.67640686,end
timer_stats,656619143306648,PAPI_L3_TCM,2,  6.12805176,  0.68713379,end
timer_stats,656619144435336,PAPI_L3_TCM,0,  6.23309326,  0.69972229,end
timer_stats,656619145539941,PAPI_L3_TCM,2,  6.38543701,  0.71087646,end
timer_stats,656619146659285,PAPI_L3_TCM,3,  6.56750488,  0.73600769,end
timer_stats,656619147745733,PAPI_L3_TCM,2,  6.68133545,  0.74716186,end
timer_stats,656619148844771,PAPI_L3_TCM,0,  6.81542969,  0.76031494,end
timer_stats,656619149968296,PAPI_L3_TCM,6,  6.92681885,  0.77276611,end
timer_stats,656619151097230,PAPI_L3_TCM,7,  7.04510498,  0.78514099,end
timer_stats,656619152256459,PAPI_L3_TCM,4,  7.16430664,  0.79754639,end
timer_stats,656619153411977,PAPI_L3_TCM,0,  7.28887939,  0.80990600,end
timer_stats,656619154705439,PAPI_L3_TCM,4,  7.53778076,  0.83509827,end
timer_stats,656619155852460,PAPI_L3_TCM,0,  7.66473389,  0.84725952,end
timer_stats,656619156958917,PAPI_L3_TCM,4,  7.79705810,  0.85919189,end
timer_stats,656619158082978,PAPI_L3_TCM,0,  7.96777344,  0.87133789,end
timer_stats,656619159214195,PAPI_L3_TCM,2,  8.12951660,  0.88348389,end
timer_stats,656619160325177,PAPI_L3_TCM,2,  8.30572510,  0.89553833,end
timer_stats,656619161473940,PAPI_L3_TCM,3,  8.56182861,  0.91514587,end
timer_stats,656619162597234,PAPI_L3_TCM,0,  8.83435058,  0.93287659,end
timer_stats,656619163693584,PAPI_L3_TCM,4,  9.02307129,  0.94517517,end
timer_stats,656619164811342,PAPI_L3_TCM,0,  9.19696045,  0.95683288,end
timer_stats,656619165919375,PAPI_L3_TCM,2,  9.37603760,  0.96920776,end
timer_stats,656619167028940,PAPI_L3_TCM,0,  9.56121826,  0.98130798,end
timer_stats,656619168136752,PAPI_L3_TCM,12,  9.73999023,  0.99317932,end
timer_stats,656619169245186,PAPI_L3_TCM,5,  9.90509033,  1.00582886,end
timer_stats,656619170350967,PAPI_L3_TCM,1, 10.09490967,  1.01795959,end
timer_stats,656619171464727,PAPI_L3_TCM,1, 10.27270508,  1.03691101,end
timer_stats,656619172583870,PAPI_L3_TCM,4, 10.63507080,  1.05468750,end
timer_stats,656619173708093,PAPI_L3_TCM,0, 10.81317139,  1.06706238,end
timer_stats,656619174810775,PAPI_L3_TCM,2, 10.99853516,  1.07872009,end
timer_stats,656619175934255,PAPI_L3_TCM,1, 11.16790771,  1.09092712,end
timer_stats,656619177036459,PAPI_L3_TCM,1, 11.34692383,  1.10307312,end
timer_stats,656619178135152,PAPI_L3_TCM,0, 11.53686523,  1.11514282,end
timer_stats,656619179231683,PAPI_L3_TCM,3, 11.70916748,  1.12774658,end
timer_stats,656619180333264,PAPI_L3_TCM,0, 11.89245605,  1.13967895,end
timer_stats,656619181423818,PAPI_L3_TCM,2, 12.07403564,  1.15275574,end
timer_stats,656619182529647,PAPI_L3_TCM,0, 12.25128174,  1.16561890,end
timer_stats,656619183622805,PAPI_L3_TCM,2, 12.60369873,  1.18919372,end
timer_stats,656619184723411,PAPI_L3_TCM,2, 12.77636719,  1.20133972,end
timer_stats,656619185856421,PAPI_L3_TCM,1, 12.95605469,  1.21394348,end
timer_stats,656619186954818,PAPI_L3_TCM,0, 13.14044189,  1.22555542,end
timer_stats,656619188023764,PAPI_L3_TCM,3, 13.32293701,  1.23770142,end
timer_stats,656619189127427,PAPI_L3_TCM,2, 13.50695801,  1.24932861,end
timer_stats,656619190294093,PAPI_L3_TCM,2, 13.68304443,  1.26174927,end
timer_stats,656619191376386,PAPI_L3_TCM,0, 13.86596680,  1.27365112,end
timer_stats,656619192471212,PAPI_L3_TCM,4, 14.04858398,  1.28579712,end
timer_stats,656619193579932,PAPI_L3_TCM,0, 14.40924072,  1.30966186,end
timer_stats,656619194676048,PAPI_L3_TCM,1, 14.59075928,  1.32159424,end
timer_stats,656619195778775,PAPI_L3_TCM,0, 14.77825928,  1.33349609,end
timer_stats,656619196869002,PAPI_L3_TCM,3, 14.95837402,  1.34521484,end
timer_stats,656619197976941,PAPI_L3_TCM,0, 15.14764404,  1.35733032,end
timer_stats,656619199076363,PAPI_L3_TCM,1, 15.33380127,  1.36923218,end
timer_stats,656619200171574,PAPI_L3_TCM,2, 15.51861572,  1.38095093,end
timer_stats,656619201276841,PAPI_L3_TCM,2, 15.69903564,  1.39288330,end
timer_stats,656619202377479,PAPI_L3_TCM,0, 15.88562012,  1.40480041,end
timer_stats,656619203488634,PAPI_L3_TCM,1, 16.06933594,  1.41717529,end
timer_stats,656619204583385,PAPI_L3_TCM,2, 16.33801269,  1.43608093,end
timer_stats,656619205674236,PAPI_L3_TCM,1, 16.62567139,  1.45333862,end
timer_stats,656619206775312,PAPI_L3_TCM,0, 16.80291748,  1.46528625,end
timer_stats,656619207865536,PAPI_L3_TCM,1, 16.98675537,  1.47721863,end
timer_stats,656619208966135,PAPI_L3_TCM,2, 17.17456055,  1.48910522,end
timer_stats,656619210066597,PAPI_L3_TCM,2, 17.36456299,  1.50125122,end
timer_stats,656619211169404,PAPI_L3_TCM,0, 17.54925537,  1.51339722,end
timer_stats,656619212260283,PAPI_L3_TCM,3, 17.73638916,  1.52578735,end
timer_stats,656619213364299,PAPI_L3_TCM,0, 17.92687988,  1.53768921,end
timer_stats,656619214465154,PAPI_L3_TCM,1, 18.10546875,  1.54963684,end
timer_stats,656619215566792,PAPI_L3_TCM,0, 18.47723389,  1.56832886,end
timer_stats,656619216668721,PAPI_L3_TCM,3, 18.66644287,  1.58538818,end
timer_stats,656619217756154,PAPI_L3_TCM,0, 18.85546875,  1.59773254,end
timer_stats,656619218855403,PAPI_L3_TCM,2, 19.04840088,  1.60960388,end
timer_stats,656619219942077,PAPI_L3_TCM,0, 19.23504639,  1.62174988,end
timer_stats,656619221049149,PAPI_L3_TCM,3, 19.41998291,  1.63391113,end
timer_stats,656619222148805,PAPI_L3_TCM,0, 19.61560058,  1.64648437,end
timer_stats,656619223247997,PAPI_L3_TCM,15, 19.79614258,  1.65911865,end
timer_stats,656619224353862,PAPI_L3_TCM,2, 19.98889160,  1.67144775,end
timer_stats,656619225438423,PAPI_L3_TCM,1, 20.17468262,  1.68380737,end
timer_stats,656619226536089,PAPI_L3_TCM,0, 20.44989014,  1.70312500,end
timer_stats,656619227649619,PAPI_L3_TCM,2, 20.74920654,  1.72035217,end
timer_stats,656619228743231,PAPI_L3_TCM,3, 20.93939209,  1.73269653,end
timer_stats,656619229837265,PAPI_L3_TCM,1, 21.13104248,  1.74526977,end
timer_stats,656619230939516,PAPI_L3_TCM,0, 21.32086182,  1.75807190,end
timer_stats,656619232013452,PAPI_L3_TCM,4, 21.50769043,  1.77064514,end
timer_stats,656619233129730,PAPI_L3_TCM,0, 21.69598389,  1.78321838,end
timer_stats,656619234238275,PAPI_L3_TCM,3, 21.90106201,  1.79574585,end
timer_stats,656619235335174,PAPI_L3_TCM,0, 22.09051514,  1.80831909,end
timer_stats,656619236438873,PAPI_L3_TCM,3, 22.27539062,  1.82066345,end
timer_stats,656619237535599,PAPI_L3_TCM,0, 22.47265625,  1.83296203,end
timer_stats,656619238635572,PAPI_L3_TCM,1, 22.86132812,  1.85827637,end
timer_stats,656619239729491,PAPI_L3_TCM,1, 23.05578613,  1.87062073,end
timer_stats,656619240829922,PAPI_L3_TCM,3, 23.25396728,  1.88293457,end
timer_stats,656619241928949,PAPI_L3_TCM,0, 23.45434570,  1.89523315,end
timer_stats,656619243023982,PAPI_L3_TCM,1, 23.64794922,  1.90777588,end
timer_stats,656619244116832,PAPI_L3_TCM,3, 23.83233643,  1.91993713,end
timer_stats,656619245280054,PAPI_L3_TCM,1, 24.03912353,  1.93200683,end
timer_stats,656619246374789,PAPI_L3_TCM,3, 24.24670410,  1.94403076,end
timer_stats,656619247489202,PAPI_L3_TCM,2, 24.45819092,  1.95561218,end
timer_stats,656619248577692,PAPI_L3_TCM,2, 24.77789307,  1.97434997,end
timer_stats,656619249737467,PAPI_L3_TCM,3, 25.10906982,  1.99162292,end
timer_stats,656619250939200,PAPI_L3_TCM,0, 25.31933594,  2.00296020,end
timer_stats,656619252064976,PAPI_L3_TCM,3, 25.54040527,  2.01499939,end
timer_stats,656619253149200,PAPI_L3_TCM,0, 25.74639893,  2.02734375,end
timer_stats,656619254227564,PAPI_L3_TCM,3, 25.96374512,  2.03886413,end
timer_stats,656619255330311,PAPI_L3_TCM,2, 26.17584229,  2.05017090,end
timer_stats,656619256514416,PAPI_L3_TCM,2, 26.38354492,  2.06198120,end
timer_stats,656619257705916,PAPI_L3_TCM,1, 26.81378174,  2.08552551,end
timer_stats,656619258782318,PAPI_L3_TCM,3, 27.02984619,  2.09779358,end
timer_stats,656619259863817,PAPI_L3_TCM,2, 27.24780273,  2.11022949,end
timer_stats,656619260949709,PAPI_L3_TCM,3, 27.48406982,  2.12397766,end
timer_stats,656619262088183,PAPI_L3_TCM,4, 27.69897461,  2.13619995,end
timer_stats,656619263217474,PAPI_L3_TCM,3, 27.91412353,  2.14819336,end
timer_stats,656619264402363,PAPI_L3_TCM,2, 28.12414551,  2.15951538,end
timer_stats,656619265482417,PAPI_L3_TCM,1, 28.34393311,  2.17057800,end
timer_stats,656619266577143,PAPI_L3_TCM,1, 28.65222168,  2.18821716,end
timer_stats,656619267680170,PAPI_L3_TCM,3, 28.99084473,  2.20593262,end
timer_stats,656619268812786,PAPI_L3_TCM,0, 29.21057129,  2.21676636,end
timer_stats,656619269935381,PAPI_L3_TCM,6, 29.41259766,  2.22787476,end
timer_stats,656619271017249,PAPI_L3_TCM,0, 29.63049316,  2.23965454,end
timer_stats,656619272229348,PAPI_L3_TCM,2, 29.84552002,  2.25173950,end
timer_stats,656619273310629,PAPI_L3_TCM,1, 30.06079101,  2.26373291,end
timer_stats,656619280514742,PAPI_L3_TCM,41, 31.47625732,  2.36038208,end
timer_stats,656619281596332,PAPI_L3_TCM,27, 31.66522217,  2.37634277,end
timer_stats,656619282671364,PAPI_L3_TCM,4, 32.18713379,  2.40766907,end
timer_stats,656619283746044,PAPI_L3_TCM,3, 32.45953369,  2.42192077,end
timer_stats,656619284821990,PAPI_L3_TCM,8, 32.72924805,  2.43626404,end
timer_stats,656619285897353,PAPI_L3_TCM,4, 32.99188232,  2.45129395,end
timer_stats,656619286972353,PAPI_L3_TCM,5, 33.25311279,  2.46659851,end
timer_stats,656619288022115,PAPI_L3_TCM,2, 33.51660156,  2.48240662,end
timer_stats,656619292975241,PAPI_L3_TCM,66, 34.53668213,  2.55671692,end
timer_stats,656619294060255,PAPI_L3_TCM,68, 34.72149658,  2.57040405,end
timer_stats,656619295140386,PAPI_L3_TCM,6, 34.97430420,  2.58422851,end
timer_stats,656619296219842,PAPI_L3_TCM,3, 35.22741699,  2.59780884,end
timer_stats,656619297294573,PAPI_L3_TCM,6, 35.46618652,  2.61219788,end
timer_stats,656619298369286,PAPI_L3_TCM,3, 35.71533203,  2.62626648,end
timer_stats,656619299443301,PAPI_L3_TCM,8, 35.96466064,  2.64012146,end
timer_stats,656619300518319,PAPI_L3_TCM,4, 36.22564697,  2.65417480,end
timer_stats,656619301592570,PAPI_L3_TCM,7, 36.47009277,  2.66778564,end
timer_stats,656619302666719,PAPI_L3_TCM,1, 36.96820068,  2.69548035,end
timer_stats,656619303742895,PAPI_L3_TCM,4, 37.22033691,  2.70953369,end
timer_stats,656619304818130,PAPI_L3_TCM,2, 37.46972656,  2.72337341,end
timer_stats,656619305895522,PAPI_L3_TCM,3, 37.72839355,  2.73719788,end
timer_stats,656619306970208,PAPI_L3_TCM,4, 37.98382568,  2.75123596,end
timer_stats,656619308015844,PAPI_L3_TCM,3, 38.23229980,  2.76484680,end
timer_stats,656619309089950,PAPI_L3_TCM,6, 38.47729492,  2.77848816,end
timer_stats,656619310164342,PAPI_L3_TCM,7, 38.72827148,  2.79235840,end
timer_stats,656619311238682,PAPI_L3_TCM,7, 38.97161865,  2.80664062,end
timer_stats,656619312355208,PAPI_L3_TCM,11, 39.22760010,  2.82090759,end
timer_stats,656619313477561,PAPI_L3_TCM,12, 39.47570801,  2.83552551,end
timer_stats,656619314572213,PAPI_L3_TCM,4, 39.71081543,  2.84831238,end
timer_stats,656619315652704,PAPI_L3_TCM,13, 40.08410644,  2.86242676,end
timer_stats,656619316742680,PAPI_L3_TCM,16, 40.45330810,  2.88931274,end
timer_stats,656619317819161,PAPI_L3_TCM,8, 40.70361328,  2.90293884,end
timer_stats,656619318903204,PAPI_L3_TCM,4, 40.94689941,  2.91612244,end
timer_stats,656619320149051,PAPI_L3_TCM,37, 41.18963623,  2.93017578,end
timer_stats,656619321292170,PAPI_L3_TCM,21, 41.44689941,  2.94400024,end
timer_stats,656619322367458,PAPI_L3_TCM,1, 41.69348144,  2.95788574,end
timer_stats,656619323445266,PAPI_L3_TCM,7, 41.95556640,  2.97192383,end
timer_stats,656619324523343,PAPI_L3_TCM,1, 42.20391846,  2.98571777,end
timer_stats,656619325600174,PAPI_L3_TCM,7, 42.45104980,  2.99932861,end
timer_stats,656619326681242,PAPI_L3_TCM,3, 42.70227051,  3.01341247,end
timer_stats,656619327757586,PAPI_L3_TCM,2, 43.20568848,  3.04089355,end
timer_stats,656619328835416,PAPI_L3_TCM,12, 43.45660400,  3.05427551,end
timer_stats,656619329919683,PAPI_L3_TCM,5, 43.70007324,  3.06816101,end
timer_stats,656619330995309,PAPI_L3_TCM,4, 43.94836426,  3.08226013,end
timer_stats,656619332072088,PAPI_L3_TCM,6, 44.19958496,  3.09657288,end
timer_stats,656619333150203,PAPI_L3_TCM,17, 44.45349121,  3.11045837,end
timer_stats,656619334231286,PAPI_L3_TCM,6, 44.69732666,  3.12435913,end
timer_stats,656619335306344,PAPI_L3_TCM,3, 44.95098877,  3.13798523,end
timer_stats,656619336384991,PAPI_L3_TCM,5, 45.19586182,  3.15159607,end
timer_stats,656619337460695,PAPI_L3_TCM,1, 45.45843506,  3.16656494,end
timer_stats,656619338535466,PAPI_L3_TCM,2, 45.70825195,  3.18066406,end
timer_stats,656619342091367,PAPI_L3_TCM,58, 46.52545166,  3.23806763,end
timer_stats,656619343171008,PAPI_L3_TCM,32, 46.72857666,  3.25358582,end
timer_stats,656619344246241,PAPI_L3_TCM,10, 46.95886230,  3.26905823,end
timer_stats,656619345321205,PAPI_L3_TCM,11, 47.21154785,  3.27774048,end
timer_stats,656619346396692,PAPI_L3_TCM,10, 47.46008301,  3.29287720,end
timer_stats,656619347470095,PAPI_L3_TCM,4, 47.70672607,  3.30781555,end
timer_stats,656619348543698,PAPI_L3_TCM,3, 47.95776367,  3.32273865,end
timer_stats,656619349617133,PAPI_L3_TCM,4, 48.21984863,  3.33787536,end
timer_stats,656619350690670,PAPI_L3_TCM,4, 48.59301758,  3.35307312,end
timer_stats,656619351768547,PAPI_L3_TCM,3, 48.96936035,  3.38359070,end
timer_stats,656619352842408,PAPI_L3_TCM,2, 49.22363281,  3.39205932,end
timer_stats,656619353916520,PAPI_L3_TCM,11, 49.47491455,  3.40744019,end
timer_stats,656619354990527,PAPI_L3_TCM,7, 49.72882080,  3.42279053,end
timer_stats,656619356063930,PAPI_L3_TCM,2, 49.97790527,  3.43841553,end
timer_stats,656619357138801,PAPI_L3_TCM,5, 50.23590088,  3.45378113,end
timer_stats,656619358212198,PAPI_L3_TCM,3, 50.48980713,  3.47038269,end
timer_stats,656619359285836,PAPI_L3_TCM,1, 50.74700928,  3.48754883,end
timer_stats,656619360359858,PAPI_L3_TCM,8, 50.98980713,  3.50617981,end
timer_stats,656619361432988,PAPI_L3_TCM,2, 51.23858642,  3.52113342,end
timer_stats,656619362506832,PAPI_L3_TCM,8, 51.50213623,  3.53622436,end
timer_stats,656619363580574,PAPI_L3_TCM,7, 51.75732422,  3.55220032,end
timer_stats,656619364655308,PAPI_L3_TCM,8, 52.12097168,  3.56753540,end
timer_stats,656619365728733,PAPI_L3_TCM,2, 52.50744629,  3.59124756,end
timer_stats,656619366801719,PAPI_L3_TCM,3, 52.76538086,  3.61619568,end
timer_stats,656619367875570,PAPI_L3_TCM,6, 53.02410889,  3.63218689,end
timer_stats,656619368949613,PAPI_L3_TCM,6, 53.27062988,  3.64778137,end
timer_stats,656619370022904,PAPI_L3_TCM,4, 53.52551269,  3.66429138,end
timer_stats,656619371095653,PAPI_L3_TCM,5, 53.78930664,  3.67910767,end
timer_stats,656619372168918,PAPI_L3_TCM,2, 54.03161621,  3.69418335,end
timer_stats,656619373242273,PAPI_L3_TCM,8, 54.28906250,  3.70977783,end
timer_stats,656619374314987,PAPI_L3_TCM,5, 54.54144287,  3.72535705,end
timer_stats,656619376040339,PAPI_L3_TCM,4207, 55.05273437,  3.75624084,end
timer_stats,656619377120204,PAPI_L3_TCM,55, 55.30767822,  3.77131653,end
timer_stats,656619378194540,PAPI_L3_TCM,7, 55.55841064,  3.78640747,end
timer_stats,656619379268219,PAPI_L3_TCM,2, 55.80786133,  3.80226135,end
timer_stats,656619380341535,PAPI_L3_TCM,4, 56.07635498,  3.81781006,end
timer_stats,656619381416342,PAPI_L3_TCM,8, 56.31097412,  3.83369446,end
timer_stats,656619382490078,PAPI_L3_TCM,7, 56.56793213,  3.84864807,end
timer_stats,656619383563709,PAPI_L3_TCM,1, 56.82672119,  3.86540222,end
timer_stats,656619384638712,PAPI_L3_TCM,8, 57.08215332,  3.88055420,end
timer_stats,656619385714208,PAPI_L3_TCM,4, 57.33197021,  3.89445496,end
timer_stats,656619386789565,PAPI_L3_TCM,6, 57.84375000,  3.92214966,end
timer_stats,656619387864476,PAPI_L3_TCM,1, 58.08361816,  3.93630981,end
timer_stats,656619392046756,PAPI_L3_TCM,69, 58.96722412,  4.00103760,end
timer_stats,656619393128561,PAPI_L3_TCM,70, 59.18438721,  4.01710510,end
timer_stats,656619394210610,PAPI_L3_TCM,10, 59.44470215,  4.03263855,end
timer_stats,656619395288457,PAPI_L3_TCM,10, 59.68469238,  4.04780579,end
timer_stats,656619396361361,PAPI_L3_TCM,4, 59.93969726,  4.06341553,end
timer_stats,656619397437761,PAPI_L3_TCM,3, 60.19854736,  4.07897949,end
timer_stats,656619398512995,PAPI_L3_TCM,5, 60.45709228,  4.09411621,end
timer_stats,656619399587504,PAPI_L3_TCM,3, 60.71221924,  4.10974121,end
timer_stats,656619400662931,PAPI_L3_TCM,3, 60.94787598,  4.12535095,end
timer_stats,656619401737576,PAPI_L3_TCM,1, 61.33386230,  4.14816284,end
timer_stats,656619402812820,PAPI_L3_TCM,6, 61.72393799,  4.17259216,end
timer_stats,656619403888861,PAPI_L3_TCM,1, 61.97894287,  4.18815613,end
timer_stats,656619404963916,PAPI_L3_TCM,2, 62.22424316,  4.20349121,end
timer_stats,656619406038778,PAPI_L3_TCM,1, 62.48962402,  4.21882629,end
timer_stats,656619407113601,PAPI_L3_TCM,3, 62.74346924,  4.23440552,end
timer_stats,656619408188273,PAPI_L3_TCM,3, 63.00018310,  4.24995422,end
timer_stats,656619409263624,PAPI_L3_TCM,5, 63.25140381,  4.26577759,end
timer_stats,656619410339061,PAPI_L3_TCM,3, 63.50299072,  4.28157043,end
timer_stats,656619411413467,PAPI_L3_TCM,5, 63.74310303,  4.29745483,end
timer_stats,656619412487915,PAPI_L3_TCM,0, 64.00653076,  4.31321716,end
timer_stats,656619413563548,PAPI_L3_TCM,2, 64.25982666,  4.32879639,end
timer_stats,656619414638304,PAPI_L3_TCM,3, 64.51019287,  4.34463501,end
timer_stats,656619415712559,PAPI_L3_TCM,3, 64.76141357,  4.36041260,end
timer_stats,656619416786979,PAPI_L3_TCM,2, 65.27142334,  4.39184570,end
timer_stats,656619417861734,PAPI_L3_TCM,3, 65.53936767,  4.40682983,end
timer_stats,656619418936194,PAPI_L3_TCM,2, 65.78631592,  4.42237854,end
timer_stats,656619420015439,PAPI_L3_TCM,10, 66.04541015,  4.43859863,end
timer_stats,656619421089671,PAPI_L3_TCM,4, 66.28948974,  4.45417786,end
timer_stats,656619422163553,PAPI_L3_TCM,6, 66.54461670,  4.46992493,end
timer_stats,656619423238115,PAPI_L3_TCM,0, 66.81060791,  4.48590088,end
timer_stats,656619424313162,PAPI_L3_TCM,2, 67.05407715,  4.50170898,end
timer_stats,656619425388849,PAPI_L3_TCM,5, 67.31335449,  4.51797485,end
timer_stats,656619426463383,PAPI_L3_TCM,5, 67.57153320,  4.52514648,end
timer_stats,656619427537211,PAPI_L3_TCM,1, 67.82397461,  4.54063415,end
timer_stats,656619428612081,PAPI_L3_TCM,3, 68.08276367,  4.55665588,end
timer_stats,656619429686928,PAPI_L3_TCM,3, 68.32873535,  4.57199097,end
timer_stats,656619430761018,PAPI_L3_TCM,4, 68.71173096,  4.59472656,end
timer_stats,656619431835437,PAPI_L3_TCM,0, 69.09625244,  4.61914062,end
timer_stats,656619432911157,PAPI_L3_TCM,4, 69.34149170,  4.63475037,end
timer_stats,656619433987106,PAPI_L3_TCM,6, 69.60198974,  4.64979553,end
timer_stats,656619435064086,PAPI_L3_TCM,9, 69.84790039,  4.66593933,end
timer_stats,656619436139734,PAPI_L3_TCM,6, 70.10760498,  4.68173218,end
timer_stats,656619437215146,PAPI_L3_TCM,5, 70.36590576,  4.69725037,end
timer_stats,656619438290110,PAPI_L3_TCM,2, 70.62091064,  4.71328735,end
timer_stats,656619439364092,PAPI_L3_TCM,4, 70.87463379,  4.72747803,end
timer_stats,656619443979517,PAPI_L3_TCM,84, 71.97363281,  4.82044983,end
timer_stats,656619445059777,PAPI_L3_TCM,48, 72.20123291,  4.83641052,end
timer_stats,656619446137461,PAPI_L3_TCM,4, 72.44915771,  4.85250854,end
timer_stats,656619447214901,PAPI_L3_TCM,10, 72.70751953,  4.86785889,end
timer_stats,656619448296084,PAPI_L3_TCM,36, 72.96807861,  4.88362121,end
timer_stats,656619449376001,PAPI_L3_TCM,26, 73.22363281,  4.89869690,end
timer_stats,656619450449918,PAPI_L3_TCM,5, 73.48657227,  4.91474914,end
timer_stats,656619451522126,PAPI_L3_TCM,3, 73.74389648,  4.92308044,end
timer_stats,656619452599133,PAPI_L3_TCM,8, 73.99310303,  4.93843079,end
timer_stats,656619453674976,PAPI_L3_TCM,9, 74.22973633,  4.95423889,end
timer_stats,656619454748914,PAPI_L3_TCM,4, 74.48992920,  4.96975708,end
timer_stats,656619455823188,PAPI_L3_TCM,5, 74.87677002,  4.99298096,end
timer_stats,656619456897821,PAPI_L3_TCM,1, 75.25671387,  5.01731872,end
timer_stats,656619457971533,PAPI_L3_TCM,3, 75.52532959,  5.03327942,end
timer_stats,656619459046118,PAPI_L3_TCM,4, 75.77239990,  5.04882812,end
timer_stats,656619460120361,PAPI_L3_TCM,9, 76.01745605,  5.06602478,end
timer_stats,656619461195541,PAPI_L3_TCM,9, 76.27996826,  5.08145142,end
timer_stats,656619462269909,PAPI_L3_TCM,8, 76.52307129,  5.09727478,end
timer_stats,656619463345819,PAPI_L3_TCM,0, 76.78527832,  5.11248779,end
timer_stats,656619464419804,PAPI_L3_TCM,4, 77.03485107,  5.12802124,end
timer_stats,656619465494496,PAPI_L3_TCM,4, 77.29296875,  5.14358520,end
timer_stats,656619466567933,PAPI_L3_TCM,4, 77.54919433,  5.15914917,end
timer_stats,656619467640920,PAPI_L3_TCM,3, 77.79345703,  5.17474365,end
timer_stats,656619468715031,PAPI_L3_TCM,6, 78.05120850,  5.19071960,end
timer_stats,656619469788894,PAPI_L3_TCM,2, 78.42633057,  5.21322632,end
timer_stats,656619470863136,PAPI_L3_TCM,3, 78.81280517,  5.23780823,end
timer_stats,656619471937886,PAPI_L3_TCM,2, 79.07434082,  5.25360107,end
timer_stats,656619473013311,PAPI_L3_TCM,11, 79.33215332,  5.26942444,end
timer_stats,656619474088275,PAPI_L3_TCM,5, 79.57586670,  5.28572082,end
timer_stats,656619475162225,PAPI_L3_TCM,3, 79.83532715,  5.30148315,end
timer_stats,656619476236492,PAPI_L3_TCM,3, 80.09118652,  5.31748962,end
timer_stats,656619477310929,PAPI_L3_TCM,3, 80.34240723,  5.33445740,end
timer_stats,656619478384712,PAPI_L3_TCM,1, 80.59130859,  5.34988403,end
timer_stats,656619479459220,PAPI_L3_TCM,4, 80.85595703,  5.36650085,end
timer_stats,656619480532641,PAPI_L3_TCM,1, 81.09912109,  5.38249206,end
timer_stats,656619481606803,PAPI_L3_TCM,4, 81.35632324,  5.39872742,end
timer_stats,656619482683049,PAPI_L3_TCM,2, 81.61193848,  5.41419983,end
timer_stats,656619483760106,PAPI_L3_TCM,4, 81.86474609,  5.43038940,end
timer_stats,656619484833716,PAPI_L3_TCM,11, 82.24353027,  5.45286560,end
timer_stats,656619485908953,PAPI_L3_TCM,6, 82.63214111,  5.47785950,end
timer_stats,656619486982474,PAPI_L3_TCM,1, 82.89495849,  5.49360657,end
timer_stats,656619488014189,PAPI_L3_TCM,5, 83.13372803,  5.50987244,end
timer_stats,656619489087743,PAPI_L3_TCM,1, 83.39617920,  5.52586365,end
timer_stats,656619490161209,PAPI_L3_TCM,2, 83.64837646,  5.54158020,end
timer_stats,656619491235393,PAPI_L3_TCM,1, 83.89611816,  5.55734253,end
timer_stats,656619492310422,PAPI_L3_TCM,3, 84.15441895,  5.57304382,end
timer_stats,656619493385019,PAPI_L3_TCM,6, 84.40899658,  5.58859253,end
timer_stats,656619497717174,PAPI_L3_TCM,78, 85.29992676,  5.65055847,end
timer_stats,656619498801606,PAPI_L3_TCM,39, 85.44470215,  5.66664123,end
timer_stats,656619499877069,PAPI_L3_TCM,5, 85.82482910,  5.68109131,end
timer_stats,656619500953069,PAPI_L3_TCM,5, 86.20300293,  5.70941162,end
timer_stats,656619502028276,PAPI_L3_TCM,9, 86.47009277,  5.72389221,end
timer_stats,656619503102803,PAPI_L3_TCM,3, 86.71325683,  5.73794555,end
timer_stats,656619504177170,PAPI_L3_TCM,1, 86.94726562,  5.75202942,end
timer_stats,656619505252153,PAPI_L3_TCM,6, 87.23010254,  5.76623535,end
timer_stats,656619506328410,PAPI_L3_TCM,2, 87.45513916,  5.78010559,end
timer_stats,656619507403141,PAPI_L3_TCM,1, 87.70422363,  5.79443359,end
timer_stats,656619508478657,PAPI_L3_TCM,4, 87.96032715,  5.80844116,end
timer_stats,656619509554084,PAPI_L3_TCM,3, 88.21966553,  5.82264709,end
timer_stats,656619510629042,PAPI_L3_TCM,2, 88.47192383,  5.83692932,end
timer_stats,656619511703290,PAPI_L3_TCM,1, 88.72558594,  5.85069275,end
timer_stats,656619512778858,PAPI_L3_TCM,4, 88.96826172,  5.86500549,end
timer_stats,656619513854133,PAPI_L3_TCM,4, 89.47399902,  5.89518738,end
timer_stats,656619514928746,PAPI_L3_TCM,3, 89.73333740,  5.90963745,end
timer_stats,656619516009354,PAPI_L3_TCM,3, 89.97943115,  5.92439270,end
timer_stats,656619517085616,PAPI_L3_TCM,6, 90.26055908,  5.93853760,end
timer_stats,656619518160888,PAPI_L3_TCM,2, 90.52105713,  5.95278931,end
timer_stats,656619519236188,PAPI_L3_TCM,3, 90.74560547,  5.96781921,end
timer_stats,656619520310569,PAPI_L3_TCM,5, 90.99768066,  5.98374939,end
timer_stats,656619521385381,PAPI_L3_TCM,6, 91.28210449,  5.99938965,end
timer_stats,656619522460344,PAPI_L3_TCM,1, 91.50708008,  6.01521301,end
timer_stats,656619523533663,PAPI_L3_TCM,4, 91.78320312,  6.03123474,end
timer_stats,656619524608797,PAPI_L3_TCM,0, 92.00469971,  6.04733276,end
timer_stats,656619525683295,PAPI_L3_TCM,6, 92.25836182,  6.06422424,end
timer_stats,656619526757673,PAPI_L3_TCM,2, 92.54241943,  6.07983398,end
timer_stats,656619527833311,PAPI_L3_TCM,7, 92.79760742,  6.09577942,end
timer_stats,656619528908229,PAPI_L3_TCM,2, 93.15606689,  6.11827087,end
timer_stats,656619529982262,PAPI_L3_TCM,5, 93.53558349,  6.14311218,end
timer_stats,656619531056491,PAPI_L3_TCM,2, 93.78106689,  6.15867615,end
timer_stats,656619532130436,PAPI_L3_TCM,3, 94.07562256,  6.17410278,end
timer_stats,656619533205367,PAPI_L3_TCM,4, 94.32092285,  6.19055176,end
timer_stats,656619534279335,PAPI_L3_TCM,3, 94.57592773,  6.20619202,end
timer_stats,656619535353049,PAPI_L3_TCM,1, 94.84442139,  6.22238159,end
timer_stats,656619536427593,PAPI_L3_TCM,10, 95.10870361,  6.23806763,end
timer_stats,656619537502911,PAPI_L3_TCM,4, 95.33831787,  6.25418091,end
timer_stats,656619538577701,PAPI_L3_TCM,5, 95.58306885,  6.27024841,end
timer_stats,656619539651809,PAPI_L3_TCM,1, 95.86950683,  6.28593445,end
timer_stats,656619540726457,PAPI_L3_TCM,6, 96.12792969,  6.30194092,end
timer_stats,656619541800968,PAPI_L3_TCM,2, 96.35375976,  6.31781006,end
timer_stats,656619542875755,PAPI_L3_TCM,4, 96.63012695,  6.33378601,end
timer_stats,656619543950296,PAPI_L3_TCM,3, 97.02001953,  6.35833740,end
timer_stats,656619545025904,PAPI_L3_TCM,5, 97.27258301,  6.37437439,end
timer_stats,656619546100894,PAPI_L3_TCM,7, 97.65911865,  6.39729309,end
timer_stats,656619547174704,PAPI_L3_TCM,2, 97.91497803,  6.41325378,end
timer_stats,656619548248586,PAPI_L3_TCM,2, 98.18121338,  6.42944336,end
timer_stats,656619549323631,PAPI_L3_TCM,3, 98.43164062,  6.44517517,end
timer_stats,656619550398261,PAPI_L3_TCM,2, 98.68109131,  6.46093750,end
timer_stats,656619551472954,PAPI_L3_TCM,5, 98.94323730,  6.47689819,end
timer_stats,656619552547110,PAPI_L3_TCM,7, 99.21008301,  6.49263000,end
timer_stats,656619553622305,PAPI_L3_TCM,11, 99.46496582,  6.50889587,end
timer_stats,656619554696726,PAPI_L3_TCM,2, 99.70989990,  6.52490234,end
timer_stats,656619555769837,PAPI_L3_TCM,2, 99.94628906,  6.54095459,end
timer_stats,656619560504438,PAPI_L3_TCM,194,101.14819336,  6.63510132,end
timer_stats,656619561612882,PAPI_L3_TCM,84,101.29638672,  6.64985657,end
timer_stats,656619562691572,PAPI_L3_TCM,15,101.52612305,  6.66468811,end
timer_stats,656619563766582,PAPI_L3_TCM,4,101.77429199,  6.68023681,end
timer_stats,656619564842821,PAPI_L3_TCM,2,102.03887939,  6.69599914,end
timer_stats,656619565917800,PAPI_L3_TCM,4,102.41937256,  6.71247864,end
timer_stats,656619566992812,PAPI_L3_TCM,2,102.67791748,  6.73632812,end
timer_stats,656619568066875,PAPI_L3_TCM,2,103.05865479,  6.75912476,end
timer_stats,656619569141062,PAPI_L3_TCM,2,103.30633545,  6.77467346,end
timer_stats,656619570214952,PAPI_L3_TCM,2,103.57354736,  6.78991699,end
timer_stats,656619571290229,PAPI_L3_TCM,1,103.82659912,  6.80598450,end
timer_stats,656619572364005,PAPI_L3_TCM,4,104.08026123,  6.82151794,end
timer_stats,656619573439511,PAPI_L3_TCM,1,104.33380127,  6.83752441,end
timer_stats,656619574514320,PAPI_L3_TCM,5,104.58032226,  6.85356140,end
timer_stats,656619575588259,PAPI_L3_TCM,1,104.84735107,  6.86975097,end
timer_stats,656619576663568,PAPI_L3_TCM,1,105.09802246,  6.88528442,end
timer_stats,656619577737405,PAPI_L3_TCM,4,105.35699463,  6.90057373,end
timer_stats,656619578811016,PAPI_L3_TCM,1,105.61773682,  6.91635132,end
timer_stats,656619579884911,PAPI_L3_TCM,4,105.87408447,  6.93212891,end
timer_stats,656619580960499,PAPI_L3_TCM,6,106.12567139,  6.94815063,end
timer_stats,656619582037606,PAPI_L3_TCM,4,106.63482666,  6.98059082,end
timer_stats,656619583112223,PAPI_L3_TCM,11,106.89013672,  6.99621582,end
timer_stats,656619584186727,PAPI_L3_TCM,2,107.14984131,  7.01258850,end
timer_stats,656619585261417,PAPI_L3_TCM,4,107.40356445,  7.02806091,end
timer_stats,656619586336456,PAPI_L3_TCM,3,107.66265869,  7.04402161,end
timer_stats,656619587411767,PAPI_L3_TCM,3,107.92712402,  7.06063843,end
timer_stats,656619588486782,PAPI_L3_TCM,5,108.16967773,  7.07638550,end
timer_stats,656619589561462,PAPI_L3_TCM,10,108.43060303,  7.09236145,end
timer_stats,656619590636640,PAPI_L3_TCM,1,108.68359375,  7.10783386,end
timer_stats,656619591711750,PAPI_L3_TCM,4,108.93005371,  7.12409973,end
timer_stats,656619592786089,PAPI_L3_TCM,2,109.20434570,  7.14004517,end
timer_stats,656619593860910,PAPI_L3_TCM,6,109.45330811,  7.15647888,end
timer_stats,656619594934676,PAPI_L3_TCM,9,109.71081543,  7.17243958,end
timer_stats,656619596013136,PAPI_L3_TCM,6,110.09448242,  7.19676208,end
timer_stats,656619597087269,PAPI_L3_TCM,2,110.46807861,  7.22021484,end
timer_stats,656619598161157,PAPI_L3_TCM,9,110.72222900,  7.23663330,end
timer_stats,656619599236142,PAPI_L3_TCM,2,110.98156738,  7.25215149,end
timer_stats,656619600311291,PAPI_L3_TCM,4,111.23516846,  7.26814270,end
timer_stats,656619601385741,PAPI_L3_TCM,3,111.50201416,  7.28410339,end
timer_stats,656619602459800,PAPI_L3_TCM,2,111.76037598,  7.30007935,end
timer_stats,656619603534760,PAPI_L3_TCM,4,112.02136230,  7.31579590,end
timer_stats,656619604609919,PAPI_L3_TCM,13,112.26269531,  7.33158874,end
timer_stats,656619605683289,PAPI_L3_TCM,5,112.52752685,  7.34771728,end
timer_stats,656619606757149,PAPI_L3_TCM,3,112.77783203,  7.36297607,end
timer_stats,656619607830814,PAPI_L3_TCM,1,113.03930664,  7.37847900,end
timer_stats,656619608906461,PAPI_L3_TCM,7,113.30310058,  7.39425659,end
timer_stats,656619609981272,PAPI_L3_TCM,2,113.69128418,  7.41027832,end
timer_stats,656619611055659,PAPI_L3_TCM,3,114.06585693,  7.44206238,end
timer_stats,656619612129571,PAPI_L3_TCM,10,114.31768799,  7.45809936,end
timer_stats,656619613202893,PAPI_L3_TCM,4,114.59289551,  7.47399902,end
timer_stats,656619614278094,PAPI_L3_TCM,3,114.83850098,  7.48976135,end
timer_stats,656619615353506,PAPI_L3_TCM,3,115.10784912,  7.50544739,end
timer_stats,656619616428617,PAPI_L3_TCM,1,115.37030029,  7.52143860,end
timer_stats,656619617502475,PAPI_L3_TCM,2,115.61322021,  7.53724670,end
timer_stats,656619618576771,PAPI_L3_TCM,1,115.89056396,  7.55316162,end
timer_stats,656619619650765,PAPI_L3_TCM,1,116.13397217,  7.56893921,end
timer_stats,656619620725695,PAPI_L3_TCM,2,116.39575195,  7.58494568,end
timer_stats,656619625388934,PAPI_L3_TCM,118,117.48986816,  7.66246033,end
timer_stats,656619626471568,PAPI_L3_TCM,47,117.70849609,  7.67872620,end
timer_stats,656619627547611,PAPI_L3_TCM,8,117.96228027,  7.69473267,end
timer_stats,656619628622228,PAPI_L3_TCM,1,118.22045898,  7.71052551,end
timer_stats,656619629696785,PAPI_L3_TCM,2,118.48303223,  7.72610473,end
timer_stats,656619630771726,PAPI_L3_TCM,2,118.71923828,  7.74150085,end
timer_stats,656619631846152,PAPI_L3_TCM,3,118.97363281,  7.75703430,end
timer_stats,656619632922633,PAPI_L3_TCM,1,119.23864746,  7.77278137,end
timer_stats,656619634000628,PAPI_L3_TCM,5,119.63806152,  7.79750061,end
timer_stats,656619635076043,PAPI_L3_TCM,11,120.01025390,  7.82069397,end
timer_stats,656619636149645,PAPI_L3_TCM,3,120.26275635,  7.83647156,end
timer_stats,656619637223933,PAPI_L3_TCM,3,120.53125000,  7.85246277,end
timer_stats,656619638298595,PAPI_L3_TCM,5,120.78674316,  7.86825561,end
timer_stats,656619639373896,PAPI_L3_TCM,1,121.04473877,  7.88380432,end
timer_stats,656619640449771,PAPI_L3_TCM,2,121.30078125,  7.89961243,end
timer_stats,656619641525665,PAPI_L3_TCM,4,121.56115723,  7.91543579,end
timer_stats,656619642600095,PAPI_L3_TCM,1,121.82037354,  7.93124389,end
timer_stats,656619643675074,PAPI_L3_TCM,1,122.07800293,  7.94679260,end
timer_stats,656619644750905,PAPI_L3_TCM,5,122.33795166,  7.96258545,end
timer_stats,656619645826853,PAPI_L3_TCM,2,122.58959961,  7.97837829,end
timer_stats,656619646901806,PAPI_L3_TCM,10,122.86132812,  7.99458313,end
timer_stats,656619647975638,PAPI_L3_TCM,2,123.24530029,  8.01913452,end
timer_stats,656619649050817,PAPI_L3_TCM,2,123.61901855,  8.04212952,end
timer_stats,656619650125253,PAPI_L3_TCM,7,123.87933349,  8.05786133,end
timer_stats,656619651199452,PAPI_L3_TCM,2,124.13793945,  8.07403564,end
timer_stats,656619652273160,PAPI_L3_TCM,1,124.39916992,  8.08955383,end
timer_stats,656619653348953,PAPI_L3_TCM,7,124.64892578,  8.10630798,end
timer_stats,656619654424222,PAPI_L3_TCM,4,124.91839599,  8.12229919,end
timer_stats,656619655498707,PAPI_L3_TCM,3,125.16802978,  8.13783264,end
timer_stats,656619656575683,PAPI_L3_TCM,8,125.42279053,  8.15385437,end
timer_stats,656619657651258,PAPI_L3_TCM,4,125.68969727,  8.16961670,end
timer_stats,656619658725418,PAPI_L3_TCM,2,125.94885254,  8.18537903,end
timer_stats,656619659800122,PAPI_L3_TCM,5,126.21191406,  8.20085144,end
timer_stats,656619660875093,PAPI_L3_TCM,5,126.45452881,  8.21641540,end
timer_stats,656619661949995,PAPI_L3_TCM,7,126.71826172,  8.23246765,end
timer_stats,656619663025911,PAPI_L3_TCM,3,127.10089111,  8.25657654,end
timer_stats,656619664099407,PAPI_L3_TCM,4,127.49182129,  8.27955627,end
timer_stats,656619665173715,PAPI_L3_TCM,2,127.75146484,  8.29534912,end
timer_stats,656619666249895,PAPI_L3_TCM,6,128.00445557,  8.31141662,end
timer_stats,656619667325719,PAPI_L3_TCM,4,128.27337646,  8.32736206,end
timer_stats,656619668399793,PAPI_L3_TCM,2,128.52416992,  8.34269714,end
timer_stats,656619669475260,PAPI_L3_TCM,4,128.78698730,  8.35871887,end
timer_stats,656619670549628,PAPI_L3_TCM,4,129.04193115,  8.37429810,end
timer_stats,656619671624249,PAPI_L3_TCM,1,129.30322266,  8.39074707,end
timer_stats,656619672699562,PAPI_L3_TCM,4,129.55743408,  8.40678406,end
timer_stats,656619673775065,PAPI_L3_TCM,2,129.82495117,  8.42208862,end
timer_stats,656619674850097,PAPI_L3_TCM,2,130.08142090,  8.43786621,end
timer_stats,656619675925218,PAPI_L3_TCM,1,130.33813477,  8.45339966,end
timer_stats,656619677000798,PAPI_L3_TCM,2,130.59014892,  8.46983337,end
timer_stats,656619678075869,PAPI_L3_TCM,6,131.10992432,  8.50143432,end
timer_stats,656619679151028,PAPI_L3_TCM,7,131.37402344,  8.51719665,end
timer_stats,656619680224724,PAPI_L3_TCM,2,131.62823486,  8.53323364,end
timer_stats,656619681299393,PAPI_L3_TCM,4,131.88781738,  8.54855347,end
timer_stats,656619682374293,PAPI_L3_TCM,1,132.14746094,  8.56460571,end
timer_stats,656619683450190,PAPI_L3_TCM,7,132.39367676,  8.58023071,end
timer_stats,656619684525061,PAPI_L3_TCM,6,132.66278076,  8.59574890,end
timer_stats,656619685599533,PAPI_L3_TCM,2,132.92352295,  8.61180115,end
timer_stats,656619686675133,PAPI_L3_TCM,3,133.17498779,  8.62736511,end
timer_stats,656619687750247,PAPI_L3_TCM,3,133.43383789,  8.64341736,end
timer_stats,656619688825179,PAPI_L3_TCM,5,133.69659424,  8.65892029,end
timer_stats,656619689899665,PAPI_L3_TCM,6,133.95593262,  8.67494202,end
timer_stats,656619694442699,PAPI_L3_TCM,162,135.11822510,  8.75553894,end
timer_stats,656619695530791,PAPI_L3_TCM,42,135.32135010,  8.77185058,end
timer_stats,656619696606242,PAPI_L3_TCM,2,135.58154297,  8.78759766,end
timer_stats,656619697681784,PAPI_L3_TCM,6,135.82604980,  8.80323791,end
timer_stats,656619698755981,PAPI_L3_TCM,3,136.09893799,  8.81878662,end
timer_stats,656619699829685,PAPI_L3_TCM,3,136.34600830,  8.83392334,end
timer_stats,656619700903507,PAPI_L3_TCM,8,136.60101318,  8.84901428,end
timer_stats,656619701978780,PAPI_L3_TCM,7,136.86676025,  8.86520386,end
timer_stats,656619703053495,PAPI_L3_TCM,1,137.37878418,  8.88919067,end
timer_stats,656619704127254,PAPI_L3_TCM,3,137.64337158,  8.91226196,end
timer_stats,656619705200489,PAPI_L3_TCM,1,137.90020752,  8.92829895,end
timer_stats,656619706275590,PAPI_L3_TCM,2,138.15887451,  8.94326782,end
timer_stats,656619707349628,PAPI_L3_TCM,3,138.40911865,  8.95935058,end
timer_stats,656619708423904,PAPI_L3_TCM,4,138.67327881,  8.97515869,end
timer_stats,656619709498786,PAPI_L3_TCM,2,138.93096924,  8.99121094,end
timer_stats,656619710573099,PAPI_L3_TCM,2,139.19464111,  9.00695801,end
timer_stats,656619711647018,PAPI_L3_TCM,2,139.45697021,  9.02296448,end
timer_stats,656619712722239,PAPI_L3_TCM,8,139.70910644,  9.03900146,end
timer_stats,656619713796574,PAPI_L3_TCM,3,139.97082520,  9.05526733,end
timer_stats,656619714870273,PAPI_L3_TCM,2,140.22332764,  9.07083130,end
timer_stats,656619715944172,PAPI_L3_TCM,1,140.47888184,  9.08660889,end
timer_stats,656619717019318,PAPI_L3_TCM,6,140.73736572,  9.10299682,end
timer_stats,656619718092977,PAPI_L3_TCM,5,141.13317871,  9.11843872,end
timer_stats,656619719167291,PAPI_L3_TCM,3,141.52478027,  9.15046692,end
timer_stats,656619720241182,PAPI_L3_TCM,3,141.77758789,  9.16651916,end
timer_stats,656619721315385,PAPI_L3_TCM,5,142.03936767,  9.18321228,end
timer_stats,656619722390277,PAPI_L3_TCM,1,142.28808594,  9.19888306,end
timer_stats,656619723465324,PAPI_L3_TCM,3,142.55584717,  9.21501159,end
timer_stats,656619724540489,PAPI_L3_TCM,13,142.81622314,  9.23080444,end
timer_stats,656619725614890,PAPI_L3_TCM,3,143.07238769,  9.24617004,end
timer_stats,656619726688085,PAPI_L3_TCM,2,143.33166504,  9.26171875,end
timer_stats,656619727762275,PAPI_L3_TCM,3,143.59863281,  9.27729797,end
timer_stats,656619728837098,PAPI_L3_TCM,4,143.84899902,  9.29338074,end
timer_stats,656619729911740,PAPI_L3_TCM,11,144.10583496,  9.30902099,end
timer_stats,656619730986266,PAPI_L3_TCM,3,144.36596680,  9.32432556,end
timer_stats,656619732015935,PAPI_L3_TCM,4,144.63024902,  9.34039307,end
timer_stats,656619733089472,PAPI_L3_TCM,6,145.01965332,  9.36509705,end
timer_stats,656619734164463,PAPI_L3_TCM,8,145.39648437,  9.38790894,end
timer_stats,656619735238824,PAPI_L3_TCM,1,145.65844727,  9.40368652,end
timer_stats,656619736313888,PAPI_L3_TCM,3,145.91662598,  9.41972351,end
timer_stats,656619737387911,PAPI_L3_TCM,5,146.18780517,  9.43539429,end
timer_stats,656619738462680,PAPI_L3_TCM,5,146.44091797,  9.45117187,end
timer_stats,656619739536977,PAPI_L3_TCM,3,146.70141602,  9.46716308,end
timer_stats,656619740610779,PAPI_L3_TCM,4,146.96221924,  9.48248291,end
timer_stats,656619741685046,PAPI_L3_TCM,4,147.22619629,  9.49829101,end
timer_stats,656619742759935,PAPI_L3_TCM,4,147.48394775,  9.51409912,end
timer_stats,656619743834560,PAPI_L3_TCM,4,147.75628662,  9.52104187,end
timer_stats,656619744909042,PAPI_L3_TCM,10,148.01019287,  9.53678894,end
timer_stats,656619745983672,PAPI_L3_TCM,5,148.26995849,  9.55255127,end
timer_stats,656619747057666,PAPI_L3_TCM,3,148.52453613,  9.56857300,end
timer_stats,656619748131607,PAPI_L3_TCM,4,149.04589844,  9.59274292,end
timer_stats,656619749205763,PAPI_L3_TCM,3,149.30017090,  9.61596680,end
timer_stats,656619750279747,PAPI_L3_TCM,2,149.56066894,  9.63172912,end
timer_stats,656619751353796,PAPI_L3_TCM,3,149.82397461,  9.64749145,end
timer_stats,656619752428119,PAPI_L3_TCM,6,150.07312012,  9.66302490,end
timer_stats,656619753502336,PAPI_L3_TCM,6,150.33398437,  9.67826843,end
timer_stats,656619754575933,PAPI_L3_TCM,2,150.59350586,  9.69355774,end
timer_stats,656619755649589,PAPI_L3_TCM,2,150.85742187,  9.70951843,end
timer_stats,656619756723136,PAPI_L3_TCM,2,151.12115478,  9.72555542,end
timer_stats,656619757798224,PAPI_L3_TCM,2,151.37866211,  9.74087524,end
timer_stats,656619758872601,PAPI_L3_TCM,4,151.63970947,  9.75688171,end
timer_stats,656619759946637,PAPI_L3_TCM,4,151.89715576,  9.77189636,end
timer_stats,656619761021615,PAPI_L3_TCM,10,152.16046142,  9.78794861,end
timer_stats,656619762096012,PAPI_L3_TCM,3,152.55072021,  9.81213379,end
timer_stats,656619767308503,PAPI_L3_TCM,325,153.76702881,  9.90782165,end
timer_stats,656619768397873,PAPI_L3_TCM,147,153.99584961,  9.92257690,end
timer_stats,656619769474607,PAPI_L3_TCM,5,154.24816894,  9.93664551,end
timer_stats,656619770549357,PAPI_L3_TCM,8,154.49896240,  9.95048523,end
timer_stats,656619771624645,PAPI_L3_TCM,3,154.74749756,  9.96429443,end
timer_stats,656619772699160,PAPI_L3_TCM,7,155.01391601,  9.97811890,end
timer_stats,656619773773552,PAPI_L3_TCM,2,155.26153564,  9.99197388,end
timer_stats,656619774847702,PAPI_L3_TCM,3,155.51293945, 10.00625610,end
timer_stats,656619775921573,PAPI_L3_TCM,5,155.78149414, 10.02005005,end
timer_stats,656619776997771,PAPI_L3_TCM,5,156.03570557, 10.03387451,end
timer_stats,656619778071493,PAPI_L3_TCM,3,156.29010010, 10.04745483,end
timer_stats,656619779145202,PAPI_L3_TCM,2,156.68591309, 10.06196594,end
timer_stats,656619780218837,PAPI_L3_TCM,4,157.06518555, 10.09008789,end
timer_stats,656619781297894,PAPI_L3_TCM,2,157.32659912, 10.10414123,end
timer_stats,656619782372968,PAPI_L3_TCM,4,157.57543945, 10.11824036,end
timer_stats,656619783446635,PAPI_L3_TCM,3,157.82720947, 10.13227844,end
timer_stats,656619784520551,PAPI_L3_TCM,3,158.08477783, 10.14607239,end
timer_stats,656619785594745,PAPI_L3_TCM,9,158.34716797, 10.15983581,end
timer_stats,656619786667824,PAPI_L3_TCM,1,158.60028076, 10.17362976,end
timer_stats,656619787742970,PAPI_L3_TCM,3,158.85656738, 10.18809509,end
timer_stats,656619788817370,PAPI_L3_TCM,4,159.10565185, 10.20239258,end
timer_stats,656619789891772,PAPI_L3_TCM,2,159.37139892, 10.21684265,end
timer_stats,656619790966310,PAPI_L3_TCM,6,159.62133789, 10.23112488,end
timer_stats,656619792014361,PAPI_L3_TCM,8,159.88574219, 10.24488830,end
timer_stats,656619793088179,PAPI_L3_TCM,5,160.26428222, 10.26657104,end
timer_stats,656619794163341,PAPI_L3_TCM,2,160.51470947, 10.28082275,end
timer_stats,656619795236839,PAPI_L3_TCM,2,160.90972900, 10.30316162,end
timer_stats,656619796310909,PAPI_L3_TCM,7,161.16156006, 10.31825256,end
timer_stats,656619797384024,PAPI_L3_TCM,1,161.41998291, 10.33430481,end
timer_stats,656619798458893,PAPI_L3_TCM,5,161.68090820, 10.35079956,end
timer_stats,656619799534309,PAPI_L3_TCM,5,161.94006348, 10.36628723,end
timer_stats,656619800609191,PAPI_L3_TCM,9,162.20391846, 10.38156128,end
timer_stats,656619801683270,PAPI_L3_TCM,3,162.48883057, 10.39698791,end
timer_stats,656619802755800,PAPI_L3_TCM,2,162.71429443, 10.41290283,end
timer_stats,656619803829316,PAPI_L3_TCM,2,162.99841309, 10.42839050,end
timer_stats,656619804905716,PAPI_L3_TCM,9,163.23181152, 10.44450378,end
timer_stats,656619805980517,PAPI_L3_TCM,9,163.48706055, 10.46058655,end
timer_stats,656619807056026,PAPI_L3_TCM,6,163.74096680, 10.47615051,end
timer_stats,656619808129587,PAPI_L3_TCM,9,164.00939941, 10.49212646,end
timer_stats,656619809203300,PAPI_L3_TCM,7,164.40362549, 10.51599121,end
timer_stats,656619810277271,PAPI_L3_TCM,3,164.65881348, 10.53038025,end
timer_stats,656619811351137,PAPI_L3_TCM,2,165.03033447, 10.55487060,end
timer_stats,656619812425069,PAPI_L3_TCM,2,165.29669189, 10.57017517,end
timer_stats,656619813498440,PAPI_L3_TCM,9,165.55548096, 10.58572388,end
timer_stats,656619814572730,PAPI_L3_TCM,1,165.80767822, 10.60133362,end
timer_stats,656619815647111,PAPI_L3_TCM,3,166.06774902, 10.61715698,end
timer_stats,656619816721393,PAPI_L3_TCM,5,166.32849121, 10.63220215,end
timer_stats,656619817803373,PAPI_L3_TCM,6,166.61517334, 10.64793396,end
timer_stats,656619818877562,PAPI_L3_TCM,2,166.87738037, 10.66371155,end
timer_stats,656619819950950,PAPI_L3_TCM,6,167.13018799, 10.67921448,end
timer_stats,656619821024697,PAPI_L3_TCM,8,167.38586426, 10.69525146,end
timer_stats,656619822099705,PAPI_L3_TCM,3,167.64184570, 10.71101379,end
timer_stats,656619823173887,PAPI_L3_TCM,1,168.00524902, 10.73518371,end
timer_stats,656619824247507,PAPI_L3_TCM,5,168.39550781, 10.75788879,end
timer_stats,656619825321343,PAPI_L3_TCM,2,168.65570068, 10.77436828,end
timer_stats,656619826396569,PAPI_L3_TCM,3,168.91259766, 10.79035950,end
timer_stats,656619827470785,PAPI_L3_TCM,4,169.19512939, 10.80648804,end
timer_stats,656619828544225,PAPI_L3_TCM,8,169.42871094, 10.82208252,end
timer_stats,656619829617831,PAPI_L3_TCM,4,169.68920898, 10.83833313,end
timer_stats,656619830690807,PAPI_L3_TCM,2,169.94818115, 10.85359192,end
timer_stats,656619831764382,PAPI_L3_TCM,6,170.24084472, 10.86991882,end
timer_stats,656619832838791,PAPI_L3_TCM,6,170.45465088, 10.88603210,end
timer_stats,656619833911943,PAPI_L3_TCM,3,170.71984863, 10.90130615,end
timer_stats,656619834986489,PAPI_L3_TCM,6,170.97784424, 10.91712951,end
timer_stats,656619836014133,PAPI_L3_TCM,7,171.23468017, 10.93246460,end
timer_stats,656619837091019,PAPI_L3_TCM,1,171.49438476, 10.94850159,end
timer_stats,656619838164116,PAPI_L3_TCM,2,171.87969971, 10.97290039,end
timer_stats,656619839238573,PAPI_L3_TCM,3,172.14111328, 10.97987366,end
timer_stats,656619840312255,PAPI_L3_TCM,8,172.51812744, 11.01119995,end
timer_stats,656619841386096,PAPI_L3_TCM,7,172.78021240, 11.02749634,end
timer_stats,656619842460144,PAPI_L3_TCM,5,173.04309082, 11.04415894,end
timer_stats,656619843533395,PAPI_L3_TCM,4,173.32214355, 11.05958557,end
timer_stats,656619844606373,PAPI_L3_TCM,4,173.58935547, 11.07450867,end
timer_stats,656619845680128,PAPI_L3_TCM,5,173.81597900, 11.08967590,end
timer_stats,656619846753150,PAPI_L3_TCM,3,174.09442139, 11.10539246,end
timer_stats,656619847827577,PAPI_L3_TCM,2,174.35363770, 11.12120056,end
timer_stats,656619848901043,PAPI_L3_TCM,9,174.62066650, 11.13648987,end
timer_stats,656619849974850,PAPI_L3_TCM,7,174.84979248, 11.15345764,end
timer_stats,656619851048392,PAPI_L3_TCM,1,175.13104248, 11.16873169,end
timer_stats,656619852122595,PAPI_L3_TCM,5,175.40283203, 11.18449402,end
timer_stats,656619853196627,PAPI_L3_TCM,3,175.65802002, 11.20005798,end
timer_stats,656619857820882,PAPI_L3_TCM,335,176.80792236, 11.28269958,end
timer_stats,656619858910689,PAPI_L3_TCM,112,176.99761963, 11.29965210,end
timer_stats,656619859986675,PAPI_L3_TCM,8,177.24890137, 11.31547546,end
timer_stats,656619861076388,PAPI_L3_TCM,4,177.48822021, 11.33058166,end
timer_stats,656619862151112,PAPI_L3_TCM,8,177.73706055, 11.34614563,end
timer_stats,656619863223644,PAPI_L3_TCM,5,178.14556885, 11.36181641,end
timer_stats,656619864296560,PAPI_L3_TCM,5,178.51544189, 11.39276123,end
timer_stats,656619865371632,PAPI_L3_TCM,2,178.76879883, 11.40855408,end
timer_stats,656619866447028,PAPI_L3_TCM,2,179.04858398, 11.42425537,end
timer_stats,656619867520618,PAPI_L3_TCM,4,179.28161621, 11.43986511,end
timer_stats,656619868594080,PAPI_L3_TCM,6,179.57421875, 11.45532226,end
timer_stats,656619869668272,PAPI_L3_TCM,2,179.82635498, 11.47109985,end
timer_stats,656619870741820,PAPI_L3_TCM,3,180.08319092, 11.48666382,end
timer_stats,656619871814935,PAPI_L3_TCM,1,180.34509277, 11.50244141,end
timer_stats,656619872887487,PAPI_L3_TCM,4,180.57159424, 11.51759338,end
timer_stats,656619873962461,PAPI_L3_TCM,1,180.86346435, 11.53300476,end
timer_stats,656619875035210,PAPI_L3_TCM,2,181.08941650, 11.54835510,end
timer_stats,656619876108572,PAPI_L3_TCM,1,181.38134766, 11.56399536,end
timer_stats,656619877180975,PAPI_L3_TCM,3,181.74389648, 11.58813476,end
timer_stats,656619878253882,PAPI_L3_TCM,3,181.98883057, 11.60258484,end
timer_stats,656619879326495,PAPI_L3_TCM,4,182.40246582, 11.62719726,end
timer_stats,656619880400455,PAPI_L3_TCM,6,182.64373779, 11.64248657,end
timer_stats,656619881475552,PAPI_L3_TCM,6,182.89379883, 11.65942383,end
timer_stats,656619882547984,PAPI_L3_TCM,2,183.17596435, 11.67552185,end
timer_stats,656619883620716,PAPI_L3_TCM,3,183.43560791, 11.69142151,end
timer_stats,656619884694568,PAPI_L3_TCM,2,183.69421387, 11.70669556,end
timer_stats,656619885767300,PAPI_L3_TCM,6,183.96124267, 11.72245788,end
timer_stats,656619886840380,PAPI_L3_TCM,5,184.21044922, 11.73820496,end
timer_stats,656619887912772,PAPI_L3_TCM,5,184.47039795, 11.75418091,end
timer_stats,656619888986599,PAPI_L3_TCM,5,184.73236084, 11.76939392,end
timer_stats,656619890060173,PAPI_L3_TCM,3,184.99084472, 11.78514099,end
timer_stats,656619891133204,PAPI_L3_TCM,5,185.25305176, 11.80175781,end
timer_stats,656619892205244,PAPI_L3_TCM,5,185.61102295, 11.82583618,end
timer_stats,656619893277831,PAPI_L3_TCM,6,185.85906982, 11.84022522,end
timer_stats,656619894361793,PAPI_L3_TCM,9,186.24438476, 11.86495972,end
timer_stats,656619895434846,PAPI_L3_TCM,2,186.53454590, 11.88111877,end
timer_stats,656619896508454,PAPI_L3_TCM,5,186.78625488, 11.89659119,end
timer_stats,656619897580624,PAPI_L3_TCM,1,187.03710937, 11.91264343,end
timer_stats,656619898652957,PAPI_L3_TCM,3,187.27362060, 11.92797851,end
timer_stats,656619899725429,PAPI_L3_TCM,4,187.56744385, 11.94363403,end
timer_stats,656619900798726,PAPI_L3_TCM,8,187.81213379, 11.95870972,end
timer_stats,656619901871783,PAPI_L3_TCM,4,188.07147217, 11.97451782,end
timer_stats,656619902944068,PAPI_L3_TCM,2,188.32635498, 11.99008179,end
timer_stats,656619904013996,PAPI_L3_TCM,2,188.57916260, 12.00616455,end
timer_stats,656619905086273,PAPI_L3_TCM,6,188.84814453, 12.02165222,end
timer_stats,656619906159576,PAPI_L3_TCM,5,189.11230469, 12.03787231,end
timer_stats,656619907233403,PAPI_L3_TCM,8,189.36993408, 12.05430603,end
timer_stats,656619908305243,PAPI_L3_TCM,1,189.61328125, 12.07098389,end
timer_stats,656619909377428,PAPI_L3_TCM,2,190.12432861, 12.10244751,end
timer_stats,656619910450624,PAPI_L3_TCM,2,190.39013672, 12.11840820,end
timer_stats,656619911523712,PAPI_L3_TCM,4,190.64147949, 12.13441467,end
timer_stats,656619912596130,PAPI_L3_TCM,4,190.89923096, 12.14968872,end
timer_stats,656619913669495,PAPI_L3_TCM,8,191.15570068, 12.16569519,end
timer_stats,656619914743364,PAPI_L3_TCM,5,191.41241455, 12.18145752,end
timer_stats,656619915816538,PAPI_L3_TCM,14,191.67230224, 12.19792175,end
timer_stats,656619916889865,PAPI_L3_TCM,3,191.92926025, 12.21340942,end
timer_stats,656619917963087,PAPI_L3_TCM,4,192.19342041, 12.22912598,end
timer_stats,656619919035374,PAPI_L3_TCM,3,192.46429443, 12.24508667,end
timer_stats,656619920107883,PAPI_L3_TCM,5,192.71179199, 12.26084900,end
timer_stats,656619921180279,PAPI_L3_TCM,2,192.95843506, 12.27636719,end
timer_stats,656619922252303,PAPI_L3_TCM,3,193.21582031, 12.29258728,end
timer_stats,656619923324461,PAPI_L3_TCM,4,193.46936035, 12.30834961,end
timer_stats,656619924397822,PAPI_L3_TCM,4,193.99078369, 12.33175659,end
timer_stats,656619925471565,PAPI_L3_TCM,5,194.25762939, 12.35569763,end
timer_stats,656619926545038,PAPI_L3_TCM,3,194.50671387, 12.37171936,end
timer_stats,656619927618840,PAPI_L3_TCM,1,194.76324463, 12.38772583,end
timer_stats,656619928692313,PAPI_L3_TCM,3,195.03833008, 12.40315246,end
timer_stats,656619929765118,PAPI_L3_TCM,4,195.27368164, 12.41920471,end
timer_stats,656619930850003,PAPI_L3_TCM,6,195.53710937, 12.43516540,end
timer_stats,656619931922164,PAPI_L3_TCM,2,195.79943847, 12.45115662,end
timer_stats,656619932994855,PAPI_L3_TCM,7,196.06304932, 12.46693420,end
timer_stats,656619934068058,PAPI_L3_TCM,6,196.29479980, 12.48298645,end
timer_stats,656619935141129,PAPI_L3_TCM,5,196.57489014, 12.49865723,end
timer_stats,656619936214442,PAPI_L3_TCM,9,196.82739258, 12.51420593,end
timer_stats,656619937287732,PAPI_L3_TCM,4,197.09326172, 12.52992249,end
timer_stats,656619938360951,PAPI_L3_TCM,1,197.59204101, 12.56192017,end
timer_stats,656619939433830,PAPI_L3_TCM,5,197.85662842, 12.57768249,end
timer_stats,656619944466098,PAPI_L3_TCM,308,198.94134521, 12.68161011,end
timer_stats,656619945560762,PAPI_L3_TCM,135,199.17150879, 12.69750976,end
timer_stats,656619946635166,PAPI_L3_TCM,14,199.43249512, 12.71324158,end
timer_stats,656619947708911,PAPI_L3_TCM,8,199.68762207, 12.72898865,end
timer_stats,656619948784221,PAPI_L3_TCM,1,199.94909668, 12.74446106,end
timer_stats,656619949869603,PAPI_L3_TCM,38,200.20538330, 12.76046753,end
timer_stats,656619950953499,PAPI_L3_TCM,21,200.46032715, 12.77598572,end
timer_stats,656619952018232,PAPI_L3_TCM,10,200.70062256, 12.79205322,end
timer_stats,656619953092508,PAPI_L3_TCM,3,200.96221924, 12.80755615,end
timer_stats,656619954167986,PAPI_L3_TCM,4,201.22375488, 12.82327270,end
timer_stats,656619955242728,PAPI_L3_TCM,2,201.49114990, 12.83923340,end
timer_stats,656619956316733,PAPI_L3_TCM,7,201.86975098, 12.85520935,end
timer_stats,656619957392062,PAPI_L3_TCM,1,202.13214111, 12.87815857,end
timer_stats,656619958466087,PAPI_L3_TCM,7,202.51312256, 12.90274048,end
timer_stats,656619959539245,PAPI_L3_TCM,5,202.76824951, 12.91850281,end
timer_stats,656619960612556,PAPI_L3_TCM,8,203.01983642, 12.93409729,end
timer_stats,656619961687899,PAPI_L3_TCM,1,203.27423096, 12.95053101,end
timer_stats,656619962762025,PAPI_L3_TCM,6,203.54351807, 12.96600342,end
timer_stats,656619963835824,PAPI_L3_TCM,4,203.79949951, 12.98200989,end
timer_stats,656619964909616,PAPI_L3_TCM,7,204.06317139, 12.99795532,end
timer_stats,656619965984340,PAPI_L3_TCM,3,204.30963135, 13.01397705,end
timer_stats,656619967058555,PAPI_L3_TCM,1,204.56109619, 13.02972412,end
timer_stats,656619968131209,PAPI_L3_TCM,3,204.81695557, 13.04570007,end
timer_stats,656619969205328,PAPI_L3_TCM,3,205.08117676, 13.06144714,end
timer_stats,656619970280462,PAPI_L3_TCM,4,205.35083008, 13.07713318,end
timer_stats,656619971413706,PAPI_L3_TCM,21,205.85241699, 13.10977173,end
timer_stats,656619972487418,PAPI_L3_TCM,1,206.10833740, 13.12568665,end
timer_stats,656619973561598,PAPI_L3_TCM,4,206.37030029, 13.14167785,end
timer_stats,656619974637207,PAPI_L3_TCM,4,206.62048340, 13.15721130,end
timer_stats,656619975711674,PAPI_L3_TCM,2,206.89294434, 13.17315674,end
timer_stats,656619976787017,PAPI_L3_TCM,2,207.14215088, 13.18917847,end
timer_stats,656619977861073,PAPI_L3_TCM,4,207.39801025, 13.20518494,end
timer_stats,656619978935044,PAPI_L3_TCM,1,207.65911865, 13.22091675,end
timer_stats,656619980011948,PAPI_L3_TCM,14,207.92315674, 13.23663330,end
timer_stats,656619981085348,PAPI_L3_TCM,2,208.16540527, 13.25285339,end
timer_stats,656619982160516,PAPI_L3_TCM,5,208.42028809, 13.26835632,end
timer_stats,656619983235744,PAPI_L3_TCM,5,208.68151855, 13.28410339,end
timer_stats,656619984310049,PAPI_L3_TCM,2,208.95147705, 13.29959106,end
timer_stats,656619985384508,PAPI_L3_TCM,1,209.44854736, 13.32235718,end
timer_stats,656619986458628,PAPI_L3_TCM,3,209.70367432, 13.34678650,end
timer_stats,656619987533182,PAPI_L3_TCM,0,209.96777344, 13.36256409,end
timer_stats,656619988608362,PAPI_L3_TCM,3,210.21795654, 13.37857055,end
timer_stats,656619989683103,PAPI_L3_TCM,1,210.48742676, 13.39424133,end
timer_stats,656619990757541,PAPI_L3_TCM,2,210.74462891, 13.40956116,end
timer_stats,656619991832173,PAPI_L3_TCM,1,210.99981689, 13.42562866,end
timer_stats,656619992908623,PAPI_L3_TCM,2,211.25054932, 13.44120789,end
timer_stats,656619993982861,PAPI_L3_TCM,1,211.50885010, 13.45677185,end
timer_stats,656619995055819,PAPI_L3_TCM,4,211.77282715, 13.47277832,end
timer_stats,656619996129209,PAPI_L3_TCM,10,212.02044678, 13.48831177,end
timer_stats,656619997203223,PAPI_L3_TCM,10,212.29046631, 13.50349426,end
timer_stats,656619998275953,PAPI_L3_TCM,3,212.54693603, 13.51902771,end
timer_stats,656619999348334,PAPI_L3_TCM,2,212.79132080, 13.53486633,end
timer_stats,656620000421226,PAPI_L3_TCM,2,213.30792236, 13.56707764,end
timer_stats,656620001495079,PAPI_L3_TCM,11,213.55877685, 13.58303833,end
timer_stats,656620002567869,PAPI_L3_TCM,3,213.82458496, 13.59922790,end
timer_stats,656620003641362,PAPI_L3_TCM,6,214.07647705, 13.61518860,end
timer_stats,656620004715204,PAPI_L3_TCM,3,214.33984375, 13.63107300,end
timer_stats,656620005788980,PAPI_L3_TCM,3,214.59136963, 13.64680481,end
timer_stats,656620006862834,PAPI_L3_TCM,2,214.83587646, 13.66259766,end
timer_stats,656620007937136,PAPI_L3_TCM,4,215.11236572, 13.67857361,end
timer_stats,656620009011869,PAPI_L3_TCM,4,215.36022949, 13.69409180,end
timer_stats,656620010087204,PAPI_L3_TCM,9,215.61804199, 13.70983887,end
timer_stats,656620011161567,PAPI_L3_TCM,1,215.87591553, 13.72621155,end
timer_stats,656620012235581,PAPI_L3_TCM,4,216.13012695, 13.74218750,end
timer_stats,656620013310107,PAPI_L3_TCM,10,216.39166260, 13.75793457,end
timer_stats,656620014386637,PAPI_L3_TCM,4,216.77441406, 13.78221130,end
timer_stats,656620015460627,PAPI_L3_TCM,6,217.15460205, 13.80494690,end
timer_stats,656620016534811,PAPI_L3_TCM,5,217.41235352, 13.82182312,end
timer_stats,656620017608781,PAPI_L3_TCM,1,217.66864014, 13.83784485,end
timer_stats,656620018682824,PAPI_L3_TCM,3,217.92938232, 13.85354614,end
timer_stats,656620019756506,PAPI_L3_TCM,1,218.18151855, 13.87004089,end
timer_stats,656620020831616,PAPI_L3_TCM,8,218.44152832, 13.88580322,end
timer_stats,656620021906490,PAPI_L3_TCM,3,218.70349121, 13.90135193,end
timer_stats,656620022981112,PAPI_L3_TCM,6,218.95294189, 13.91691589,end
timer_stats,656620024015085,PAPI_L3_TCM,1,219.21551514, 13.93246460,end
timer_stats,656620025090079,PAPI_L3_TCM,8,219.47094726, 13.94831848,end
timer_stats,656620030051552,PAPI_L3_TCM,117,220.63281250, 14.02679443,end
timer_stats,656620031135603,PAPI_L3_TCM,85,220.81115723, 14.04335022,end
timer_stats,656620032210731,PAPI_L3_TCM,10,221.06359863, 14.05895996,end
timer_stats,656620033284642,PAPI_L3_TCM,5,221.31542969, 14.07455444,end
timer_stats,656620034358468,PAPI_L3_TCM,3,221.57269287, 14.08987427,end
timer_stats,656620035432856,PAPI_L3_TCM,9,222.07934570, 14.12126159,end
timer_stats,656620036506508,PAPI_L3_TCM,5,222.35046387, 14.13676453,end
timer_stats,656620037581344,PAPI_L3_TCM,5,222.60955810, 14.15209961,end
timer_stats,656620038654338,PAPI_L3_TCM,2,222.85723877, 14.16792297,end
timer_stats,656620039727173,PAPI_L3_TCM,1,223.10284424, 14.18489075,end
timer_stats,656620040800724,PAPI_L3_TCM,3,223.37481689, 14.20060730,end
timer_stats,656620041874602,PAPI_L3_TCM,4,223.62115478, 14.21612549,end
timer_stats,656620042948375,PAPI_L3_TCM,2,223.88098144, 14.23190307,end
timer_stats,656620044014116,PAPI_L3_TCM,6,224.14190674, 14.24787903,end
timer_stats,656620045087207,PAPI_L3_TCM,8,224.39471435, 14.26344299,end
timer_stats,656620046159586,PAPI_L3_TCM,2,224.65423584, 14.27919006,end
timer_stats,656620047232337,PAPI_L3_TCM,2,224.90991211, 14.29522705,end
timer_stats,656620048305614,PAPI_L3_TCM,4,225.16253662, 14.31079101,end
timer_stats,656620049378818,PAPI_L3_TCM,2,225.42102051, 14.32656860,end
timer_stats,656620050452648,PAPI_L3_TCM,5,225.93713379, 14.35049438,end
timer_stats,656620051526124,PAPI_L3_TCM,3,226.19238281, 14.37367248,end
timer_stats,656620052601685,PAPI_L3_TCM,5,226.44256592, 14.38941955,end
timer_stats,656620053674682,PAPI_L3_TCM,4,226.69891357, 14.40490723,end
timer_stats,656620054748443,PAPI_L3_TCM,4,226.95782471, 14.42044067,end
timer_stats,656620055821554,PAPI_L3_TCM,3,227.22113037, 14.43569946,end
timer_stats,656620056895291,PAPI_L3_TCM,5,227.47491455, 14.45129394,end
timer_stats,656620057968806,PAPI_L3_TCM,0,227.72741699, 14.46684265,end
timer_stats,656620059042612,PAPI_L3_TCM,2,227.97882080, 14.48239136,end
timer_stats,656620060115589,PAPI_L3_TCM,3,228.24224853, 14.49789429,end
timer_stats,656620061189635,PAPI_L3_TCM,5,228.49780273, 14.51347351,end
timer_stats,656620062263786,PAPI_L3_TCM,2,228.75036621, 14.52894592,end
timer_stats,656620063337712,PAPI_L3_TCM,4,229.00463867, 14.54582214,end
timer_stats,656620064410677,PAPI_L3_TCM,0,229.27520752, 14.56147766,end
timer_stats,656620065484539,PAPI_L3_TCM,4,229.78399658, 14.59286499,end
timer_stats,656620066557886,PAPI_L3_TCM,5,230.03833008, 14.60893249,end
timer_stats,656620067630108,PAPI_L3_TCM,4,230.28649902, 14.62472534,end
timer_stats,656620068702191,PAPI_L3_TCM,2,230.55487060, 14.64024353,end
timer_stats,656620069775159,PAPI_L3_TCM,3,230.81072998, 14.65527344,end
timer_stats,656620070848592,PAPI_L3_TCM,2,231.06909180, 14.67108154,end
timer_stats,656620071923030,PAPI_L3_TCM,15,231.31378174, 14.68666076,end
timer_stats,656620072996071,PAPI_L3_TCM,3,231.56433105, 14.70289612,end
timer_stats,656620074070275,PAPI_L3_TCM,3,231.83465576, 14.71885681,end
timer_stats,656620075143521,PAPI_L3_TCM,1,232.09197998, 14.73510742,end
timer_stats,656620076215940,PAPI_L3_TCM,5,232.34252930, 14.75053406,end
timer_stats,656620077290000,PAPI_L3_TCM,1,232.60717773, 14.76608276,end
timer_stats,656620078363988,PAPI_L3_TCM,9,232.86059570, 14.78189087,end
timer_stats,656620079437046,PAPI_L3_TCM,3,233.23760986, 14.80619812,end
timer_stats,656620080510764,PAPI_L3_TCM,5,233.63787842, 14.82057190,end
timer_stats,656620081584719,PAPI_L3_TCM,0,233.87841797, 14.84494018,end
timer_stats,656620082657626,PAPI_L3_TCM,2,234.15228271, 14.85348511,end
timer_stats,656620083730527,PAPI_L3_TCM,6,234.40081787, 14.86904907,end
timer_stats,656620084806811,PAPI_L3_TCM,5,234.65875244, 14.88533020,end
timer_stats,656620085881131,PAPI_L3_TCM,5,234.91503906, 14.90113830,end
timer_stats,656620086955773,PAPI_L3_TCM,3,235.15417480, 14.91694641,end
timer_stats,656620088020602,PAPI_L3_TCM,12,235.41595459, 14.93290710,end
timer_stats,656620089093586,PAPI_L3_TCM,6,235.67932129, 14.94767761,end
timer_stats,656620090167098,PAPI_L3_TCM,1,235.93756103, 14.96345520,end
timer_stats,656620091240263,PAPI_L3_TCM,10,236.20098877, 14.97967529,end
timer_stats,656620092314204,PAPI_L3_TCM,1,236.44976807, 14.99487305,end
timer_stats,656620093386915,PAPI_L3_TCM,3,236.70233154, 15.01071167,end
timer_stats,656620094459899,PAPI_L3_TCM,1,237.09088135, 15.02619934,end
timer_stats,656620095532699,PAPI_L3_TCM,3,237.46655273, 15.05751037,end
timer_stats,656620096607372,PAPI_L3_TCM,1,237.71588135, 15.07337952,end
timer_stats,656620097681749,PAPI_L3_TCM,2,237.98400879, 15.08935547,end
timer_stats,656620098754887,PAPI_L3_TCM,2,238.23272705, 15.10466003,end
timer_stats,656620099829190,PAPI_L3_TCM,1,238.49005127, 15.11975098,end
timer_stats,656620100903558,PAPI_L3_TCM,8,238.74645996, 15.13577270,end
timer_stats,656620101977779,PAPI_L3_TCM,5,239.00402832, 15.15118408,end
timer_stats,656620103050593,PAPI_L3_TCM,1,239.25933838, 15.16772461,end
timer_stats,656620104123824,PAPI_L3_TCM,4,239.51300049, 15.18327331,end
timer_stats,656620105197586,PAPI_L3_TCM,7,239.78088379, 15.19926453,end
timer_stats,656620106271595,PAPI_L3_TCM,1,240.02990723, 15.21508789,end
timer_stats,656620107345037,PAPI_L3_TCM,0,240.28448486, 15.23088074,end
timer_stats,656620108419536,PAPI_L3_TCM,6,240.53778076, 15.24662781,end
timer_stats,656620109493201,PAPI_L3_TCM,2,240.92022705, 15.27130127,end
timer_stats,656620110566401,PAPI_L3_TCM,3,241.31646728, 15.29377746,end
timer_stats,656620111639748,PAPI_L3_TCM,1,241.55926514, 15.30963135,end
timer_stats,656620117204408,PAPI_L3_TCM,153,242.63006592, 15.38414001,end
timer_stats,656620118293604,PAPI_L3_TCM,76,242.76464844, 15.40052795,end
timer_stats,656620119369430,PAPI_L3_TCM,9,243.00903320, 15.41482544,end
timer_stats,656620120444736,PAPI_L3_TCM,4,243.26397705, 15.42863464,end
timer_stats,656620121522220,PAPI_L3_TCM,1,243.77258301, 15.44984436,end
timer_stats,656620122600789,PAPI_L3_TCM,3,244.03033447, 15.47058105,end
timer_stats,656620123677365,PAPI_L3_TCM,4,244.28344727, 15.48439026,end
timer_stats,656620124754034,PAPI_L3_TCM,3,244.53979492, 15.49824524,end
timer_stats,656620125828810,PAPI_L3_TCM,4,244.78906250, 15.51161194,end
timer_stats,656620126903324,PAPI_L3_TCM,2,245.03369141, 15.52551269,end
timer_stats,656620127977789,PAPI_L3_TCM,1,245.29193115, 15.53906250,end
timer_stats,656620129052349,PAPI_L3_TCM,5,245.54412842, 15.55293274,end
timer_stats,656620130127721,PAPI_L3_TCM,8,245.79687500, 15.56648254,end
timer_stats,656620131203101,PAPI_L3_TCM,1,246.05688477, 15.58055115,end
timer_stats,656620132277441,PAPI_L3_TCM,4,246.31329346, 15.59436035,end
timer_stats,656620133354851,PAPI_L3_TCM,4,246.56994629, 15.60845947,end
timer_stats,656620134430189,PAPI_L3_TCM,3,246.82025146, 15.62231445,end
timer_stats,656620135505084,PAPI_L3_TCM,1,247.19543457, 15.64254761,end
timer_stats,656620136581095,PAPI_L3_TCM,5,247.58117676, 15.66400146,end
timer_stats,656620137656602,PAPI_L3_TCM,2,247.83941650, 15.67808533,end
timer_stats,656620138732466,PAPI_L3_TCM,2,248.08154297, 15.69146728,end
timer_stats,656620139808011,PAPI_L3_TCM,1,248.33666992, 15.70480346,end
timer_stats,656620140884399,PAPI_L3_TCM,3,248.60369873, 15.71850586,end
timer_stats,656620141960381,PAPI_L3_TCM,2,248.85089111, 15.73208618,end
timer_stats,656620143035336,PAPI_L3_TCM,4,249.09698486, 15.74569702,end
timer_stats,656620144111324,PAPI_L3_TCM,9,249.34301758, 15.75956726,end
timer_stats,656620145186584,PAPI_L3_TCM,2,249.61608887, 15.77432251,end
timer_stats,656620146261228,PAPI_L3_TCM,1,249.87500000, 15.78050232,end
timer_stats,656620147336501,PAPI_L3_TCM,2,250.12115478, 15.79411316,end
timer_stats,656620148411241,PAPI_L3_TCM,2,250.36962891, 15.80744934,end
timer_stats,656620149487393,PAPI_L3_TCM,3,250.74499512, 15.82156372,end
timer_stats,656620150563103,PAPI_L3_TCM,2,251.12951660, 15.84968567,end
timer_stats,656620151638271,PAPI_L3_TCM,4,251.39062500, 15.86294555,end
timer_stats,656620152714085,PAPI_L3_TCM,4,251.64160156, 15.87707519,end
timer_stats,656620153790032,PAPI_L3_TCM,7,251.90032959, 15.89114380,end
timer_stats,656620154865888,PAPI_L3_TCM,6,252.14062500, 15.90524292,end
timer_stats,656620155940893,PAPI_L3_TCM,4,252.39410400, 15.91932678,end
timer_stats,656620157016174,PAPI_L3_TCM,1,252.64862060, 15.93341064,end
timer_stats,656620158090972,PAPI_L3_TCM,9,252.90356445, 15.94779968,end
timer_stats,656620159165688,PAPI_L3_TCM,5,253.15869141, 15.96160889,end
timer_stats,656620160240882,PAPI_L3_TCM,9,253.41619873, 15.97540283,end
timer_stats,656620161315229,PAPI_L3_TCM,2,253.66497803, 15.98951721,end
timer_stats,656620162389909,PAPI_L3_TCM,2,253.92309570, 16.00361633,end
timer_stats,656620163463735,PAPI_L3_TCM,3,254.18585205, 16.01733398,end
timer_stats,656620164538628,PAPI_L3_TCM,4,254.67590332, 16.04504394,end
timer_stats,656620165613111,PAPI_L3_TCM,0,254.93872070, 16.05957031,end
timer_stats,656620166687717,PAPI_L3_TCM,3,255.18963623, 16.07295227,end
timer_stats,656620167762517,PAPI_L3_TCM,1,255.44537353, 16.08650207,end
timer_stats,656620168838513,PAPI_L3_TCM,2,255.70379639, 16.10008240,end
timer_stats,656620169914102,PAPI_L3_TCM,6,255.96417236, 16.11392212,end
timer_stats,656620170989128,PAPI_L3_TCM,3,256.21105957, 16.12777710,end
timer_stats,656620172063360,PAPI_L3_TCM,1,256.46130371, 16.14250183,end
timer_stats,656620173139047,PAPI_L3_TCM,6,256.72790527, 16.15585327,end
timer_stats,656620174214326,PAPI_L3_TCM,3,256.97406006, 16.16947937,end
timer_stats,656620175290104,PAPI_L3_TCM,3,257.23248291, 16.18331909,end
timer_stats,656620176365028,PAPI_L3_TCM,5,257.47900391, 16.19694519,end
timer_stats,656620177440490,PAPI_L3_TCM,9,257.73577881, 16.21054077,end
timer_stats,656620178514872,PAPI_L3_TCM,1,257.98138428, 16.22392273,end
timer_stats,656620179591164,PAPI_L3_TCM,4,258.49645996, 16.25102234,end
timer_stats,656620180666565,PAPI_L3_TCM,1,258.74963379, 16.26631164,end
timer_stats,656620181743132,PAPI_L3_TCM,3,258.99084473, 16.27966308,end
timer_stats,656620182817909,PAPI_L3_TCM,1,259.24261475, 16.29351807,end
timer_stats,656620183892395,PAPI_L3_TCM,4,259.49468994, 16.30825806,end
timer_stats,656620184967560,PAPI_L3_TCM,1,259.75457764, 16.32185364,end
timer_stats,656620186043463,PAPI_L3_TCM,3,260.01013183, 16.33541870,end
timer_stats,656620187118805,PAPI_L3_TCM,1,260.25781250, 16.34950256,end
timer_stats,656620188193555,PAPI_L3_TCM,1,260.50610351, 16.36312866,end
timer_stats,656620189268600,PAPI_L3_TCM,1,260.75848389, 16.37701416,end
timer_stats,656620190343986,PAPI_L3_TCM,2,261.01251221, 16.39082336,end
timer_stats,656620191418472,PAPI_L3_TCM,1,261.27282715, 16.40438843,end
timer_stats,656620192493167,PAPI_L3_TCM,7,261.52441406, 16.41824341,end
timer_stats,656620193571248,PAPI_L3_TCM,5,262.02447510, 16.43183899,end
timer_stats,656620194647248,PAPI_L3_TCM,5,262.28082275, 16.45184326,end
timer_stats,656620195721569,PAPI_L3_TCM,3,262.52874756, 16.46595764,end
timer_stats,656620196796043,PAPI_L3_TCM,6,262.77777100, 16.47984314,end
timer_stats,656620197871413,PAPI_L3_TCM,4,263.03332519, 16.49343872,end
timer_stats,656620198945793,PAPI_L3_TCM,4,263.29449463, 16.50701904,end
timer_stats,656620200013872,PAPI_L3_TCM,3,263.53662109, 16.52113342,end
timer_stats,656620201087916,PAPI_L3_TCM,10,263.79223633, 16.53497314,end
timer_stats,656620202162277,PAPI_L3_TCM,1,264.04345703, 16.54858398,end
timer_stats,656620203237426,PAPI_L3_TCM,3,264.28808594, 16.56266784,end
timer_stats,656620204312874,PAPI_L3_TCM,4,264.53851318, 16.57621765,end
timer_stats,656620205387509,PAPI_L3_TCM,3,264.79528808, 16.59031677,end
timer_stats,656620206460864,PAPI_L3_TCM,2,265.06011963, 16.60383606,end
timer_stats,656620207535077,PAPI_L3_TCM,4,265.30456543, 16.61740112,end
timer_stats,656620208747555,PAPI_L3_TCM,37,265.81524658, 16.64436340,end
timer_stats,656620210689657,PAPI_L3_TCM,84,266.27252197, 16.66964722,end
timer_stats,656620212107186,PAPI_L3_TCM,54,266.52386475, 16.68376160,end
timer_stats,656620213189269,PAPI_L3_TCM,13,266.77032471, 16.69784546,end
timer_stats,656620214266031,PAPI_L3_TCM,6,267.01812744, 16.71163940,end
timer_stats,656620215341101,PAPI_L3_TCM,2,267.25592041, 16.72753906,end
timer_stats,656620216416916,PAPI_L3_TCM,4,267.51129150, 16.74362183,end
timer_stats,656620217492306,PAPI_L3_TCM,11,267.76409912, 16.75878906,end
timer_stats,656620218567304,PAPI_L3_TCM,4,268.25793457, 16.78167725,end
timer_stats,656620219643640,PAPI_L3_TCM,7,268.51715088, 16.80430603,end
timer_stats,656620220718485,PAPI_L3_TCM,1,268.76324463, 16.81945801,end
timer_stats,656620221799052,PAPI_L3_TCM,3,269.01226807, 16.83460998,end
timer_stats,656620222872823,PAPI_L3_TCM,1,269.27105713, 16.84947204,end
timer_stats,656620223947183,PAPI_L3_TCM,4,269.52252197, 16.86512756,end
timer_stats,656620225021669,PAPI_L3_TCM,1,269.76763916, 16.88055420,end
timer_stats,656620226095965,PAPI_L3_TCM,3,270.02233887, 16.89596558,end
timer_stats,656620227170045,PAPI_L3_TCM,1,270.27062988, 16.91209412,end
timer_stats,656620228244495,PAPI_L3_TCM,4,270.51300049, 16.92724609,end
timer_stats,656620229319300,PAPI_L3_TCM,1,270.76660156, 16.94305420,end
timer_stats,656620230394425,PAPI_L3_TCM,2,271.03179932, 16.95788574,end
timer_stats,656620231471402,PAPI_L3_TCM,5,271.28240967, 16.97355652,end
timer_stats,656620232548529,PAPI_L3_TCM,20,271.54016113, 16.98832703,end
timer_stats,656620233623568,PAPI_L3_TCM,4,272.02990722, 17.01837158,end
timer_stats,656620234697778,PAPI_L3_TCM,2,272.27770996, 17.03346252,end
timer_stats,656620235772321,PAPI_L3_TCM,5,272.54144287, 17.04907226,end
timer_stats,656620236847247,PAPI_L3_TCM,3,272.78875732, 17.06546020,end
timer_stats,656620237924177,PAPI_L3_TCM,4,273.03460693, 17.08053589,end
timer_stats,656620238999317,PAPI_L3_TCM,3,273.28338623, 17.09536743,end
timer_stats,656620240071926,PAPI_L3_TCM,3,273.53436279, 17.11032104,end
timer_stats,656620241147937,PAPI_L3_TCM,2,273.78613281, 17.12544250,end
timer_stats,656620242223230,PAPI_L3_TCM,11,274.03588867, 17.14060974,end
timer_stats,656620243298363,PAPI_L3_TCM,10,274.29266357, 17.15603638,end
timer_stats,656620244623646,PAPI_L3_TCM,352,274.65637207, 17.17736816,end
timer_stats,656620245705178,PAPI_L3_TCM,34,275.00164795, 17.19900513,end
timer_stats,656620246782877,PAPI_L3_TCM,56,275.24633789, 17.20819092,end
timer_stats,656620247862904,PAPI_L3_TCM,27,275.46185303, 17.22308350,end
timer_stats,656620248937882,PAPI_L3_TCM,4,275.70294189, 17.23837280,end
timer_stats,656620250011068,PAPI_L3_TCM,3,275.94793701, 17.25355530,end
timer_stats,656620251082934,PAPI_L3_TCM,0,276.20019531, 17.26846313,end
timer_stats,656620252154688,PAPI_L3_TCM,5,276.45166016, 17.28341675,end
timer_stats,656620253226544,PAPI_L3_TCM,1,276.69451904, 17.29864502,end
timer_stats,656620254300605,PAPI_L3_TCM,4,276.95703125, 17.31382751,end
timer_stats,656620255372280,PAPI_L3_TCM,0,277.19189453, 17.32955933,end
timer_stats,656620256635052,PAPI_L3_TCM,15,277.55139160, 17.35122681,end
timer_stats,656620257715025,PAPI_L3_TCM,7,277.89025879, 17.37220764,end
timer_stats,656620258790179,PAPI_L3_TCM,4,278.13641357, 17.38717651,end
timer_stats,656620259864602,PAPI_L3_TCM,2,278.39239502, 17.40260315,end
timer_stats,656620260941415,PAPI_L3_TCM,5,278.63458252, 17.41760254,end
timer_stats,656620262017720,PAPI_L3_TCM,2,278.89166260, 17.43247986,end
timer_stats,656620263090033,PAPI_L3_TCM,7,279.13342285, 17.44746399,end
timer_stats,656620264162998,PAPI_L3_TCM,3,279.38446045, 17.46289062,end
timer_stats,656620265237119,PAPI_L3_TCM,3,279.63098144, 17.47781372,end
timer_stats,656620266312256,PAPI_L3_TCM,1,279.88110351, 17.49296570,end
timer_stats,656620273509767,PAPI_L3_TCM,292,281.24151611, 17.61354065,end
timer_stats,656620274605542,PAPI_L3_TCM,42,281.57757568, 17.63600159,end
timer_stats,656620275684077,PAPI_L3_TCM,13,281.93438721, 17.65153503,end
timer_stats,656620276764442,PAPI_L3_TCM,5,282.17504883, 17.67446899,end
timer_stats,656620277842580,PAPI_L3_TCM,4,282.41601562, 17.68946838,end
timer_stats,656620278917692,PAPI_L3_TCM,0,282.66326904, 17.70416260,end
timer_stats,656620279993257,PAPI_L3_TCM,2,282.89245605, 17.71847534,end
timer_stats,656620281074807,PAPI_L3_TCM,3,283.13397217, 17.73324585,end
timer_stats,656620282152446,PAPI_L3_TCM,13,283.37725830, 17.74252319,end
timer_stats,656620283229327,PAPI_L3_TCM,0,283.59918213, 17.75827026,end
timer_stats,656620284306197,PAPI_L3_TCM,6,283.83575439, 17.77301025,end
timer_stats,656620285381405,PAPI_L3_TCM,0,284.08276367, 17.78826904,end
timer_stats,656620286459933,PAPI_L3_TCM,5,284.32171631, 17.80014038,end
timer_stats,656620287682441,PAPI_L3_TCM,10,284.65582275, 17.82046509,end
timer_stats,656620288759790,PAPI_L3_TCM,5,285.02648926, 17.84040832,end
timer_stats,656620289834479,PAPI_L3_TCM,0,285.28613281, 17.85652161,end
timer_stats,656620290908772,PAPI_L3_TCM,3,285.51959228, 17.86579895,end
timer_stats,656620291982278,PAPI_L3_TCM,6,285.77172852, 17.88143921,end
timer_stats,656620293055156,PAPI_L3_TCM,1,286.02386475, 17.89736938,end
timer_stats,656620296851971,PAPI_L3_TCM,7,286.69659424, 17.94659424,end
timer_stats,656620297929049,PAPI_L3_TCM,4,286.90747070, 17.96228027,end
timer_stats,656620299003885,PAPI_L3_TCM,1,287.15753174, 17.97769165,end
timer_stats,656620300086385,PAPI_L3_TCM,2,287.40710449, 17.99252319,end
timer_stats,656620301160689,PAPI_L3_TCM,1,287.64764404, 18.00721741,end
timer_stats,656620302233379,PAPI_L3_TCM,2,287.87890625, 18.02243042,end
timer_stats,656620303305562,PAPI_L3_TCM,2,288.11688232, 18.03746033,end
timer_stats,656620304380932,PAPI_L3_TCM,3,288.36022949, 18.05360412,end
timer_stats,656620305456901,PAPI_L3_TCM,5,288.60510254, 18.06904602,end
timer_stats,656620306529823,PAPI_L3_TCM,3,288.83874512, 18.08410644,end
timer_stats,656620307601272,PAPI_L3_TCM,0,289.07250977, 18.09930420,end
timer_stats,656620308675742,PAPI_L3_TCM,4,289.55236816, 18.12895203,end
timer_stats,656620309756893,PAPI_L3_TCM,4,289.78106689, 18.14414978,end
timer_stats,656620310838131,PAPI_L3_TCM,3,290.01043701, 18.15846252,end
timer_stats,656620311912939,PAPI_L3_TCM,1,290.24603271, 18.17326355,end
timer_stats,656620312986598,PAPI_L3_TCM,1,290.46710205, 18.18769836,end
timer_stats,656620314059691,PAPI_L3_TCM,2,290.69250488, 18.20182800,end
timer_stats,656620315133643,PAPI_L3_TCM,2,290.90618896, 18.21771240,end
timer_stats,656620316212399,PAPI_L3_TCM,2,291.13763428, 18.23248291,end
timer_stats,656620317288098,PAPI_L3_TCM,5,291.34838867, 18.24690247,end
timer_stats,656620318363708,PAPI_L3_TCM,4,291.57061767, 18.26029968,end
timer_stats,656620319437752,PAPI_L3_TCM,2,291.78570557, 18.27442932,end
timer_stats,656620320511386,PAPI_L3_TCM,0,292.00463867, 18.28858948,end
timer_stats,656620321585337,PAPI_L3_TCM,2,292.21862793, 18.30300903,end
timer_stats,656620322658649,PAPI_L3_TCM,0,292.54907227, 18.31765747,end
timer_stats,656620323731432,PAPI_L3_TCM,8,292.86871338, 18.34638977,end
timer_stats,656620324806325,PAPI_L3_TCM,14,293.08026123, 18.36061096,end
timer_stats,656620325880978,PAPI_L3_TCM,4,293.29815674, 18.37477112,end
timer_stats,656620326954707,PAPI_L3_TCM,1,293.51910400, 18.38896179,end
timer_stats,656620328030119,PAPI_L3_TCM,2,293.73345947, 18.40338135,end
timer_stats,656620329104661,PAPI_L3_TCM,7,293.95324707, 18.41777039,end
timer_stats,656620330180132,PAPI_L3_TCM,3,294.15502930, 18.43267822,end
timer_stats,656620331254421,PAPI_L3_TCM,1,294.36212158, 18.44740295,end
timer_stats,656620332327747,PAPI_L3_TCM,3,294.58544922, 18.46180725,end
timer_stats,656620333400527,PAPI_L3_TCM,1,294.78448486, 18.47607422,end
timer_stats,656620334473746,PAPI_L3_TCM,4,295.00323486, 18.49023437,end
timer_stats,656620335546070,PAPI_L3_TCM,1,295.22027588, 18.50439453,end
timer_stats,656620336620652,PAPI_L3_TCM,1,295.42700195, 18.51879883,end
timer_stats,656620337693765,PAPI_L3_TCM,2,295.84216308, 18.54129028,end
timer_stats,656620338768509,PAPI_L3_TCM,3,296.05285644, 18.56181335,end
timer_stats,656620339841621,PAPI_L3_TCM,1,296.24847412, 18.57606506,end
timer_stats,656620340915996,PAPI_L3_TCM,3,296.46588135, 18.59049988,end
timer_stats,656620341988988,PAPI_L3_TCM,1,296.66741943, 18.60494995,end
timer_stats,656620343061715,PAPI_L3_TCM,4,296.86639404, 18.61897278,end
timer_stats,656620344136518,PAPI_L3_TCM,1,297.07226562, 18.63236999,end
timer_stats,656620345211189,PAPI_L3_TCM,2,297.27264404, 18.64666748,end
timer_stats,656620346284897,PAPI_L3_TCM,0,297.47851562, 18.66114807,end
timer_stats,656620347356812,PAPI_L3_TCM,4,297.66662598, 18.67518616,end
timer_stats,656620348430254,PAPI_L3_TCM,7,297.87084961, 18.68965149,end
timer_stats,656620349504851,PAPI_L3_TCM,8,298.06036377, 18.70393372,end
timer_stats,656620350577265,PAPI_L3_TCM,2,298.26031494, 18.71788025,end
timer_stats,656620351650408,PAPI_L3_TCM,4,298.46136475, 18.73185730,end
timer_stats,656620352726487,PAPI_L3_TCM,1,298.85345459, 18.76049804,end
timer_stats,656620353799945,PAPI_L3_TCM,2,299.04125977, 18.77502441,end
timer_stats,656620354874511,PAPI_L3_TCM,5,299.23773193, 18.78904724,end
timer_stats,656620355948261,PAPI_L3_TCM,7,299.41870117, 18.80288696,end
timer_stats,656620357021359,PAPI_L3_TCM,4,299.61627197, 18.81669617,end
timer_stats,656620358101153,PAPI_L3_TCM,6,299.80853271, 18.83074951,end
timer_stats,656620359172981,PAPI_L3_TCM,0,300.00177002, 18.84455872,end
timer_stats,656620360246405,PAPI_L3_TCM,4,300.19128418, 18.85859680,end
timer_stats,656620361320828,PAPI_L3_TCM,4,300.37976074, 18.87242126,end
timer_stats,656620362394094,PAPI_L3_TCM,1,300.56384277, 18.88626098,end
timer_stats,656620363466424,PAPI_L3_TCM,2,300.75854492, 18.90028381,end
timer_stats,656620364539066,PAPI_L3_TCM,3,300.94628906, 18.91453552,end
timer_stats,656620365613809,PAPI_L3_TCM,1,301.13812256, 18.92884827,end
timer_stats,656620366687982,PAPI_L3_TCM,3,301.33032227, 18.94261169,end
timer_stats,656620367761321,PAPI_L3_TCM,0,301.69769287, 18.97027588,end
timer_stats,656620368835674,PAPI_L3_TCM,3,301.88818359, 18.98387146,end
timer_stats,656620369910141,PAPI_L3_TCM,3,302.07043457, 18.99790954,end
timer_stats,656620370984130,PAPI_L3_TCM,3,302.24969482, 19.01177978,end
timer_stats,656620372058460,PAPI_L3_TCM,2,302.42822266, 19.02539062,end
timer_stats,656620373133845,PAPI_L3_TCM,3,302.59893799, 19.03831482,end
timer_stats,656620374208915,PAPI_L3_TCM,2,302.77844238, 19.05152893,end
timer_stats,656620375298591,PAPI_L3_TCM,5,302.95306396, 19.06521606,end
timer_stats,656620376389211,PAPI_L3_TCM,2,303.12744141, 19.07789612,end
timer_stats,656620377483246,PAPI_L3_TCM,4,303.29492187, 19.09117126,end
timer_stats,656620378579995,PAPI_L3_TCM,1,303.46948242, 19.10411072,end
timer_stats,656620379669831,PAPI_L3_TCM,1,303.63537597, 19.11755371,end
timer_stats,656620380759524,PAPI_L3_TCM,0,303.96142578, 19.14384460,end
timer_stats,656620381872586,PAPI_L3_TCM,2,304.12609863, 19.15660095,end
timer_stats,656620382984055,PAPI_L3_TCM,0,304.29217529, 19.16983032,end
timer_stats,656620384100210,PAPI_L3_TCM,4,304.44738769, 19.18338013,end
timer_stats,656620385174468,PAPI_L3_TCM,0,304.61486816, 19.19665527,end
timer_stats,656620386285274,PAPI_L3_TCM,4,304.77288818, 19.20988464,end
timer_stats,656620387397053,PAPI_L3_TCM,2,304.93475342, 19.22290039,end
timer_stats,656620388505212,PAPI_L3_TCM,12,305.10040283, 19.23612976,end
timer_stats,656620389632698,PAPI_L3_TCM,3,305.26013183, 19.24934387,end
timer_stats,656620390751994,PAPI_L3_TCM,4,305.58673096, 19.27743530,end
timer_stats,656620391858501,PAPI_L3_TCM,1,305.74450683, 19.29092407,end
timer_stats,656620392967556,PAPI_L3_TCM,3,305.91082764, 19.30464172,end
timer_stats,656620394092588,PAPI_L3_TCM,2,306.06060791, 19.31860351,end
timer_stats,656620395220500,PAPI_L3_TCM,4,306.21673584, 19.33119201,end
timer_stats,656620396350240,PAPI_L3_TCM,48,306.35675049, 19.34358215,end
timer_stats,656620397491281,PAPI_L3_TCM,44,306.50781250, 19.35644531,end
timer_stats,656620398633705,PAPI_L3_TCM,0,306.64984131, 19.36888122,end
timer_stats,656620399774234,PAPI_L3_TCM,9,306.94152832, 19.39367676,end
timer_stats,656620400909125,PAPI_L3_TCM,40,307.08709717, 19.40615845,end
timer_stats,656620402064299,PAPI_L3_TCM,35,307.22534180, 19.41864014,end
timer_stats,656620403218854,PAPI_L3_TCM,6,307.37451172, 19.43084717,end
timer_stats,656620404337741,PAPI_L3_TCM,5,307.50408935, 19.44334412,end
timer_stats,656620405501861,PAPI_L3_TCM,10,307.65942383, 19.45547485,end
timer_stats,656620406654048,PAPI_L3_TCM,2,307.78771972, 19.46751404,end
timer_stats,656620407815816,PAPI_L3_TCM,0,308.06494141, 19.49195862,end
timer_stats,656620408971283,PAPI_L3_TCM,2,308.20446777, 19.50419617,end
timer_stats,656620410136611,PAPI_L3_TCM,3,308.33605957, 19.51649475,end
timer_stats,656620411300528,PAPI_L3_TCM,2,308.47375488, 19.52873230,end
timer_stats,656620412468908,PAPI_L3_TCM,0,308.60791016, 19.54048157,end
timer_stats,656620413639928,PAPI_L3_TCM,3,308.73822021, 19.55278015,end
timer_stats,656620414808194,PAPI_L3_TCM,1,308.99896240, 19.57685852,end
timer_stats,656620415979082,PAPI_L3_TCM,1,309.13342285, 19.58911133,end
timer_stats,656620417154994,PAPI_L3_TCM,1,309.26318359, 19.60136414,end
timer_stats,656620418328598,PAPI_L3_TCM,1,309.39605713, 19.61363220,end
timer_stats,656620419497450,PAPI_L3_TCM,0,309.52124023, 19.62567139,end
timer_stats,656620420669809,PAPI_L3_TCM,2,309.65808105, 19.63743591,end
timer_stats,656620421843448,PAPI_L3_TCM,1,309.91400146, 19.66175842,end
timer_stats,656620423014159,PAPI_L3_TCM,3,310.04187012, 19.67404175,end
timer_stats,656620424174504,PAPI_L3_TCM,0,310.16845703, 19.68585205,end
timer_stats,656620425321871,PAPI_L3_TCM,2,310.30169678, 19.69787597,end
timer_stats,656620426496045,PAPI_L3_TCM,0,310.43914795, 19.70960998,end
timer_stats,656620427666541,PAPI_L3_TCM,1,310.56280517, 19.72114563,end
timer_stats,656620428841682,PAPI_L3_TCM,4,310.82244873, 19.74542236,end
timer_stats,656620430016055,PAPI_L3_TCM,3,310.95385742, 19.75788879,end
timer_stats,656620431181497,PAPI_L3_TCM,1,311.08135986, 19.76994324,end
timer_stats,656620432330459,PAPI_L3_TCM,2,311.20660400, 19.78149414,end
timer_stats,656620433480080,PAPI_L3_TCM,2,311.33288574, 19.79354858,end
timer_stats,656620434654899,PAPI_L3_TCM,0,311.45556641, 19.80563354,end
timer_stats,656620435822164,PAPI_L3_TCM,0,311.70202637, 19.82948303,end
timer_stats,656620436995251,PAPI_L3_TCM,2,311.82720947, 19.84130859,end
timer_stats,656620438166060,PAPI_L3_TCM,0,311.95208740, 19.85336304,end
timer_stats,656620439337779,PAPI_L3_TCM,2,312.07849121, 19.86514282,end
timer_stats,656620440515144,PAPI_L3_TCM,0,312.19409180, 19.87696838,end
timer_stats,656620441689177,PAPI_L3_TCM,4,312.32165527, 19.88874817,end
timer_stats,656620442859077,PAPI_L3_TCM,1,312.56610107, 19.91159058,end
timer_stats,656620444043876,PAPI_L3_TCM,1,312.67962646, 19.92294311,end
timer_stats,656620445195672,PAPI_L3_TCM,2,312.80767822, 19.93421936,end
timer_stats,656620446379661,PAPI_L3_TCM,1,312.91741943, 19.94564819,end
timer_stats,656620447567926,PAPI_L3_TCM,1,313.03723144, 19.95672607,end
timer_stats,656620448754831,PAPI_L3_TCM,3,313.20587158, 19.97340393,end
timer_stats,656620449941816,PAPI_L3_TCM,1,313.38952637, 19.99082947,end
timer_stats,656620451121061,PAPI_L3_TCM,2,313.50689697, 20.00216675,end
timer_stats,656620452275933,PAPI_L3_TCM,1,313.63104248, 20.01420593,end
timer_stats,656620453449884,PAPI_L3_TCM,1,313.74633789, 20.02557373,end
timer_stats,656620454627299,PAPI_L3_TCM,1,313.86193847, 20.03694153,end
timer_stats,656620455807574,PAPI_L3_TCM,1,314.09075928, 20.05897522,end
timer_stats,656620456987646,PAPI_L3_TCM,1,314.19970703, 20.06988525,end
timer_stats,656620458166794,PAPI_L3_TCM,2,314.31640625, 20.08079529,end
timer_stats,656620459322833,PAPI_L3_TCM,0,314.42413330, 20.09153747,end
timer_stats,656620460478848,PAPI_L3_TCM,2,314.52850342, 20.10227966,end
timer_stats,656620461673129,PAPI_L3_TCM,0,314.64160156, 20.11323547,end
timer_stats,656620462851168,PAPI_L3_TCM,0,314.85821533, 20.13539123,end
timer_stats,656620464035143,PAPI_L3_TCM,0,314.96905517, 20.14656067,end
timer_stats,656620465192464,PAPI_L3_TCM,1,315.08044433, 20.15774536,end
timer_stats,656620466377016,PAPI_L3_TCM,2,315.19555664, 20.16888428,end
timer_stats,656620467559688,PAPI_L3_TCM,2,315.28924561, 20.18038940,end
timer_stats,656620468758793,PAPI_L3_TCM,0,315.45568848, 20.20228577,end
timer_stats,656620469940038,PAPI_L3_TCM,2,315.62072754, 20.21321106,end
timer_stats,656620471121626,PAPI_L3_TCM,0,315.73168945, 20.22438049,end
timer_stats,656620472303910,PAPI_L3_TCM,0,315.83496094, 20.23559570,end
timer_stats,656620473445538,PAPI_L3_TCM,0,315.94256592, 20.24658203,end
timer_stats,656620474609590,PAPI_L3_TCM,1,316.06298828, 20.25741577,end
timer_stats,656620475789018,PAPI_L3_TCM,0,316.22106933, 20.27912903,end
timer_stats,656620476966163,PAPI_L3_TCM,2,316.38421631, 20.29005432,end
timer_stats,656620478144655,PAPI_L3_TCM,1,316.50067139, 20.30094910,end
timer_stats,656620479324554,PAPI_L3_TCM,2,316.60949707, 20.31188965,end
timer_stats,656620480478452,PAPI_L3_TCM,0,316.72210693, 20.32281494,end
timer_stats,656620481631240,PAPI_L3_TCM,0,316.82745361, 20.32821655,end
timer_stats,656620482812815,PAPI_L3_TCM,0,316.97717285, 20.34463501,end
timer_stats,656620483990743,PAPI_L3_TCM,0,317.13806152, 20.36071777,end
timer_stats,656620485186582,PAPI_L3_TCM,0,317.24487305, 20.37190247,end
timer_stats,656620486370153,PAPI_L3_TCM,2,317.35260010, 20.38359070,end
timer_stats,656620487553405,PAPI_L3_TCM,0,317.47259521, 20.39447021,end
timer_stats,656620488737723,PAPI_L3_TCM,2,317.57812500, 20.41067505,end
timer_stats,656620489927662,PAPI_L3_TCM,0,317.78454590, 20.42739868,end
timer_stats,656620491109193,PAPI_L3_TCM,0,317.89202881, 20.43811035,end
timer_stats,656620492294655,PAPI_L3_TCM,0,318.00390625, 20.44924927,end
timer_stats,656620493460137,PAPI_L3_TCM,0,318.12023926, 20.46038818,end
timer_stats,656620494644698,PAPI_L3_TCM,0,318.23394775, 20.47131347,end
timer_stats,656620495828303,PAPI_L3_TCM,2,318.43817139, 20.49349975,end
timer_stats,656620497014965,PAPI_L3_TCM,0,318.54248047, 20.50445557,end
timer_stats,656620498176480,PAPI_L3_TCM,2,318.65216064, 20.51556396,end
timer_stats,656620499359232,PAPI_L3_TCM,0,318.76458740, 20.52670288,end
timer_stats,656620500543803,PAPI_L3_TCM,0,318.87567139, 20.53762817,end
timer_stats,656620501728108,PAPI_L3_TCM,0,318.97619629, 20.54861450,end
timer_stats,656620502910980,PAPI_L3_TCM,1,319.19464111, 20.57212829,end
timer_stats,656620504100795,PAPI_L3_TCM,1,319.29339600, 20.58265686,end
timer_stats,656620505284620,PAPI_L3_TCM,3,319.39801025, 20.59364319,end
timer_stats,656620506463872,PAPI_L3_TCM,0,319.49719238, 20.60414123,end
timer_stats,656620507643647,PAPI_L3_TCM,3,319.60101318, 20.61483765,end
timer_stats,656620508823285,PAPI_L3_TCM,0,319.74298096, 20.63076782,end
timer_stats,656620510006440,PAPI_L3_TCM,0,319.89538574, 20.64732361,end
timer_stats,656620511184715,PAPI_L3_TCM,0,319.99884033, 20.65779114,end
timer_stats,656620512368603,PAPI_L3_TCM,0,320.10815430, 20.66825867,end
timer_stats,656620513528918,PAPI_L3_TCM,0,320.20489502, 20.67878723,end
timer_stats,656620514717017,PAPI_L3_TCM,1,320.30737305, 20.68952942,end
timer_stats,656620515898558,PAPI_L3_TCM,0,320.44598389, 20.70591736,end
timer_stats,656620517080177,PAPI_L3_TCM,3,320.59912109, 20.72248840,end
timer_stats,656620518259798,PAPI_L3_TCM,0,320.69415283, 20.73326111,end
timer_stats,656620519442610,PAPI_L3_TCM,0,320.79553223, 20.74397278,end
timer_stats,656620520623752,PAPI_L3_TCM,0,320.89849853, 20.75466919,end
timer_stats,656620521801727,PAPI_L3_TCM,0,321.05004883, 20.76559448,end
timer_stats,656620522983642,PAPI_L3_TCM,0,321.18994141, 20.78712463,end
timer_stats,656620524167293,PAPI_L3_TCM,1,321.29345703, 20.79782104,end
timer_stats,656620525349705,PAPI_L3_TCM,0,321.39263916, 20.80880737,end
timer_stats,656620526527160,PAPI_L3_TCM,3,321.50463867, 20.81967163,end
timer_stats,656620527706475,PAPI_L3_TCM,2,321.60449219, 20.82574463,end
timer_stats,656620528891740,PAPI_L3_TCM,0,321.72369385, 20.84127808,end
timer_stats,656620530096328,PAPI_L3_TCM,0,321.87408447, 20.85563659,end
timer_stats,656620531287980,PAPI_L3_TCM,0,321.95330810, 20.86448669,end
timer_stats,656620532480545,PAPI_L3_TCM,0,322.04901123, 20.87318420,end
timer_stats,656620533673390,PAPI_L3_TCM,1,322.13238525, 20.88197326,end
timer_stats,656620534865012,PAPI_L3_TCM,0,322.26916504, 20.89630127,end
timer_stats,656620536059120,PAPI_L3_TCM,2,322.40362549, 20.91047668,end
timer_stats,656620537245685,PAPI_L3_TCM,0,322.49310303, 20.91923523,end
timer_stats,656620538410630,PAPI_L3_TCM,0,322.57220459, 20.92832947,end
timer_stats,656620539591728,PAPI_L3_TCM,0,322.67065430, 20.93702698,end
timer_stats,656620540784263,PAPI_L3_TCM,0,322.76043701, 20.94578552,end
timer_stats,656620541979895,PAPI_L3_TCM,0,322.92645264, 20.96537781,end
timer_stats,656620543164770,PAPI_L3_TCM,1,323.02154541, 20.97431946,end
timer_stats,656620544355765,PAPI_L3_TCM,0,323.11352539, 20.98329162,end
timer_stats,656620545547947,PAPI_L3_TCM,2,323.19390869, 20.99238586,end
timer_stats,656620546740015,PAPI_L3_TCM,0,323.28485107, 21.00138855,end
timer_stats,656620547922777,PAPI_L3_TCM,0,323.45074463, 21.02050781,end
timer_stats,656620549128832,PAPI_L3_TCM,0,323.54644775, 21.02920532,end
timer_stats,656620550320907,PAPI_L3_TCM,0,323.63433838, 21.03817749,end
timer_stats,656620551515019,PAPI_L3_TCM,0,323.72503662, 21.04714966,end
timer_stats,656620552706398,PAPI_L3_TCM,1,323.80859375, 21.05618286,end
timer_stats,656620553866918,PAPI_L3_TCM,0,323.93359375, 21.07165527,end
timer_stats,656620555075203,PAPI_L3_TCM,1,324.06896973, 21.08532715,end
timer_stats,656620556266622,PAPI_L3_TCM,0,324.15722656, 21.09460449,end
timer_stats,656620557463390,PAPI_L3_TCM,0,324.23687744, 21.10363769,end
timer_stats,656620558654499,PAPI_L3_TCM,0,324.32427978, 21.11264038,end
timer_stats,656620559844971,PAPI_L3_TCM,0,324.41314697, 21.12161255,end
timer_stats,656620561039899,PAPI_L3_TCM,0,324.58154297, 21.14225769,end
timer_stats,656620562222794,PAPI_L3_TCM,1,324.66601562, 21.15126037,end
timer_stats,656620563407585,PAPI_L3_TCM,0,324.75268555, 21.16055298,end
timer_stats,656620564591294,PAPI_L3_TCM,1,324.83825683, 21.16952515,end
timer_stats,656620565782696,PAPI_L3_TCM,1,324.91918945, 21.18020630,end
timer_stats,656620566975708,PAPI_L3_TCM,2,325.03314209, 21.19670105,end
timer_stats,656620568160079,PAPI_L3_TCM,0,325.16473388, 21.21282959,end
timer_stats,656620569347914,PAPI_L3_TCM,0,325.24688721, 21.22174072,end
timer_stats,656620570537453,PAPI_L3_TCM,0,325.33056641, 21.23074341,end
timer_stats,656620571738704,PAPI_L3_TCM,1,325.41632080, 21.23971558,end
timer_stats,656620572929126,PAPI_L3_TCM,0,325.52825928, 21.25369263,end
timer_stats,656620574122681,PAPI_L3_TCM,1,325.66101074, 21.26757812,end
timer_stats,656620575306083,PAPI_L3_TCM,0,325.74420166, 21.27655029,end
timer_stats,656620576501584,PAPI_L3_TCM,1,325.82690430, 21.28576660,end
timer_stats,656620577691186,PAPI_L3_TCM,0,325.91137695, 21.29473877,end
timer_stats,656620578883738,PAPI_L3_TCM,0,325.99127197, 21.30868530,end
timer_stats,656620580076493,PAPI_L3_TCM,0,326.15960693, 21.32437134,end
timer_stats,656620581274998,PAPI_L3_TCM,1,326.24157715, 21.33314514,end
timer_stats,656620582469056,PAPI_L3_TCM,0,326.32177734, 21.34245300,end
timer_stats,656620583659718,PAPI_L3_TCM,1,326.40399170, 21.35121155,end
timer_stats,656620584853379,PAPI_L3_TCM,1,326.51165771, 21.36415100,end
timer_stats,656620586025414,PAPI_L3_TCM,3,326.64385986, 21.37803650,end
timer_stats,656620587212693,PAPI_L3_TCM,3,326.72766113, 21.38700867,end
timer_stats,656620588407091,PAPI_L3_TCM,1,326.80780029, 21.39605713,end
timer_stats,656620589596843,PAPI_L3_TCM,0,326.88818359, 21.40509033,end
timer_stats,656620590786691,PAPI_L3_TCM,1,326.96984863, 21.41409302,end
timer_stats,656620591980719,PAPI_L3_TCM,0,327.08099365, 21.42802429,end
timer_stats,656620593176101,PAPI_L3_TCM,1,327.21160889, 21.44239807,end
timer_stats,656620594371019,PAPI_L3_TCM,0,327.29315186, 21.45137024,end
timer_stats,656620595562905,PAPI_L3_TCM,1,327.36761475, 21.46040344,end
timer_stats,656620596755830,PAPI_L3_TCM,0,327.44909668, 21.46916199,end
timer_stats,656620597951912,PAPI_L3_TCM,0,327.56207275, 21.48350525,end
timer_stats,656620599146790,PAPI_L3_TCM,0,327.69049072, 21.49861145,end
timer_stats,656620600331811,PAPI_L3_TCM,2,327.77233887, 21.50758362,end
timer_stats,656620601525430,PAPI_L3_TCM,0,327.85528564, 21.51655579,end
timer_stats,656620602715222,PAPI_L3_TCM,1,327.92822266, 21.52539062,end
timer_stats,656620603906260,PAPI_L3_TCM,0,328.03979492, 21.53927612,end
timer_stats,656620605100499,PAPI_L3_TCM,1,328.16986084, 21.55343628,end
timer_stats,656620606284597,PAPI_L3_TCM,0,328.24468994, 21.56246948,end
timer_stats,656620607445755,PAPI_L3_TCM,1,328.32550049, 21.57168579,end
timer_stats,656620608638274,PAPI_L3_TCM,0,328.40466308, 21.58068847,end
timer_stats,656620609830912,PAPI_L3_TCM,2,328.48620605, 21.58941650,end
timer_stats,656620611018827,PAPI_L3_TCM,0,328.63922119, 21.60877991,end
timer_stats,656620612204349,PAPI_L3_TCM,1,328.72192383, 21.61775207,end
timer_stats,656620613397007,PAPI_L3_TCM,0,328.79547119, 21.62678528,end
timer_stats,656620614587405,PAPI_L3_TCM,1,328.87280273, 21.63536072,end
timer_stats,656620615755547,PAPI_L3_TCM,0,328.94970703, 21.64414978,end
timer_stats,656620616928002,PAPI_L3_TCM,1,329.05487060, 21.66371155,end
timer_stats,656620618125470,PAPI_L3_TCM,0,329.19030762, 21.67265320,end
timer_stats,656620619316699,PAPI_L3_TCM,2,329.26434326, 21.68197632,end
timer_stats,656620620512220,PAPI_L3_TCM,8,329.33886719, 21.69273376,end
timer_stats,656620621673345,PAPI_L3_TCM,16,329.41375732, 21.70170593,end
timer_stats,656620622833630,PAPI_L3_TCM,18,329.48712158, 21.71241760,end
timer_stats,656620623992562,PAPI_L3_TCM,8,329.58898926, 21.72828674,end
timer_stats,656620625154317,PAPI_L3_TCM,4,329.70800781, 21.74414062,end
timer_stats,656620626289851,PAPI_L3_TCM,9,329.78833008, 21.75439453,end
timer_stats,656620627439396,PAPI_L3_TCM,4,329.85900879, 21.76428222,end
timer_stats,656620628589264,PAPI_L3_TCM,7,329.93188477, 21.77461243,end
timer_stats,656620629770186,PAPI_L3_TCM,3,330.00439453, 21.78471374,end
