timer_stats,656271403534474,PAPI_L3_TCM,141,  0.08843994,  0.01074219,end
timer_stats,656271404642855,PAPI_L3_TCM,28,  0.25360107,  0.03404236,end
timer_stats,656271405792637,PAPI_L3_TCM,14,  0.33532715,  0.04441833,end
timer_stats,656271406963224,PAPI_L3_TCM,5,  0.41998291,  0.04949951,end
timer_stats,656271408105887,PAPI_L3_TCM,17,  0.51361084,  0.06069946,end
timer_stats,656271409252258,PAPI_L3_TCM,1,  0.60296631,  0.07141113,end
timer_stats,656271410425173,PAPI_L3_TCM,0,  0.69128418,  0.08206177,end
timer_stats,656271411603929,PAPI_L3_TCM,2,  0.85601806,  0.10287475,end
timer_stats,656271412777493,PAPI_L3_TCM,3,  0.94763184,  0.11398315,end
timer_stats,656271413953314,PAPI_L3_TCM,2,  1.03900146,  0.12686157,end
timer_stats,656271415121900,PAPI_L3_TCM,1,  1.12615967,  0.13757324,end
timer_stats,656271416269276,PAPI_L3_TCM,6,  1.21789551,  0.14898681,end
timer_stats,656271417401617,PAPI_L3_TCM,0,  1.31127930,  0.15969849,end
timer_stats,656271418559499,PAPI_L3_TCM,15,  1.40594482,  0.17037964,end
timer_stats,656271419691762,PAPI_L3_TCM,1,  1.61407471,  0.19357300,end
timer_stats,656271420792357,PAPI_L3_TCM,2,  1.72137451,  0.20466614,end
timer_stats,656271421891561,PAPI_L3_TCM,0,  1.83032226,  0.21646118,end
timer_stats,656271422988173,PAPI_L3_TCM,0,  1.94091797,  0.22756958,end
timer_stats,656271424081078,PAPI_L3_TCM,2,  2.04711914,  0.23779297,end
timer_stats,656271425161208,PAPI_L3_TCM,1,  2.14971924,  0.24809265,end
timer_stats,656271426237883,PAPI_L3_TCM,0,  2.25012207,  0.25840759,end
timer_stats,656271427314085,PAPI_L3_TCM,0,  2.34771728,  0.26853943,end
timer_stats,656271428391723,PAPI_L3_TCM,0,  2.44714355,  0.27983093,end
timer_stats,656271429481156,PAPI_L3_TCM,2,  2.55303955,  0.29057312,end
timer_stats,656271430554008,PAPI_L3_TCM,0,  2.66369629,  0.30087280,end
timer_stats,656271431627049,PAPI_L3_TCM,0,  2.82812500,  0.31585693,end
timer_stats,656271432741890,PAPI_L3_TCM,0,  2.98400879,  0.33203125,end
timer_stats,656271433862838,PAPI_L3_TCM,0,  3.09820557,  0.34204102,end
timer_stats,656271434982925,PAPI_L3_TCM,0,  3.21081543,  0.35250854,end
timer_stats,656271436079844,PAPI_L3_TCM,0,  3.31610107,  0.36477661,end
timer_stats,656271437199657,PAPI_L3_TCM,0,  3.42944336,  0.37573242,end
timer_stats,656271438320141,PAPI_L3_TCM,1,  3.54827881,  0.38572693,end
timer_stats,656271439445394,PAPI_L3_TCM,1,  3.65509033,  0.39630127,end
timer_stats,656271440570650,PAPI_L3_TCM,0,  3.76580811,  0.40631103,end
timer_stats,656271441728263,PAPI_L3_TCM,0,  3.99963379,  0.42755127,end
timer_stats,656271442884023,PAPI_L3_TCM,0,  4.10693359,  0.43786621,end
timer_stats,656271444041452,PAPI_L3_TCM,0,  4.21563721,  0.44796753,end
timer_stats,656271445204352,PAPI_L3_TCM,0,  4.33081055,  0.45797729,end
timer_stats,656271446358554,PAPI_L3_TCM,0,  4.44201660,  0.46803284,end
timer_stats,656271447515859,PAPI_L3_TCM,1,  4.55273437,  0.47813415,end
timer_stats,656271448699601,PAPI_L3_TCM,0,  4.77423096,  0.49873352,end
timer_stats,656271449962446,PAPI_L3_TCM,4,  4.87835693,  0.50883484,end
timer_stats,656271451295110,PAPI_L3_TCM,2,  4.99847412,  0.52070618,end
timer_stats,656271452546592,PAPI_L3_TCM,1,  5.11572265,  0.53230285,end
timer_stats,656271453694460,PAPI_L3_TCM,2,  5.32476806,  0.55296326,end
timer_stats,656271454852805,PAPI_L3_TCM,1,  5.44378662,  0.56346130,end
timer_stats,656271456043032,PAPI_L3_TCM,0,  5.54913330,  0.57380676,end
timer_stats,656271457197201,PAPI_L3_TCM,0,  5.66589355,  0.58384704,end
timer_stats,656271458372346,PAPI_L3_TCM,0,  5.77740478,  0.59416199,end
timer_stats,656271459534409,PAPI_L3_TCM,0,  5.89007568,  0.60444641,end
timer_stats,656271460690057,PAPI_L3_TCM,0,  6.06701660,  0.62081909,end
timer_stats,656271461846919,PAPI_L3_TCM,1,  6.22180176,  0.63700867,end
timer_stats,656271463010379,PAPI_L3_TCM,0,  6.33447265,  0.64820862,end
timer_stats,656271464218859,PAPI_L3_TCM,31,  6.46899414,  0.65879822,end
timer_stats,656271465479607,PAPI_L3_TCM,21,  6.59582519,  0.67057800,end
timer_stats,656271467653881,PAPI_L3_TCM,6,  6.87713623,  0.69323730,end
timer_stats,656271468761196,PAPI_L3_TCM,1,  6.99169922,  0.70439148,end
timer_stats,656271469860719,PAPI_L3_TCM,4,  7.16864014,  0.72204590,end
timer_stats,656271470950307,PAPI_L3_TCM,3,  7.28839111,  0.73315430,end
timer_stats,656271472010211,PAPI_L3_TCM,5,  7.40875244,  0.74507141,end
timer_stats,656271473111540,PAPI_L3_TCM,2,  7.52423096,  0.75575256,end
timer_stats,656271474262550,PAPI_L3_TCM,6,  7.63769531,  0.76666260,end
timer_stats,656271475423789,PAPI_L3_TCM,2,  7.75958252,  0.77732849,end
timer_stats,656271476544008,PAPI_L3_TCM,4,  7.85638428,  0.78860473,end
timer_stats,656271477640506,PAPI_L3_TCM,2,  7.97247314,  0.79975891,end
timer_stats,656271478721124,PAPI_L3_TCM,0,  8.09832764,  0.81272888,end
timer_stats,656271479811838,PAPI_L3_TCM,0,  8.33746338,  0.83821106,end
timer_stats,656271480900198,PAPI_L3_TCM,1,  8.48010254,  0.85182190,end
timer_stats,656271482000463,PAPI_L3_TCM,0,  8.62524414,  0.86567688,end
timer_stats,656271483115683,PAPI_L3_TCM,2,  8.78277588,  0.87829590,end
timer_stats,656271484222828,PAPI_L3_TCM,3,  8.90808105,  0.89115906,end
timer_stats,656271485420530,PAPI_L3_TCM,3,  9.05786133,  0.90388489,end
timer_stats,656271486550676,PAPI_L3_TCM,1,  9.20263672,  0.91644287,end
timer_stats,656271487645557,PAPI_L3_TCM,5,  9.41583252,  0.93437195,end
timer_stats,656271488744066,PAPI_L3_TCM,2,  9.57086182,  0.94880676,end
timer_stats,656271489832612,PAPI_L3_TCM,1,  9.84124756,  0.96650696,end
timer_stats,656271490933629,PAPI_L3_TCM,0, 10.03057861,  0.97906494,end
timer_stats,656271492016486,PAPI_L3_TCM,4, 10.21673584,  0.99137878,end
timer_stats,656271493106343,PAPI_L3_TCM,0, 10.42022705,  1.00418091,end
timer_stats,656271494193346,PAPI_L3_TCM,1, 10.64068603,  1.01574707,end
timer_stats,656271495275048,PAPI_L3_TCM,0, 10.83978271,  1.02832031,end
timer_stats,656271496365797,PAPI_L3_TCM,3, 11.04705810,  1.04040527,end
timer_stats,656271497449138,PAPI_L3_TCM,0, 11.24041748,  1.05276489,end
timer_stats,656271498528917,PAPI_L3_TCM,1, 11.44921875,  1.06532287,end
timer_stats,656271499615811,PAPI_L3_TCM,2, 11.61804199,  1.07775879,end
timer_stats,656271500704208,PAPI_L3_TCM,4, 11.94274902,  1.09695435,end
timer_stats,656271501792546,PAPI_L3_TCM,0, 12.22375488,  1.11541748,end
timer_stats,656271502881715,PAPI_L3_TCM,1, 12.42309570,  1.12797546,end
timer_stats,656271503963412,PAPI_L3_TCM,0, 12.62274170,  1.14053345,end
timer_stats,656271505056399,PAPI_L3_TCM,5, 12.82641601,  1.15284729,end
timer_stats,656271506140294,PAPI_L3_TCM,2, 13.04638672,  1.16511536,end
timer_stats,656271507229723,PAPI_L3_TCM,1, 13.25225830,  1.17718506,end
timer_stats,656271508316342,PAPI_L3_TCM,2, 13.44689941,  1.18954468,end
timer_stats,656271509406415,PAPI_L3_TCM,2, 13.62158203,  1.20222473,end
timer_stats,656271510487274,PAPI_L3_TCM,0, 13.84338379,  1.21400452,end
timer_stats,656271511571511,PAPI_L3_TCM,0, 14.02209473,  1.22644043,end
timer_stats,656271512655013,PAPI_L3_TCM,2, 14.22265625,  1.23835754,end
timer_stats,656271513745243,PAPI_L3_TCM,0, 14.62634277,  1.26304626,end
timer_stats,656271514833185,PAPI_L3_TCM,0, 14.81921387,  1.27517700,end
timer_stats,656271515914451,PAPI_L3_TCM,1, 15.04199219,  1.28767395,end
timer_stats,656271517002651,PAPI_L3_TCM,2, 15.24316406,  1.29980469,end
timer_stats,656271518086742,PAPI_L3_TCM,2, 15.44000244,  1.31217956,end
timer_stats,656271519169911,PAPI_L3_TCM,0, 15.65179443,  1.32450867,end
timer_stats,656271520247317,PAPI_L3_TCM,3, 15.82678223,  1.33674622,end
timer_stats,656271521331700,PAPI_L3_TCM,0, 16.02996826,  1.34884644,end
timer_stats,656271522418850,PAPI_L3_TCM,2, 16.24353027,  1.36071777,end
timer_stats,656271523495798,PAPI_L3_TCM,1, 16.49713135,  1.37477112,end
timer_stats,656271524653447,PAPI_L3_TCM,1, 16.76354980,  1.38810730,end
timer_stats,656271525731258,PAPI_L3_TCM,1, 17.02758789,  1.39973450,end
timer_stats,656271526812237,PAPI_L3_TCM,4, 17.33905029,  1.41668701,end
timer_stats,656271527963792,PAPI_L3_TCM,1, 17.64508057,  1.43405151,end
timer_stats,656271529056028,PAPI_L3_TCM,10, 17.86694336,  1.44607544,end
timer_stats,656271530262243,PAPI_L3_TCM,3, 18.13488769,  1.45819092,end
timer_stats,656271531463648,PAPI_L3_TCM,1, 18.34393311,  1.46928406,end
timer_stats,656271532690327,PAPI_L3_TCM,3, 18.56335449,  1.48133850,end
timer_stats,656271533788332,PAPI_L3_TCM,4, 18.97106933,  1.49923706,end
timer_stats,656271534882970,PAPI_L3_TCM,0, 19.18640137,  1.51722717,end
timer_stats,656271536050025,PAPI_L3_TCM,4, 19.40093994,  1.52929687,end
timer_stats,656271537184550,PAPI_L3_TCM,2, 19.61578369,  1.54135132,end
timer_stats,656271538261464,PAPI_L3_TCM,3, 19.83795166,  1.55357361,end
timer_stats,656271539554957,PAPI_L3_TCM,0, 20.10064697,  1.56781006,end
timer_stats,656271540789185,PAPI_L3_TCM,8, 20.40979004,  1.58488464,end
timer_stats,656271542009333,PAPI_L3_TCM,2, 20.73522949,  1.60169983,end
timer_stats,656271543118254,PAPI_L3_TCM,1, 20.95135498,  1.61405945,end
timer_stats,656271544233940,PAPI_L3_TCM,4, 21.15771484,  1.62606811,end
timer_stats,656271545317113,PAPI_L3_TCM,3, 21.39251709,  1.63832092,end
timer_stats,656271546461291,PAPI_L3_TCM,0, 21.59234619,  1.65016174,end
timer_stats,656271547555117,PAPI_L3_TCM,86, 21.83282471,  1.66255188,end
timer_stats,656271548631705,PAPI_L3_TCM,2, 22.06146240,  1.67466736,end
timer_stats,656271564488694,PAPI_L3_TCM,83, 25.29797363,  1.87489319,end
timer_stats,656271565574631,PAPI_L3_TCM,61, 25.48571777,  1.89041138,end
timer_stats,656271566651686,PAPI_L3_TCM,3, 25.73461914,  1.90504455,end
timer_stats,656271567725779,PAPI_L3_TCM,1, 25.98767090,  1.92030334,end
timer_stats,656271568801440,PAPI_L3_TCM,3, 26.34643555,  1.94099426,end
timer_stats,656271569875920,PAPI_L3_TCM,4, 26.59216308,  1.95469665,end
timer_stats,656271570950764,PAPI_L3_TCM,5, 26.84973144,  1.96934509,end
timer_stats,656271572015524,PAPI_L3_TCM,1, 27.20593262,  1.99075317,end
timer_stats,656271573098727,PAPI_L3_TCM,9, 27.45507812,  2.00553894,end
timer_stats,656271574178791,PAPI_L3_TCM,6, 27.70544433,  2.02070618,end
timer_stats,656271575263461,PAPI_L3_TCM,7, 27.94561768,  2.03564453,end
timer_stats,656271576337528,PAPI_L3_TCM,2, 28.21795654,  2.05052185,end
timer_stats,656271585688486,PAPI_L3_TCM,49, 30.07348633,  2.17471313,end
timer_stats,656271586770729,PAPI_L3_TCM,24, 30.26196289,  2.18847656,end
timer_stats,656271587847209,PAPI_L3_TCM,4, 30.63220215,  2.21237182,end
timer_stats,656271588924116,PAPI_L3_TCM,4, 30.91229248,  2.22705078,end
timer_stats,656271590000500,PAPI_L3_TCM,5, 31.17614746,  2.24287414,end
timer_stats,656271591074430,PAPI_L3_TCM,4, 31.55804443,  2.26618957,end
timer_stats,656271592149480,PAPI_L3_TCM,2, 31.80487060,  2.28153992,end
timer_stats,656271593231756,PAPI_L3_TCM,3, 32.05749512,  2.29754638,end
timer_stats,656271594306271,PAPI_L3_TCM,3, 32.33618164,  2.31274414,end
timer_stats,656271595381037,PAPI_L3_TCM,0, 32.59118652,  2.32902527,end
timer_stats,656271597747749,PAPI_L3_TCM,76, 33.05865478,  2.37484741,end
timer_stats,656271598835879,PAPI_L3_TCM,28, 33.37384033,  2.39266968,end
timer_stats,656271599914354,PAPI_L3_TCM,13, 33.76800537,  2.41609192,end
timer_stats,656271600990306,PAPI_L3_TCM,1, 34.03155517,  2.43095398,end
timer_stats,656271602066196,PAPI_L3_TCM,3, 34.29266357,  2.44683838,end
timer_stats,656271603140968,PAPI_L3_TCM,2, 34.55712891,  2.46212769,end
timer_stats,656271604216727,PAPI_L3_TCM,4, 34.80432129,  2.47796631,end
timer_stats,656271605291077,PAPI_L3_TCM,1, 35.07977295,  2.49325561,end
timer_stats,656271606364919,PAPI_L3_TCM,3, 35.33905029,  2.50881958,end
timer_stats,656271607439846,PAPI_L3_TCM,5, 35.59893799,  2.52343750,end
timer_stats,656271610545473,PAPI_L3_TCM,75, 36.27465820,  2.57749939,end
timer_stats,656271611630744,PAPI_L3_TCM,26, 36.43218994,  2.59213257,end
timer_stats,656271612715481,PAPI_L3_TCM,13, 36.67803955,  2.60623169,end
timer_stats,656271613793765,PAPI_L3_TCM,16, 36.92053223,  2.62031555,end
timer_stats,656271614869287,PAPI_L3_TCM,3, 37.31115723,  2.64158630,end
timer_stats,656271615943346,PAPI_L3_TCM,9, 37.55596924,  2.64868164,end
timer_stats,656271617017524,PAPI_L3_TCM,14, 37.97003174,  2.66992187,end
timer_stats,656271618096387,PAPI_L3_TCM,6, 38.21447754,  2.68426514,end
timer_stats,656271619172206,PAPI_L3_TCM,1, 38.47381592,  2.69830322,end
timer_stats,656271620247253,PAPI_L3_TCM,2, 38.75378418,  2.71249390,end
timer_stats,656271621323684,PAPI_L3_TCM,4, 39.00177002,  2.72682190,end
timer_stats,656271622399393,PAPI_L3_TCM,5, 39.26135254,  2.74108887,end
timer_stats,656271623478336,PAPI_L3_TCM,4, 39.52740478,  2.75529480,end
timer_stats,656271624554605,PAPI_L3_TCM,0, 39.78356934,  2.76980591,end
timer_stats,656271625631960,PAPI_L3_TCM,6, 40.04687500,  2.78379822,end
timer_stats,656271626707468,PAPI_L3_TCM,3, 40.31457519,  2.79782104,end
timer_stats,656271627783170,PAPI_L3_TCM,4, 40.56726074,  2.81236267,end
timer_stats,656271628860246,PAPI_L3_TCM,2, 40.95977783,  2.83360290,end
timer_stats,656271629936072,PAPI_L3_TCM,4, 41.22137451,  2.84762573,end
timer_stats,656271631011867,PAPI_L3_TCM,1, 41.60516357,  2.86938476,end
timer_stats,656271632086179,PAPI_L3_TCM,2, 41.87695312,  2.88388061,end
timer_stats,656271633161618,PAPI_L3_TCM,3, 42.13104248,  2.89768982,end
timer_stats,656271634237157,PAPI_L3_TCM,3, 42.39447021,  2.91197205,end
timer_stats,656271635312578,PAPI_L3_TCM,3, 42.65283203,  2.92622375,end
timer_stats,656271636388643,PAPI_L3_TCM,1, 42.91973877,  2.94046020,end
timer_stats,656271637464406,PAPI_L3_TCM,1, 43.18170166,  2.95474243,end
timer_stats,656271638539346,PAPI_L3_TCM,2, 43.43145752,  2.96903992,end
timer_stats,656271639615570,PAPI_L3_TCM,5, 43.69323730,  2.98663330,end
timer_stats,656271640693067,PAPI_L3_TCM,14, 43.95074463,  3.00175476,end
timer_stats,656271641768878,PAPI_L3_TCM,4, 44.21008301,  3.01550293,end
timer_stats,656271642844280,PAPI_L3_TCM,7, 44.60772705,  3.03698730,end
timer_stats,656271643919613,PAPI_L3_TCM,4, 44.87622070,  3.05143738,end
timer_stats,656271644997535,PAPI_L3_TCM,5, 45.26403809,  3.07252502,end
timer_stats,656271646073541,PAPI_L3_TCM,4, 45.51452637,  3.08636475,end
timer_stats,656271647148612,PAPI_L3_TCM,3, 45.76940918,  3.10008240,end
timer_stats,656271648223233,PAPI_L3_TCM,7, 46.04418945,  3.11425781,end
timer_stats,656271649299570,PAPI_L3_TCM,7, 46.29632568,  3.12829590,end
timer_stats,656271650375147,PAPI_L3_TCM,1, 46.55883789,  3.14324951,end
timer_stats,656271651450172,PAPI_L3_TCM,6, 46.82360840,  3.15750122,end
timer_stats,656271652527234,PAPI_L3_TCM,3, 47.07580566,  3.17173767,end
timer_stats,656271653608119,PAPI_L3_TCM,4, 47.33422851,  3.18612671,end
timer_stats,656271656967869,PAPI_L3_TCM,65, 48.12530518,  3.25009155,end
timer_stats,656271658051703,PAPI_L3_TCM,23, 48.46209717,  3.27194214,end
timer_stats,656271659128323,PAPI_L3_TCM,2, 48.72137451,  3.28761291,end
timer_stats,656271660204867,PAPI_L3_TCM,8, 48.98693848,  3.30413818,end
timer_stats,656271661280492,PAPI_L3_TCM,2, 49.25213623,  3.31932068,end
timer_stats,656271662392369,PAPI_L3_TCM,9, 49.51184082,  3.33525085,end
timer_stats,656271663467987,PAPI_L3_TCM,2, 49.77478027,  3.35144043,end
timer_stats,656271664543082,PAPI_L3_TCM,4, 50.03710937,  3.36734009,end
timer_stats,656271665618653,PAPI_L3_TCM,1, 50.29724121,  3.38281250,end
timer_stats,656271666694503,PAPI_L3_TCM,5, 50.55041504,  3.39833069,end
timer_stats,656271667770794,PAPI_L3_TCM,4, 50.81353760,  3.41479492,end
timer_stats,656271668848024,PAPI_L3_TCM,5, 51.19409180,  3.43063354,end
timer_stats,656271669922571,PAPI_L3_TCM,0, 51.47430420,  3.45364380,end
timer_stats,656271670996657,PAPI_L3_TCM,1, 51.86242676,  3.47744751,end
timer_stats,656271672070520,PAPI_L3_TCM,2, 52.11901855,  3.49293518,end
timer_stats,656271673144827,PAPI_L3_TCM,1, 52.40045166,  3.50958252,end
timer_stats,656271674222665,PAPI_L3_TCM,5, 52.64392090,  3.52528381,end
timer_stats,656271675300600,PAPI_L3_TCM,5, 52.91125488,  3.54121399,end
timer_stats,656271676375869,PAPI_L3_TCM,4, 53.17279053,  3.55796814,end
timer_stats,656271677451107,PAPI_L3_TCM,10, 53.43957519,  3.57363892,end
timer_stats,656271678526203,PAPI_L3_TCM,1, 53.69818115,  3.58955383,end
timer_stats,656271679601458,PAPI_L3_TCM,2, 53.96466064,  3.60522461,end
timer_stats,656271680676294,PAPI_L3_TCM,3, 54.23156738,  3.62091064,end
timer_stats,656271681751270,PAPI_L3_TCM,5, 54.48455810,  3.63743591,end
timer_stats,656271682826062,PAPI_L3_TCM,2, 54.74041748,  3.65316772,end
timer_stats,656271683900693,PAPI_L3_TCM,2, 55.13085937,  3.67669678,end
timer_stats,656271684976271,PAPI_L3_TCM,5, 55.51916504,  3.70021057,end
timer_stats,656271686050868,PAPI_L3_TCM,2, 55.78424072,  3.71565246,end
timer_stats,656271687125911,PAPI_L3_TCM,4, 56.04852295,  3.73138428,end
timer_stats,656271688200686,PAPI_L3_TCM,5, 56.30187988,  3.74685669,end
timer_stats,656271689276062,PAPI_L3_TCM,5, 56.56835937,  3.76248169,end
timer_stats,656271690351007,PAPI_L3_TCM,6, 56.83972168,  3.77795410,end
timer_stats,656271691426221,PAPI_L3_TCM,4, 57.08941650,  3.79388428,end
timer_stats,656271692502284,PAPI_L3_TCM,6, 57.35815429,  3.80958557,end
timer_stats,656271693578641,PAPI_L3_TCM,7, 57.61718750,  3.82533264,end
timer_stats,656271694653759,PAPI_L3_TCM,6, 57.86706543,  3.84106445,end
timer_stats,656271695728409,PAPI_L3_TCM,2, 58.14660645,  3.85671997,end
timer_stats,656271696803504,PAPI_L3_TCM,9, 58.39691162,  3.87275696,end
timer_stats,656271697877632,PAPI_L3_TCM,3, 58.65582275,  3.88874817,end
timer_stats,656271698953205,PAPI_L3_TCM,10, 59.18621826,  3.91966247,end
timer_stats,656271700016494,PAPI_L3_TCM,9, 59.43316650,  3.93402100,end
timer_stats,656271701092000,PAPI_L3_TCM,14, 59.70483398,  3.94844055,end
timer_stats,656271705468039,PAPI_L3_TCM,138, 60.60327148,  4.01118469,end
timer_stats,656271706555424,PAPI_L3_TCM,70, 60.80419922,  4.02767944,end
timer_stats,656271707638390,PAPI_L3_TCM,2, 61.05932617,  4.04327393,end
timer_stats,656271708716564,PAPI_L3_TCM,6, 61.31134033,  4.05911255,end
timer_stats,656271709795907,PAPI_L3_TCM,0, 61.57733154,  4.07460022,end
timer_stats,656271710873565,PAPI_L3_TCM,4, 61.83666992,  4.09017944,end
timer_stats,656271711950699,PAPI_L3_TCM,2, 62.35284424,  4.11369324,end
timer_stats,656271713029041,PAPI_L3_TCM,1, 62.62036133,  4.13732910,end
timer_stats,656271714105518,PAPI_L3_TCM,5, 62.88439941,  4.15306091,end
timer_stats,656271715183204,PAPI_L3_TCM,8, 63.14123535,  4.16908264,end
timer_stats,656271716259459,PAPI_L3_TCM,4, 63.40411377,  4.18530273,end
timer_stats,656271717809635,PAPI_L3_TCM,3985, 63.66693115,  4.20127869,end
timer_stats,656271718892959,PAPI_L3_TCM,45, 63.93029785,  4.21669006,end
timer_stats,656271719969606,PAPI_L3_TCM,5, 64.31726074,  4.24017334,end
timer_stats,656271721045090,PAPI_L3_TCM,0, 64.71813965,  4.26382446,end
timer_stats,656271722120680,PAPI_L3_TCM,2, 64.97100830,  4.27986145,end
timer_stats,656271723195865,PAPI_L3_TCM,0, 65.22521973,  4.29560852,end
timer_stats,656271724272279,PAPI_L3_TCM,6, 65.49621582,  4.31103515,end
timer_stats,656271725347930,PAPI_L3_TCM,1, 65.75836182,  4.32705688,end
timer_stats,656271726423129,PAPI_L3_TCM,4, 66.00891113,  4.34283447,end
timer_stats,656271727499149,PAPI_L3_TCM,0, 66.27233887,  4.35850525,end
timer_stats,656271728574547,PAPI_L3_TCM,5, 66.53576660,  4.37419128,end
timer_stats,656271729651251,PAPI_L3_TCM,0, 66.79980469,  4.39010620,end
timer_stats,656271730725949,PAPI_L3_TCM,2, 67.06506348,  4.40524292,end
timer_stats,656271731801117,PAPI_L3_TCM,1, 67.33239746,  4.42118835,end
timer_stats,656271732877356,PAPI_L3_TCM,3, 67.58892822,  4.43661499,end
timer_stats,656271733952680,PAPI_L3_TCM,1, 67.97833252,  4.46054077,end
timer_stats,656271735027484,PAPI_L3_TCM,6, 68.38000488,  4.47621155,end
timer_stats,656271736101781,PAPI_L3_TCM,3, 68.64355469,  4.49951172,end
timer_stats,656271737176716,PAPI_L3_TCM,3, 68.90570068,  4.51521301,end
timer_stats,656271738251498,PAPI_L3_TCM,0, 69.16711426,  4.53063965,end
timer_stats,656271739327186,PAPI_L3_TCM,1, 69.42138672,  4.54638672,end
timer_stats,656271740402256,PAPI_L3_TCM,2, 69.68658447,  4.56208801,end
timer_stats,656271741477933,PAPI_L3_TCM,5, 69.93969727,  4.57827759,end
timer_stats,656271742552950,PAPI_L3_TCM,0, 70.20214844,  4.59396362,end
timer_stats,656271743628001,PAPI_L3_TCM,4, 70.47827148,  4.61013794,end
timer_stats,656271744704418,PAPI_L3_TCM,6, 70.72259521,  4.62663269,end
timer_stats,656271745781534,PAPI_L3_TCM,4, 70.99481201,  4.64201355,end
timer_stats,656271746857377,PAPI_L3_TCM,3, 71.25787353,  4.65797424,end
timer_stats,656271747932320,PAPI_L3_TCM,6, 71.63995361,  4.67395019,end
timer_stats,656271749009182,PAPI_L3_TCM,12, 71.90234375,  4.69715881,end
timer_stats,656271750086403,PAPI_L3_TCM,9, 72.29876709,  4.72108459,end
timer_stats,656271751161518,PAPI_L3_TCM,6, 72.56311035,  4.73632812,end
timer_stats,656271755719002,PAPI_L3_TCM,94, 73.47827148,  4.81599426,end
timer_stats,656271756803872,PAPI_L3_TCM,75, 73.65356445,  4.83326721,end
timer_stats,656271757881001,PAPI_L3_TCM,3, 73.91973877,  4.84896851,end
timer_stats,656271758956700,PAPI_L3_TCM,2, 74.30456543,  4.87295532,end
timer_stats,656271760020051,PAPI_L3_TCM,4, 74.69543457,  4.88865662,end
timer_stats,656271761096496,PAPI_L3_TCM,4, 74.95178223,  4.91235351,end
timer_stats,656271762172028,PAPI_L3_TCM,4, 75.22229004,  4.92825317,end
timer_stats,656271763247944,PAPI_L3_TCM,0, 75.47326660,  4.94448852,end
timer_stats,656271764324372,PAPI_L3_TCM,5, 75.73889160,  4.96017456,end
timer_stats,656271765400078,PAPI_L3_TCM,6, 76.00000000,  4.97610473,end
timer_stats,656271766475679,PAPI_L3_TCM,2, 76.26385498,  4.99203491,end
timer_stats,656271767550768,PAPI_L3_TCM,1, 76.51965332,  5.00773620,end
timer_stats,656271768627482,PAPI_L3_TCM,12, 76.78222656,  5.02441406,end
timer_stats,656271769703548,PAPI_L3_TCM,9, 77.05255127,  5.04081726,end
timer_stats,656271770779054,PAPI_L3_TCM,3, 77.31341553,  5.05671692,end
timer_stats,656271771855824,PAPI_L3_TCM,2, 77.56762695,  5.07286072,end
timer_stats,656271772932269,PAPI_L3_TCM,7, 77.84210205,  5.08920288,end
timer_stats,656271774008803,PAPI_L3_TCM,2, 78.23571777,  5.10487366,end
timer_stats,656271775084518,PAPI_L3_TCM,3, 78.62512207,  5.13743591,end
timer_stats,656271776160734,PAPI_L3_TCM,5, 78.88714599,  5.15304565,end
timer_stats,656271777238277,PAPI_L3_TCM,11, 79.14074707,  5.16897583,end
timer_stats,656271778314133,PAPI_L3_TCM,3, 79.41326904,  5.18460083,end
timer_stats,656271779390336,PAPI_L3_TCM,2, 79.66558838,  5.20030212,end
timer_stats,656271780466141,PAPI_L3_TCM,1, 79.93542480,  5.21592712,end
timer_stats,656271781542263,PAPI_L3_TCM,11, 80.18835449,  5.23213196,end
timer_stats,656271782618735,PAPI_L3_TCM,2, 80.46026611,  5.24822998,end
timer_stats,656271783694061,PAPI_L3_TCM,1, 80.72991943,  5.26437378,end
timer_stats,656271784770594,PAPI_L3_TCM,10, 80.98486328,  5.28005981,end
timer_stats,656271785846750,PAPI_L3_TCM,4, 81.24523926,  5.29574585,end
timer_stats,656271786922428,PAPI_L3_TCM,3, 81.50250244,  5.31167602,end
timer_stats,656271787998008,PAPI_L3_TCM,6, 81.88629150,  5.32760620,end
timer_stats,656271789077959,PAPI_L3_TCM,4, 82.29321289,  5.35142517,end
timer_stats,656271790154881,PAPI_L3_TCM,9, 82.55151367,  5.37457275,end
timer_stats,656271791231245,PAPI_L3_TCM,10, 82.80963135,  5.39077759,end
timer_stats,656271792306769,PAPI_L3_TCM,8, 83.07592773,  5.40660095,end
timer_stats,656271793382814,PAPI_L3_TCM,1, 83.32922363,  5.42253113,end
timer_stats,656271794458167,PAPI_L3_TCM,1, 83.59594727,  5.43820190,end
timer_stats,656271795532736,PAPI_L3_TCM,0, 83.86517334,  5.45388794,end
timer_stats,656271796608619,PAPI_L3_TCM,4, 84.12463379,  5.46934509,end
timer_stats,656271797684094,PAPI_L3_TCM,4, 84.39495849,  5.48603821,end
timer_stats,656271798759119,PAPI_L3_TCM,3, 84.65191650,  5.50166321,end
timer_stats,656271799834659,PAPI_L3_TCM,2, 84.90563965,  5.51760864,end
timer_stats,656271800909902,PAPI_L3_TCM,6, 85.17108154,  5.53355408,end
timer_stats,656271801985709,PAPI_L3_TCM,6, 85.43157959,  5.54975891,end
timer_stats,656271803061831,PAPI_L3_TCM,11, 85.96368408,  5.58139038,end
timer_stats,656271807614823,PAPI_L3_TCM,125, 86.84521484,  5.65571594,end
timer_stats,656271808698640,PAPI_L3_TCM,59, 87.02130127,  5.67041016,end
timer_stats,656271809776047,PAPI_L3_TCM,0, 87.27691650,  5.68490600,end
timer_stats,656271810851468,PAPI_L3_TCM,2, 87.52801514,  5.69918823,end
timer_stats,656271811927864,PAPI_L3_TCM,2, 87.78948974,  5.71342468,end
timer_stats,656271813004406,PAPI_L3_TCM,2, 88.04724121,  5.72766113,end
timer_stats,656271814081683,PAPI_L3_TCM,2, 88.44897461,  5.74189758,end
timer_stats,656271815158745,PAPI_L3_TCM,3, 88.83770752,  5.76356506,end
timer_stats,656271816234612,PAPI_L3_TCM,2, 89.09075928,  5.77807617,end
timer_stats,656271817311146,PAPI_L3_TCM,6, 89.36041260,  5.79183960,end
timer_stats,656271818387034,PAPI_L3_TCM,1, 89.62017822,  5.80609131,end
timer_stats,656271819462962,PAPI_L3_TCM,2, 89.87902832,  5.82034302,end
timer_stats,656271820538777,PAPI_L3_TCM,1, 90.12902832,  5.83483887,end
timer_stats,656271821614414,PAPI_L3_TCM,3, 90.40313721,  5.84938049,end
timer_stats,656271822689812,PAPI_L3_TCM,0, 90.66723633,  5.86343384,end
timer_stats,656271823765789,PAPI_L3_TCM,7, 90.93591308,  5.87722778,end
timer_stats,656271824843317,PAPI_L3_TCM,3, 91.20257568,  5.89129639,end
timer_stats,656271825919983,PAPI_L3_TCM,3, 91.46472168,  5.90562439,end
timer_stats,656271826995925,PAPI_L3_TCM,6, 91.73120117,  5.91990662,end
timer_stats,656271828072089,PAPI_L3_TCM,5, 92.12988281,  5.94331360,end
timer_stats,656271829147186,PAPI_L3_TCM,6, 92.53515625,  5.96704102,end
timer_stats,656271830222430,PAPI_L3_TCM,6, 92.79394531,  5.98318481,end
timer_stats,656271831297384,PAPI_L3_TCM,4, 93.05963135,  5.99887085,end
timer_stats,656271832372407,PAPI_L3_TCM,4, 93.33190918,  6.01399231,end
timer_stats,656271833446844,PAPI_L3_TCM,2, 93.60040283,  6.02272034,end
timer_stats,656271834521431,PAPI_L3_TCM,3, 93.85638428,  6.03843689,end
timer_stats,656271835597205,PAPI_L3_TCM,0, 94.11956787,  6.05459595,end
timer_stats,656271836672930,PAPI_L3_TCM,9, 94.37707520,  6.07000732,end
timer_stats,656271837748832,PAPI_L3_TCM,7, 94.64337158,  6.08573913,end
timer_stats,656271838824661,PAPI_L3_TCM,8, 94.90710449,  6.10256958,end
timer_stats,656271839900490,PAPI_L3_TCM,0, 95.16406250,  6.11804199,end
timer_stats,656271840975940,PAPI_L3_TCM,3, 95.43029785,  6.13378906,end
timer_stats,656271842051753,PAPI_L3_TCM,1, 95.81958008,  6.15701294,end
timer_stats,656271843127045,PAPI_L3_TCM,5, 96.21472168,  6.18066406,end
timer_stats,656271844201837,PAPI_L3_TCM,3, 96.48461914,  6.19664001,end
timer_stats,656271845276990,PAPI_L3_TCM,5, 96.74505615,  6.21234131,end
timer_stats,656271846352606,PAPI_L3_TCM,1, 97.01098633,  6.22920227,end
timer_stats,656271847427190,PAPI_L3_TCM,4, 97.27642822,  6.24516296,end
timer_stats,656271848501775,PAPI_L3_TCM,8, 97.53881836,  6.26084900,end
timer_stats,656271849576493,PAPI_L3_TCM,4, 97.79614258,  6.27703857,end
timer_stats,656271850651969,PAPI_L3_TCM,1, 98.07409668,  6.29269409,end
timer_stats,656271851726919,PAPI_L3_TCM,3, 98.33557129,  6.30863953,end
timer_stats,656271852802750,PAPI_L3_TCM,2, 98.59442139,  6.32463074,end
timer_stats,656271853878068,PAPI_L3_TCM,4, 98.85687256,  6.34031677,end
timer_stats,656271854953489,PAPI_L3_TCM,2, 99.12139892,  6.35626221,end
timer_stats,656271856015820,PAPI_L3_TCM,4, 99.38140869,  6.37196350,end
timer_stats,656271857091603,PAPI_L3_TCM,9, 99.77105713,  6.39642334,end
timer_stats,656271858166843,PAPI_L3_TCM,3,100.17773437,  6.42098999,end
timer_stats,656271859242277,PAPI_L3_TCM,1,100.43780517,  6.43661499,end
timer_stats,656271860317819,PAPI_L3_TCM,10,100.70361328,  6.45254517,end
timer_stats,656271861393034,PAPI_L3_TCM,1,100.95971680,  6.46875000,end
timer_stats,656271862468236,PAPI_L3_TCM,4,101.22479248,  6.48461914,end
timer_stats,656271863542908,PAPI_L3_TCM,1,101.49401855,  6.50030518,end
timer_stats,656271864618219,PAPI_L3_TCM,9,101.74768066,  6.51623535,end
timer_stats,656271865693112,PAPI_L3_TCM,2,102.02471924,  6.53292847,end
timer_stats,656271870102182,PAPI_L3_TCM,139,103.05718994,  6.63412476,end
timer_stats,656271871195825,PAPI_L3_TCM,81,103.39752197,  6.65513611,end
timer_stats,656271872276017,PAPI_L3_TCM,18,103.65191650,  6.67117310,end
timer_stats,656271873353109,PAPI_L3_TCM,10,103.92181396,  6.68688965,end
timer_stats,656271874428416,PAPI_L3_TCM,5,104.18640137,  6.70262146,end
timer_stats,656271875502250,PAPI_L3_TCM,2,104.45599365,  6.71829223,end
timer_stats,656271876575289,PAPI_L3_TCM,2,104.71820068,  6.73350525,end
timer_stats,656271877651957,PAPI_L3_TCM,1,104.98248291,  6.74952698,end
timer_stats,656271878726378,PAPI_L3_TCM,2,105.24108887,  6.76496887,end
timer_stats,656271879801979,PAPI_L3_TCM,1,105.50897217,  6.78070068,end
timer_stats,656271880877021,PAPI_L3_TCM,10,105.76055908,  6.79673767,end
timer_stats,656271881951602,PAPI_L3_TCM,4,106.02514648,  6.81217956,end
timer_stats,656271883025213,PAPI_L3_TCM,3,106.29071045,  6.82881165,end
timer_stats,656271884098308,PAPI_L3_TCM,1,106.69702148,  6.84446716,end
timer_stats,656271885172499,PAPI_L3_TCM,3,106.94885254,  6.86764526,end
timer_stats,656271886246848,PAPI_L3_TCM,0,107.35290527,  6.89155579,end
timer_stats,656271887319601,PAPI_L3_TCM,2,107.61804199,  6.90727234,end
timer_stats,656271888394604,PAPI_L3_TCM,2,107.88024902,  6.92298889,end
timer_stats,656271889470040,PAPI_L3_TCM,5,108.14373779,  6.93843079,end
timer_stats,656271890544300,PAPI_L3_TCM,0,108.40625000,  6.95414734,end
timer_stats,656271891617346,PAPI_L3_TCM,3,108.67864990,  6.96958923,end
timer_stats,656271892690835,PAPI_L3_TCM,7,108.92132568,  6.98509216,end
timer_stats,656271893764247,PAPI_L3_TCM,4,109.19427490,  7.00102234,end
timer_stats,656271894837508,PAPI_L3_TCM,0,109.46319580,  7.01672363,end
timer_stats,656271895911105,PAPI_L3_TCM,5,109.72735596,  7.03248596,end
timer_stats,656271896984887,PAPI_L3_TCM,8,109.98303223,  7.04798889,end
timer_stats,656271898058076,PAPI_L3_TCM,7,110.38055420,  7.06365967,end
timer_stats,656271899131306,PAPI_L3_TCM,1,110.63885498,  7.08750915,end
timer_stats,656271900205003,PAPI_L3_TCM,13,111.03271484,  7.11123657,end
timer_stats,656271901278310,PAPI_L3_TCM,9,111.29913330,  7.12698364,end
timer_stats,656271902351577,PAPI_L3_TCM,2,111.56701660,  7.14274597,end
timer_stats,656271903424484,PAPI_L3_TCM,0,111.83764648,  7.15945435,end
timer_stats,656271904498827,PAPI_L3_TCM,4,112.09765625,  7.17481995,end
timer_stats,656271905571502,PAPI_L3_TCM,4,112.36315918,  7.19058227,end
timer_stats,656271906644897,PAPI_L3_TCM,3,112.62738037,  7.20756531,end
timer_stats,656271907717240,PAPI_L3_TCM,0,112.89276123,  7.22325134,end
timer_stats,656271908791226,PAPI_L3_TCM,3,113.15179443,  7.23896790,end
timer_stats,656271909865812,PAPI_L3_TCM,2,113.41198730,  7.25447082,end
timer_stats,656271910939415,PAPI_L3_TCM,5,113.67401123,  7.27020264,end
timer_stats,656271912015826,PAPI_L3_TCM,3,113.94622803,  7.28591919,end
timer_stats,656271913088791,PAPI_L3_TCM,4,114.33740234,  7.30912781,end
timer_stats,656271914162625,PAPI_L3_TCM,1,114.72717285,  7.33334351,end
timer_stats,656271915236394,PAPI_L3_TCM,4,114.99902344,  7.34886169,end
timer_stats,656271916309207,PAPI_L3_TCM,2,115.27172852,  7.36480713,end
timer_stats,656271917383013,PAPI_L3_TCM,5,115.53533936,  7.38029480,end
timer_stats,656271918456140,PAPI_L3_TCM,0,115.78753662,  7.39579773,end
timer_stats,656271919528921,PAPI_L3_TCM,4,116.05395508,  7.41157532,end
timer_stats,656271920602101,PAPI_L3_TCM,0,116.31518555,  7.42683411,end
timer_stats,656271921675924,PAPI_L3_TCM,1,116.58856201,  7.44255066,end
timer_stats,656271922749342,PAPI_L3_TCM,0,116.84326172,  7.45755005,end
timer_stats,656271923821374,PAPI_L3_TCM,4,117.11859131,  7.47303772,end
timer_stats,656271924893770,PAPI_L3_TCM,0,117.38323974,  7.48878479,end
timer_stats,656271925967104,PAPI_L3_TCM,3,117.62500000,  7.50462341,end
timer_stats,656271927039438,PAPI_L3_TCM,1,117.89233398,  7.52038574,end
timer_stats,656271928115241,PAPI_L3_TCM,10,118.16027832,  7.53614807,end
timer_stats,656271929188137,PAPI_L3_TCM,4,118.68798828,  7.56790161,end
timer_stats,656271930261238,PAPI_L3_TCM,3,118.94952392,  7.58396912,end
timer_stats,656271931333733,PAPI_L3_TCM,0,119.21636963,  7.59992981,end
timer_stats,656271932407869,PAPI_L3_TCM,6,119.47357178,  7.61572265,end
timer_stats,656271936471100,PAPI_L3_TCM,183,120.39532471,  7.68515015,end
timer_stats,656271937567251,PAPI_L3_TCM,81,120.61334228,  7.70115662,end
timer_stats,656271938644032,PAPI_L3_TCM,3,120.87139892,  7.71667480,end
timer_stats,656271939718467,PAPI_L3_TCM,6,121.13452148,  7.73197937,end
timer_stats,656271940794515,PAPI_L3_TCM,8,121.40478515,  7.74777222,end
timer_stats,656271941869633,PAPI_L3_TCM,4,121.65740967,  7.76361084,end
timer_stats,656271942944048,PAPI_L3_TCM,0,121.92700195,  7.78009033,end
timer_stats,656271944015626,PAPI_L3_TCM,3,122.19097900,  7.79547119,end
timer_stats,656271945089994,PAPI_L3_TCM,1,122.46008301,  7.81094360,end
timer_stats,656271946164265,PAPI_L3_TCM,2,122.85449219,  7.83454895,end
timer_stats,656271947238405,PAPI_L3_TCM,1,123.25091553,  7.85821533,end
timer_stats,656271948314392,PAPI_L3_TCM,3,123.51348877,  7.87396240,end
timer_stats,656271949388971,PAPI_L3_TCM,3,123.78729248,  7.88967895,end
timer_stats,656271950462992,PAPI_L3_TCM,2,124.04486084,  7.90541077,end
timer_stats,656271951537206,PAPI_L3_TCM,1,124.30828857,  7.92115784,end
timer_stats,656271952613631,PAPI_L3_TCM,7,124.56579590,  7.93690491,end
timer_stats,656271953689770,PAPI_L3_TCM,2,124.82806396,  7.95217895,end
timer_stats,656271954763915,PAPI_L3_TCM,3,125.10235596,  7.96788025,end
timer_stats,656271955837911,PAPI_L3_TCM,0,125.36871338,  7.98403930,end
timer_stats,656271956913405,PAPI_L3_TCM,6,125.62744140,  7.99981689,end
timer_stats,656271957986895,PAPI_L3_TCM,4,125.88909912,  8.01536560,end
timer_stats,656271959061367,PAPI_L3_TCM,1,126.16204834,  8.03108215,end
timer_stats,656271960134469,PAPI_L3_TCM,4,126.55023193,  8.05511474,end
timer_stats,656271961207885,PAPI_L3_TCM,4,126.94158935,  8.07820129,end
timer_stats,656271962281120,PAPI_L3_TCM,3,127.21154785,  8.09394836,end
timer_stats,656271963354596,PAPI_L3_TCM,5,127.47985840,  8.10971069,end
timer_stats,656271964428532,PAPI_L3_TCM,2,127.73791504,  8.12551880,end
timer_stats,656271965503850,PAPI_L3_TCM,4,128.00866699,  8.14154053,end
timer_stats,656271966577587,PAPI_L3_TCM,2,128.26629639,  8.15776062,end
timer_stats,656271967652295,PAPI_L3_TCM,3,128.53765869,  8.17352295,end
timer_stats,656271968726579,PAPI_L3_TCM,3,128.80798340,  8.18876648,end
timer_stats,656271969801586,PAPI_L3_TCM,9,129.07067871,  8.20455932,end
timer_stats,656271970877112,PAPI_L3_TCM,5,129.33068847,  8.22004700,end
timer_stats,656271971951871,PAPI_L3_TCM,4,129.60015869,  8.23582458,end
timer_stats,656271973026757,PAPI_L3_TCM,1,129.85668945,  8.25202942,end
timer_stats,656271974101070,PAPI_L3_TCM,7,130.12805176,  8.26777649,end
timer_stats,656271975174927,PAPI_L3_TCM,1,130.52471924,  8.29136658,end
timer_stats,656271976249729,PAPI_L3_TCM,8,130.91894531,  8.31567383,end
timer_stats,656271977325038,PAPI_L3_TCM,14,131.18261719,  8.33117676,end
timer_stats,656271978398448,PAPI_L3_TCM,4,131.44628906,  8.34692383,end
timer_stats,656271979472493,PAPI_L3_TCM,0,131.71343994,  8.36213684,end
timer_stats,656271980546219,PAPI_L3_TCM,7,131.97290039,  8.37763977,end
timer_stats,656271981620821,PAPI_L3_TCM,7,132.24102783,  8.39282226,end
timer_stats,656271982695690,PAPI_L3_TCM,2,132.50750732,  8.40866089,end
timer_stats,656271983769102,PAPI_L3_TCM,1,132.76971435,  8.42419433,end
timer_stats,656271984844003,PAPI_L3_TCM,2,133.03723144,  8.43923950,end
timer_stats,656271985918753,PAPI_L3_TCM,1,133.30352783,  8.45506287,end
timer_stats,656271986993983,PAPI_L3_TCM,5,133.57019043,  8.47087097,end
timer_stats,656271988068590,PAPI_L3_TCM,2,133.83795166,  8.48667908,end
timer_stats,656271989142324,PAPI_L3_TCM,3,134.09924316,  8.50225830,end
timer_stats,656271990216092,PAPI_L3_TCM,1,134.49969482,  8.52584839,end
timer_stats,656271991291116,PAPI_L3_TCM,2,134.89270019,  8.54963684,end
timer_stats,656271992366230,PAPI_L3_TCM,3,135.16467285,  8.56559753,end
timer_stats,656271993439403,PAPI_L3_TCM,2,135.42437744,  8.58140564,end
timer_stats,656271994512595,PAPI_L3_TCM,0,135.68151855,  8.59718323,end
timer_stats,656271995586055,PAPI_L3_TCM,2,135.95770264,  8.61288452,end
timer_stats,656271996660609,PAPI_L3_TCM,2,136.22052002,  8.62889099,end
timer_stats,656271997734381,PAPI_L3_TCM,4,136.48156738,  8.64492798,end
timer_stats,656271998808651,PAPI_L3_TCM,2,136.74780273,  8.66021728,end
timer_stats,656271999883002,PAPI_L3_TCM,5,137.00848389,  8.67605591,end
timer_stats,656272000958238,PAPI_L3_TCM,3,137.27465820,  8.69157409,end
timer_stats,656272006074805,PAPI_L3_TCM,211,138.51507568,  8.79084778,end
timer_stats,656272007170087,PAPI_L3_TCM,80,138.81292724,  8.80900574,end
timer_stats,656272008247302,PAPI_L3_TCM,12,139.20404053,  8.83599853,end
timer_stats,656272009322843,PAPI_L3_TCM,5,139.47436523,  8.85154724,end
timer_stats,656272010397894,PAPI_L3_TCM,4,139.72723389,  8.86708069,end
timer_stats,656272011471822,PAPI_L3_TCM,5,140.00714111,  8.88252258,end
timer_stats,656272012546659,PAPI_L3_TCM,3,140.26403809,  8.89059448,end
timer_stats,656272013635090,PAPI_L3_TCM,9,140.53594971,  8.90557861,end
timer_stats,656272014715758,PAPI_L3_TCM,4,140.79058838,  8.92144775,end
timer_stats,656272015792140,PAPI_L3_TCM,2,141.04815674,  8.93698120,end
timer_stats,656272016868522,PAPI_L3_TCM,8,141.32232666,  8.95228576,end
timer_stats,656272017943866,PAPI_L3_TCM,2,141.58612060,  8.96784973,end
timer_stats,656272019019064,PAPI_L3_TCM,4,141.84692383,  8.98408508,end
timer_stats,656272020093511,PAPI_L3_TCM,1,142.12213135,  8.99958801,end
timer_stats,656272021168412,PAPI_L3_TCM,3,142.51782226,  9.02265930,end
timer_stats,656272022244091,PAPI_L3_TCM,0,142.78094482,  9.03848267,end
timer_stats,656272023318856,PAPI_L3_TCM,1,143.17065430,  9.06230164,end
timer_stats,656272024393747,PAPI_L3_TCM,1,143.45141602,  9.07778930,end
timer_stats,656272025469050,PAPI_L3_TCM,2,143.71704102,  9.09336853,end
timer_stats,656272026543572,PAPI_L3_TCM,0,143.97497559,  9.10890198,end
timer_stats,656272027619276,PAPI_L3_TCM,2,144.23986816,  9.12466431,end
timer_stats,656272028693918,PAPI_L3_TCM,2,144.50482178,  9.13989258,end
timer_stats,656272029769618,PAPI_L3_TCM,2,144.76556396,  9.15576172,end
timer_stats,656272030844409,PAPI_L3_TCM,0,145.03747559,  9.17123413,end
timer_stats,656272031919437,PAPI_L3_TCM,1,145.29675293,  9.18676758,end
timer_stats,656272032994573,PAPI_L3_TCM,0,145.56433105,  9.20257568,end
timer_stats,656272034070693,PAPI_L3_TCM,5,145.82983398,  9.21836853,end
timer_stats,656272035145907,PAPI_L3_TCM,1,146.09002685,  9.23417663,end
timer_stats,656272036221137,PAPI_L3_TCM,4,146.36218262,  9.25189209,end
timer_stats,656272037295894,PAPI_L3_TCM,6,146.88201904,  9.28294372,end
timer_stats,656272038370290,PAPI_L3_TCM,2,147.15667725,  9.29849243,end
timer_stats,656272039445157,PAPI_L3_TCM,0,147.41949463,  9.31425476,end
timer_stats,656272040520347,PAPI_L3_TCM,3,147.68444824,  9.33004761,end
timer_stats,656272041596384,PAPI_L3_TCM,2,147.94940185,  9.34585571,end
timer_stats,656272042671794,PAPI_L3_TCM,4,148.21685791,  9.36163330,end
timer_stats,656272043747009,PAPI_L3_TCM,2,148.47985840,  9.37779236,end
timer_stats,656272044823688,PAPI_L3_TCM,5,148.74224853,  9.39398193,end
timer_stats,656272045898418,PAPI_L3_TCM,2,149.01428223,  9.40977478,end
timer_stats,656272046973076,PAPI_L3_TCM,6,149.28302002,  9.42579651,end
timer_stats,656272048015832,PAPI_L3_TCM,3,149.54058838,  9.44131470,end
timer_stats,656272049090512,PAPI_L3_TCM,5,149.81921387,  9.45709228,end
timer_stats,656272050166286,PAPI_L3_TCM,5,150.06933594,  9.47264099,end
timer_stats,656272051258609,PAPI_L3_TCM,8,150.46862793,  9.49635315,end
timer_stats,656272052333917,PAPI_L3_TCM,0,150.86499023,  9.52066040,end
timer_stats,656272053409177,PAPI_L3_TCM,5,151.13360596,  9.53617859,end
timer_stats,656272054484973,PAPI_L3_TCM,3,151.40124512,  9.54370117,end
timer_stats,656272055560636,PAPI_L3_TCM,3,151.65960693,  9.55952453,end
timer_stats,656272056635711,PAPI_L3_TCM,3,151.92864990,  9.57504272,end
timer_stats,656272057710374,PAPI_L3_TCM,3,152.20501709,  9.59126282,end
timer_stats,656272058785556,PAPI_L3_TCM,0,152.45336914,  9.60679626,end
timer_stats,656272059861882,PAPI_L3_TCM,4,152.73028564,  9.62252807,end
timer_stats,656272060937785,PAPI_L3_TCM,2,153.00360107,  9.63775635,end
timer_stats,656272062012963,PAPI_L3_TCM,4,153.26940918,  9.65322876,end
timer_stats,656272063088161,PAPI_L3_TCM,1,153.52453613,  9.66908264,end
timer_stats,656272064162991,PAPI_L3_TCM,1,153.78485107,  9.68487549,end
timer_stats,656272065238630,PAPI_L3_TCM,5,154.18353271,  9.70819092,end
timer_stats,656272066313975,PAPI_L3_TCM,2,154.46118164,  9.72415161,end
timer_stats,656272067388211,PAPI_L3_TCM,3,154.84832764,  9.74769592,end
timer_stats,656272068464328,PAPI_L3_TCM,10,155.12133789,  9.76338196,end
timer_stats,656272069540936,PAPI_L3_TCM,5,155.38488769,  9.77883911,end
timer_stats,656272070616296,PAPI_L3_TCM,2,155.66058349,  9.79417419,end
timer_stats,656272076405922,PAPI_L3_TCM,209,156.96484375,  9.90773010,end
timer_stats,656272077496909,PAPI_L3_TCM,107,157.20379639,  9.92193603,end
timer_stats,656272078581069,PAPI_L3_TCM,3,157.46899414,  9.93664551,end
timer_stats,656272079662051,PAPI_L3_TCM,5,157.72357178,  9.95095825,end
timer_stats,656272080736569,PAPI_L3_TCM,4,157.98333740,  9.96502685,end
timer_stats,656272081810255,PAPI_L3_TCM,6,158.24896240,  9.97929382,end
timer_stats,656272082884475,PAPI_L3_TCM,1,158.50860596,  9.99360657,end
timer_stats,656272083957898,PAPI_L3_TCM,2,158.76940918, 10.00767517,end
timer_stats,656272085034740,PAPI_L3_TCM,6,159.02996826, 10.02174377,end
timer_stats,656272086110058,PAPI_L3_TCM,4,159.29785156, 10.03602600,end
timer_stats,656272087185886,PAPI_L3_TCM,2,159.55450439, 10.04983520,end
timer_stats,656272088260536,PAPI_L3_TCM,5,159.95104980, 10.06388855,end
timer_stats,656272089337229,PAPI_L3_TCM,1,160.35729980, 10.08491516,end
timer_stats,656272090412187,PAPI_L3_TCM,3,160.61779785, 10.10665894,end
timer_stats,656272091486500,PAPI_L3_TCM,0,160.87487793, 10.12091064,end
timer_stats,656272092564728,PAPI_L3_TCM,5,161.15612793, 10.13465881,end
timer_stats,656272093639359,PAPI_L3_TCM,2,161.40185547, 10.15045166,end
timer_stats,656272094715251,PAPI_L3_TCM,5,161.67407227, 10.16465759,end
timer_stats,656272095789921,PAPI_L3_TCM,0,161.92785645, 10.17919922,end
timer_stats,656272096866833,PAPI_L3_TCM,17,162.20300293, 10.19319153,end
timer_stats,656272097942533,PAPI_L3_TCM,7,162.46600342, 10.20744324,end
timer_stats,656272099017835,PAPI_L3_TCM,3,162.73919678, 10.22163391,end
timer_stats,656272100092696,PAPI_L3_TCM,2,162.98229980, 10.23541260,end
timer_stats,656272101168744,PAPI_L3_TCM,5,163.25976562, 10.24919128,end
timer_stats,656272102243936,PAPI_L3_TCM,0,163.52844238, 10.26321411,end
timer_stats,656272103321416,PAPI_L3_TCM,5,164.04119873, 10.29145813,end
timer_stats,656272104396791,PAPI_L3_TCM,6,164.30334472, 10.30551147,end
timer_stats,656272105472075,PAPI_L3_TCM,3,164.57653809, 10.31974792,end
timer_stats,656272106546518,PAPI_L3_TCM,1,164.84289551, 10.33421326,end
timer_stats,656272107621014,PAPI_L3_TCM,3,165.11236572, 10.34793091,end
timer_stats,656272108696450,PAPI_L3_TCM,2,165.37017822, 10.36151123,end
timer_stats,656272109771651,PAPI_L3_TCM,4,165.63897705, 10.37577820,end
timer_stats,656272110847581,PAPI_L3_TCM,0,165.89257812, 10.38984680,end
timer_stats,656272111922941,PAPI_L3_TCM,3,166.15704346, 10.40412903,end
timer_stats,656272112998577,PAPI_L3_TCM,3,166.41784668, 10.41838074,end
timer_stats,656272114074377,PAPI_L3_TCM,3,166.69067383, 10.43263245,end
timer_stats,656272115149150,PAPI_L3_TCM,5,166.95196533, 10.44665527,end
timer_stats,656272116223664,PAPI_L3_TCM,2,167.21569824, 10.46092224,end
timer_stats,656272117299202,PAPI_L3_TCM,3,167.60662842, 10.47523498,end
timer_stats,656272118373834,PAPI_L3_TCM,7,168.01367187, 10.50373840,end
timer_stats,656272119448772,PAPI_L3_TCM,1,168.27868652, 10.51800537,end
timer_stats,656272120524430,PAPI_L3_TCM,5,168.53820801, 10.53205871,end
timer_stats,656272121599077,PAPI_L3_TCM,6,168.79321289, 10.54635620,end
timer_stats,656272122673855,PAPI_L3_TCM,3,169.06109619, 10.56059265,end
timer_stats,656272123748884,PAPI_L3_TCM,0,169.32824707, 10.57484436,end
timer_stats,656272124824485,PAPI_L3_TCM,3,169.59020996, 10.58888244,end
timer_stats,656272125899496,PAPI_L3_TCM,2,169.85943603, 10.60334778,end
timer_stats,656272126974247,PAPI_L3_TCM,7,170.11633301, 10.61758423,end
timer_stats,656272128015663,PAPI_L3_TCM,6,170.38024902, 10.63136291,end
timer_stats,656272129094475,PAPI_L3_TCM,10,170.64361572, 10.64566040,end
timer_stats,656272130169520,PAPI_L3_TCM,0,170.90289307, 10.65995788,end
timer_stats,656272131244318,PAPI_L3_TCM,3,171.16864014, 10.67398071,end
timer_stats,656272132319543,PAPI_L3_TCM,0,171.55767822, 10.69480896,end
timer_stats,656272133396414,PAPI_L3_TCM,14,171.96539307, 10.70906067,end
timer_stats,656272134472713,PAPI_L3_TCM,1,172.21893310, 10.73109436,end
timer_stats,656272135547551,PAPI_L3_TCM,2,172.49395752, 10.74502563,end
timer_stats,656272136622451,PAPI_L3_TCM,3,172.76055908, 10.75929260,end
timer_stats,656272137697684,PAPI_L3_TCM,1,173.01879883, 10.77374267,end
timer_stats,656272138772991,PAPI_L3_TCM,1,173.27569580, 10.78802490,end
timer_stats,656272139848009,PAPI_L3_TCM,2,173.54626465, 10.80227661,end
timer_stats,656272140923373,PAPI_L3_TCM,1,173.82043457, 10.81748962,end
timer_stats,656272141998892,PAPI_L3_TCM,6,174.06988525, 10.83177185,end
timer_stats,656272143073942,PAPI_L3_TCM,2,174.34332275, 10.84599304,end
timer_stats,656272144148192,PAPI_L3_TCM,3,174.59210205, 10.86167908,end
timer_stats,656272145223892,PAPI_L3_TCM,2,174.87072754, 10.87705994,end
timer_stats,656272146299226,PAPI_L3_TCM,1,175.25366211, 10.90095520,end
timer_stats,656272147374287,PAPI_L3_TCM,2,175.65838623, 10.92457580,end
timer_stats,656272148450540,PAPI_L3_TCM,9,175.94018555, 10.94053650,end
timer_stats,656272149525192,PAPI_L3_TCM,1,176.19403076, 10.95600891,end
timer_stats,656272150599856,PAPI_L3_TCM,3,176.47589111, 10.97227478,end
timer_stats,656272151673632,PAPI_L3_TCM,1,176.73126221, 10.98773193,end
timer_stats,656272152749893,PAPI_L3_TCM,7,176.98956299, 11.00402832,end
timer_stats,656272153825500,PAPI_L3_TCM,4,177.25671387, 11.01965332,end
timer_stats,656272154900968,PAPI_L3_TCM,5,177.53344727, 11.03553772,end
timer_stats,656272155975057,PAPI_L3_TCM,1,177.80023193, 11.05293274,end
timer_stats,656272157049504,PAPI_L3_TCM,16,178.06115723, 11.06849670,end
timer_stats,656272158122632,PAPI_L3_TCM,3,178.31903076, 11.08412170,end
timer_stats,656272159197520,PAPI_L3_TCM,12,178.59490967, 11.09951782,end
timer_stats,656272160271691,PAPI_L3_TCM,17,178.86077881, 11.11524963,end
timer_stats,656272161345372,PAPI_L3_TCM,4,179.12597656, 11.13099670,end
timer_stats,656272162418526,PAPI_L3_TCM,2,179.65417480, 11.15449524,end
timer_stats,656272163491645,PAPI_L3_TCM,2,179.91821289, 11.17848205,end
timer_stats,656272164566049,PAPI_L3_TCM,8,180.19018555, 11.19419861,end
timer_stats,656272165651693,PAPI_L3_TCM,8,180.45758057, 11.20991516,end
timer_stats,656272166725469,PAPI_L3_TCM,0,180.71691895, 11.22616577,end
timer_stats,656272167799102,PAPI_L3_TCM,2,180.99267578, 11.24212646,end
timer_stats,656272168875017,PAPI_L3_TCM,2,181.24371338, 11.25787353,end
timer_stats,656272169949259,PAPI_L3_TCM,5,181.51239014, 11.27352905,end
timer_stats,656272171023218,PAPI_L3_TCM,1,181.78509521, 11.28941345,end
timer_stats,656272172096975,PAPI_L3_TCM,4,182.05175781, 11.30511474,end
timer_stats,656272173170892,PAPI_L3_TCM,2,182.31988525, 11.32083130,end
timer_stats,656272174245388,PAPI_L3_TCM,1,182.61083984, 11.32881164,end
timer_stats,656272175319548,PAPI_L3_TCM,2,182.98114014, 11.34481811,end
timer_stats,656272176393598,PAPI_L3_TCM,3,183.37640381, 11.37765503,end
timer_stats,656272177467769,PAPI_L3_TCM,4,183.64819336, 11.39328003,end
timer_stats,656272182191941,PAPI_L3_TCM,346,184.59826660, 11.45643616,end
timer_stats,656272183284523,PAPI_L3_TCM,114,184.76220703, 11.47363281,end
timer_stats,656272184359224,PAPI_L3_TCM,5,185.15765381, 11.49707031,end
timer_stats,656272185432605,PAPI_L3_TCM,2,185.55645752, 11.51286316,end
timer_stats,656272186506174,PAPI_L3_TCM,6,185.68902588, 11.52879333,end
timer_stats,656272187583468,PAPI_L3_TCM,15,186.10662842, 11.55203247,end
timer_stats,656272188661495,PAPI_L3_TCM,16,186.35290527, 11.56758118,end
timer_stats,656272189736650,PAPI_L3_TCM,10,186.64520264, 11.58325195,end
timer_stats,656272190810657,PAPI_L3_TCM,4,186.87811279, 11.59912109,end
timer_stats,656272191885223,PAPI_L3_TCM,3,187.15093994, 11.61489868,end
timer_stats,656272192960065,PAPI_L3_TCM,3,187.44348145, 11.63134766,end
timer_stats,656272194035998,PAPI_L3_TCM,0,187.67736816, 11.64688110,end
timer_stats,656272195109664,PAPI_L3_TCM,1,187.94519043, 11.66259766,end
timer_stats,656272196183487,PAPI_L3_TCM,3,188.21795654, 11.67828369,end
timer_stats,656272197258115,PAPI_L3_TCM,6,188.51239014, 11.69363403,end
timer_stats,656272198332428,PAPI_L3_TCM,0,188.88092041, 11.70948791,end
timer_stats,656272199406776,PAPI_L3_TCM,2,189.15142822, 11.73280334,end
timer_stats,656272200481729,PAPI_L3_TCM,5,189.40802002, 11.74873352,end
timer_stats,656272201556345,PAPI_L3_TCM,1,189.83264160, 11.77217102,end
timer_stats,656272202631542,PAPI_L3_TCM,3,190.10913086, 11.78808594,end
timer_stats,656272203706023,PAPI_L3_TCM,2,190.36602783, 11.80384827,end
timer_stats,656272204781680,PAPI_L3_TCM,7,190.60510254, 11.81996155,end
timer_stats,656272205868323,PAPI_L3_TCM,7,190.87609863, 11.83570862,end
timer_stats,656272206943064,PAPI_L3_TCM,3,191.16436767, 11.85137939,end
timer_stats,656272208015513,PAPI_L3_TCM,7,191.44055176, 11.86682129,end
timer_stats,656272209089539,PAPI_L3_TCM,2,191.70330810, 11.88253784,end
timer_stats,656272210164069,PAPI_L3_TCM,1,191.96990967, 11.89825439,end
timer_stats,656272211238078,PAPI_L3_TCM,2,192.20306396, 11.91407776,end
timer_stats,656272212312555,PAPI_L3_TCM,5,192.46905517, 11.93005371,end
timer_stats,656272213385678,PAPI_L3_TCM,2,192.87225342, 11.95381164,end
timer_stats,656272214460361,PAPI_L3_TCM,2,193.13879395, 11.96971130,end
timer_stats,656272215534063,PAPI_L3_TCM,2,193.43212891, 11.98533630,end
timer_stats,656272216609756,PAPI_L3_TCM,6,193.83728027, 12.00932312,end
timer_stats,656272217684576,PAPI_L3_TCM,8,194.07574463, 12.02542114,end
timer_stats,656272218759459,PAPI_L3_TCM,5,194.33721924, 12.04170227,end
timer_stats,656272219832945,PAPI_L3_TCM,3,194.62396240, 12.05787659,end
timer_stats,656272220907972,PAPI_L3_TCM,5,194.87371826, 12.07412720,end
timer_stats,656272221982444,PAPI_L3_TCM,3,195.14202881, 12.08984375,end
timer_stats,656272223057241,PAPI_L3_TCM,3,195.43096924, 12.10549927,end
timer_stats,656272224130873,PAPI_L3_TCM,3,195.69909668, 12.12147522,end
timer_stats,656272225204294,PAPI_L3_TCM,4,195.94335937, 12.13725281,end
timer_stats,656272226277631,PAPI_L3_TCM,3,196.20806885, 12.15350342,end
timer_stats,656272227353449,PAPI_L3_TCM,2,196.47070312, 12.16949463,end
timer_stats,656272228427518,PAPI_L3_TCM,3,196.87994385, 12.19313049,end
timer_stats,656272229502012,PAPI_L3_TCM,5,197.27221680, 12.21772766,end
timer_stats,656272230575587,PAPI_L3_TCM,0,197.57208252, 12.23385620,end
timer_stats,656272231649681,PAPI_L3_TCM,2,197.83410644, 12.25061035,end
timer_stats,656272232724139,PAPI_L3_TCM,2,198.10461426, 12.26629639,end
timer_stats,656272233798369,PAPI_L3_TCM,6,198.36761474, 12.28201294,end
timer_stats,656272234873082,PAPI_L3_TCM,2,198.63165283, 12.29772949,end
timer_stats,656272235948308,PAPI_L3_TCM,8,198.89953613, 12.31375122,end
timer_stats,656272237023088,PAPI_L3_TCM,13,199.17358398, 12.32949829,end
timer_stats,656272238098555,PAPI_L3_TCM,2,199.44189453, 12.34526062,end
timer_stats,656272239172901,PAPI_L3_TCM,1,199.70739746, 12.36117554,end
timer_stats,656272240246895,PAPI_L3_TCM,7,199.93994141, 12.37730408,end
timer_stats,656272241319991,PAPI_L3_TCM,2,200.23468017, 12.39387512,end
timer_stats,656272242401998,PAPI_L3_TCM,4,200.51660156, 12.40971374,end
timer_stats,656272243476200,PAPI_L3_TCM,0,200.88757324, 12.43371582,end
timer_stats,656272244550523,PAPI_L3_TCM,5,201.27362060, 12.45716858,end
timer_stats,656272245625023,PAPI_L3_TCM,2,201.53271484, 12.47296142,end
timer_stats,656272246698974,PAPI_L3_TCM,1,201.80389404, 12.48841858,end
timer_stats,656272247773061,PAPI_L3_TCM,1,202.10449219, 12.50402832,end
timer_stats,656272248848805,PAPI_L3_TCM,10,202.35961914, 12.51986694,end
timer_stats,656272249923160,PAPI_L3_TCM,1,202.63378906, 12.53530884,end
timer_stats,656272250997789,PAPI_L3_TCM,6,202.90106201, 12.55131531,end
timer_stats,656272252071569,PAPI_L3_TCM,12,203.17291260, 12.56724548,end
timer_stats,656272253146159,PAPI_L3_TCM,2,203.40142822, 12.58358764,end
timer_stats,656272254219748,PAPI_L3_TCM,3,203.69152832, 12.59922790,end
timer_stats,656272255294137,PAPI_L3_TCM,2,203.96820068, 12.61479187,end
timer_stats,656272256367327,PAPI_L3_TCM,4,204.23370361, 12.63047790,end
timer_stats,656272257442510,PAPI_L3_TCM,5,204.62805176, 12.64646912,end
timer_stats,656272258516242,PAPI_L3_TCM,5,204.89831543, 12.66993713,end
timer_stats,656272259591308,PAPI_L3_TCM,2,205.29418945, 12.69348144,end
timer_stats,656272260664943,PAPI_L3_TCM,2,205.56396484, 12.70875549,end
timer_stats,656272261738571,PAPI_L3_TCM,4,205.83172607, 12.72447205,end
timer_stats,656272262812393,PAPI_L3_TCM,2,206.09692383, 12.74026489,end
timer_stats,656272263886825,PAPI_L3_TCM,3,206.36199951, 12.75584412,end
timer_stats,656272264961632,PAPI_L3_TCM,7,206.63470459, 12.77134705,end
timer_stats,656272266035328,PAPI_L3_TCM,4,206.89599609, 12.78713989,end
timer_stats,656272267109257,PAPI_L3_TCM,0,207.16687012, 12.80287170,end
timer_stats,656272268182873,PAPI_L3_TCM,5,207.43298340, 12.81861877,end
timer_stats,656272269256339,PAPI_L3_TCM,5,207.69909668, 12.82641601,end
timer_stats,656272270331181,PAPI_L3_TCM,2,207.93432617, 12.84225464,end
timer_stats,656272271405948,PAPI_L3_TCM,8,208.22229004, 12.85816955,end
timer_stats,656272272480683,PAPI_L3_TCM,19,208.48754883, 12.87396240,end
timer_stats,656272273555036,PAPI_L3_TCM,4,208.89080810, 12.89794922,end
timer_stats,656272274628706,PAPI_L3_TCM,3,209.30639648, 12.92086792,end
timer_stats,656272275702618,PAPI_L3_TCM,1,209.58319092, 12.93656921,end
timer_stats,656272276777495,PAPI_L3_TCM,6,209.82312012, 12.95269775,end
timer_stats,656272277850991,PAPI_L3_TCM,1,210.09899902, 12.96868896,end
timer_stats,656272278924863,PAPI_L3_TCM,2,210.36975097, 12.98440552,end
timer_stats,656272283801856,PAPI_L3_TCM,235,211.52154541, 13.09219360,end
timer_stats,656272284890557,PAPI_L3_TCM,101,211.74420166, 13.10826111,end
timer_stats,656272285965175,PAPI_L3_TCM,11,212.00805664, 13.12400818,end
timer_stats,656272287038610,PAPI_L3_TCM,3,212.27789307, 13.13970947,end
timer_stats,656272288111960,PAPI_L3_TCM,2,212.54718017, 13.15518188,end
timer_stats,656272289185813,PAPI_L3_TCM,3,212.80743408, 13.17063904,end
timer_stats,656272290259317,PAPI_L3_TCM,1,213.07110596, 13.18644714,end
timer_stats,656272291333625,PAPI_L3_TCM,1,213.34252930, 13.20219421,end
timer_stats,656272292407661,PAPI_L3_TCM,3,213.60400391, 13.21768188,end
timer_stats,656272293481767,PAPI_L3_TCM,1,213.88043213, 13.23367310,end
timer_stats,656272294556526,PAPI_L3_TCM,0,214.39263916, 13.26553345,end
timer_stats,656272295629864,PAPI_L3_TCM,3,214.66943359, 13.28120422,end
timer_stats,656272296704673,PAPI_L3_TCM,4,214.93524170, 13.29772949,end
timer_stats,656272297778435,PAPI_L3_TCM,4,215.19476318, 13.31350708,end
timer_stats,656272298852295,PAPI_L3_TCM,1,215.45727539, 13.32897949,end
timer_stats,656272299926150,PAPI_L3_TCM,4,215.74279785, 13.34539795,end
timer_stats,656272301000052,PAPI_L3_TCM,7,216.00140381, 13.36120605,end
timer_stats,656272302075909,PAPI_L3_TCM,3,216.25750732, 13.37672424,end
timer_stats,656272303149380,PAPI_L3_TCM,1,216.52886963, 13.39247131,end
timer_stats,656272304223001,PAPI_L3_TCM,11,216.79443359, 13.40820312,end
timer_stats,656272305296060,PAPI_L3_TCM,2,217.06109619, 13.42385864,end
timer_stats,656272306370370,PAPI_L3_TCM,4,217.33990478, 13.43959045,end
timer_stats,656272307443735,PAPI_L3_TCM,2,217.60412598, 13.45532226,end
timer_stats,656272308517709,PAPI_L3_TCM,5,217.99822998, 13.47535705,end
timer_stats,656272309591732,PAPI_L3_TCM,1,218.39416504, 13.50296020,end
timer_stats,656272310665966,PAPI_L3_TCM,5,218.66717529, 13.51965332,end
timer_stats,656272311739418,PAPI_L3_TCM,0,218.93615723, 13.53501892,end
timer_stats,656272312812598,PAPI_L3_TCM,4,219.20910644, 13.55168152,end
timer_stats,656272313886361,PAPI_L3_TCM,0,219.47491455, 13.56732178,end
timer_stats,656272314960592,PAPI_L3_TCM,3,219.74273682, 13.58325195,end
timer_stats,656272316013887,PAPI_L3_TCM,11,219.99169922, 13.59895325,end
timer_stats,656272317087447,PAPI_L3_TCM,5,220.25732422, 13.61466980,end
timer_stats,656272318161068,PAPI_L3_TCM,2,220.52313232, 13.63157654,end
timer_stats,656272319234361,PAPI_L3_TCM,4,220.79998779, 13.64820862,end
timer_stats,656272320308029,PAPI_L3_TCM,3,221.05645752, 13.66427612,end
timer_stats,656272321381921,PAPI_L3_TCM,6,221.32958984, 13.67994690,end
timer_stats,656272322455698,PAPI_L3_TCM,2,221.59796142, 13.69563293,end
timer_stats,656272323529318,PAPI_L3_TCM,3,221.87915039, 13.71128845,end
timer_stats,656272324603015,PAPI_L3_TCM,3,222.38916016, 13.74238586,end
timer_stats,656272325676588,PAPI_L3_TCM,4,222.66302490, 13.75830078,end
timer_stats,656272326749714,PAPI_L3_TCM,1,222.93920898, 13.77394104,end
timer_stats,656272327823037,PAPI_L3_TCM,1,223.20538330, 13.78970337,end
timer_stats,656272328896932,PAPI_L3_TCM,4,223.45422363, 13.80551147,end
timer_stats,656272329970140,PAPI_L3_TCM,12,223.72344971, 13.82125854,end
timer_stats,656272331043712,PAPI_L3_TCM,0,223.98870849, 13.83702087,end
timer_stats,656272332116565,PAPI_L3_TCM,6,224.26409912, 13.85324097,end
timer_stats,656272333191224,PAPI_L3_TCM,3,224.53179932, 13.86965942,end
timer_stats,656272334265418,PAPI_L3_TCM,6,224.78643799, 13.88574219,end
timer_stats,656272335338604,PAPI_L3_TCM,4,225.05596924, 13.90173340,end
timer_stats,656272336412521,PAPI_L3_TCM,10,225.32781982, 13.91770935,end
timer_stats,656272337486277,PAPI_L3_TCM,2,225.60565185, 13.93345642,end
timer_stats,656272338558990,PAPI_L3_TCM,5,225.98468017, 13.95742798,end
timer_stats,656272339631283,PAPI_L3_TCM,1,226.40185547, 13.98063659,end
timer_stats,656272340706719,PAPI_L3_TCM,10,226.65820312, 13.99644470,end
timer_stats,656272341779720,PAPI_L3_TCM,5,226.91778564, 14.01216125,end
timer_stats,656272342854472,PAPI_L3_TCM,1,227.17852783, 14.02793884,end
timer_stats,656272343926705,PAPI_L3_TCM,3,227.46490478, 14.04364014,end
timer_stats,656272345000920,PAPI_L3_TCM,4,227.73345947, 14.05937195,end
timer_stats,656272346075372,PAPI_L3_TCM,3,227.98175049, 14.07540894,end
timer_stats,656272347149118,PAPI_L3_TCM,2,228.25524902, 14.09230041,end
timer_stats,656272348221795,PAPI_L3_TCM,7,228.51910400, 14.10800171,end
timer_stats,656272349295121,PAPI_L3_TCM,4,228.78356934, 14.12399292,end
timer_stats,656272350368663,PAPI_L3_TCM,2,229.05627441, 14.13970947,end
timer_stats,656272351441358,PAPI_L3_TCM,6,229.31842041, 14.15516662,end
timer_stats,656272352514483,PAPI_L3_TCM,6,229.58459473, 14.17115784,end
timer_stats,656272353589478,PAPI_L3_TCM,6,230.10687256, 14.20262146,end
timer_stats,656272354662315,PAPI_L3_TCM,0,230.37884521, 14.21839905,end
timer_stats,656272355735718,PAPI_L3_TCM,3,230.64111328, 14.23388672,end
timer_stats,656272356809724,PAPI_L3_TCM,3,230.90991211, 14.24966431,end
timer_stats,656272357883292,PAPI_L3_TCM,4,231.18121338, 14.26535034,end
timer_stats,656272358955957,PAPI_L3_TCM,4,231.45410156, 14.28092956,end
timer_stats,656272360013876,PAPI_L3_TCM,7,231.70959473, 14.29647827,end
timer_stats,656272361086904,PAPI_L3_TCM,8,231.98468017, 14.31219482,end
timer_stats,656272362159886,PAPI_L3_TCM,2,232.25817871, 14.32795715,end
timer_stats,656272363232403,PAPI_L3_TCM,2,232.51306152, 14.34326172,end
timer_stats,656272364306576,PAPI_L3_TCM,5,232.78100586, 14.35903931,end
timer_stats,656272365380327,PAPI_L3_TCM,6,233.03625488, 14.37486267,end
timer_stats,656272366453346,PAPI_L3_TCM,6,233.29547119, 14.39045715,end
timer_stats,656272367525959,PAPI_L3_TCM,0,233.58081055, 14.40632629,end
timer_stats,656272368598431,PAPI_L3_TCM,7,234.10174560, 14.43917847,end
timer_stats,656272369672086,PAPI_L3_TCM,2,234.36566162, 14.45495605,end
timer_stats,656272370744883,PAPI_L3_TCM,3,234.63635254, 14.47071838,end
timer_stats,656272371818115,PAPI_L3_TCM,1,234.89935303, 14.48770142,end
timer_stats,656272372891417,PAPI_L3_TCM,5,235.15582275, 14.50323486,end
timer_stats,656272373964445,PAPI_L3_TCM,0,235.42352295, 14.51901245,end
timer_stats,656272375037680,PAPI_L3_TCM,2,235.69549560, 14.53497314,end
timer_stats,656272376110504,PAPI_L3_TCM,13,235.95391846, 14.55126953,end
timer_stats,656272377185039,PAPI_L3_TCM,7,236.22863769, 14.56661987,end
timer_stats,656272378258716,PAPI_L3_TCM,7,236.49060059, 14.58235168,end
timer_stats,656272379331178,PAPI_L3_TCM,3,236.75439453, 14.59794617,end
timer_stats,656272380406465,PAPI_L3_TCM,9,237.02337646, 14.61367798,end
timer_stats,656272384996637,PAPI_L3_TCM,280,238.20959473, 14.72285461,end
timer_stats,656272386089455,PAPI_L3_TCM,109,238.43353271, 14.73884582,end
timer_stats,656272387164854,PAPI_L3_TCM,7,238.68817139, 14.75401306,end
timer_stats,656272388238712,PAPI_L3_TCM,4,238.95257568, 14.76953125,end
timer_stats,656272389312989,PAPI_L3_TCM,1,239.21264648, 14.78559875,end
timer_stats,656272390386252,PAPI_L3_TCM,2,239.47192383, 14.80088806,end
timer_stats,656272391460268,PAPI_L3_TCM,3,239.74328613, 14.81619263,end
timer_stats,656272392533705,PAPI_L3_TCM,1,240.00439453, 14.83172607,end
timer_stats,656272393607309,PAPI_L3_TCM,3,240.53430176, 14.85508728,end
timer_stats,656272394680541,PAPI_L3_TCM,2,240.80963135, 14.87791443,end
timer_stats,656272395753554,PAPI_L3_TCM,3,241.06671142, 14.89344787,end
timer_stats,656272396827228,PAPI_L3_TCM,1,241.32067871, 14.90928650,end
timer_stats,656272397901214,PAPI_L3_TCM,1,241.59265137, 14.92478943,end
timer_stats,656272398975127,PAPI_L3_TCM,2,241.86804199, 14.93998718,end
timer_stats,656272400013672,PAPI_L3_TCM,8,242.12829590, 14.95529175,end
timer_stats,656272401087109,PAPI_L3_TCM,3,242.39276123, 14.97116089,end
timer_stats,656272402160550,PAPI_L3_TCM,4,242.66448975, 14.98641968,end
timer_stats,656272403235355,PAPI_L3_TCM,0,242.92535400, 15.00173950,end
timer_stats,656272404309425,PAPI_L3_TCM,4,243.18328857, 15.01699829,end
timer_stats,656272405383747,PAPI_L3_TCM,4,243.44787597, 15.03256226,end
timer_stats,656272406457248,PAPI_L3_TCM,3,243.71740723, 15.04809570,end
timer_stats,656272407531286,PAPI_L3_TCM,3,243.97320557, 15.06346130,end
timer_stats,656272408605421,PAPI_L3_TCM,3,244.24871826, 15.07872009,end
timer_stats,656272409680264,PAPI_L3_TCM,3,244.77252197, 15.11022949,end
timer_stats,656272410753466,PAPI_L3_TCM,4,245.03863525, 15.12603760,end
timer_stats,656272411826640,PAPI_L3_TCM,1,245.29602051, 15.14189148,end
timer_stats,656272412900898,PAPI_L3_TCM,4,245.57562256, 15.15702820,end
timer_stats,656272413974617,PAPI_L3_TCM,4,245.83087158, 15.17283630,end
timer_stats,656272415048414,PAPI_L3_TCM,8,246.09020996, 15.18881226,end
timer_stats,656272416121343,PAPI_L3_TCM,1,246.36145019, 15.20455932,end
timer_stats,656272417194626,PAPI_L3_TCM,3,246.62646484, 15.22084045,end
timer_stats,656272418267465,PAPI_L3_TCM,0,246.89624023, 15.23677063,end
timer_stats,656272419340784,PAPI_L3_TCM,5,247.16741943, 15.25238037,end
timer_stats,656272420413927,PAPI_L3_TCM,1,247.43267822, 15.26835632,end
timer_stats,656272421487099,PAPI_L3_TCM,5,247.68780517, 15.28471374,end
timer_stats,656272422560287,PAPI_L3_TCM,1,247.95910645, 15.30044556,end
timer_stats,656272423635002,PAPI_L3_TCM,2,248.35198974, 15.32424927,end
timer_stats,656272424709630,PAPI_L3_TCM,1,248.74670410, 15.34808349,end
timer_stats,656272425783646,PAPI_L3_TCM,4,249.00762939, 15.36331177,end
timer_stats,656272426856588,PAPI_L3_TCM,2,249.29064941, 15.37875366,end
timer_stats,656272427930107,PAPI_L3_TCM,4,249.53637695, 15.39450073,end
timer_stats,656272429004827,PAPI_L3_TCM,4,249.80950928, 15.41020203,end
timer_stats,656272430080318,PAPI_L3_TCM,7,250.07720947, 15.42593384,end
timer_stats,656272431153343,PAPI_L3_TCM,1,250.34814453, 15.44171142,end
timer_stats,656272432226692,PAPI_L3_TCM,1,250.61645508, 15.45747375,end
timer_stats,656272433300218,PAPI_L3_TCM,3,250.87786865, 15.47297668,end
timer_stats,656272434374351,PAPI_L3_TCM,2,251.14422607, 15.48878479,end
timer_stats,656272435447596,PAPI_L3_TCM,2,251.39776611, 15.50428772,end
timer_stats,656272436522028,PAPI_L3_TCM,8,251.66705322, 15.52137756,end
timer_stats,656272437596464,PAPI_L3_TCM,9,251.92810059, 15.53684997,end
timer_stats,656272438670102,PAPI_L3_TCM,2,252.31787109, 15.56088257,end
timer_stats,656272439743269,PAPI_L3_TCM,0,252.72766113, 15.58412170,end
timer_stats,656272440816489,PAPI_L3_TCM,5,252.98632812, 15.59963989,end
timer_stats,656272441890726,PAPI_L3_TCM,0,253.24700928, 15.61515808,end
timer_stats,656272442964219,PAPI_L3_TCM,2,253.52014160, 15.63066101,end
timer_stats,656272444014063,PAPI_L3_TCM,4,253.78399658, 15.64614868,end
timer_stats,656272445087534,PAPI_L3_TCM,4,254.05853271, 15.66163635,end
timer_stats,656272446161769,PAPI_L3_TCM,8,254.30743408, 15.67854309,end
timer_stats,656272447236186,PAPI_L3_TCM,4,254.56518555, 15.69479370,end
timer_stats,656272448309685,PAPI_L3_TCM,1,254.83209228, 15.71052551,end
timer_stats,656272449383486,PAPI_L3_TCM,5,255.09899902, 15.72743225,end
timer_stats,656272450458467,PAPI_L3_TCM,4,255.37213135, 15.74359131,end
timer_stats,656272451530404,PAPI_L3_TCM,3,255.63018799, 15.75915527,end
timer_stats,656272452612765,PAPI_L3_TCM,37,255.90032959, 15.77435303,end
timer_stats,656272453691049,PAPI_L3_TCM,25,256.26861572, 15.79003906,end
timer_stats,656272454764542,PAPI_L3_TCM,3,256.53533936, 15.81300354,end
timer_stats,656272455947535,PAPI_L3_TCM,35,256.91845703, 15.83631897,end
timer_stats,656272457026918,PAPI_L3_TCM,28,257.14660644, 15.85218811,end
timer_stats,656272458117982,PAPI_L3_TCM,21,257.43945312, 15.86790466,end
timer_stats,656272459517754,PAPI_L3_TCM,6,257.66015625, 15.88334656,end
timer_stats,656272460611902,PAPI_L3_TCM,15,257.89801025, 15.89379883,end
timer_stats,656272461689923,PAPI_L3_TCM,26,258.26770019, 15.91813660,end
timer_stats,656272462763832,PAPI_L3_TCM,27,258.58654785, 15.93803406,end
timer_stats,656272463858518,PAPI_L3_TCM,0,258.72479248, 15.94587707,end
timer_stats,656272464963777,PAPI_L3_TCM,5,259.10363769, 15.96873474,end
timer_stats,656272466066507,PAPI_L3_TCM,1,259.35375977, 15.98486328,end
timer_stats,656272467167783,PAPI_L3_TCM,2,259.63226318, 16.00013733,end
timer_stats,656272468249033,PAPI_L3_TCM,9,259.86328125, 16.01679993,end
timer_stats,656272469349712,PAPI_L3_TCM,17,260.09088135, 16.03346252,end
timer_stats,656272470458238,PAPI_L3_TCM,0,260.31884766, 16.04939270,end
timer_stats,656272471751993,PAPI_L3_TCM,5,260.70184326, 16.06996155,end
timer_stats,656272472867208,PAPI_L3_TCM,1,261.04992676, 16.09185791,end
timer_stats,656272473975818,PAPI_L3_TCM,3,261.30523682, 16.10720825,end
timer_stats,656272475084713,PAPI_L3_TCM,1,261.55883789, 16.12210083,end
timer_stats,656272476181559,PAPI_L3_TCM,1,261.80657959, 16.13771057,end
timer_stats,656272477280311,PAPI_L3_TCM,8,262.03863525, 16.14292908,end
timer_stats,656272478395218,PAPI_L3_TCM,2,262.26824951, 16.15863037,end
timer_stats,656272479512352,PAPI_L3_TCM,0,262.51116943, 16.17375183,end
timer_stats,656272480767226,PAPI_L3_TCM,15,262.99670410, 16.19764709,end
timer_stats,656272481875696,PAPI_L3_TCM,0,263.21417236, 16.21360779,end
timer_stats,656272484199358,PAPI_L3_TCM,8,263.53961182, 16.23658752,end
timer_stats,656272485314390,PAPI_L3_TCM,1,263.71459961, 16.25244140,end
timer_stats,656272486429402,PAPI_L3_TCM,1,263.93756103, 16.26815796,end
timer_stats,656272487542185,PAPI_L3_TCM,0,264.16839600, 16.28263855,end
timer_stats,656272488662598,PAPI_L3_TCM,2,264.42510986, 16.29705811,end
timer_stats,656272489786901,PAPI_L3_TCM,0,264.74755859, 16.31898498,end
timer_stats,656272490915415,PAPI_L3_TCM,2,265.11682129, 16.33372497,end
timer_stats,656272492045613,PAPI_L3_TCM,0,265.31127930, 16.35615539,end
timer_stats,656272493169062,PAPI_L3_TCM,5,265.56024170, 16.37135315,end
timer_stats,656272499698605,PAPI_L3_TCM,309,266.72711182, 16.48880005,end
timer_stats,656272500807848,PAPI_L3_TCM,150,266.98425293, 16.50805664,end
timer_stats,656272501900236,PAPI_L3_TCM,5,267.23071289, 16.52124023,end
timer_stats,656272503005561,PAPI_L3_TCM,3,267.45025635, 16.53446960,end
timer_stats,656272504084989,PAPI_L3_TCM,3,267.67010498, 16.54776001,end
timer_stats,656272505189659,PAPI_L3_TCM,4,267.89379883, 16.56105041,end
timer_stats,656272506298659,PAPI_L3_TCM,2,268.12445068, 16.57493591,end
timer_stats,656272507406922,PAPI_L3_TCM,2,268.34326172, 16.58801269,end
timer_stats,656272508503313,PAPI_L3_TCM,0,268.57342529, 16.60105896,end
timer_stats,656272509612906,PAPI_L3_TCM,2,268.76477051, 16.61470032,end
timer_stats,656272510723464,PAPI_L3_TCM,0,269.10260010, 16.63458252,end
timer_stats,656272511837720,PAPI_L3_TCM,1,269.43908691, 16.65379333,end
timer_stats,656272512954697,PAPI_L3_TCM,0,269.68243408, 16.66702271,end
timer_stats,656272514064136,PAPI_L3_TCM,2,269.90307617, 16.68029785,end
timer_stats,656272515174946,PAPI_L3_TCM,2,270.10333252, 16.69546509,end
timer_stats,656272516286016,PAPI_L3_TCM,2,270.33544922, 16.70826721,end
timer_stats,656272517425766,PAPI_L3_TCM,2,270.55950928, 16.72109985,end
timer_stats,656272518558235,PAPI_L3_TCM,2,270.77148437, 16.73352051,end
timer_stats,656272519691052,PAPI_L3_TCM,0,270.98748779, 16.74594116,end
timer_stats,656272520823597,PAPI_L3_TCM,1,271.30670166, 16.76457214,end
timer_stats,656272521957642,PAPI_L3_TCM,0,271.63958740, 16.78411865,end
timer_stats,656272523089484,PAPI_L3_TCM,2,271.83544922, 16.79681396,end
timer_stats,656272524226939,PAPI_L3_TCM,0,272.05102539, 16.80918884,end
timer_stats,656272525341159,PAPI_L3_TCM,2,272.26422119, 16.82168579,end
timer_stats,656272526470461,PAPI_L3_TCM,0,272.46405029, 16.83418274,end
timer_stats,656272527615271,PAPI_L3_TCM,1,272.67895508, 16.84637451,end
timer_stats,656272528744614,PAPI_L3_TCM,1,272.87402344, 16.85862732,end
timer_stats,656272529882553,PAPI_L3_TCM,1,273.28570557, 16.88336182,end
timer_stats,656272531014577,PAPI_L3_TCM,0,273.49322510, 16.89555359,end
timer_stats,656272532142097,PAPI_L3_TCM,3,273.70672607, 16.90727234,end
timer_stats,656272533252269,PAPI_L3_TCM,0,273.88909912, 16.91958618,end
timer_stats,656272534385644,PAPI_L3_TCM,3,274.10424805, 16.93202209,end
timer_stats,656272535528710,PAPI_L3_TCM,0,274.31262207, 16.94491577,end
timer_stats,656272536659132,PAPI_L3_TCM,2,274.51989746, 16.95655823,end
timer_stats,656272537793430,PAPI_L3_TCM,0,274.80975342, 16.97506714,end
timer_stats,656272538932466,PAPI_L3_TCM,1,275.11071777, 16.99401855,end
timer_stats,656272540063040,PAPI_L3_TCM,0,275.30657959, 17.00650024,end
timer_stats,656272541174641,PAPI_L3_TCM,3,275.51727295, 17.01939392,end
timer_stats,656272542307998,PAPI_L3_TCM,1,275.71264648, 17.03111267,end
timer_stats,656272543440516,PAPI_L3_TCM,3,275.91949463, 17.04299927,end
timer_stats,656272544569206,PAPI_L3_TCM,8,276.10778808, 17.05448914,end
timer_stats,656272545704269,PAPI_L3_TCM,1,276.31097412, 17.06645203,end
timer_stats,656272546842235,PAPI_L3_TCM,0,276.59960937, 17.08444214,end
timer_stats,656272547976048,PAPI_L3_TCM,1,276.89178467, 17.10314941,end
timer_stats,656272549124703,PAPI_L3_TCM,2,277.08221435, 17.11511230,end
timer_stats,656272550234791,PAPI_L3_TCM,2,277.28314209, 17.12756347,end
timer_stats,656272551356414,PAPI_L3_TCM,0,277.46984863, 17.13951111,end
timer_stats,656272552470904,PAPI_L3_TCM,2,277.66687012, 17.15147400,end
timer_stats,656272553580904,PAPI_L3_TCM,0,277.86212158, 17.16345215,end
timer_stats,656272554698498,PAPI_L3_TCM,1,278.04980469, 17.17518616,end
timer_stats,656272555815032,PAPI_L3_TCM,1,278.32092285, 17.19343567,end
timer_stats,656272556927043,PAPI_L3_TCM,1,278.60955811, 17.21166992,end
timer_stats,656272558038758,PAPI_L3_TCM,0,278.80364990, 17.22314453,end
timer_stats,656272559150089,PAPI_L3_TCM,2,278.99139404, 17.23539734,end
timer_stats,656272560261505,PAPI_L3_TCM,2,279.17126465, 17.24717712,end
timer_stats,656272561538703,PAPI_L3_TCM,344,279.35137939, 17.26026916,end
timer_stats,656272562667286,PAPI_L3_TCM,217,279.53289795, 17.27246094,end
timer_stats,656272563738882,PAPI_L3_TCM,16,279.71191406, 17.28469848,end
timer_stats,656272564809409,PAPI_L3_TCM,16,279.98095703, 17.30313110,end
timer_stats,656272565906296,PAPI_L3_TCM,21,280.16479492, 17.31507874,end
timer_stats,656272567016077,PAPI_L3_TCM,16,280.43200683, 17.33253479,end
timer_stats,656272568101518,PAPI_L3_TCM,8,280.60717773, 17.34432983,end
timer_stats,656272569203242,PAPI_L3_TCM,3,280.78082275, 17.35588074,end
timer_stats,656272570303607,PAPI_L3_TCM,3,280.96343994, 17.36737061,end
timer_stats,656272571406772,PAPI_L3_TCM,3,281.13385010, 17.37892151,end
timer_stats,656272572511023,PAPI_L3_TCM,4,281.30944824, 17.39044189,end
timer_stats,656272573628238,PAPI_L3_TCM,0,281.48754883, 17.40220642,end
timer_stats,656272574736476,PAPI_L3_TCM,1,281.67266846, 17.41369629,end
timer_stats,656272575846600,PAPI_L3_TCM,0,281.91949463, 17.43083191,end
timer_stats,656272576955404,PAPI_L3_TCM,4,282.19329834, 17.44882202,end
timer_stats,656272578063135,PAPI_L3_TCM,1,282.36010742, 17.46037292,end
timer_stats,656272579176209,PAPI_L3_TCM,4,282.53570557, 17.47186279,end
timer_stats,656272580261951,PAPI_L3_TCM,2,282.71551514, 17.48359680,end
timer_stats,656272581368333,PAPI_L3_TCM,3,282.89074707, 17.49540710,end
timer_stats,656272582488096,PAPI_L3_TCM,1,283.06567383, 17.50738525,end
timer_stats,656272583611263,PAPI_L3_TCM,2,283.22607422, 17.51945496,end
timer_stats,656272584730564,PAPI_L3_TCM,0,283.39160156, 17.53294372,end
timer_stats,656272585851255,PAPI_L3_TCM,3,283.55664062, 17.54425049,end
timer_stats,656272586969718,PAPI_L3_TCM,3,283.87902832, 17.56851196,end
timer_stats,656272588068148,PAPI_L3_TCM,5,284.04333496, 17.58006286,end
timer_stats,656272589268238,PAPI_L3_TCM,437,284.20227051, 17.59161377,end
timer_stats,656272590394192,PAPI_L3_TCM,1,284.36370850, 17.60314941,end
timer_stats,656272591522496,PAPI_L3_TCM,0,284.52270508, 17.61471558,end
timer_stats,656272592647698,PAPI_L3_TCM,3,284.68371582, 17.62768555,end
timer_stats,656272593774977,PAPI_L3_TCM,0,284.84539795, 17.64048767,end
timer_stats,656272594901818,PAPI_L3_TCM,4,285.14477539, 17.66609192,end
timer_stats,656272596033123,PAPI_L3_TCM,0,285.29125977, 17.67701721,end
timer_stats,656272597159751,PAPI_L3_TCM,5,285.44464111, 17.68833923,end
timer_stats,656272598286085,PAPI_L3_TCM,0,285.59851074, 17.69918823,end
timer_stats,656272599413047,PAPI_L3_TCM,1,285.74200439, 17.71061706,end
timer_stats,656272600542078,PAPI_L3_TCM,0,285.89337158, 17.72151184,end
timer_stats,656272601666488,PAPI_L3_TCM,1,286.03710937, 17.73243713,end
timer_stats,656272602793432,PAPI_L3_TCM,1,286.18750000, 17.74447632,end
timer_stats,656272603918956,PAPI_L3_TCM,3,286.46594238, 17.76564026,end
timer_stats,656272605044836,PAPI_L3_TCM,0,286.60760498, 17.77680969,end
timer_stats,656272606188736,PAPI_L3_TCM,3,286.74957275, 17.78984070,end
timer_stats,656272607331621,PAPI_L3_TCM,0,286.88470459, 17.80076599,end
timer_stats,656272608479808,PAPI_L3_TCM,1,287.01971435, 17.81123352,end
timer_stats,656272609623904,PAPI_L3_TCM,0,287.16162109, 17.82191467,end
timer_stats,656272610768515,PAPI_L3_TCM,1,287.28845215, 17.83290100,end
timer_stats,656272611892163,PAPI_L3_TCM,0,287.49334717, 17.84965515,end
timer_stats,656272613039987,PAPI_L3_TCM,2,287.69781494, 17.86637878,end
timer_stats,656272614183530,PAPI_L3_TCM,0,287.82733154, 17.87709045,end
timer_stats,656272615338602,PAPI_L3_TCM,2,287.95855713, 17.88804626,end
timer_stats,656272616519673,PAPI_L3_TCM,0,288.09857178, 17.89849853,end
timer_stats,656272617692567,PAPI_L3_TCM,1,288.22949219, 17.90922546,end
timer_stats,656272618860126,PAPI_L3_TCM,0,288.48352051, 17.93090820,end
timer_stats,656272620045262,PAPI_L3_TCM,1,288.61187744, 17.94161987,end
timer_stats,656272621172507,PAPI_L3_TCM,0,288.74536133, 17.95230103,end
timer_stats,656272622336573,PAPI_L3_TCM,2,288.88549805, 17.96296692,end
timer_stats,656272623483802,PAPI_L3_TCM,0,289.01068115, 17.97369385,end
timer_stats,656272624647585,PAPI_L3_TCM,4,289.14471435, 17.98439026,end
timer_stats,656272625816417,PAPI_L3_TCM,0,289.28149414, 17.99501037,end
timer_stats,656272626987089,PAPI_L3_TCM,1,289.52899170, 18.01625061,end
timer_stats,656272628154104,PAPI_L3_TCM,0,289.65447998, 18.02697754,end
timer_stats,656272629286877,PAPI_L3_TCM,1,289.77795410, 18.03773498,end
timer_stats,656272630455884,PAPI_L3_TCM,0,289.90496826, 18.04843140,end
timer_stats,656272631630754,PAPI_L3_TCM,1,290.03625488, 18.05892944,end
timer_stats,656272632802476,PAPI_L3_TCM,1,290.15759277, 18.06993103,end
timer_stats,656272633971851,PAPI_L3_TCM,2,290.41351318, 18.09114075,end
timer_stats,656272635140337,PAPI_L3_TCM,0,290.53906250, 18.10186768,end
timer_stats,656272636326739,PAPI_L3_TCM,2,290.66790771, 18.11233520,end
timer_stats,656272637496904,PAPI_L3_TCM,0,290.79022217, 18.12309265,end
timer_stats,656272638664456,PAPI_L3_TCM,1,290.92095947, 18.13377380,end
timer_stats,656272639834198,PAPI_L3_TCM,0,291.10162353, 18.14942932,end
timer_stats,656272640998734,PAPI_L3_TCM,2,291.29467773, 18.16741943,end
timer_stats,656272642176846,PAPI_L3_TCM,0,291.42034912, 18.17790222,end
timer_stats,656272643346024,PAPI_L3_TCM,2,291.53735352, 18.18841553,end
timer_stats,656272644513189,PAPI_L3_TCM,1,291.66033935, 18.19891357,end
timer_stats,656272645656519,PAPI_L3_TCM,1,291.78161621, 18.20944214,end
timer_stats,656272646824076,PAPI_L3_TCM,1,291.90368652, 18.22508240,end
timer_stats,656272647987391,PAPI_L3_TCM,1,292.14611816, 18.24139404,end
timer_stats,656272649148700,PAPI_L3_TCM,1,292.26635742, 18.25189209,end
timer_stats,656272650320618,PAPI_L3_TCM,1,292.37963867, 18.26245117,end
timer_stats,656272651487336,PAPI_L3_TCM,1,292.49725342, 18.27296448,end
timer_stats,656272652664797,PAPI_L3_TCM,2,292.61547852, 18.28315735,end
timer_stats,656272653851127,PAPI_L3_TCM,0,292.72515869, 18.29882812,end
timer_stats,656272655017085,PAPI_L3_TCM,3,292.94183350, 18.31449890,end
timer_stats,656272656185447,PAPI_L3_TCM,1,293.05340576, 18.31962585,end
timer_stats,656272657320808,PAPI_L3_TCM,2,293.15826416, 18.33018494,end
timer_stats,656272658480996,PAPI_L3_TCM,0,293.26550293, 18.34069824,end
timer_stats,656272659638657,PAPI_L3_TCM,1,293.37506103, 18.35122680,end
timer_stats,656272660804038,PAPI_L3_TCM,1,293.48168945, 18.36697388,end
timer_stats,656272661968542,PAPI_L3_TCM,2,293.69653320, 18.38261414,end
timer_stats,656272663127348,PAPI_L3_TCM,0,293.80316162, 18.39312744,end
timer_stats,656272664290125,PAPI_L3_TCM,2,293.90991211, 18.40321350,end
timer_stats,656272665430212,PAPI_L3_TCM,0,294.02020264, 18.41372680,end
timer_stats,656272666593439,PAPI_L3_TCM,1,294.12780762, 18.42399597,end
timer_stats,656272667761137,PAPI_L3_TCM,0,294.23236084, 18.43455505,end
timer_stats,656272668925712,PAPI_L3_TCM,2,294.45184326, 18.45532226,end
timer_stats,656272670090939,PAPI_L3_TCM,0,294.55859375, 18.46583557,end
timer_stats,656272671267549,PAPI_L3_TCM,2,294.66668701, 18.47634888,end
timer_stats,656272672441244,PAPI_L3_TCM,1,294.77032471, 18.48690796,end
timer_stats,656272673617764,PAPI_L3_TCM,1,294.87622070, 18.49742126,end
timer_stats,656272674783242,PAPI_L3_TCM,0,294.98016357, 18.50798035,end
timer_stats,656272675964686,PAPI_L3_TCM,1,295.19793701, 18.52899170,end
timer_stats,656272677134057,PAPI_L3_TCM,2,295.30206299, 18.53955078,end
timer_stats,656272678306712,PAPI_L3_TCM,1,295.41369629, 18.55004883,end
timer_stats,656272679483897,PAPI_L3_TCM,0,295.51635742, 18.56039429,end
timer_stats,656272680654618,PAPI_L3_TCM,2,295.62640381, 18.57089233,end
timer_stats,656272681827599,PAPI_L3_TCM,0,295.73382568, 18.58140564,end
timer_stats,656272682995672,PAPI_L3_TCM,1,295.94354248, 18.60246277,end
timer_stats,656272684165498,PAPI_L3_TCM,2,296.05401611, 18.61277771,end
timer_stats,656272685313499,PAPI_L3_TCM,1,296.16210937, 18.62329101,end
timer_stats,656272686483013,PAPI_L3_TCM,0,296.26928711, 18.63381958,end
timer_stats,656272687647749,PAPI_L3_TCM,1,296.37725830, 18.64433288,end
timer_stats,656272688820576,PAPI_L3_TCM,1,296.48577881, 18.65484619,end
timer_stats,656272689986286,PAPI_L3_TCM,1,296.69696045, 18.67570496,end
timer_stats,656272691151668,PAPI_L3_TCM,0,296.80816650, 18.68620300,end
timer_stats,656272692331738,PAPI_L3_TCM,2,296.90759277, 18.69682312,end
timer_stats,656272693487808,PAPI_L3_TCM,0,297.01519775, 18.70733643,end
timer_stats,656272694655696,PAPI_L3_TCM,1,297.12329102, 18.71759033,end
timer_stats,656272695820039,PAPI_L3_TCM,0,297.23004150, 18.72813415,end
timer_stats,656272696994964,PAPI_L3_TCM,2,297.44372558, 18.74919128,end
timer_stats,656272698159946,PAPI_L3_TCM,0,297.55224609, 18.75946045,end
timer_stats,656272699337849,PAPI_L3_TCM,3,297.65643311, 18.77001953,end
timer_stats,656272700513428,PAPI_L3_TCM,1,297.76324463, 18.78030395,end
timer_stats,656272701689939,PAPI_L3_TCM,1,297.87188721, 18.79086304,end
timer_stats,656272702882178,PAPI_L3_TCM,0,297.97692871, 18.80117798,end
timer_stats,656272704055214,PAPI_L3_TCM,2,298.18884277, 18.82223511,end
timer_stats,656272705206857,PAPI_L3_TCM,0,298.29772949, 18.83276367,end
timer_stats,656272706376985,PAPI_L3_TCM,2,298.40600586, 18.84327698,end
timer_stats,656272707551028,PAPI_L3_TCM,0,298.50933838, 18.85383606,end
timer_stats,656272708725882,PAPI_L3_TCM,2,298.62164307, 18.86433411,end
timer_stats,656272709899483,PAPI_L3_TCM,0,298.77374267, 18.88003540,end
timer_stats,656272711072213,PAPI_L3_TCM,0,298.93994141, 18.89567566,end
timer_stats,656272712240488,PAPI_L3_TCM,1,299.04528808, 18.90596008,end
timer_stats,656272713387770,PAPI_L3_TCM,2,299.15533447, 18.91650390,end
timer_stats,656272714561765,PAPI_L3_TCM,0,299.25891113, 18.92704773,end
timer_stats,656272715729086,PAPI_L3_TCM,1,299.36541748, 18.93730164,end
timer_stats,656272716896457,PAPI_L3_TCM,1,299.50854492, 18.95234680,end
timer_stats,656272718063445,PAPI_L3_TCM,1,299.67022705, 18.96818542,end
timer_stats,656272719231656,PAPI_L3_TCM,0,299.76708984, 18.97871399,end
timer_stats,656272720397888,PAPI_L3_TCM,0,299.86352539, 18.98927307,end
timer_stats,656272721565330,PAPI_L3_TCM,0,299.96209717, 18.99913025,end
timer_stats,656272722735892,PAPI_L3_TCM,1,300.06079101, 19.00944519,end
timer_stats,656272723920744,PAPI_L3_TCM,0,300.24749756, 19.03013611,end
timer_stats,656272725095136,PAPI_L3_TCM,1,300.34735107, 19.04045105,end
timer_stats,656272726242647,PAPI_L3_TCM,0,300.44244385, 19.05055237,end
timer_stats,656272727410104,PAPI_L3_TCM,1,300.53973389, 19.06108093,end
timer_stats,656272728584540,PAPI_L3_TCM,0,300.63104248, 19.07121277,end
timer_stats,656272729752444,PAPI_L3_TCM,0,300.73162842, 19.08149719,end
timer_stats,656272730921012,PAPI_L3_TCM,0,300.87072754, 19.09672546,end
timer_stats,656272732097885,PAPI_L3_TCM,1,301.01593017, 19.11242676,end
timer_stats,656272733246553,PAPI_L3_TCM,0,301.11193848, 19.12295532,end
timer_stats,656272734409782,PAPI_L3_TCM,1,301.20733642, 19.13348389,end
timer_stats,656272735574896,PAPI_L3_TCM,0,301.30725098, 19.14352417,end
timer_stats,656272736737594,PAPI_L3_TCM,1,301.40209961, 19.15362549,end
timer_stats,656272737902127,PAPI_L3_TCM,0,301.49578857, 19.16394043,end
timer_stats,656272739068508,PAPI_L3_TCM,0,301.68670654, 19.18437195,end
timer_stats,656272740235811,PAPI_L3_TCM,0,301.78192139, 19.19470215,end
timer_stats,656272741389343,PAPI_L3_TCM,1,301.87829590, 19.20526123,end
timer_stats,656272742566624,PAPI_L3_TCM,0,301.97241211, 19.21578979,end
timer_stats,656272743749590,PAPI_L3_TCM,1,302.07043457, 19.22607422,end
timer_stats,656272744926909,PAPI_L3_TCM,0,302.16436767, 19.24154663,end
timer_stats,656272746100418,PAPI_L3_TCM,1,302.35705566, 19.25704956,end
timer_stats,656272747265292,PAPI_L3_TCM,0,302.45159912, 19.26760864,end
timer_stats,656272748431516,PAPI_L3_TCM,1,302.54248047, 19.27774048,end
timer_stats,656272749612101,PAPI_L3_TCM,0,302.64184570, 19.28756714,end
timer_stats,656272750806110,PAPI_L3_TCM,0,302.73852539, 19.29763794,end
timer_stats,656272751986208,PAPI_L3_TCM,1,302.92663574, 19.31779480,end
timer_stats,656272753161691,PAPI_L3_TCM,2,303.02044678, 19.32814026,end
timer_stats,656272754343117,PAPI_L3_TCM,0,303.11688232, 19.33845520,end
timer_stats,656272755523194,PAPI_L3_TCM,1,303.21173096, 19.34852600,end
timer_stats,656272756705687,PAPI_L3_TCM,1,303.30413818, 19.35890198,end
timer_stats,656272757882841,PAPI_L3_TCM,0,303.40447998, 19.36918640,end
timer_stats,656272759078753,PAPI_L3_TCM,0,303.59228516, 19.38983154,end
timer_stats,656272760256896,PAPI_L3_TCM,1,303.68884277, 19.39991760,end
timer_stats,656272761439273,PAPI_L3_TCM,0,303.78765869, 19.41018677,end
timer_stats,656272762621061,PAPI_L3_TCM,2,303.87933350, 19.42007446,end
timer_stats,656272763802644,PAPI_L3_TCM,0,303.97491455, 19.43038940,end
timer_stats,656272764982623,PAPI_L3_TCM,2,304.16290283, 19.45086670,end
timer_stats,656272766158263,PAPI_L3_TCM,0,304.26190185, 19.46139526,end
timer_stats,656272767341012,PAPI_L3_TCM,0,304.35699463, 19.47146606,end
timer_stats,656272768524450,PAPI_L3_TCM,1,304.45013428, 19.48156738,end
timer_stats,656272769700534,PAPI_L3_TCM,0,304.54394531, 19.49188232,end
timer_stats,656272770882180,PAPI_L3_TCM,0,304.64025879, 19.50241089,end
timer_stats,656272772061154,PAPI_L3_TCM,2,304.83300781, 19.52255249,end
timer_stats,656272773237996,PAPI_L3_TCM,0,304.92523193, 19.53268433,end
timer_stats,656272774419335,PAPI_L3_TCM,1,305.02197266, 19.54299927,end
timer_stats,656272775596686,PAPI_L3_TCM,0,305.11566162, 19.55313110,end
timer_stats,656272776771024,PAPI_L3_TCM,1,305.21203613, 19.56344604,end
timer_stats,656272777956976,PAPI_L3_TCM,0,305.30920410, 19.56837463,end
timer_stats,656272779112769,PAPI_L3_TCM,0,305.49560547, 19.58903503,end
timer_stats,656272780292701,PAPI_L3_TCM,1,305.58996582, 19.59916687,end
timer_stats,656272781468744,PAPI_L3_TCM,1,305.68847656, 19.60920715,end
timer_stats,656272782643189,PAPI_L3_TCM,0,305.78662109, 19.61927795,end
timer_stats,656272783824628,PAPI_L3_TCM,1,305.87646484, 19.62965393,end
timer_stats,656272785012946,PAPI_L3_TCM,1,306.02435303, 19.65025329,end
timer_stats,656272786193201,PAPI_L3_TCM,0,306.16339111, 19.66081238,end
timer_stats,656272787371640,PAPI_L3_TCM,0,306.26184082, 19.67086792,end
timer_stats,656272788550902,PAPI_L3_TCM,1,306.35894775, 19.68096924,end
timer_stats,656272789731071,PAPI_L3_TCM,0,306.45098877, 19.69131470,end
timer_stats,656272790916818,PAPI_L3_TCM,0,306.54302978, 19.70117187,end
timer_stats,656272792070029,PAPI_L3_TCM,1,306.73699951, 19.72134399,end
timer_stats,656272793245828,PAPI_L3_TCM,1,306.83099365, 19.73144531,end
timer_stats,656272794421031,PAPI_L3_TCM,0,306.92755127, 19.74176025,end
timer_stats,656272795606738,PAPI_L3_TCM,0,307.02215576, 19.75184631,end
timer_stats,656272796784701,PAPI_L3_TCM,1,307.11938477, 19.76214600,end
timer_stats,656272797968024,PAPI_L3_TCM,0,307.21246338, 19.77273559,end
timer_stats,656272799143379,PAPI_L3_TCM,0,307.40527344, 19.79333496,end
timer_stats,656272800325258,PAPI_L3_TCM,1,307.49731445, 19.80346680,end
timer_stats,656272801505618,PAPI_L3_TCM,0,307.59472656, 19.81350708,end
timer_stats,656272802680298,PAPI_L3_TCM,1,307.68969727, 19.82382202,end
timer_stats,656272803863847,PAPI_L3_TCM,0,307.79095459, 19.83407593,end
timer_stats,656272805045592,PAPI_L3_TCM,1,307.97375488, 19.85478210,end
timer_stats,656272806224704,PAPI_L3_TCM,0,308.06939697, 19.86485290,end
timer_stats,656272807412283,PAPI_L3_TCM,0,308.16705322, 19.87515259,end
timer_stats,656272808593933,PAPI_L3_TCM,1,308.26116943, 19.88523865,end
timer_stats,656272809770168,PAPI_L3_TCM,0,308.35968017, 19.89506531,end
timer_stats,656272810952163,PAPI_L3_TCM,0,308.45318603, 19.90562439,end
timer_stats,656272812130583,PAPI_L3_TCM,2,308.64080811, 19.92607117,end
timer_stats,656272813304132,PAPI_L3_TCM,0,308.73919678, 19.93589783,end
timer_stats,656272814478964,PAPI_L3_TCM,0,308.83666992, 19.94618225,end
timer_stats,656272815661897,PAPI_L3_TCM,0,308.92730713, 19.95655823,end
timer_stats,656272816851312,PAPI_L3_TCM,1,309.02374267, 19.96664429,end
timer_stats,656272818048554,PAPI_L3_TCM,0,309.21136475, 19.98730469,end
timer_stats,656272819223784,PAPI_L3_TCM,0,309.30676269, 19.99761963,end
timer_stats,656272820405369,PAPI_L3_TCM,1,309.40112305, 20.00793457,end
timer_stats,656272821586258,PAPI_L3_TCM,1,309.49768066, 20.01821899,end
timer_stats,656272822768190,PAPI_L3_TCM,0,309.59112549, 20.02828979,end
timer_stats,656272823946817,PAPI_L3_TCM,0,309.68920898, 20.03833008,end
timer_stats,656272825139307,PAPI_L3_TCM,7,309.87792969, 20.05895996,end
timer_stats,656272826324291,PAPI_L3_TCM,0,309.97241211, 20.06903076,end
timer_stats,656272827500968,PAPI_L3_TCM,0,310.06768799, 20.07934570,end
timer_stats,656272828677294,PAPI_L3_TCM,1,310.16271973, 20.08966064,end
timer_stats,656272829865743,PAPI_L3_TCM,0,310.25860596, 20.09997558,end
timer_stats,656272831048159,PAPI_L3_TCM,0,310.39923096, 20.11523437,end
timer_stats,656272832222412,PAPI_L3_TCM,1,310.54425049, 20.13092041,end
timer_stats,656272833395486,PAPI_L3_TCM,0,310.63885498, 20.14100647,end
timer_stats,656272834570558,PAPI_L3_TCM,0,310.73724365, 20.15129089,end
timer_stats,656272835742315,PAPI_L3_TCM,0,310.82702637, 20.16117859,end
timer_stats,656272836928247,PAPI_L3_TCM,1,310.92236328, 20.17124939,end
timer_stats,656272838105791,PAPI_L3_TCM,2,311.11376953, 20.19189453,end
timer_stats,656272839283998,PAPI_L3_TCM,0,311.21258545, 20.20217895,end
timer_stats,656272840462151,PAPI_L3_TCM,1,311.30334473, 20.21252441,end
timer_stats,656272841642008,PAPI_L3_TCM,0,311.40020752, 20.22283936,end
timer_stats,656272842817953,PAPI_L3_TCM,0,311.49377441, 20.23297119,end
timer_stats,656272843991798,PAPI_L3_TCM,0,311.58782959, 20.24307251,end
timer_stats,656272845166958,PAPI_L3_TCM,1,311.78027344, 20.26368713,end
timer_stats,656272846347410,PAPI_L3_TCM,0,311.87805176, 20.27397156,end
timer_stats,656272847530538,PAPI_L3_TCM,0,311.97076416, 20.28407287,end
timer_stats,656272848707466,PAPI_L3_TCM,1,312.06878662, 20.29435730,end
timer_stats,656272849890528,PAPI_L3_TCM,0,312.16442871, 20.30445862,end
timer_stats,656272851069932,PAPI_L3_TCM,0,312.34991455, 20.32537842,end
timer_stats,656272852244590,PAPI_L3_TCM,1,312.44573975, 20.33547973,end
timer_stats,656272853419848,PAPI_L3_TCM,0,312.54125977, 20.34579468,end
timer_stats,656272854597888,PAPI_L3_TCM,0,312.63281250, 20.35589600,end
timer_stats,656272855783379,PAPI_L3_TCM,0,312.73382568, 20.36618042,end
timer_stats,656272856969514,PAPI_L3_TCM,1,312.82879639, 20.37652588,end
timer_stats,656272858143799,PAPI_L3_TCM,0,313.01623535, 20.39715576,end
timer_stats,656272859323179,PAPI_L3_TCM,0,313.11035156, 20.40747070,end
timer_stats,656272860503423,PAPI_L3_TCM,1,313.20788574, 20.41775513,end
timer_stats,656272861678524,PAPI_L3_TCM,0,313.30340576, 20.42803955,end
timer_stats,656272862861393,PAPI_L3_TCM,0,313.40093994, 20.43832397,end
timer_stats,656272864056584,PAPI_L3_TCM,1,313.58502197, 20.45901489,end
timer_stats,656272865232266,PAPI_L3_TCM,0,313.68463135, 20.46905518,end
timer_stats,656272866411001,PAPI_L3_TCM,0,313.77618408, 20.47943115,end
timer_stats,656272867591356,PAPI_L3_TCM,0,313.87487793, 20.48971558,end
timer_stats,656272868771652,PAPI_L3_TCM,1,313.97027588, 20.49978638,end
timer_stats,656272869952347,PAPI_L3_TCM,0,314.06640625, 20.50985718,end
timer_stats,656272871129212,PAPI_L3_TCM,0,314.25543213, 20.53053284,end
timer_stats,656272872309695,PAPI_L3_TCM,1,314.34637451, 20.54115295,end
timer_stats,656272873485398,PAPI_L3_TCM,0,314.44482422, 20.55143738,end
timer_stats,656272874667216,PAPI_L3_TCM,0,314.53955078, 20.56175232,end
timer_stats,656272875854643,PAPI_L3_TCM,0,314.63635254, 20.57206726,end
timer_stats,656272877030983,PAPI_L3_TCM,1,314.72753906, 20.58241272,end
timer_stats,656272878205138,PAPI_L3_TCM,0,314.91845703, 20.60301208,end
timer_stats,656272879388420,PAPI_L3_TCM,0,315.01110840, 20.61335754,end
timer_stats,656272880569419,PAPI_L3_TCM,1,315.11132812, 20.62361145,end
timer_stats,656272881744635,PAPI_L3_TCM,0,315.20843506, 20.63389587,end
timer_stats,656272882934046,PAPI_L3_TCM,0,315.30059814, 20.64533996,end
timer_stats,656272884113585,PAPI_L3_TCM,1,315.39343262, 20.65580749,end
timer_stats,656272885264993,PAPI_L3_TCM,0,315.57580566, 20.67771911,end
timer_stats,656272886412929,PAPI_L3_TCM,0,315.67028808, 20.68843079,end
timer_stats,656272887564072,PAPI_L3_TCM,6,315.76062012, 20.69943237,end
timer_stats,656272888711307,PAPI_L3_TCM,9,315.85955811, 20.71029663,end
timer_stats,656272889885704,PAPI_L3_TCM,11,315.95471191, 20.72126770,end
timer_stats,656272891057307,PAPI_L3_TCM,4,316.05322266, 20.73715210,end
timer_stats,656272892231048,PAPI_L3_TCM,7,316.24090576, 20.75207519,end
timer_stats,656272893402659,PAPI_L3_TCM,4,316.33160400, 20.76217651,end
