timer_stats,655794291982836,PAPI_L3_TCM,459,  0.07012939,  0.00872803,end
timer_stats,655794293092189,PAPI_L3_TCM,38,  0.22082520,  0.03152466,end
timer_stats,655794294231057,PAPI_L3_TCM,6,  0.29052734,  0.04217529,end
timer_stats,655794295376511,PAPI_L3_TCM,3,  0.36206055,  0.05242920,end
timer_stats,655794296654772,PAPI_L3_TCM,13,  0.43835449,  0.06341553,end
timer_stats,655794297802987,PAPI_L3_TCM,11,  0.52301025,  0.07482910,end
timer_stats,655794298969796,PAPI_L3_TCM,2,  0.59655762,  0.08529663,end
timer_stats,655794300094870,PAPI_L3_TCM,0,  0.74090576,  0.10681152,end
timer_stats,655794301214018,PAPI_L3_TCM,6,  0.81817627,  0.11895752,end
timer_stats,655794302359354,PAPI_L3_TCM,2,  0.89642334,  0.13009644,end
timer_stats,655794303517287,PAPI_L3_TCM,1,  0.96917725,  0.14056396,end
timer_stats,655794304651181,PAPI_L3_TCM,1,  1.04968262,  0.15170288,end
timer_stats,655794306009146,PAPI_L3_TCM,20,  1.12957764,  0.16220093,end
timer_stats,655794307146673,PAPI_L3_TCM,12,  1.30438232,  0.18447876,end
timer_stats,655794308271184,PAPI_L3_TCM,12,  1.38757324,  0.19563293,end
timer_stats,655794309388994,PAPI_L3_TCM,2,  1.47052002,  0.20681763,end
timer_stats,655794310491322,PAPI_L3_TCM,5,  1.56054687,  0.21720886,end
timer_stats,655794311596100,PAPI_L3_TCM,3,  1.65008545,  0.22813415,end
timer_stats,655794312698296,PAPI_L3_TCM,6,  1.74194336,  0.23902893,end
timer_stats,655794313815738,PAPI_L3_TCM,2,  1.83007812,  0.25042725,end
timer_stats,655794314917497,PAPI_L3_TCM,4,  1.92272949,  0.26092529,end
timer_stats,655794316015706,PAPI_L3_TCM,3,  2.01483154,  0.27087402,end
timer_stats,655794317096420,PAPI_L3_TCM,0,  2.18695068,  0.29174805,end
timer_stats,655794318202591,PAPI_L3_TCM,0,  2.27685547,  0.30184936,end
timer_stats,655794319307836,PAPI_L3_TCM,0,  2.36737061,  0.31216431,end
timer_stats,655794320403681,PAPI_L3_TCM,3,  2.46209717,  0.32244873,end
timer_stats,655794321511225,PAPI_L3_TCM,1,  2.55383301,  0.33300781,end
timer_stats,655794322612460,PAPI_L3_TCM,2,  2.64721680,  0.34307861,end
timer_stats,655794323730985,PAPI_L3_TCM,0,  2.74188232,  0.35336304,end
timer_stats,655794324829034,PAPI_L3_TCM,1,  2.82812500,  0.36393738,end
timer_stats,655794325933271,PAPI_L3_TCM,0,  2.92779541,  0.37422180,end
timer_stats,655794327038096,PAPI_L3_TCM,0,  3.01623535,  0.39268494,end
timer_stats,655794328142224,PAPI_L3_TCM,2,  3.20556640,  0.40902710,end
timer_stats,655794329223339,PAPI_L3_TCM,0,  3.30517578,  0.41903686,end
timer_stats,655794330330420,PAPI_L3_TCM,0,  3.39709473,  0.42980957,end
timer_stats,655794331428132,PAPI_L3_TCM,0,  3.49603271,  0.43978882,end
timer_stats,655794332525673,PAPI_L3_TCM,2,  3.58325195,  0.45040894,end
timer_stats,655794333631754,PAPI_L3_TCM,1,  3.68261719,  0.46066284,end
timer_stats,655794334738489,PAPI_L3_TCM,0,  3.78247070,  0.47073364,end
timer_stats,655794335837101,PAPI_L3_TCM,0,  3.87084961,  0.48109436,end
timer_stats,655794336935311,PAPI_L3_TCM,0,  3.96990967,  0.49116516,end
timer_stats,655794338042406,PAPI_L3_TCM,0,  4.06475830,  0.50193787,end
timer_stats,655794339150395,PAPI_L3_TCM,0,  4.25885010,  0.52253723,end
timer_stats,655794340248205,PAPI_L3_TCM,2,  4.35595703,  0.53285217,end
timer_stats,655794341327857,PAPI_L3_TCM,0,  4.45336914,  0.54316711,end
timer_stats,655794342451642,PAPI_L3_TCM,1,  4.54742431,  0.55375671,end
timer_stats,655794343558499,PAPI_L3_TCM,0,  4.64459228,  0.56361389,end
timer_stats,655794344653651,PAPI_L3_TCM,2,  4.74322510,  0.57368469,end
timer_stats,655794345762793,PAPI_L3_TCM,0,  4.84082031,  0.58403015,end
timer_stats,655794346873871,PAPI_L3_TCM,0,  4.94274902,  0.59428406,end
timer_stats,655794347982905,PAPI_L3_TCM,0,  5.03955078,  0.60435486,end
timer_stats,655794349092957,PAPI_L3_TCM,2,  5.13452148,  0.61470032,end
timer_stats,655794350201282,PAPI_L3_TCM,0,  5.33886719,  0.63505554,end
timer_stats,655794351309433,PAPI_L3_TCM,0,  5.43792725,  0.64515686,end
timer_stats,655794352574122,PAPI_L3_TCM,5,  5.53887939,  0.65661621,end
timer_stats,655794353708063,PAPI_L3_TCM,16,  5.65057373,  0.66802978,end
timer_stats,655794354836908,PAPI_L3_TCM,1,  5.74591064,  0.67889404,end
timer_stats,655794355978997,PAPI_L3_TCM,4,  5.85009765,  0.68937683,end
timer_stats,655794357135198,PAPI_L3_TCM,0,  6.00079346,  0.70585632,end
timer_stats,655794358263529,PAPI_L3_TCM,1,  6.15051269,  0.72328186,end
timer_stats,655794359408041,PAPI_L3_TCM,0,  6.25494385,  0.73348999,end
timer_stats,655794360684077,PAPI_L3_TCM,9,  6.35046387,  0.74447632,end
timer_stats,655794361825952,PAPI_L3_TCM,2,  6.46008301,  0.75608826,end
timer_stats,655794362952099,PAPI_L3_TCM,0,  6.56463623,  0.76954651,end
timer_stats,655794364035544,PAPI_L3_TCM,2,  6.68878174,  0.78182983,end
timer_stats,655794365139562,PAPI_L3_TCM,0,  6.92858887,  0.80825806,end
timer_stats,655794366245827,PAPI_L3_TCM,0,  7.05084228,  0.81983948,end
timer_stats,655794367350020,PAPI_L3_TCM,5,  7.17297363,  0.83291626,end
timer_stats,655794368444246,PAPI_L3_TCM,1,  7.29321289,  0.84561157,end
timer_stats,655794369535317,PAPI_L3_TCM,1,  7.41790771,  0.86004639,end
timer_stats,655794370643269,PAPI_L3_TCM,8,  7.54986572,  0.87377930,end
timer_stats,655794371762770,PAPI_L3_TCM,3,  7.68139648,  0.88604736,end
timer_stats,655794372894485,PAPI_L3_TCM,1,  7.81201172,  0.89930725,end
timer_stats,655794374007474,PAPI_L3_TCM,1,  7.94952393,  0.91113281,end
timer_stats,655794375123735,PAPI_L3_TCM,1,  8.14807129,  0.92913818,end
timer_stats,655794376228623,PAPI_L3_TCM,2,  8.34881592,  0.94737244,end
timer_stats,655794377317716,PAPI_L3_TCM,0,  8.50457764,  0.95988464,end
timer_stats,655794378404813,PAPI_L3_TCM,2,  8.68945312,  0.97160339,end
timer_stats,655794379496679,PAPI_L3_TCM,0,  8.86346435,  0.98335266,end
timer_stats,655794380589640,PAPI_L3_TCM,1,  9.06011963,  0.99551391,end
timer_stats,655794381667680,PAPI_L3_TCM,0,  9.24328613,  1.00775146,end
timer_stats,655794382746036,PAPI_L3_TCM,0,  9.43939209,  1.01947021,end
timer_stats,655794383832905,PAPI_L3_TCM,1,  9.63043213,  1.03144836,end
timer_stats,655794384932658,PAPI_L3_TCM,1,  9.82562256,  1.04389953,end
timer_stats,655794386029274,PAPI_L3_TCM,1, 10.01208496,  1.05564880,end
timer_stats,655794387127832,PAPI_L3_TCM,2, 10.21166992,  1.06738281,end
timer_stats,655794388223456,PAPI_L3_TCM,0, 10.58697510,  1.09095764,end
timer_stats,655794389305772,PAPI_L3_TCM,1, 10.78295898,  1.10244751,end
timer_stats,655794390400227,PAPI_L3_TCM,0, 10.97778320,  1.11422729,end
timer_stats,655794391485956,PAPI_L3_TCM,1, 11.16809082,  1.12603760,end
timer_stats,655794392586856,PAPI_L3_TCM,2, 11.35632324,  1.13760376,end
timer_stats,655794393680074,PAPI_L3_TCM,1, 11.55621338,  1.14938354,end
timer_stats,655794394761278,PAPI_L3_TCM,0, 11.74664307,  1.16194153,end
timer_stats,655794395904861,PAPI_L3_TCM,3, 12.00543213,  1.17457580,end
timer_stats,655794396988703,PAPI_L3_TCM,2, 12.23278808,  1.18540954,end
timer_stats,655794398108503,PAPI_L3_TCM,1, 12.44018555,  1.19677734,end
timer_stats,655794399191912,PAPI_L3_TCM,2, 12.85717773,  1.21998596,end
timer_stats,655794400270359,PAPI_L3_TCM,1, 13.07379150,  1.23152160,end
timer_stats,655794401351075,PAPI_L3_TCM,2, 13.29406738,  1.24275207,end
timer_stats,655794402444791,PAPI_L3_TCM,3, 13.50207519,  1.25337219,end
timer_stats,655794403558126,PAPI_L3_TCM,2, 13.72027588,  1.26469421,end
timer_stats,655794404648683,PAPI_L3_TCM,5, 13.91815185,  1.27752685,end
timer_stats,655794405744918,PAPI_L3_TCM,0, 14.14526367,  1.28898621,end
timer_stats,655794406858880,PAPI_L3_TCM,1, 14.36688232,  1.30023193,end
timer_stats,655794407941987,PAPI_L3_TCM,2, 14.56744385,  1.31240845,end
timer_stats,655794409022373,PAPI_L3_TCM,1, 14.78350830,  1.32516479,end
timer_stats,655794410283705,PAPI_L3_TCM,1, 15.24426269,  1.35054016,end
timer_stats,655794411485115,PAPI_L3_TCM,2, 15.46105957,  1.36183166,end
timer_stats,655794412588345,PAPI_L3_TCM,6, 15.66986084,  1.37367248,end
timer_stats,655794413706636,PAPI_L3_TCM,4, 15.88714599,  1.38595581,end
timer_stats,655794431315398,PAPI_L3_TCM,296, 19.45953369,  1.60246277,end
timer_stats,655794432625876,PAPI_L3_TCM,116, 19.69946289,  1.61602783,end
timer_stats,655794433749600,PAPI_L3_TCM,10, 19.92376709,  1.62773132,end
timer_stats,655794434831997,PAPI_L3_TCM,6, 20.14392090,  1.64179992,end
timer_stats,655794435908220,PAPI_L3_TCM,2, 20.38800049,  1.65524292,end
timer_stats,655794436986431,PAPI_L3_TCM,2, 20.64440918,  1.66906738,end
timer_stats,655794438063542,PAPI_L3_TCM,1, 20.87628174,  1.68266296,end
timer_stats,655794439138968,PAPI_L3_TCM,3, 21.12939453,  1.69618225,end
timer_stats,655794440214066,PAPI_L3_TCM,7, 21.37524414,  1.71067810,end
timer_stats,655794448277891,PAPI_L3_TCM,45, 23.15447998,  1.82096863,end
timer_stats,655794449358495,PAPI_L3_TCM,10, 23.38262939,  1.83421326,end
timer_stats,655794450451440,PAPI_L3_TCM,2, 23.62023926,  1.84750366,end
timer_stats,655794451539915,PAPI_L3_TCM,1, 23.87377930,  1.86056519,end
timer_stats,655794452614059,PAPI_L3_TCM,5, 24.12011719,  1.87355041,end
timer_stats,655794453687302,PAPI_L3_TCM,3, 24.38037109,  1.88835144,end
timer_stats,655794454763474,PAPI_L3_TCM,4, 24.62524414,  1.90242004,end
timer_stats,655794455838607,PAPI_L3_TCM,4, 24.88977051,  1.91583252,end
timer_stats,655794456924128,PAPI_L3_TCM,219, 25.14111328,  1.92979431,end
timer_stats,655794457999302,PAPI_L3_TCM,4, 25.38421631,  1.94349670,end
timer_stats,655794459074023,PAPI_L3_TCM,7, 25.63861084,  1.95715332,end
timer_stats,655794460146911,PAPI_L3_TCM,14, 25.90850830,  1.97058105,end
timer_stats,655794461223354,PAPI_L3_TCM,15, 26.28167725,  1.98384094,end
timer_stats,655794462297361,PAPI_L3_TCM,8, 26.67706299,  2.00413513,end
timer_stats,655794463371257,PAPI_L3_TCM,2, 26.91912842,  2.01808166,end
timer_stats,655794464445189,PAPI_L3_TCM,4, 27.17126465,  2.03128052,end
timer_stats,655794465519437,PAPI_L3_TCM,2, 27.42639160,  2.04495239,end
timer_stats,655794466593291,PAPI_L3_TCM,3, 27.68066406,  2.05909729,end
timer_stats,655794467667338,PAPI_L3_TCM,2, 27.93090820,  2.07324219,end
timer_stats,655794468742123,PAPI_L3_TCM,13, 28.18499756,  2.08666992,end
timer_stats,655794469816444,PAPI_L3_TCM,10, 28.43780517,  2.10122681,end
timer_stats,655794470889850,PAPI_L3_TCM,6, 28.70739746,  2.11529541,end
timer_stats,655794471965400,PAPI_L3_TCM,3, 28.96166992,  2.12918091,end
timer_stats,655794473039755,PAPI_L3_TCM,6, 29.21160889,  2.14218140,end
timer_stats,655794474113539,PAPI_L3_TCM,3, 29.45971680,  2.15634155,end
timer_stats,655794475186858,PAPI_L3_TCM,2, 29.72113037,  2.17021179,end
timer_stats,655794476259983,PAPI_L3_TCM,3, 30.09912109,  2.19096374,end
timer_stats,655794477335027,PAPI_L3_TCM,8, 30.48223877,  2.21081543,end
timer_stats,655794478408609,PAPI_L3_TCM,4, 30.74029541,  2.22450256,end
timer_stats,655794479482324,PAPI_L3_TCM,6, 30.99713135,  2.23844910,end
timer_stats,655794480556638,PAPI_L3_TCM,10, 31.24200439,  2.25195312,end
timer_stats,655794481630466,PAPI_L3_TCM,0, 31.49951172,  2.26567077,end
timer_stats,655794482704303,PAPI_L3_TCM,5, 31.75952148,  2.27975464,end
timer_stats,655794483777512,PAPI_L3_TCM,4, 32.00988769,  2.29429626,end
timer_stats,655794484850832,PAPI_L3_TCM,3, 32.25683594,  2.30813598,end
timer_stats,655794485925505,PAPI_L3_TCM,7, 32.52233887,  2.32147217,end
timer_stats,655794486998842,PAPI_L3_TCM,3, 32.78051758,  2.33515930,end
timer_stats,655794490141376,PAPI_L3_TCM,88, 33.47058105,  2.39653015,end
timer_stats,655794491224227,PAPI_L3_TCM,26, 33.64355469,  2.41180420,end
timer_stats,655794492300005,PAPI_L3_TCM,8, 34.14440918,  2.44194031,end
timer_stats,655794493374562,PAPI_L3_TCM,3, 34.40136719,  2.45684814,end
timer_stats,655794494448611,PAPI_L3_TCM,1, 34.65014648,  2.47230530,end
timer_stats,655794495522716,PAPI_L3_TCM,1, 34.90655518,  2.48696899,end
timer_stats,655794496598556,PAPI_L3_TCM,2, 35.15716553,  2.50169372,end
timer_stats,655794497675204,PAPI_L3_TCM,7, 35.41156006,  2.51686096,end
timer_stats,655794498749126,PAPI_L3_TCM,2, 35.67901611,  2.53169250,end
timer_stats,655794499823583,PAPI_L3_TCM,4, 35.93615723,  2.54679871,end
timer_stats,655794500898542,PAPI_L3_TCM,3, 36.19128418,  2.56237793,end
timer_stats,655794501972690,PAPI_L3_TCM,6, 36.44439697,  2.57818603,end
timer_stats,655794503046408,PAPI_L3_TCM,5, 36.69293213,  2.59376526,end
timer_stats,655794504119937,PAPI_L3_TCM,2, 36.95629883,  2.60908508,end
timer_stats,655794505194186,PAPI_L3_TCM,6, 37.20562744,  2.62422180,end
timer_stats,655794506268865,PAPI_L3_TCM,6, 37.70593262,  2.65519714,end
timer_stats,655794507342903,PAPI_L3_TCM,1, 37.97338867,  2.67001343,end
timer_stats,655794508419582,PAPI_L3_TCM,6, 38.23492432,  2.68508911,end
timer_stats,655794509493943,PAPI_L3_TCM,3, 38.47851562,  2.70050049,end
timer_stats,655794510567782,PAPI_L3_TCM,4, 38.74359131,  2.71582031,end
timer_stats,655794511641242,PAPI_L3_TCM,0, 38.99951172,  2.73159790,end
timer_stats,655794512717464,PAPI_L3_TCM,16, 39.25427246,  2.74696350,end
timer_stats,655794513792623,PAPI_L3_TCM,9, 39.50854492,  2.76210022,end
timer_stats,655794514867987,PAPI_L3_TCM,8, 39.76678467,  2.77787781,end
timer_stats,655794515940913,PAPI_L3_TCM,5, 40.02716064,  2.79496765,end
timer_stats,655794517016787,PAPI_L3_TCM,7, 40.27697754,  2.81022644,end
timer_stats,655794518090980,PAPI_L3_TCM,5, 40.54302978,  2.82546997,end
timer_stats,655794519165865,PAPI_L3_TCM,4, 40.79266357,  2.84158325,end
timer_stats,655794520240054,PAPI_L3_TCM,4, 41.17828369,  2.86352539,end
timer_stats,655794521314382,PAPI_L3_TCM,3, 41.42266846,  2.87857056,end
timer_stats,655794522388828,PAPI_L3_TCM,4, 41.82489014,  2.90109253,end
timer_stats,655794523463208,PAPI_L3_TCM,3, 42.07263184,  2.91870117,end
timer_stats,655794524537749,PAPI_L3_TCM,6, 42.32672119,  2.93403625,end
timer_stats,655794525612115,PAPI_L3_TCM,7, 42.58673096,  2.94963074,end
timer_stats,655794526687384,PAPI_L3_TCM,5, 42.84875488,  2.96522522,end
timer_stats,655794527762227,PAPI_L3_TCM,6, 43.09844971,  2.98260498,end
timer_stats,655794528838477,PAPI_L3_TCM,6, 43.38397217,  2.99577331,end
timer_stats,655794529914345,PAPI_L3_TCM,4, 43.60931396,  3.00981140,end
timer_stats,655794530989457,PAPI_L3_TCM,0, 43.87792969,  3.02586365,end
timer_stats,655794534598004,PAPI_L3_TCM,82, 44.78576660,  3.09552002,end
timer_stats,655794535684066,PAPI_L3_TCM,30, 44.99230957,  3.10299682,end
timer_stats,655794536760639,PAPI_L3_TCM,12, 45.22326660,  3.11753845,end
timer_stats,655794537837829,PAPI_L3_TCM,9, 45.44708252,  3.13374328,end
timer_stats,655794538914644,PAPI_L3_TCM,2, 45.70172119,  3.14816284,end
timer_stats,655794539989303,PAPI_L3_TCM,1, 45.95941162,  3.16284180,end
timer_stats,655794541070129,PAPI_L3_TCM,4, 46.22735596,  3.17753601,end
timer_stats,655794542145553,PAPI_L3_TCM,0, 46.46087646,  3.19320679,end
timer_stats,655794543220211,PAPI_L3_TCM,3, 46.72894287,  3.20874023,end
timer_stats,655794544294656,PAPI_L3_TCM,2, 47.09930420,  3.23298645,end
timer_stats,655794545369339,PAPI_L3_TCM,3, 47.36761474,  3.24824524,end
timer_stats,655794546443866,PAPI_L3_TCM,2, 47.75085449,  3.27041626,end
timer_stats,655794547518109,PAPI_L3_TCM,3, 48.00268555,  3.28630066,end
timer_stats,655794548592445,PAPI_L3_TCM,2, 48.26135254,  3.30116272,end
timer_stats,655794549666946,PAPI_L3_TCM,6, 48.51385498,  3.31704712,end
timer_stats,655794550741003,PAPI_L3_TCM,0, 48.76257324,  3.33239746,end
timer_stats,655794551815521,PAPI_L3_TCM,9, 49.03002930,  3.34770202,end
timer_stats,655794552890937,PAPI_L3_TCM,5, 49.30358887,  3.36297607,end
timer_stats,655794553965962,PAPI_L3_TCM,4, 49.53814697,  3.37861633,end
timer_stats,655794555040785,PAPI_L3_TCM,2, 49.78588867,  3.39492798,end
timer_stats,655794556115028,PAPI_L3_TCM,12, 50.03973388,  3.41065979,end
timer_stats,655794557190527,PAPI_L3_TCM,4, 50.33453369,  3.42562866,end
timer_stats,655794558266147,PAPI_L3_TCM,6, 50.57525635,  3.44100952,end
timer_stats,655794559341491,PAPI_L3_TCM,3, 51.07031250,  3.47169494,end
timer_stats,655794560416715,PAPI_L3_TCM,5, 51.32067871,  3.48706055,end
timer_stats,655794561491313,PAPI_L3_TCM,1, 51.45153809,  3.49462891,end
timer_stats,655794562566281,PAPI_L3_TCM,3, 51.86163330,  3.51741028,end
timer_stats,655794563642059,PAPI_L3_TCM,3, 52.13049316,  3.53273010,end
timer_stats,655794564720398,PAPI_L3_TCM,26, 52.37628174,  3.54850769,end
timer_stats,655794565798069,PAPI_L3_TCM,18, 52.63000488,  3.56579590,end
timer_stats,655794566873931,PAPI_L3_TCM,7, 52.88745117,  3.58105469,end
timer_stats,655794567948728,PAPI_L3_TCM,0, 53.13726807,  3.59640503,end
timer_stats,655794569023873,PAPI_L3_TCM,7, 53.40063476,  3.61146545,end
timer_stats,655794570099254,PAPI_L3_TCM,7, 53.63159180,  3.62713623,end
timer_stats,655794571173171,PAPI_L3_TCM,6, 53.91748047,  3.64234924,end
timer_stats,655794572247120,PAPI_L3_TCM,6, 54.13659668,  3.65751648,end
timer_stats,655794573321489,PAPI_L3_TCM,2, 54.65020752,  3.67974853,end
timer_stats,655794574394864,PAPI_L3_TCM,0, 54.77996826,  3.69511413,end
timer_stats,655794575468564,PAPI_L3_TCM,3, 55.16003418,  3.71853638,end
timer_stats,655794576543461,PAPI_L3_TCM,5, 55.41638184,  3.73388672,end
timer_stats,655794577619313,PAPI_L3_TCM,5, 55.67071533,  3.74797058,end
timer_stats,655794578694694,PAPI_L3_TCM,0, 55.91912842,  3.76190186,end
timer_stats,655794582723526,PAPI_L3_TCM,90, 56.80773926,  3.82315063,end
timer_stats,655794583811136,PAPI_L3_TCM,34, 57.04315185,  3.83847046,end
timer_stats,655794584891175,PAPI_L3_TCM,9, 57.26483154,  3.85369873,end
timer_stats,655794585968202,PAPI_L3_TCM,5, 57.51629639,  3.86857605,end
timer_stats,655794587043054,PAPI_L3_TCM,1, 57.79864502,  3.88360596,end
timer_stats,655794588117486,PAPI_L3_TCM,4, 58.03570557,  3.89874267,end
timer_stats,655794589193041,PAPI_L3_TCM,10, 58.30743408,  3.91357422,end
timer_stats,655794590269530,PAPI_L3_TCM,1, 58.53656006,  3.92910767,end
timer_stats,655794591344708,PAPI_L3_TCM,5, 58.94573974,  3.95219421,end
timer_stats,655794592419450,PAPI_L3_TCM,4, 59.20135498,  3.96759033,end
timer_stats,655794593495312,PAPI_L3_TCM,3, 59.46093750,  3.98295593,end
timer_stats,655794594571984,PAPI_L3_TCM,3, 59.81811523,  4.00721741,end
timer_stats,655794595647715,PAPI_L3_TCM,2, 60.11120605,  4.02259827,end
timer_stats,655794596724085,PAPI_L3_TCM,6, 60.36785888,  4.03788757,end
timer_stats,655794597799878,PAPI_L3_TCM,5, 60.59265137,  4.05357361,end
timer_stats,655794598874975,PAPI_L3_TCM,2, 60.86047363,  4.07015991,end
timer_stats,655794599949871,PAPI_L3_TCM,3, 61.12738037,  4.08514404,end
timer_stats,655794601026886,PAPI_L3_TCM,3, 61.37292480,  4.10067749,end
timer_stats,655794602471998,PAPI_L3_TCM,4282, 61.77282715,  4.12463379,end
timer_stats,655794603553214,PAPI_L3_TCM,35, 62.14019775,  4.14926147,end
timer_stats,655794604629295,PAPI_L3_TCM,6, 62.37878418,  4.16458130,end
timer_stats,655794605704814,PAPI_L3_TCM,7, 62.66046143,  4.18196106,end
timer_stats,655794606779048,PAPI_L3_TCM,3, 62.91693115,  4.19772339,end
timer_stats,655794607853692,PAPI_L3_TCM,0, 63.16827393,  4.21374512,end
timer_stats,655794608928549,PAPI_L3_TCM,5, 63.41485596,  4.22883606,end
timer_stats,655794610003590,PAPI_L3_TCM,0, 63.68890381,  4.24400329,end
timer_stats,655794611079909,PAPI_L3_TCM,1, 63.91662598,  4.25935364,end
timer_stats,655794612155222,PAPI_L3_TCM,2, 64.20227051,  4.27500915,end
timer_stats,655794613230556,PAPI_L3_TCM,2, 64.45385742,  4.29054260,end
timer_stats,655794614305041,PAPI_L3_TCM,0, 64.68206787,  4.30592346,end
timer_stats,655794615380054,PAPI_L3_TCM,2, 65.07440186,  4.32897949,end
timer_stats,655794625309879,PAPI_L3_TCM,207, 67.53985596,  4.47810364,end
timer_stats,655794626400730,PAPI_L3_TCM,78, 67.91882324,  4.50038147,end
timer_stats,655794627492236,PAPI_L3_TCM,13, 68.17285156,  4.51602173,end
timer_stats,655794633453250,PAPI_L3_TCM,68, 69.44146728,  4.60607910,end
timer_stats,655794634547583,PAPI_L3_TCM,20, 69.61688232,  4.61856079,end
timer_stats,655794635640456,PAPI_L3_TCM,5, 69.98272705,  4.63960266,end
timer_stats,655794636727558,PAPI_L3_TCM,2, 70.25671387,  4.65301514,end
timer_stats,655794637816335,PAPI_L3_TCM,2, 70.50622558,  4.66650390,end
timer_stats,655794638906077,PAPI_L3_TCM,2, 70.76104736,  4.67997742,end
timer_stats,655794639995465,PAPI_L3_TCM,2, 71.02282715,  4.69342041,end
timer_stats,655794641093047,PAPI_L3_TCM,7, 71.26776123,  4.70805359,end
timer_stats,655794642180450,PAPI_L3_TCM,5, 71.51196289,  4.72200012,end
timer_stats,655794643268669,PAPI_L3_TCM,2, 71.77923584,  4.73567200,end
timer_stats,655794644361217,PAPI_L3_TCM,1, 72.03668213,  4.74958801,end
timer_stats,655794645448762,PAPI_L3_TCM,0, 72.41461182,  4.76994324,end
timer_stats,655794646537117,PAPI_L3_TCM,2, 72.79687500,  4.78338623,end
timer_stats,655794647626451,PAPI_L3_TCM,2, 73.05615234,  4.80366516,end
timer_stats,655794648715051,PAPI_L3_TCM,15, 73.30908203,  4.81733704,end
timer_stats,655794649803617,PAPI_L3_TCM,1, 73.55975342,  4.83149719,end
timer_stats,655794650890589,PAPI_L3_TCM,4, 73.80804443,  4.84521484,end
timer_stats,655794651976286,PAPI_L3_TCM,1, 74.06390381,  4.85910034,end
timer_stats,655794653065669,PAPI_L3_TCM,1, 74.32495117,  4.87364197,end
timer_stats,655794654154300,PAPI_L3_TCM,4, 74.58312988,  4.88955688,end
timer_stats,655794655242860,PAPI_L3_TCM,3, 74.83264160,  4.90536499,end
timer_stats,655794656328662,PAPI_L3_TCM,2, 75.09423828,  4.92060852,end
timer_stats,655794657415912,PAPI_L3_TCM,6, 75.46655273,  4.94317627,end
timer_stats,655794658502652,PAPI_L3_TCM,1, 75.73321533,  4.95860291,end
timer_stats,655794659588714,PAPI_L3_TCM,7, 76.11926269,  4.98161316,end
timer_stats,655794660676588,PAPI_L3_TCM,4, 76.36791992,  4.99743652,end
timer_stats,655794661766126,PAPI_L3_TCM,3, 76.62475586,  5.01272583,end
timer_stats,655794662853899,PAPI_L3_TCM,1, 76.87988281,  5.02899170,end
timer_stats,655794663940062,PAPI_L3_TCM,9, 77.13903808,  5.04522705,end
timer_stats,655794665028820,PAPI_L3_TCM,2, 77.39398193,  5.06076050,end
timer_stats,655794666116380,PAPI_L3_TCM,8, 77.64727783,  5.07606506,end
timer_stats,655794667204289,PAPI_L3_TCM,2, 77.90899658,  5.09140014,end
timer_stats,655794668290340,PAPI_L3_TCM,5, 78.16827392,  5.10693359,end
timer_stats,655794669379176,PAPI_L3_TCM,4, 78.55554199,  5.13002014,end
timer_stats,655794670467931,PAPI_L3_TCM,1, 78.80877685,  5.14482117,end
timer_stats,655794671552999,PAPI_L3_TCM,1, 79.18261719,  5.16867065,end
timer_stats,655794672640429,PAPI_L3_TCM,5, 79.45178223,  5.18493652,end
timer_stats,655794673728742,PAPI_L3_TCM,1, 79.70227051,  5.20022583,end
timer_stats,655794674816189,PAPI_L3_TCM,5, 79.95281982,  5.21534729,end
timer_stats,655794675902694,PAPI_L3_TCM,6, 80.21215820,  5.23065185,end
timer_stats,655794676993431,PAPI_L3_TCM,10, 80.46984863,  5.24597168,end
timer_stats,655794678081429,PAPI_L3_TCM,1, 80.72436523,  5.26129150,end
timer_stats,655794679166987,PAPI_L3_TCM,4, 80.98974609,  5.27653503,end
timer_stats,655794680255581,PAPI_L3_TCM,4, 81.23852539,  5.29187012,end
timer_stats,655794681343083,PAPI_L3_TCM,3, 81.50415039,  5.30813599,end
timer_stats,655794682430509,PAPI_L3_TCM,2, 81.88732910,  5.33120727,end
timer_stats,655794683517598,PAPI_L3_TCM,4, 82.26330566,  5.34672546,end
timer_stats,655794684605535,PAPI_L3_TCM,2, 82.51953125,  5.36985779,end
timer_stats,655794685695991,PAPI_L3_TCM,4, 82.79345703,  5.38511658,end
timer_stats,655794686786762,PAPI_L3_TCM,3, 83.04138183,  5.40093994,end
timer_stats,655794687874243,PAPI_L3_TCM,3, 83.29498291,  5.41648865,end
timer_stats,655794688959813,PAPI_L3_TCM,2, 83.55120849,  5.43205261,end
timer_stats,655794694642775,PAPI_L3_TCM,74, 84.74176025,  5.51483154,end
timer_stats,655794695744084,PAPI_L3_TCM,37, 85.04125976,  5.53620911,end
timer_stats,655794696835081,PAPI_L3_TCM,9, 85.29638672,  5.55122375,end
timer_stats,655794697921491,PAPI_L3_TCM,7, 85.54241943,  5.56658935,end
timer_stats,655794699012265,PAPI_L3_TCM,1, 85.79870605,  5.58245850,end
timer_stats,655794700093841,PAPI_L3_TCM,2, 86.03869629,  5.59837341,end
timer_stats,655794701181674,PAPI_L3_TCM,1, 86.31689453,  5.61387634,end
timer_stats,655794702267320,PAPI_L3_TCM,1, 86.57000732,  5.62922668,end
timer_stats,655794703354234,PAPI_L3_TCM,4, 86.83331299,  5.64450073,end
timer_stats,655794704438138,PAPI_L3_TCM,4, 87.08294678,  5.65985107,end
timer_stats,655794705519674,PAPI_L3_TCM,5, 87.47320557,  5.68272400,end
timer_stats,655794706603365,PAPI_L3_TCM,2, 87.85089111,  5.70584106,end
timer_stats,655794707685894,PAPI_L3_TCM,2, 88.11621094,  5.72138977,end
timer_stats,655794708767537,PAPI_L3_TCM,0, 88.35748291,  5.73680115,end
timer_stats,655794709850690,PAPI_L3_TCM,1, 88.60467529,  5.75334167,end
timer_stats,655794710931674,PAPI_L3_TCM,2, 88.87335205,  5.76878357,end
timer_stats,655794712016420,PAPI_L3_TCM,4, 89.13311767,  5.78459167,end
timer_stats,655794713096280,PAPI_L3_TCM,1, 89.38671875,  5.80009460,end
timer_stats,655794714177166,PAPI_L3_TCM,4, 89.64959717,  5.81567383,end
timer_stats,655794715257562,PAPI_L3_TCM,2, 89.91400146,  5.83143616,end
timer_stats,655794716338422,PAPI_L3_TCM,4, 90.15649414,  5.84654236,end
timer_stats,655794717418820,PAPI_L3_TCM,2, 90.42993164,  5.86177063,end
timer_stats,655794718499650,PAPI_L3_TCM,3, 90.92150879,  5.89288330,end
timer_stats,655794719579958,PAPI_L3_TCM,1, 91.19683838,  5.90089416,end
timer_stats,655794720660661,PAPI_L3_TCM,9, 91.44030762,  5.92372131,end
timer_stats,655794721741317,PAPI_L3_TCM,0, 91.69702148,  5.94001770,end
timer_stats,655794722821489,PAPI_L3_TCM,5, 91.96716308,  5.95591736,end
timer_stats,655794723902657,PAPI_L3_TCM,3, 92.22076416,  5.97125244,end
timer_stats,655794724983626,PAPI_L3_TCM,2, 92.47814941,  5.98721313,end
timer_stats,655794726064242,PAPI_L3_TCM,2, 92.71942139,  6.00274658,end
timer_stats,655794727145814,PAPI_L3_TCM,2, 92.97393799,  6.01821899,end
timer_stats,655794728226089,PAPI_L3_TCM,0, 93.24353027,  6.03370666,end
timer_stats,655794729306655,PAPI_L3_TCM,3, 93.48797607,  6.04928589,end
timer_stats,655794730387722,PAPI_L3_TCM,0, 93.75793457,  6.06430054,end
timer_stats,655794731468055,PAPI_L3_TCM,2, 94.14556885,  6.08691406,end
timer_stats,655794732550251,PAPI_L3_TCM,2, 94.52191162,  6.11048889,end
timer_stats,655794733630080,PAPI_L3_TCM,3, 94.79040527,  6.12577820,end
timer_stats,655794734710210,PAPI_L3_TCM,0, 95.05364990,  6.13377380,end
timer_stats,655794735790344,PAPI_L3_TCM,4, 95.29461670,  6.14944458,end
timer_stats,655794736872092,PAPI_L3_TCM,6, 95.55462646,  6.16481018,end
timer_stats,655794737953166,PAPI_L3_TCM,5, 95.81732178,  6.18028259,end
timer_stats,655794739033341,PAPI_L3_TCM,2, 96.08374023,  6.19554138,end
timer_stats,655794740114221,PAPI_L3_TCM,4, 96.32183838,  6.21115112,end
timer_stats,655794741195408,PAPI_L3_TCM,4, 96.58087158,  6.22647095,end
timer_stats,655794742274580,PAPI_L3_TCM,3, 96.84246826,  6.24177551,end
timer_stats,655794743354513,PAPI_L3_TCM,0, 97.09417724,  6.25711060,end
timer_stats,655794744435708,PAPI_L3_TCM,4, 97.34411621,  6.27342224,end
timer_stats,655794745516241,PAPI_L3_TCM,4, 97.73291016,  6.29676819,end
timer_stats,655794746596636,PAPI_L3_TCM,6, 98.12774658,  6.32029724,end
timer_stats,655794747677093,PAPI_L3_TCM,12, 98.37878418,  6.33633423,end
timer_stats,655794748758565,PAPI_L3_TCM,8, 98.63360596,  6.35185242,end
timer_stats,655794749839680,PAPI_L3_TCM,1, 98.90173340,  6.36735535,end
timer_stats,655794750920296,PAPI_L3_TCM,5, 99.14788818,  6.38267517,end
timer_stats,655794752003994,PAPI_L3_TCM,2, 99.42236328,  6.39785767,end
timer_stats,655794753085006,PAPI_L3_TCM,3, 99.67730713,  6.41340637,end
timer_stats,655794759230960,PAPI_L3_TCM,110,100.99493408,  6.52038574,end
timer_stats,655794760324149,PAPI_L3_TCM,56,101.15313721,  6.53657532,end
timer_stats,655794761407799,PAPI_L3_TCM,3,101.40447998,  6.55221558,end
timer_stats,655794762494327,PAPI_L3_TCM,10,101.79168701,  6.57563782,end
timer_stats,655794763578113,PAPI_L3_TCM,2,102.17944336,  6.59866333,end
timer_stats,655794764660857,PAPI_L3_TCM,7,102.45025635,  6.61416626,end
timer_stats,655794765744042,PAPI_L3_TCM,5,102.71099853,  6.62995911,end
timer_stats,655794766825825,PAPI_L3_TCM,2,102.96636963,  6.64544678,end
timer_stats,655794767907646,PAPI_L3_TCM,1,103.22454834,  6.66094971,end
timer_stats,655794768997659,PAPI_L3_TCM,2,103.49053955,  6.67643738,end
timer_stats,655794770080114,PAPI_L3_TCM,4,103.75622558,  6.69219971,end
timer_stats,655794771162391,PAPI_L3_TCM,8,104.02185058,  6.70768738,end
timer_stats,655794772243491,PAPI_L3_TCM,5,104.28228760,  6.72319031,end
timer_stats,655794773325047,PAPI_L3_TCM,3,104.54254150,  6.73869324,end
timer_stats,655794774406927,PAPI_L3_TCM,1,104.79309082,  6.75447083,end
timer_stats,655794775489604,PAPI_L3_TCM,3,105.05883789,  6.77066040,end
timer_stats,655794776573645,PAPI_L3_TCM,9,105.44830322,  6.79421997,end
timer_stats,655794777656361,PAPI_L3_TCM,11,105.85040283,  6.81753540,end
timer_stats,655794778737867,PAPI_L3_TCM,5,106.11273193,  6.83332825,end
timer_stats,655794779819729,PAPI_L3_TCM,4,106.36688232,  6.84887695,end
timer_stats,655794780902358,PAPI_L3_TCM,9,106.61999512,  6.86392212,end
timer_stats,655794781984892,PAPI_L3_TCM,6,106.88073730,  6.87973022,end
timer_stats,655794783066927,PAPI_L3_TCM,2,107.15783691,  6.89512634,end
timer_stats,655794784148192,PAPI_L3_TCM,3,107.40820312,  6.91067505,end
timer_stats,655794785230535,PAPI_L3_TCM,1,107.67089844,  6.92622375,end
timer_stats,655794786311846,PAPI_L3_TCM,3,107.92785644,  6.94165039,end
timer_stats,655794787394599,PAPI_L3_TCM,1,108.17932129,  6.95716858,end
timer_stats,655794788475695,PAPI_L3_TCM,9,108.45257568,  6.97229004,end
timer_stats,655794789557068,PAPI_L3_TCM,6,108.84143066,  6.99580383,end
timer_stats,655794790638348,PAPI_L3_TCM,3,109.22369385,  7.01962280,end
timer_stats,655794791719206,PAPI_L3_TCM,5,109.49139404,  7.03553772,end
timer_stats,655794792800946,PAPI_L3_TCM,6,109.75372314,  7.05102539,end
timer_stats,655794793881702,PAPI_L3_TCM,1,110.01782227,  7.06677246,end
timer_stats,655794794962983,PAPI_L3_TCM,7,110.27105713,  7.08230591,end
timer_stats,655794796022762,PAPI_L3_TCM,5,110.53729248,  7.09757995,end
timer_stats,655794797103309,PAPI_L3_TCM,2,110.80218506,  7.11285400,end
timer_stats,655794798185725,PAPI_L3_TCM,4,111.06524658,  7.12866211,end
timer_stats,655794799266694,PAPI_L3_TCM,2,111.32727051,  7.14393616,end
timer_stats,655794800348846,PAPI_L3_TCM,9,111.58489990,  7.15948486,end
timer_stats,655794801430999,PAPI_L3_TCM,2,111.83715820,  7.17480469,end
timer_stats,655794802513385,PAPI_L3_TCM,1,112.23516846,  7.19807434,end
timer_stats,655794803595197,PAPI_L3_TCM,3,112.49218750,  7.21459961,end
timer_stats,655794804677358,PAPI_L3_TCM,5,112.88281250,  7.23788452,end
timer_stats,655794805768503,PAPI_L3_TCM,4,113.14166260,  7.25317383,end
timer_stats,655794806851061,PAPI_L3_TCM,0,113.40454101,  7.26869202,end
timer_stats,655794807931958,PAPI_L3_TCM,3,113.67041016,  7.28471374,end
timer_stats,655794809014654,PAPI_L3_TCM,6,113.93103027,  7.30001831,end
timer_stats,655794810096579,PAPI_L3_TCM,1,114.19348144,  7.31553650,end
timer_stats,655794811177517,PAPI_L3_TCM,1,114.45391846,  7.33105469,end
timer_stats,655794812258989,PAPI_L3_TCM,8,114.72607422,  7.34651184,end
timer_stats,655794813340885,PAPI_L3_TCM,4,114.97839355,  7.36222839,end
timer_stats,655794814421753,PAPI_L3_TCM,2,115.24017334,  7.37750244,end
timer_stats,655794815503899,PAPI_L3_TCM,1,115.50299072,  7.39323425,end
timer_stats,655794816587552,PAPI_L3_TCM,12,115.89544678,  7.41624451,end
timer_stats,655794817669875,PAPI_L3_TCM,2,116.14984131,  7.43180847,end
timer_stats,655794818750974,PAPI_L3_TCM,7,116.55566406,  7.45527649,end
timer_stats,655794824945793,PAPI_L3_TCM,336,117.83349609,  7.55784607,end
timer_stats,655794826041463,PAPI_L3_TCM,146,118.03967285,  7.57431030,end
timer_stats,655794827124530,PAPI_L3_TCM,5,118.28900146,  7.59019470,end
timer_stats,655794828207252,PAPI_L3_TCM,5,118.54443359,  7.60501098,end
timer_stats,655794829288984,PAPI_L3_TCM,1,118.81433105,  7.62054443,end
timer_stats,655794830370876,PAPI_L3_TCM,5,119.07122803,  7.63584900,end
timer_stats,655794831453094,PAPI_L3_TCM,0,119.33129883,  7.65141296,end
timer_stats,655794832535343,PAPI_L3_TCM,4,119.59222412,  7.66697693,end
timer_stats,655794833616976,PAPI_L3_TCM,2,119.97827148,  7.69032287,end
timer_stats,655794834698481,PAPI_L3_TCM,4,120.23718262,  7.70567322,end
timer_stats,655794835779907,PAPI_L3_TCM,0,120.62573242,  7.72877502,end
timer_stats,655794836861377,PAPI_L3_TCM,5,120.88897705,  7.74455261,end
timer_stats,655794837941889,PAPI_L3_TCM,0,121.14984131,  7.75953674,end
timer_stats,655794839022921,PAPI_L3_TCM,2,121.40655517,  7.77508545,end
timer_stats,655794840103841,PAPI_L3_TCM,7,121.67437744,  7.79037476,end
timer_stats,655794841185150,PAPI_L3_TCM,2,121.93243408,  7.80570984,end
timer_stats,655794842265934,PAPI_L3_TCM,4,122.18841553,  7.82098389,end
timer_stats,655794843347438,PAPI_L3_TCM,2,122.45745849,  7.83673096,end
timer_stats,655794844431375,PAPI_L3_TCM,0,122.73071289,  7.85171509,end
timer_stats,655794845512779,PAPI_L3_TCM,3,122.99011230,  7.86676025,end
timer_stats,655794846592966,PAPI_L3_TCM,4,123.36761474,  7.88951111,end
timer_stats,655794847680802,PAPI_L3_TCM,3,123.63183594,  7.90452575,end
timer_stats,655794848764340,PAPI_L3_TCM,12,124.02606201,  7.92726135,end
timer_stats,655794849845257,PAPI_L3_TCM,1,124.29095459,  7.94282532,end
timer_stats,655794850925437,PAPI_L3_TCM,1,124.55169678,  7.95867920,end
timer_stats,655794852011800,PAPI_L3_TCM,6,124.79968262,  7.97377014,end
timer_stats,655794853092495,PAPI_L3_TCM,0,125.05316162,  7.98867798,end
timer_stats,655794854174439,PAPI_L3_TCM,4,125.31744385,  8.00422668,end
timer_stats,655794855255691,PAPI_L3_TCM,1,125.57067871,  8.01959228,end
timer_stats,655794856338479,PAPI_L3_TCM,4,125.83813476,  8.03512573,end
timer_stats,655794857417768,PAPI_L3_TCM,0,126.09936523,  8.05072021,end
timer_stats,655794858499149,PAPI_L3_TCM,3,126.36108398,  8.06608581,end
timer_stats,655794859580381,PAPI_L3_TCM,3,126.74182129,  8.08901977,end
timer_stats,655794860662761,PAPI_L3_TCM,6,127.00329590,  8.10440063,end
timer_stats,655794861743615,PAPI_L3_TCM,1,127.38256836,  8.12829590,end
timer_stats,655794862824281,PAPI_L3_TCM,3,127.65612793,  8.14360046,end
timer_stats,655794863905678,PAPI_L3_TCM,0,127.90826416,  8.15917969,end
timer_stats,655794864987884,PAPI_L3_TCM,8,128.17510986,  8.17420959,end
timer_stats,655794866069358,PAPI_L3_TCM,2,128.42724609,  8.19010925,end
timer_stats,655794867152010,PAPI_L3_TCM,4,128.69256592,  8.20492554,end
timer_stats,655794868233506,PAPI_L3_TCM,6,128.95849609,  8.22023010,end
timer_stats,655794869315189,PAPI_L3_TCM,2,129.21197510,  8.23603821,end
timer_stats,655794870397262,PAPI_L3_TCM,3,129.47320557,  8.25134277,end
timer_stats,655794871477792,PAPI_L3_TCM,6,129.74029541,  8.26638794,end
timer_stats,655794872560204,PAPI_L3_TCM,7,129.99578857,  8.28173828,end
timer_stats,655794873641543,PAPI_L3_TCM,3,130.38757324,  8.30456543,end
timer_stats,655794874723083,PAPI_L3_TCM,2,130.77355957,  8.32038879,end
timer_stats,655794875803508,PAPI_L3_TCM,2,131.03479004,  8.34362793,end
timer_stats,655794876884471,PAPI_L3_TCM,2,131.29663086,  8.35917664,end
timer_stats,655794877964901,PAPI_L3_TCM,3,131.56439209,  8.37442017,end
timer_stats,655794879046443,PAPI_L3_TCM,1,131.81201172,  8.38975525,end
timer_stats,655794880127185,PAPI_L3_TCM,3,132.07629394,  8.40502930,end
timer_stats,655794881207622,PAPI_L3_TCM,1,132.33654785,  8.42013550,end
timer_stats,655794882289015,PAPI_L3_TCM,5,132.60504150,  8.42764282,end
timer_stats,655794883370082,PAPI_L3_TCM,1,132.85711670,  8.44355774,end
timer_stats,655794884457980,PAPI_L3_TCM,10,133.12402344,  8.45886230,end
timer_stats,655794885538944,PAPI_L3_TCM,0,133.38067627,  8.47442627,end
timer_stats,655794886619172,PAPI_L3_TCM,4,133.77221680,  8.49028015,end
timer_stats,655794887700309,PAPI_L3_TCM,1,134.16430664,  8.52095032,end
timer_stats,655794894419449,PAPI_L3_TCM,228,135.43878174,  8.63322449,end
timer_stats,655794895525733,PAPI_L3_TCM,121,135.56298828,  8.64741516,end
timer_stats,655794896611797,PAPI_L3_TCM,10,135.94177246,  8.66864014,end
timer_stats,655794897696943,PAPI_L3_TCM,1,136.19268799,  8.68209839,end
timer_stats,655794898780371,PAPI_L3_TCM,6,136.58410645,  8.70237732,end
timer_stats,655794899864179,PAPI_L3_TCM,0,136.84002685,  8.71629333,end
timer_stats,655794900948314,PAPI_L3_TCM,5,137.10290527,  8.73066711,end
timer_stats,655794902032279,PAPI_L3_TCM,1,137.36145019,  8.74388122,end
timer_stats,655794903116472,PAPI_L3_TCM,4,137.61541748,  8.75688171,end
timer_stats,655794904197264,PAPI_L3_TCM,4,137.87420654,  8.77061462,end
timer_stats,655794905281085,PAPI_L3_TCM,6,138.12573242,  8.78460693,end
timer_stats,655794906364991,PAPI_L3_TCM,4,138.39294434,  8.79806519,end
timer_stats,655794907446170,PAPI_L3_TCM,1,138.64739990,  8.81248474,end
timer_stats,655794908527959,PAPI_L3_TCM,2,138.90673828,  8.82571411,end
timer_stats,655794909609198,PAPI_L3_TCM,2,139.15905762,  8.83969116,end
timer_stats,655794910691907,PAPI_L3_TCM,6,139.55230713,  8.86044311,end
timer_stats,655794911773567,PAPI_L3_TCM,7,139.93255615,  8.88098144,end
timer_stats,655794912857708,PAPI_L3_TCM,3,140.19165039,  8.89468384,end
timer_stats,655794913939496,PAPI_L3_TCM,1,140.44775391,  8.90837097,end
timer_stats,655794915021034,PAPI_L3_TCM,3,140.70697021,  8.92153931,end
timer_stats,655794916101889,PAPI_L3_TCM,3,140.95440674,  8.93478394,end
timer_stats,655794917182507,PAPI_L3_TCM,2,141.22277832,  8.94821167,end
timer_stats,655794918265897,PAPI_L3_TCM,3,141.47845459,  8.96191406,end
timer_stats,655794919347131,PAPI_L3_TCM,4,141.73193359,  8.97491455,end
timer_stats,655794920429331,PAPI_L3_TCM,6,141.98468017,  8.98930359,end
timer_stats,655794921510827,PAPI_L3_TCM,0,142.24682617,  9.00245666,end
timer_stats,655794922595061,PAPI_L3_TCM,2,142.54724121,  9.01576233,end
timer_stats,655794923676497,PAPI_L3_TCM,0,142.89575195,  9.03642273,end
timer_stats,655794924761043,PAPI_L3_TCM,5,143.14709473,  9.04968262,end
timer_stats,655794925844883,PAPI_L3_TCM,4,143.53967285,  9.07023621,end
timer_stats,655794926934041,PAPI_L3_TCM,5,143.81329346,  9.08367920,end
timer_stats,655794928019560,PAPI_L3_TCM,3,144.05657959,  9.09741211,end
timer_stats,655794929104254,PAPI_L3_TCM,4,144.30236816,  9.11045837,end
timer_stats,655794930188993,PAPI_L3_TCM,3,144.56341553,  9.12414551,end
timer_stats,655794931273529,PAPI_L3_TCM,2,144.82818603,  9.13781738,end
timer_stats,655794932357125,PAPI_L3_TCM,2,145.11212158,  9.15119934,end
timer_stats,655794933439923,PAPI_L3_TCM,1,145.35351562,  9.15788269,end
timer_stats,655794934523472,PAPI_L3_TCM,1,145.60675049,  9.17179871,end
timer_stats,655794935607196,PAPI_L3_TCM,1,145.99102783,  9.19303894,end
timer_stats,655794936691479,PAPI_L3_TCM,2,146.23986816,  9.20741272,end
timer_stats,655794937775711,PAPI_L3_TCM,3,146.49786377,  9.22106933,end
timer_stats,655794938860436,PAPI_L3_TCM,6,146.92077637,  9.24194336,end
timer_stats,655794939944579,PAPI_L3_TCM,7,147.15631103,  9.25570679,end
timer_stats,655794941030720,PAPI_L3_TCM,6,147.43231201,  9.26936340,end
timer_stats,655794942114691,PAPI_L3_TCM,2,147.68872070,  9.28260803,end
timer_stats,655794943197840,PAPI_L3_TCM,1,147.92828369,  9.29750061,end
timer_stats,655794944278902,PAPI_L3_TCM,6,148.17993164,  9.31263733,end
timer_stats,655794945363264,PAPI_L3_TCM,6,148.43542480,  9.32801819,end
timer_stats,655794946444314,PAPI_L3_TCM,9,148.70507812,  9.34309387,end
timer_stats,655794947525968,PAPI_L3_TCM,4,148.98785400,  9.35839844,end
timer_stats,655794948611118,PAPI_L3_TCM,4,149.21838379,  9.37336731,end
timer_stats,655794949709578,PAPI_L3_TCM,53,149.61114502,  9.39576721,end
timer_stats,655794950803398,PAPI_L3_TCM,29,150.00079346,  9.41111755,end
timer_stats,655794951889233,PAPI_L3_TCM,11,150.25177002,  9.43382263,end
timer_stats,655794952975779,PAPI_L3_TCM,8,150.55493164,  9.44129944,end
timer_stats,655794954061701,PAPI_L3_TCM,4,150.77154541,  9.45680237,end
timer_stats,655794955146731,PAPI_L3_TCM,6,151.05792236,  9.47235107,end
timer_stats,655794956234414,PAPI_L3_TCM,1,151.28759766,  9.48828125,end
timer_stats,655794957316861,PAPI_L3_TCM,3,151.54925537,  9.50326538,end
timer_stats,655794958402681,PAPI_L3_TCM,8,151.83703613,  9.51806641,end
timer_stats,655794959485054,PAPI_L3_TCM,1,152.06353760,  9.53378296,end
timer_stats,655794960569794,PAPI_L3_TCM,3,152.33013916,  9.54949951,end
timer_stats,655794961654537,PAPI_L3_TCM,7,152.58154297,  9.56581116,end
timer_stats,655794962739662,PAPI_L3_TCM,2,152.86804199,  9.58122253,end
timer_stats,655794963824993,PAPI_L3_TCM,4,153.36120605,  9.60449219,end
timer_stats,655794964910729,PAPI_L3_TCM,1,153.61944580,  9.62713623,end
timer_stats,655794965995342,PAPI_L3_TCM,1,153.90130615,  9.64245605,end
timer_stats,655794967080219,PAPI_L3_TCM,6,154.12835693,  9.65795898,end
timer_stats,655794968162190,PAPI_L3_TCM,4,154.39135742,  9.67315674,end
timer_stats,655794969245082,PAPI_L3_TCM,4,154.65490723,  9.68864441,end
timer_stats,655794970329797,PAPI_L3_TCM,4,154.94256592,  9.70372009,end
timer_stats,655794971413960,PAPI_L3_TCM,6,155.20611572,  9.71910095,end
timer_stats,655794972500145,PAPI_L3_TCM,4,155.46179199,  9.73400879,end
timer_stats,655794973585913,PAPI_L3_TCM,6,155.73260498,  9.74935913,end
timer_stats,655794974670119,PAPI_L3_TCM,4,156.08673096,  9.77221680,end
timer_stats,655794975754956,PAPI_L3_TCM,2,156.34533691,  9.78758240,end
timer_stats,655794976840123,PAPI_L3_TCM,2,156.73242187,  9.81057739,end
timer_stats,655794977926715,PAPI_L3_TCM,3,157.01354980,  9.82563782,end
timer_stats,655794979011876,PAPI_L3_TCM,6,157.24426269,  9.84115601,end
timer_stats,655794980096025,PAPI_L3_TCM,1,157.50048828,  9.85728455,end
timer_stats,655794981179373,PAPI_L3_TCM,5,157.80261230,  9.87248230,end
timer_stats,655794982265545,PAPI_L3_TCM,1,158.05706787,  9.88755798,end
timer_stats,655794983351731,PAPI_L3_TCM,6,158.31195068,  9.90272522,end
timer_stats,655794984438142,PAPI_L3_TCM,1,158.54486084,  9.91795349,end
timer_stats,655794985523298,PAPI_L3_TCM,3,158.80706787,  9.93330383,end
timer_stats,655794986606409,PAPI_L3_TCM,2,159.06573486,  9.94841003,end
timer_stats,655794987696151,PAPI_L3_TCM,6,159.34936523,  9.96343994,end
timer_stats,655794988783462,PAPI_L3_TCM,6,159.70703125,  9.98649597,end
timer_stats,655794994570221,PAPI_L3_TCM,285,160.94781494, 10.08691406,end
timer_stats,655794995673735,PAPI_L3_TCM,97,161.11346435, 10.10238647,end
timer_stats,655794996764442,PAPI_L3_TCM,7,161.35675049, 10.11781311,end
timer_stats,655794997854922,PAPI_L3_TCM,3,161.73583984, 10.14001465,end
timer_stats,655794998943875,PAPI_L3_TCM,2,162.09429932, 10.16282654,end
timer_stats,655795000033973,PAPI_L3_TCM,4,162.35925293, 10.17797851,end
timer_stats,655795001122105,PAPI_L3_TCM,3,162.63769531, 10.19281006,end
timer_stats,655795002210663,PAPI_L3_TCM,2,162.89978027, 10.20790100,end
timer_stats,655795003299248,PAPI_L3_TCM,2,163.14984131, 10.22351074,end
timer_stats,655795004387780,PAPI_L3_TCM,0,163.41040039, 10.23884582,end
timer_stats,655795005478117,PAPI_L3_TCM,3,163.64514160, 10.25521850,end
timer_stats,655795006565289,PAPI_L3_TCM,0,163.92352295, 10.27047729,end
timer_stats,655795007653611,PAPI_L3_TCM,1,164.17736816, 10.28579712,end
timer_stats,655795008742747,PAPI_L3_TCM,8,164.55065918, 10.30899048,end
timer_stats,655795009830772,PAPI_L3_TCM,2,164.92620850, 10.33236694,end
timer_stats,655795010915972,PAPI_L3_TCM,5,165.19989014, 10.34762573,end
timer_stats,655795012009853,PAPI_L3_TCM,12,165.46954346, 10.36332703,end
timer_stats,655795013098323,PAPI_L3_TCM,4,165.72644043, 10.37841797,end
timer_stats,655795014185476,PAPI_L3_TCM,2,165.96618652, 10.39358520,end
timer_stats,655795015272766,PAPI_L3_TCM,1,166.24304199, 10.40884399,end
timer_stats,655795016359856,PAPI_L3_TCM,11,166.51403809, 10.42413330,end
timer_stats,655795017447943,PAPI_L3_TCM,2,166.75781250, 10.43928528,end
timer_stats,655795018535830,PAPI_L3_TCM,2,167.01330566, 10.45484924,end
timer_stats,655795019620242,PAPI_L3_TCM,1,167.28161621, 10.47036743,end
timer_stats,655795020708174,PAPI_L3_TCM,2,167.54486084, 10.48542786,end
timer_stats,655795021794921,PAPI_L3_TCM,3,167.88714599, 10.50878906,end
timer_stats,655795022883141,PAPI_L3_TCM,2,168.14367676, 10.52484131,end
timer_stats,655795023970268,PAPI_L3_TCM,2,168.55419922, 10.54806519,end
timer_stats,655795025055987,PAPI_L3_TCM,5,168.79064941, 10.56423950,end
timer_stats,655795026144898,PAPI_L3_TCM,2,169.06481934, 10.57946777,end
timer_stats,655795027233280,PAPI_L3_TCM,3,169.33496094, 10.59521484,end
timer_stats,655795028329021,PAPI_L3_TCM,1,169.58898926, 10.61103821,end
timer_stats,655795029417762,PAPI_L3_TCM,2,169.84680176, 10.62657165,end
timer_stats,655795030505310,PAPI_L3_TCM,0,170.11370849, 10.64190674,end
timer_stats,655795031595126,PAPI_L3_TCM,6,170.37286377, 10.65771484,end
timer_stats,655795032682967,PAPI_L3_TCM,2,170.62554932, 10.67355347,end
timer_stats,655795033771808,PAPI_L3_TCM,3,170.88629150, 10.68913269,end
timer_stats,655795034860360,PAPI_L3_TCM,1,171.27392578, 10.71162414,end
timer_stats,655795035948967,PAPI_L3_TCM,12,171.65350342, 10.73452759,end
timer_stats,655795037035496,PAPI_L3_TCM,14,171.91436767, 10.74963379,end
timer_stats,655795038124479,PAPI_L3_TCM,4,172.17291260, 10.76473999,end
timer_stats,655795039213627,PAPI_L3_TCM,2,172.43316650, 10.78001404,end
timer_stats,655795040303546,PAPI_L3_TCM,8,172.69256592, 10.79533386,end
timer_stats,655795041392185,PAPI_L3_TCM,0,172.96508789, 10.81036377,end
timer_stats,655795042480585,PAPI_L3_TCM,5,173.21478271, 10.82569885,end
timer_stats,655795043568377,PAPI_L3_TCM,6,173.47833252, 10.84120178,end
timer_stats,655795044652097,PAPI_L3_TCM,10,173.73980713, 10.85675049,end
timer_stats,655795045737788,PAPI_L3_TCM,7,173.98284912, 10.87231445,end
timer_stats,655795046824218,PAPI_L3_TCM,4,174.25128174, 10.88807678,end
timer_stats,655795047908694,PAPI_L3_TCM,7,174.75555420, 10.91903686,end
timer_stats,655795048990610,PAPI_L3_TCM,2,175.02081299, 10.93527222,end
timer_stats,655795050070857,PAPI_L3_TCM,2,175.27728271, 10.95126343,end
timer_stats,655795051151165,PAPI_L3_TCM,4,175.53253174, 10.96652222,end
timer_stats,655795052231627,PAPI_L3_TCM,2,175.80175781, 10.98167419,end
timer_stats,655795053311393,PAPI_L3_TCM,3,176.05865478, 10.99720764,end
timer_stats,655795054392136,PAPI_L3_TCM,2,176.31396484, 11.01301575,end
timer_stats,655795055473107,PAPI_L3_TCM,2,176.56817627, 11.02853394,end
timer_stats,655795056553831,PAPI_L3_TCM,2,176.82446289, 11.04383850,end
timer_stats,655795057634333,PAPI_L3_TCM,3,177.08807373, 11.05961609,end
timer_stats,655795058715483,PAPI_L3_TCM,2,177.34136963, 11.07543945,end
timer_stats,655795059796706,PAPI_L3_TCM,2,177.61389160, 11.09094238,end
timer_stats,655795060878781,PAPI_L3_TCM,2,177.86621094, 11.10624695,end
timer_stats,655795061962627,PAPI_L3_TCM,3,178.37756348, 11.13690185,end
timer_stats,655795063044850,PAPI_L3_TCM,1,178.63159180, 11.15298462,end
timer_stats,655795064125564,PAPI_L3_TCM,5,178.89355469, 11.17001343,end
timer_stats,655795065207677,PAPI_L3_TCM,0,179.15570068, 11.18527222,end
timer_stats,655795066289727,PAPI_L3_TCM,2,179.41156006, 11.20054626,end
timer_stats,655795067370938,PAPI_L3_TCM,1,179.67169189, 11.21630859,end
timer_stats,655795068454601,PAPI_L3_TCM,4,179.91851807, 11.23411560,end
timer_stats,655795069537229,PAPI_L3_TCM,3,180.17590332, 11.24972534,end
timer_stats,655795070619978,PAPI_L3_TCM,3,180.43328857, 11.26525879,end
timer_stats,655795071702036,PAPI_L3_TCM,5,180.70068359, 11.28054810,end
timer_stats,655795072784418,PAPI_L3_TCM,5,180.95391846, 11.29586792,end
timer_stats,655795073866747,PAPI_L3_TCM,2,181.21807861, 11.31169128,end
timer_stats,655795074949043,PAPI_L3_TCM,4,181.73065185, 11.34233093,end
timer_stats,655795076025147,PAPI_L3_TCM,13,181.99481201, 11.35780334,end
timer_stats,655795077109759,PAPI_L3_TCM,4,182.24444580, 11.37333679,end
timer_stats,655795078191625,PAPI_L3_TCM,2,182.49432373, 11.38909912,end
timer_stats,655795079274227,PAPI_L3_TCM,6,182.75683594, 11.40483093,end
timer_stats,655795080354141,PAPI_L3_TCM,7,183.02026367, 11.42010498,end
timer_stats,655795081435418,PAPI_L3_TCM,6,183.27252197, 11.43637085,end
timer_stats,655795082518522,PAPI_L3_TCM,2,183.53173828, 11.45164490,end
timer_stats,655795088784380,PAPI_L3_TCM,187,184.88562012, 11.56672668,end
timer_stats,655795089884772,PAPI_L3_TCM,95,185.14837646, 11.58796692,end
timer_stats,655795090970232,PAPI_L3_TCM,9,185.53796387, 11.61135864,end
timer_stats,655795092037543,PAPI_L3_TCM,13,185.80102539, 11.62693787,end
timer_stats,655795093120281,PAPI_L3_TCM,6,186.03900146, 11.64234924,end
timer_stats,655795094202906,PAPI_L3_TCM,2,186.29907227, 11.65763855,end
timer_stats,655795095285597,PAPI_L3_TCM,5,186.55511475, 11.67317200,end
timer_stats,655795096368240,PAPI_L3_TCM,6,186.82226562, 11.68869018,end
timer_stats,655795097449593,PAPI_L3_TCM,2,187.06823730, 11.70404053,end
timer_stats,655795098530181,PAPI_L3_TCM,4,187.32775879, 11.71932983,end
timer_stats,655795099612445,PAPI_L3_TCM,1,187.59466553, 11.73483276,end
timer_stats,655795100696286,PAPI_L3_TCM,6,187.85412598, 11.75013733,end
timer_stats,655795101779363,PAPI_L3_TCM,2,188.12152099, 11.76608276,end
timer_stats,655795102861653,PAPI_L3_TCM,0,188.39324951, 11.78199768,end
timer_stats,655795103943832,PAPI_L3_TCM,8,188.77313232, 11.80552673,end
timer_stats,655795105026667,PAPI_L3_TCM,3,189.15911865, 11.82838440,end
timer_stats,655795106106880,PAPI_L3_TCM,1,189.41656494, 11.84368896,end
timer_stats,655795107188340,PAPI_L3_TCM,0,189.68194580, 11.85896301,end
timer_stats,655795108271015,PAPI_L3_TCM,5,189.94305420, 11.87449646,end
timer_stats,655795109352018,PAPI_L3_TCM,1,190.18933105, 11.89059448,end
timer_stats,655795110437013,PAPI_L3_TCM,2,190.44433594, 11.90663147,end
timer_stats,655795111518678,PAPI_L3_TCM,1,190.72094726, 11.92199707,end
timer_stats,655795112600133,PAPI_L3_TCM,8,190.97106934, 11.93751526,end
timer_stats,655795113681949,PAPI_L3_TCM,1,191.22113037, 11.95330810,end
timer_stats,655795114763011,PAPI_L3_TCM,1,191.47772217, 11.96859741,end
timer_stats,655795115843827,PAPI_L3_TCM,1,191.73999023, 11.98408508,end
timer_stats,655795116927169,PAPI_L3_TCM,4,192.25305176, 12.01565552,end
timer_stats,655795118010508,PAPI_L3_TCM,3,192.51000976, 12.03115845,end
timer_stats,655795119093225,PAPI_L3_TCM,4,192.76055908, 12.04615784,end
timer_stats,655795120173359,PAPI_L3_TCM,3,193.03527832, 12.06137085,end
timer_stats,655795121254878,PAPI_L3_TCM,4,193.29290771, 12.07669067,end
timer_stats,655795122336176,PAPI_L3_TCM,1,193.55432129, 12.09271240,end
timer_stats,655795123418137,PAPI_L3_TCM,12,193.80645752, 12.10823059,end
timer_stats,655795124500680,PAPI_L3_TCM,6,194.05023193, 12.12475586,end
timer_stats,655795125582395,PAPI_L3_TCM,7,194.31433105, 12.14019775,end
timer_stats,655795126663124,PAPI_L3_TCM,10,194.57745361, 12.15547180,end
timer_stats,655795127744988,PAPI_L3_TCM,5,194.82824707, 12.17083740,end
timer_stats,655795128828220,PAPI_L3_TCM,7,195.09509277, 12.18679809,end
timer_stats,655795129910357,PAPI_L3_TCM,11,195.60693359, 12.21017456,end
timer_stats,655795130992753,PAPI_L3_TCM,4,195.86761474, 12.23339844,end
timer_stats,655795132074602,PAPI_L3_TCM,9,196.12591553, 12.24919128,end
timer_stats,655795133155351,PAPI_L3_TCM,2,196.38543701, 12.26473999,end
timer_stats,655795134237514,PAPI_L3_TCM,2,196.64392090, 12.28027344,end
timer_stats,655795135318985,PAPI_L3_TCM,3,196.90625000, 12.29644775,end
timer_stats,655795136401435,PAPI_L3_TCM,5,197.16815185, 12.31236267,end
timer_stats,655795137482481,PAPI_L3_TCM,4,197.42376709, 12.32792664,end
timer_stats,655795138564474,PAPI_L3_TCM,5,197.66949463, 12.34301758,end
timer_stats,655795139645146,PAPI_L3_TCM,6,197.93585205, 12.35806274,end
timer_stats,655795140726713,PAPI_L3_TCM,4,198.19537353, 12.37339783,end
timer_stats,655795141807722,PAPI_L3_TCM,3,198.45648193, 12.38996887,end
timer_stats,655795142887849,PAPI_L3_TCM,2,198.71545410, 12.40505981,end
timer_stats,655795143967521,PAPI_L3_TCM,2,199.09948730, 12.42800903,end
timer_stats,655795145049038,PAPI_L3_TCM,15,199.48510742, 12.44340515,end
timer_stats,655795146130511,PAPI_L3_TCM,2,199.74645996, 12.45901489,end
timer_stats,655795147210219,PAPI_L3_TCM,5,199.99291992, 12.47457886,end
timer_stats,655795148291105,PAPI_L3_TCM,4,200.26550293, 12.49060058,end
timer_stats,655795149370540,PAPI_L3_TCM,3,200.51507568, 12.50592041,end
timer_stats,655795150451090,PAPI_L3_TCM,1,200.77111816, 12.52101135,end
timer_stats,655795151531661,PAPI_L3_TCM,1,201.02783203, 12.53614807,end
timer_stats,655795152614458,PAPI_L3_TCM,4,201.29364014, 12.55192566,end
timer_stats,655795153695439,PAPI_L3_TCM,5,201.53881836, 12.56694031,end
timer_stats,655795154776422,PAPI_L3_TCM,8,201.81097412, 12.58219910,end
timer_stats,655795155857913,PAPI_L3_TCM,4,202.07354736, 12.58998108,end
timer_stats,655795156939038,PAPI_L3_TCM,9,202.45397949, 12.60559082,end
timer_stats,655795158020064,PAPI_L3_TCM,2,202.84112549, 12.63647461,end
timer_stats,655795159098987,PAPI_L3_TCM,1,203.10211182, 12.65200805,end
timer_stats,655795160178183,PAPI_L3_TCM,6,203.35742187, 12.66780090,end
timer_stats,655795161258677,PAPI_L3_TCM,7,203.61206055, 12.68336487,end
timer_stats,655795162338399,PAPI_L3_TCM,5,203.86853027, 12.69894409,end
timer_stats,655795163418154,PAPI_L3_TCM,1,204.13049316, 12.71447754,end
timer_stats,655795164498968,PAPI_L3_TCM,11,204.40045166, 12.72218323,end
timer_stats,655795165580963,PAPI_L3_TCM,5,204.65740967, 12.73794555,end
timer_stats,655795166661720,PAPI_L3_TCM,11,204.91253662, 12.75375366,end
timer_stats,655795167741323,PAPI_L3_TCM,4,205.16021728, 12.76885986,end
timer_stats,655795168822407,PAPI_L3_TCM,4,205.43389892, 12.78439331,end
timer_stats,655795169905733,PAPI_L3_TCM,5,205.67675781, 12.80026245,end
timer_stats,655795170989137,PAPI_L3_TCM,6,206.18981934, 12.83070374,end
timer_stats,655795172072033,PAPI_L3_TCM,4,206.45837402, 12.84620666,end
timer_stats,655795173155189,PAPI_L3_TCM,5,206.71618652, 12.86180115,end
timer_stats,655795174234257,PAPI_L3_TCM,8,206.98004150, 12.87773132,end
timer_stats,655795175317172,PAPI_L3_TCM,6,207.23059082, 12.89323425,end
timer_stats,655795176399639,PAPI_L3_TCM,5,207.48999023, 12.90878296,end
timer_stats,655795182247136,PAPI_L3_TCM,299,208.77941894, 13.01620483,end
timer_stats,655795183351026,PAPI_L3_TCM,138,208.97949219, 13.03234863,end
timer_stats,655795184438290,PAPI_L3_TCM,12,209.23559570, 13.04891968,end
timer_stats,655795185523322,PAPI_L3_TCM,2,209.50103760, 13.06398010,end
timer_stats,655795186608758,PAPI_L3_TCM,3,209.74450684, 13.07986450,end
timer_stats,655795187692505,PAPI_L3_TCM,0,209.99902344, 13.09500122,end
timer_stats,655795188777100,PAPI_L3_TCM,1,210.26965332, 13.11051941,end
timer_stats,655795189861421,PAPI_L3_TCM,0,210.53454590, 13.12585449,end
timer_stats,655795190944802,PAPI_L3_TCM,2,210.77990723, 13.14096069,end
timer_stats,655795192026019,PAPI_L3_TCM,2,211.29382324, 13.16384888,end
timer_stats,655795193112596,PAPI_L3_TCM,3,211.54473877, 13.18705749,end
timer_stats,655795194196377,PAPI_L3_TCM,0,211.80804443, 13.20260620,end
timer_stats,655795195293673,PAPI_L3_TCM,30,212.06036377, 13.21820068,end
timer_stats,655795196384515,PAPI_L3_TCM,30,212.32031250, 13.23350525,end
timer_stats,655795197472966,PAPI_L3_TCM,5,212.58331299, 13.24909973,end
timer_stats,655795198563094,PAPI_L3_TCM,4,212.83715820, 13.26539612,end
timer_stats,655795199649424,PAPI_L3_TCM,1,213.08166504, 13.28109741,end
timer_stats,655795200735476,PAPI_L3_TCM,0,213.34802246, 13.29637146,end
timer_stats,655795201822563,PAPI_L3_TCM,7,213.59973144, 13.31144714,end
timer_stats,655795202911630,PAPI_L3_TCM,3,213.86859131, 13.32695007,end
timer_stats,655795203995948,PAPI_L3_TCM,4,214.25219726, 13.34246826,end
timer_stats,655795205089647,PAPI_L3_TCM,0,214.63995361, 13.37377930,end
timer_stats,655795206176794,PAPI_L3_TCM,8,214.88690185, 13.38909912,end
timer_stats,655795207260859,PAPI_L3_TCM,2,215.15655517, 13.40461731,end
timer_stats,655795208348141,PAPI_L3_TCM,3,215.41461182, 13.41992187,end
timer_stats,655795209434427,PAPI_L3_TCM,0,215.66925049, 13.43531799,end
timer_stats,655795210518431,PAPI_L3_TCM,6,215.93048096, 13.45063782,end
timer_stats,655795211605655,PAPI_L3_TCM,2,216.19134521, 13.46623230,end
timer_stats,655795212694278,PAPI_L3_TCM,3,216.44085693, 13.48136902,end
timer_stats,655795213782872,PAPI_L3_TCM,1,216.69317627, 13.49647522,end
timer_stats,655795214869894,PAPI_L3_TCM,2,216.95355224, 13.51176453,end
timer_stats,655795215957493,PAPI_L3_TCM,7,217.21398926, 13.52676392,end
timer_stats,655795217042083,PAPI_L3_TCM,5,217.73309326, 13.54965210,end
timer_stats,655795218130293,PAPI_L3_TCM,0,217.99383545, 13.57269287,end
timer_stats,655795219217716,PAPI_L3_TCM,7,218.24938965, 13.58807373,end
timer_stats,655795220305228,PAPI_L3_TCM,9,218.50219727, 13.60345459,end
timer_stats,655795221393529,PAPI_L3_TCM,5,218.75268555, 13.61889648,end
timer_stats,655795222479617,PAPI_L3_TCM,0,219.02685547, 13.63420105,end
timer_stats,655795223566451,PAPI_L3_TCM,8,219.27441406, 13.65075683,end
timer_stats,655795224654473,PAPI_L3_TCM,1,219.53704834, 13.66632080,end
timer_stats,655795225741224,PAPI_L3_TCM,2,219.79223633, 13.68191528,end
timer_stats,655795226828129,PAPI_L3_TCM,2,220.04541016, 13.69703674,end
timer_stats,655795227912285,PAPI_L3_TCM,3,220.29412842, 13.71257019,end
timer_stats,655795228999892,PAPI_L3_TCM,3,220.69372559, 13.72807312,end
timer_stats,655795230086347,PAPI_L3_TCM,5,221.06781006, 13.75955200,end
timer_stats,655795231173370,PAPI_L3_TCM,1,221.32897949, 13.77488708,end
timer_stats,655795232255786,PAPI_L3_TCM,3,221.59704590, 13.79020691,end
timer_stats,655795233342133,PAPI_L3_TCM,1,221.85144043, 13.80534363,end
timer_stats,655795234429960,PAPI_L3_TCM,5,222.10382080, 13.82073974,end
timer_stats,655795235516859,PAPI_L3_TCM,0,222.36260986, 13.83633423,end
timer_stats,655795236603582,PAPI_L3_TCM,10,222.61791992, 13.85191345,end
timer_stats,655795237690789,PAPI_L3_TCM,5,222.88330078, 13.86750793,end
timer_stats,655795238777523,PAPI_L3_TCM,4,223.14031982, 13.88285828,end
timer_stats,655795239863336,PAPI_L3_TCM,5,223.40020752, 13.89797973,end
timer_stats,655795240945217,PAPI_L3_TCM,9,223.66168213, 13.90553284,end
timer_stats,655795242033814,PAPI_L3_TCM,1,224.16149902, 13.93637085,end
timer_stats,655795243121232,PAPI_L3_TCM,4,224.44067383, 13.95162964,end
timer_stats,655795244209417,PAPI_L3_TCM,2,224.69219971, 13.96725464,end
timer_stats,655795245297195,PAPI_L3_TCM,13,224.94250488, 13.98208618,end
timer_stats,655795246385391,PAPI_L3_TCM,0,225.20867920, 13.99761963,end
timer_stats,655795247469935,PAPI_L3_TCM,2,225.46942139, 14.01290893,end
timer_stats,655795248557551,PAPI_L3_TCM,6,225.72259521, 14.02818298,end
timer_stats,655795249645157,PAPI_L3_TCM,7,225.99090576, 14.04377746,end
timer_stats,655795250728868,PAPI_L3_TCM,1,226.24536133, 14.05958557,end
timer_stats,655795251826001,PAPI_L3_TCM,38,226.49731445, 14.07487488,end
timer_stats,655795252918789,PAPI_L3_TCM,44,226.75109863, 14.09019470,end
timer_stats,655795254007745,PAPI_L3_TCM,13,227.13403320, 14.11361694,end
timer_stats,655795255096318,PAPI_L3_TCM,3,227.52124023, 14.13719177,end
timer_stats,655795256185424,PAPI_L3_TCM,10,227.78576660, 14.15315246,end
timer_stats,655795257285825,PAPI_L3_TCM,6,228.05151367, 14.16836548,end
timer_stats,655795258374129,PAPI_L3_TCM,6,228.30529785, 14.18368530,end
timer_stats,655795259461905,PAPI_L3_TCM,7,228.57037353, 14.19921875,end
timer_stats,655795260549181,PAPI_L3_TCM,11,228.82763672, 14.21524048,end
timer_stats,655795261757282,PAPI_L3_TCM,3,229.08929443, 14.23057556,end
timer_stats,655795262845126,PAPI_L3_TCM,8,229.35321045, 14.24589538,end
timer_stats,655795263933153,PAPI_L3_TCM,2,229.60742187, 14.26100159,end
timer_stats,655795265020556,PAPI_L3_TCM,10,229.87225342, 14.27694702,end
timer_stats,655795266188284,PAPI_L3_TCM,9,230.39337158, 14.30818176,end
timer_stats,655795267275925,PAPI_L3_TCM,4,230.65301514, 14.32514953,end
timer_stats,655795268364652,PAPI_L3_TCM,2,230.90850830, 14.34031677,end
timer_stats,655795270260456,PAPI_L3_TCM,9,231.44799805, 14.37231445,end
timer_stats,655795277890985,PAPI_L3_TCM,169,232.74670410, 14.49076843,end
timer_stats,655795278988263,PAPI_L3_TCM,88,232.86175537, 14.50642395,end
timer_stats,655795280073800,PAPI_L3_TCM,5,233.33038330, 14.53392029,end
timer_stats,655795281159247,PAPI_L3_TCM,13,233.59716797, 14.54762268,end
timer_stats,655795282243873,PAPI_L3_TCM,1,233.83825684, 14.56207275,end
timer_stats,655795283328541,PAPI_L3_TCM,3,234.10333252, 14.57553101,end
timer_stats,655795284411608,PAPI_L3_TCM,0,234.36090088, 14.58877563,end
timer_stats,655795285495272,PAPI_L3_TCM,1,234.60522461, 14.60208130,end
timer_stats,655795286577994,PAPI_L3_TCM,1,234.85668945, 14.61604309,end
timer_stats,655795287660991,PAPI_L3_TCM,2,235.11590576, 14.62947082,end
timer_stats,655795288743752,PAPI_L3_TCM,1,235.36151123, 14.64321899,end
timer_stats,655795289826679,PAPI_L3_TCM,3,235.60675049, 14.65670776,end
timer_stats,655795290909470,PAPI_L3_TCM,0,235.86682129, 14.66990662,end
timer_stats,655795291992867,PAPI_L3_TCM,2,236.13171387, 14.68292236,end
timer_stats,655795293081540,PAPI_L3_TCM,0,236.50958252, 14.70307922,end
timer_stats,655795294164722,PAPI_L3_TCM,5,236.89593506, 14.72389221,end
timer_stats,655795295247533,PAPI_L3_TCM,3,237.14764404, 14.73741150,end
timer_stats,655795296331637,PAPI_L3_TCM,2,237.41394043, 14.75199890,end
timer_stats,655795297416696,PAPI_L3_TCM,6,237.67205810, 14.76588440,end
timer_stats,655795298501425,PAPI_L3_TCM,9,237.92224121, 14.77937317,end
timer_stats,655795299584526,PAPI_L3_TCM,4,238.18554687, 14.79333496,end
timer_stats,655795300669455,PAPI_L3_TCM,1,238.45190429, 14.80657959,end
timer_stats,655795301752843,PAPI_L3_TCM,3,238.70623779, 14.82029724,end
timer_stats,655795302835932,PAPI_L3_TCM,4,238.96392822, 14.83378601,end
timer_stats,655795303916628,PAPI_L3_TCM,2,239.21917724, 14.84745789,end
timer_stats,655795305002245,PAPI_L3_TCM,9,239.49371338, 14.86090088,end
timer_stats,655795306086565,PAPI_L3_TCM,1,239.74243164, 14.87440491,end
timer_stats,655795307169315,PAPI_L3_TCM,5,240.25738525, 14.90150452,end
timer_stats,655795308253657,PAPI_L3_TCM,1,240.51995850, 14.91496277,end
timer_stats,655795309338440,PAPI_L3_TCM,3,240.77026367, 14.92846680,end
timer_stats,655795310419625,PAPI_L3_TCM,0,241.02239990, 14.94239807,end
timer_stats,655795311503204,PAPI_L3_TCM,5,241.29193115, 14.95582580,end
timer_stats,655795312584303,PAPI_L3_TCM,0,241.54809570, 14.96932983,end
timer_stats,655795313666196,PAPI_L3_TCM,7,241.81097412, 14.98274231,end
timer_stats,655795314751004,PAPI_L3_TCM,8,242.05566406, 14.99624634,end
timer_stats,655795315834828,PAPI_L3_TCM,4,242.30914307, 15.00993347,end
timer_stats,655795316917156,PAPI_L3_TCM,0,242.57128906, 15.02334595,end
timer_stats,655795317998905,PAPI_L3_TCM,1,242.83276367, 15.03819275,end
timer_stats,655795319080750,PAPI_L3_TCM,1,243.20819092, 15.05964661,end
timer_stats,655795320162386,PAPI_L3_TCM,2,243.60729980, 15.08096313,end
timer_stats,655795321244230,PAPI_L3_TCM,2,243.86639404, 15.09481811,end
timer_stats,655795322325542,PAPI_L3_TCM,8,244.12402344, 15.10794067,end
timer_stats,655795323407011,PAPI_L3_TCM,0,244.38391113, 15.12182617,end
timer_stats,655795324487824,PAPI_L3_TCM,2,244.63226318, 15.13525391,end
timer_stats,655795325570512,PAPI_L3_TCM,2,244.88214111, 15.14936828,end
timer_stats,655795326653269,PAPI_L3_TCM,5,245.14422607, 15.16252136,end
timer_stats,655795327734563,PAPI_L3_TCM,2,245.40283203, 15.17547607,end
timer_stats,655795328816493,PAPI_L3_TCM,2,245.66113281, 15.18910217,end
timer_stats,655795329898051,PAPI_L3_TCM,5,245.91015625, 15.20306396,end
timer_stats,655795330979775,PAPI_L3_TCM,3,246.16442871, 15.21676636,end
timer_stats,655795332022275,PAPI_L3_TCM,2,246.42138672, 15.23023987,end
timer_stats,655795333104964,PAPI_L3_TCM,5,246.81927490, 15.25166321,end
timer_stats,655795334186435,PAPI_L3_TCM,4,247.20257568, 15.27191162,end
timer_stats,655795335267169,PAPI_L3_TCM,2,247.44866943, 15.28538513,end
timer_stats,655795336349019,PAPI_L3_TCM,1,247.70562744, 15.29878235,end
timer_stats,655795337431155,PAPI_L3_TCM,4,247.97039795, 15.31265259,end
timer_stats,655795338513094,PAPI_L3_TCM,1,248.22613525, 15.32803345,end
timer_stats,655795339594664,PAPI_L3_TCM,4,248.48974609, 15.34255981,end
timer_stats,655795340676308,PAPI_L3_TCM,7,248.73675537, 15.35548401,end
timer_stats,655795341757981,PAPI_L3_TCM,8,249.00836182, 15.36892700,end
timer_stats,655795342838947,PAPI_L3_TCM,1,249.25701904, 15.38354492,end
timer_stats,655795343919328,PAPI_L3_TCM,3,249.51269531, 15.39700317,end
timer_stats,655795345004614,PAPI_L3_TCM,6,249.77099609, 15.41131592,end
timer_stats,655795346086369,PAPI_L3_TCM,3,250.16058349, 15.42492676,end
timer_stats,655795347167579,PAPI_L3_TCM,2,250.40832519, 15.44503784,end
timer_stats,655795348248584,PAPI_L3_TCM,5,250.80334473, 15.46553039,end
timer_stats,655795349330726,PAPI_L3_TCM,0,251.06005859, 15.47946167,end
timer_stats,655795350411281,PAPI_L3_TCM,7,251.31420898, 15.49351501,end
timer_stats,655795351492621,PAPI_L3_TCM,3,251.57043457, 15.50761414,end
timer_stats,655795352574737,PAPI_L3_TCM,3,251.82232666, 15.52220154,end
timer_stats,655795353658501,PAPI_L3_TCM,7,252.08612060, 15.53507996,end
timer_stats,655795354871120,PAPI_L3_TCM,253,252.34539795, 15.54869080,end
timer_stats,655795355971099,PAPI_L3_TCM,114,252.56298828, 15.56182861,end
timer_stats,655795357063244,PAPI_L3_TCM,6,252.78076172, 15.57591247,end
timer_stats,655795358148670,PAPI_L3_TCM,1,253.04534912, 15.58248901,end
timer_stats,655795359238953,PAPI_L3_TCM,6,253.52301025, 15.61001587,end
timer_stats,655795360326260,PAPI_L3_TCM,10,253.77716064, 15.62327576,end
timer_stats,655795361411347,PAPI_L3_TCM,6,254.02630615, 15.63700867,end
timer_stats,655795362502307,PAPI_L3_TCM,0,254.26647949, 15.64906311,end
timer_stats,655795363588320,PAPI_L3_TCM,4,254.51544189, 15.66281128,end
timer_stats,655795364670265,PAPI_L3_TCM,0,254.76684570, 15.67604065,end
timer_stats,655795365755143,PAPI_L3_TCM,1,255.01708984, 15.68954468,end
timer_stats,655795366840144,PAPI_L3_TCM,1,255.27545166, 15.70298767,end
timer_stats,655795367922494,PAPI_L3_TCM,5,255.53002930, 15.71669006,end
timer_stats,655795369013673,PAPI_L3_TCM,1,255.77935791, 15.73014831,end
timer_stats,655795370099813,PAPI_L3_TCM,3,256.01434326, 15.74420166,end
timer_stats,655795371191949,PAPI_L3_TCM,1,256.49652100, 15.76951599,end
timer_stats,655795372279492,PAPI_L3_TCM,5,256.75512695, 15.78276062,end
timer_stats,655795373567368,PAPI_L3_TCM,1,257.00335693, 15.79740906,end
timer_stats,655795374655563,PAPI_L3_TCM,2,257.23187256, 15.81150818,end
timer_stats,655795375743166,PAPI_L3_TCM,0,257.48406982, 15.82519531,end
timer_stats,655795376830289,PAPI_L3_TCM,5,257.73730469, 15.83772278,end
timer_stats,655795377969864,PAPI_L3_TCM,12,257.99853516, 15.85307312,end
timer_stats,655795379303126,PAPI_L3_TCM,58,258.44628906, 15.87809753,end
timer_stats,655795380390846,PAPI_L3_TCM,0,258.69635010, 15.89091492,end
timer_stats,655795381474118,PAPI_L3_TCM,2,258.94482422, 15.90399170,end
timer_stats,655795382560841,PAPI_L3_TCM,1,259.19818115, 15.91726685,end
timer_stats,655795383646243,PAPI_L3_TCM,2,259.44573975, 15.93031311,end
timer_stats,655795384732493,PAPI_L3_TCM,2,259.70446777, 15.93672180,end
timer_stats,655795385815315,PAPI_L3_TCM,2,259.95141602, 15.94979858,end
timer_stats,655795387032686,PAPI_L3_TCM,47,260.20019531, 15.96305847,end
timer_stats,655795388117764,PAPI_L3_TCM,18,260.42944336, 15.97468567,end
timer_stats,655795389214322,PAPI_L3_TCM,14,260.91992187, 16.00038147,end
timer_stats,655795390295277,PAPI_L3_TCM,6,261.15490722, 16.01100159,end
timer_stats,655795391405952,PAPI_L3_TCM,11,261.38970947, 16.02410889,end
timer_stats,655795392506925,PAPI_L3_TCM,2,261.64392090, 16.03665161,end
timer_stats,655795393616917,PAPI_L3_TCM,2,261.88037109, 16.04997253,end
timer_stats,655795394736555,PAPI_L3_TCM,1,262.12445068, 16.06301880,end
timer_stats,655795395853600,PAPI_L3_TCM,0,262.38201904, 16.07575989,end
timer_stats,655795396954366,PAPI_L3_TCM,4,262.62042236, 16.08877563,end
timer_stats,655795398034396,PAPI_L3_TCM,0,262.84295654, 16.10168457,end
timer_stats,655795399121923,PAPI_L3_TCM,1,263.06561279, 16.11236572,end
timer_stats,655795400210473,PAPI_L3_TCM,4,263.49920654, 16.13667297,end
timer_stats,655795401330063,PAPI_L3_TCM,4,263.74731445, 16.14945984,end
timer_stats,655795402451119,PAPI_L3_TCM,1,263.98864746, 16.16229248,end
timer_stats,655795403575319,PAPI_L3_TCM,2,264.21228027, 16.17539978,end
timer_stats,655795404698215,PAPI_L3_TCM,5,264.44873047, 16.18870544,end
timer_stats,655795407390899,PAPI_L3_TCM,3,264.98736572, 16.22514343,end
timer_stats,655795408507007,PAPI_L3_TCM,2,265.18371582, 16.23904419,end
timer_stats,655795409627872,PAPI_L3_TCM,2,265.41143799, 16.25259399,end
timer_stats,655795410756645,PAPI_L3_TCM,2,265.63903808, 16.26568603,end
timer_stats,655795411887342,PAPI_L3_TCM,2,265.87817383, 16.27876282,end
timer_stats,655795413014794,PAPI_L3_TCM,0,266.11785889, 16.28491211,end
timer_stats,655795414140228,PAPI_L3_TCM,2,266.33398437, 16.29725647,end
timer_stats,655795415262214,PAPI_L3_TCM,2,266.79272461, 16.32284546,end
timer_stats,655795416386778,PAPI_L3_TCM,3,267.01635742, 16.33547973,end
timer_stats,655795417511887,PAPI_L3_TCM,3,267.23803711, 16.34815979,end
timer_stats,655795418638645,PAPI_L3_TCM,1,267.46838379, 16.36080933,end
timer_stats,655795419778132,PAPI_L3_TCM,0,267.68341064, 16.37393188,end
timer_stats,655795420914736,PAPI_L3_TCM,2,267.91223144, 16.38868713,end
timer_stats,655795422039970,PAPI_L3_TCM,2,268.11511230, 16.40008545,end
timer_stats,655795423170277,PAPI_L3_TCM,4,268.44506836, 16.41894531,end
timer_stats,655795424294854,PAPI_L3_TCM,2,268.76977539, 16.43807983,end
timer_stats,655795425417827,PAPI_L3_TCM,1,268.98144531, 16.45028686,end
timer_stats,655795426540022,PAPI_L3_TCM,0,269.20178222, 16.46386719,end
timer_stats,655795427665931,PAPI_L3_TCM,1,269.41101074, 16.47607422,end
timer_stats,655795428794606,PAPI_L3_TCM,2,269.62152100, 16.48829651,end
timer_stats,655795429923467,PAPI_L3_TCM,2,269.82989502, 16.50076294,end
timer_stats,655795431050029,PAPI_L3_TCM,0,270.03472900, 16.51370239,end
timer_stats,655795432180208,PAPI_L3_TCM,5,270.45886230, 16.52943420,end
timer_stats,655795433305175,PAPI_L3_TCM,0,270.67065430, 16.55323791,end
timer_stats,655795434455405,PAPI_L3_TCM,0,270.87707519, 16.56729126,end
timer_stats,655795435607558,PAPI_L3_TCM,0,271.08471680, 16.58131409,end
timer_stats,655795436754359,PAPI_L3_TCM,2,271.29150391, 16.59512329,end
timer_stats,655795437908920,PAPI_L3_TCM,1,271.49017334, 16.61035156,end
timer_stats,655795439050318,PAPI_L3_TCM,4,271.69665527, 16.62416077,end
timer_stats,655795440195266,PAPI_L3_TCM,2,271.89508057, 16.63800049,end
timer_stats,655795441319183,PAPI_L3_TCM,4,272.29473877, 16.66613769,end
timer_stats,655795442462763,PAPI_L3_TCM,2,272.49780273, 16.68041992,end
timer_stats,655795443618290,PAPI_L3_TCM,0,272.70275879, 16.69467163,end
timer_stats,655795444785343,PAPI_L3_TCM,2,272.90563965, 16.70848083,end
timer_stats,655795445932171,PAPI_L3_TCM,1,273.09960937, 16.72395325,end
timer_stats,655795447076151,PAPI_L3_TCM,0,273.29443359, 16.73753357,end
timer_stats,655795448221721,PAPI_L3_TCM,3,273.59228516, 16.75790405,end
timer_stats,655795449355602,PAPI_L3_TCM,0,273.86376953, 16.77838135,end
timer_stats,655795450502927,PAPI_L3_TCM,2,274.05371094, 16.79222107,end
timer_stats,655795451663267,PAPI_L3_TCM,0,274.24047852, 16.80653381,end
timer_stats,655795452823814,PAPI_L3_TCM,1,274.43664551, 16.82012939,end
timer_stats,655795453972818,PAPI_L3_TCM,1,274.63000488, 16.83375549,end
timer_stats,655795455133480,PAPI_L3_TCM,2,274.81414795, 16.84742737,end
timer_stats,655795456285219,PAPI_L3_TCM,2,275.18316650, 16.87611389,end
timer_stats,655795457458600,PAPI_L3_TCM,3,275.37310791, 16.89068603,end
timer_stats,655795458610135,PAPI_L3_TCM,0,275.56085205, 16.90530395,end
timer_stats,655795459776400,PAPI_L3_TCM,2,275.74792480, 16.91880798,end
timer_stats,655795460929569,PAPI_L3_TCM,1,275.92401123, 16.93177795,end
timer_stats,655795462076300,PAPI_L3_TCM,1,276.10491943, 16.94496155,end
timer_stats,655795463226207,PAPI_L3_TCM,1,276.36193848, 16.96527100,end
timer_stats,655795464373829,PAPI_L3_TCM,2,276.64306641, 16.98460388,end
timer_stats,655795465535310,PAPI_L3_TCM,3,276.81695557, 16.99789429,end
timer_stats,655795466684855,PAPI_L3_TCM,3,276.99169922, 17.01094055,end
timer_stats,655795467833560,PAPI_L3_TCM,1,277.16265869, 17.02442932,end
timer_stats,655795468983898,PAPI_L3_TCM,3,277.34509277, 17.03742981,end
timer_stats,655795470129500,PAPI_L3_TCM,0,277.51318359, 17.05116272,end
timer_stats,655795471286379,PAPI_L3_TCM,1,277.86364746, 17.07688904,end
timer_stats,655795472434570,PAPI_L3_TCM,2,278.02832031, 17.09020996,end
timer_stats,655795473589356,PAPI_L3_TCM,0,278.19323730, 17.10305786,end
timer_stats,655795474733046,PAPI_L3_TCM,0,278.35839844, 17.11593628,end
timer_stats,655795475886346,PAPI_L3_TCM,3,278.52172851, 17.12902832,end
timer_stats,655795477041341,PAPI_L3_TCM,1,278.68542480, 17.14250183,end
timer_stats,655795478191701,PAPI_L3_TCM,3,278.84606933, 17.15541077,end
timer_stats,655795479338468,PAPI_L3_TCM,0,279.16650391, 17.18064880,end
timer_stats,655795480488045,PAPI_L3_TCM,2,279.33331299, 17.18661499,end
timer_stats,655795481663936,PAPI_L3_TCM,0,279.47882080, 17.19905090,end
timer_stats,655795482833542,PAPI_L3_TCM,1,279.63537597, 17.21214294,end
timer_stats,655795483995835,PAPI_L3_TCM,0,279.78082275, 17.22488403,end
timer_stats,655795485166286,PAPI_L3_TCM,3,279.93463135, 17.23725891,end
timer_stats,655795486338228,PAPI_L3_TCM,0,280.22991943, 17.26268005,end
timer_stats,655795487514097,PAPI_L3_TCM,3,280.37237549, 17.27465820,end
timer_stats,655795488705861,PAPI_L3_TCM,1,280.51818848, 17.28689575,end
timer_stats,655795489883113,PAPI_L3_TCM,1,280.66302490, 17.29965210,end
timer_stats,655795491055064,PAPI_L3_TCM,1,280.81640625, 17.31179810,end
timer_stats,655795492229032,PAPI_L3_TCM,1,281.00817871, 17.33004761,end
timer_stats,655795493390626,PAPI_L3_TCM,0,281.24102783, 17.34822082,end
timer_stats,655795494588108,PAPI_L3_TCM,2,281.38317871, 17.36097717,end
timer_stats,655795495773895,PAPI_L3_TCM,1,281.52954102, 17.37344360,end
timer_stats,655795496958251,PAPI_L3_TCM,3,281.67742920, 17.38540649,end
timer_stats,655795506179117,PAPI_L3_TCM,246,282.92248535, 17.51229858,end
timer_stats,655795507298479,PAPI_L3_TCM,129,283.17877197, 17.53805542,end
timer_stats,655795508433853,PAPI_L3_TCM,327,283.30725098, 17.54980469,end
timer_stats,655795509593809,PAPI_L3_TCM,7,283.42608642, 17.56181335,end
timer_stats,655795510741276,PAPI_L3_TCM,51,283.54608154, 17.57333374,end
timer_stats,655795511906771,PAPI_L3_TCM,14,283.66802978, 17.58512878,end
timer_stats,655795513070265,PAPI_L3_TCM,4,283.78137207, 17.59719848,end
timer_stats,655795514220660,PAPI_L3_TCM,3,283.89935303, 17.60899353,end
timer_stats,655795515395639,PAPI_L3_TCM,3,284.13116455, 17.63240051,end
timer_stats,655795516557643,PAPI_L3_TCM,2,284.25439453, 17.64414978,end
timer_stats,655795517716759,PAPI_L3_TCM,2,284.36486816, 17.65574646,end
timer_stats,655795518886185,PAPI_L3_TCM,7,284.48425293, 17.66777039,end
timer_stats,655795520088432,PAPI_L3_TCM,2,284.60162353, 17.67907715,end
timer_stats,655795521280570,PAPI_L3_TCM,4,284.74774170, 17.69580078,end
timer_stats,655795522454683,PAPI_L3_TCM,0,284.96020508, 17.71328735,end
timer_stats,655795523627888,PAPI_L3_TCM,2,285.08721924, 17.72509765,end
timer_stats,655795524783621,PAPI_L3_TCM,1,285.23553467, 17.73588562,end
timer_stats,655795525964877,PAPI_L3_TCM,1,285.33880615, 17.74707031,end
timer_stats,655795527145714,PAPI_L3_TCM,1,285.48516846, 17.75755310,end
timer_stats,655795528301987,PAPI_L3_TCM,3,285.63372803, 17.78100586,end
timer_stats,655795529483661,PAPI_L3_TCM,1,285.84161377, 17.79281616,end
timer_stats,655795530678444,PAPI_L3_TCM,1,285.96588135, 17.80485535,end
timer_stats,655795531892465,PAPI_L3_TCM,0,286.09271240, 17.81568909,end
timer_stats,655795533084121,PAPI_L3_TCM,3,286.22027588, 17.82670593,end
timer_stats,655795534265867,PAPI_L3_TCM,2,286.45605469, 17.84429932,end
timer_stats,655795535458675,PAPI_L3_TCM,1,286.57580566, 17.86148071,end
timer_stats,655795536662836,PAPI_L3_TCM,1,286.69738769, 17.87161255,end
timer_stats,655795537863345,PAPI_L3_TCM,1,286.82153320, 17.88198852,end
timer_stats,655795539094301,PAPI_L3_TCM,0,286.93872070, 17.89213562,end
timer_stats,655795540271775,PAPI_L3_TCM,2,287.05554199, 17.90351868,end
timer_stats,655795541444657,PAPI_L3_TCM,0,287.28625488, 17.92625427,end
timer_stats,655795542646542,PAPI_L3_TCM,2,287.39910889, 17.93623352,end
timer_stats,655795543850022,PAPI_L3_TCM,0,287.51708984, 17.94660950,end
timer_stats,655795545053799,PAPI_L3_TCM,2,287.64208984, 17.95796204,end
timer_stats,655795546254344,PAPI_L3_TCM,0,287.74475097, 17.96961975,end
timer_stats,655795547455556,PAPI_L3_TCM,1,287.97351074, 17.99424743,end
timer_stats,655795548671057,PAPI_L3_TCM,1,288.08367920, 18.00465393,end
timer_stats,655795549858889,PAPI_L3_TCM,1,288.20965576, 18.01454162,end
timer_stats,655795551056384,PAPI_L3_TCM,0,288.31280517, 18.02500915,end
timer_stats,655795552250719,PAPI_L3_TCM,3,288.43103027, 18.03515625,end
timer_stats,655795553436414,PAPI_L3_TCM,0,288.64459228, 18.05845642,end
timer_stats,655795554635806,PAPI_L3_TCM,1,288.77093506, 18.06855774,end
timer_stats,655795555837718,PAPI_L3_TCM,0,288.88500976, 18.07893372,end
timer_stats,655795557043020,PAPI_L3_TCM,2,288.98223877, 18.08940124,end
timer_stats,655795558247088,PAPI_L3_TCM,0,289.10552978, 18.10066223,end
timer_stats,655795559452143,PAPI_L3_TCM,1,289.23620605, 18.11767578,end
timer_stats,655795560661758,PAPI_L3_TCM,1,289.41577148, 18.13368225,end
timer_stats,655795561870317,PAPI_L3_TCM,2,289.51934814, 18.14320373,end
timer_stats,655795563064559,PAPI_L3_TCM,0,289.63568115, 18.15429687,end
timer_stats,655795564270388,PAPI_L3_TCM,2,289.73400879, 18.16503906,end
timer_stats,655795565478009,PAPI_L3_TCM,0,289.92694092, 18.18698120,end
timer_stats,655795566683654,PAPI_L3_TCM,1,290.03881836, 18.19668579,end
timer_stats,655795567892373,PAPI_L3_TCM,0,290.12469482, 18.20651245,end
timer_stats,655795569093148,PAPI_L3_TCM,2,290.22662353, 18.21650696,end
timer_stats,655795570295521,PAPI_L3_TCM,0,290.38201904, 18.23292541,end
timer_stats,655795571493769,PAPI_L3_TCM,1,290.53118896, 18.24955749,end
timer_stats,655795572712504,PAPI_L3_TCM,1,290.63586426, 18.25952148,end
timer_stats,655795573914385,PAPI_L3_TCM,1,290.74755859, 18.26916504,end
timer_stats,655795575125577,PAPI_L3_TCM,0,290.85424805, 18.27883911,end
timer_stats,655795576332749,PAPI_L3_TCM,2,291.03924561, 18.30082703,end
timer_stats,655795577512185,PAPI_L3_TCM,1,291.13958740, 18.31155395,end
timer_stats,655795578713173,PAPI_L3_TCM,1,291.23986816, 18.32153320,end
timer_stats,655795579928291,PAPI_L3_TCM,0,291.35516357, 18.32565308,end
timer_stats,655795581156706,PAPI_L3_TCM,2,291.46075439, 18.33584595,end
timer_stats,655795582364845,PAPI_L3_TCM,0,291.64379883, 18.35827637,end
timer_stats,655795583565218,PAPI_L3_TCM,1,291.75561523, 18.36962891,end
timer_stats,655795584765746,PAPI_L3_TCM,1,291.85760498, 18.37959289,end
timer_stats,655795585974896,PAPI_L3_TCM,1,291.95581055, 18.38929749,end
timer_stats,655795587174829,PAPI_L3_TCM,0,292.06079101, 18.39924622,end
timer_stats,655795588387994,PAPI_L3_TCM,2,292.18774414, 18.41603088,end
timer_stats,655795589601769,PAPI_L3_TCM,0,292.35510254, 18.43255615,end
timer_stats,655795590819341,PAPI_L3_TCM,1,292.45501709, 18.44229126,end
timer_stats,655795592054559,PAPI_L3_TCM,1,292.55102539, 18.45205688,end
timer_stats,655795593235054,PAPI_L3_TCM,1,292.64654541, 18.46182251,end
timer_stats,655795594444963,PAPI_L3_TCM,0,292.83483887, 18.48422241,end
timer_stats,655795595652815,PAPI_L3_TCM,1,292.95013428, 18.49349975,end
timer_stats,655795596868433,PAPI_L3_TCM,1,293.03399658, 18.50454712,end
timer_stats,655795598074232,PAPI_L3_TCM,1,293.14556885, 18.51394653,end
timer_stats,655795599286527,PAPI_L3_TCM,0,293.24884033, 18.52368164,end
timer_stats,655795600494445,PAPI_L3_TCM,2,293.42926025, 18.54611206,end
timer_stats,655795601699291,PAPI_L3_TCM,0,293.54119873, 18.55599975,end
timer_stats,655795602906756,PAPI_L3_TCM,1,293.62402344, 18.56607055,end
timer_stats,655795604118191,PAPI_L3_TCM,1,293.72131348, 18.57604980,end
timer_stats,655795605311776,PAPI_L3_TCM,1,293.83325195, 18.58712768,end
timer_stats,655795606513956,PAPI_L3_TCM,0,293.95983887, 18.60415649,end
timer_stats,655795607715836,PAPI_L3_TCM,1,294.12072754, 18.61883545,end
timer_stats,655795608929252,PAPI_L3_TCM,1,294.21392822, 18.62954712,end
timer_stats,655795610138337,PAPI_L3_TCM,1,294.30847168, 18.64016724,end
timer_stats,655795611342772,PAPI_L3_TCM,2,294.43469238, 18.65051269,end
timer_stats,655795612563074,PAPI_L3_TCM,5,294.57043457, 18.67327881,end
timer_stats,655795613784432,PAPI_L3_TCM,4,294.66162109, 18.68218994,end
timer_stats,655795615001641,PAPI_L3_TCM,6,294.76086426, 18.69140625,end
timer_stats,655795616237380,PAPI_L3_TCM,5,294.85247803, 18.70062256,end
timer_stats,655795617435065,PAPI_L3_TCM,5,294.96643066, 18.71676636,end
timer_stats,655795618645060,PAPI_L3_TCM,3,295.12750244, 18.73301697,end
timer_stats,655795619864232,PAPI_L3_TCM,3,295.21850586, 18.74229431,end
timer_stats,655795621076113,PAPI_L3_TCM,5,295.31488037, 18.75175476,end
timer_stats,655795622288282,PAPI_L3_TCM,4,295.40850830, 18.76124573,end
timer_stats,655795623505027,PAPI_L3_TCM,4,295.52374267, 18.77763367,end
timer_stats,655795624731909,PAPI_L3_TCM,7,295.67785644, 18.79374695,end
timer_stats,655795625946768,PAPI_L3_TCM,3,295.76873779, 18.80294800,end
timer_stats,655795627156773,PAPI_L3_TCM,4,295.85662842, 18.81222534,end
timer_stats,655795628368912,PAPI_L3_TCM,5,295.94622803, 18.82275391,end
timer_stats,655795629562007,PAPI_L3_TCM,4,296.12597656, 18.84402466,end
timer_stats,655795630772092,PAPI_L3_TCM,4,296.21661377, 18.85296631,end
timer_stats,655795632020637,PAPI_L3_TCM,5,296.31005859, 18.86221313,end
timer_stats,655795633223018,PAPI_L3_TCM,4,296.40332031, 18.87149048,end
timer_stats,655795634445162,PAPI_L3_TCM,5,296.51416016, 18.88742065,end
timer_stats,655795635658210,PAPI_L3_TCM,3,296.65960693, 18.90182495,end
timer_stats,655795636885028,PAPI_L3_TCM,8,296.75115967, 18.91079712,end
timer_stats,655795638102789,PAPI_L3_TCM,4,296.84149170, 18.91973877,end
timer_stats,655795639314234,PAPI_L3_TCM,4,296.95843506, 18.93408203,end
timer_stats,655795640527000,PAPI_L3_TCM,5,297.10736084, 18.94998169,end
timer_stats,655795641752572,PAPI_L3_TCM,5,297.20001221, 18.95919800,end
timer_stats,655795642971410,PAPI_L3_TCM,4,297.29107666, 18.96838379,end
timer_stats,655795644196115,PAPI_L3_TCM,7,297.37097168, 18.97740173,end
timer_stats,655795645375140,PAPI_L3_TCM,3,297.46289062, 18.98837280,end
timer_stats,655795646594823,PAPI_L3_TCM,1,297.64532471, 19.00982666,end
timer_stats,655795647816051,PAPI_L3_TCM,2,297.73583984, 19.01928711,end
timer_stats,655795649031546,PAPI_L3_TCM,5,297.82281494, 19.02850342,end
timer_stats,655795650250755,PAPI_L3_TCM,4,297.91699219, 19.03765869,end
timer_stats,655795651490980,PAPI_L3_TCM,5,298.03167725, 19.05354309,end
timer_stats,655795652717262,PAPI_L3_TCM,7,298.17596436, 19.06794739,end
timer_stats,655795653946577,PAPI_L3_TCM,4,298.26269531, 19.07740783,end
timer_stats,655795655172836,PAPI_L3_TCM,5,298.34863281, 19.08769226,end
timer_stats,655795656398208,PAPI_L3_TCM,5,298.46771240, 19.10354614,end
timer_stats,655795657620783,PAPI_L3_TCM,0,298.62164307, 19.11962890,end
timer_stats,655795658840818,PAPI_L3_TCM,3,298.70941162, 19.12881470,end
timer_stats,655795660062613,PAPI_L3_TCM,4,298.80017090, 19.13801575,end
timer_stats,655795661254542,PAPI_L3_TCM,3,298.87884521, 19.14729309,end
timer_stats,655795662465986,PAPI_L3_TCM,4,299.00250244, 19.16270447,end
timer_stats,655795663680733,PAPI_L3_TCM,4,299.14971924, 19.17707825,end
timer_stats,655795664899071,PAPI_L3_TCM,6,299.23742676, 19.18605041,end
timer_stats,655795666117613,PAPI_L3_TCM,7,299.31481933, 19.19508362,end
timer_stats,655795667330518,PAPI_L3_TCM,4,299.41040039, 19.20555115,end
timer_stats,655795668554394,PAPI_L3_TCM,6,299.52191162, 19.22605896,end
timer_stats,655795669803092,PAPI_L3_TCM,3,299.67193603, 19.23506164,end
timer_stats,655795671031927,PAPI_L3_TCM,5,299.76092529, 19.24378967,end
timer_stats,655795672256772,PAPI_L3_TCM,5,299.83868408, 19.25305176,end
timer_stats,655795673454917,PAPI_L3_TCM,5,299.96197510, 19.26864624,end
timer_stats,655795674655765,PAPI_L3_TCM,3,300.10101318, 19.28482056,end
timer_stats,655795675859110,PAPI_L3_TCM,3,300.19451904, 19.29402161,end
timer_stats,655795677076450,PAPI_L3_TCM,5,300.28399658, 19.30297851,end
timer_stats,655795678298365,PAPI_L3_TCM,4,300.36761475, 19.31175232,end
timer_stats,655795679523870,PAPI_L3_TCM,6,300.54412842, 19.33271789,end
timer_stats,655795680756461,PAPI_L3_TCM,6,300.62994385, 19.34193420,end
timer_stats,655795681980421,PAPI_L3_TCM,4,300.71191406, 19.35119629,end
timer_stats,655795683205296,PAPI_L3_TCM,4,300.80749512, 19.36013794,end
timer_stats,655795684437411,PAPI_L3_TCM,4,300.91394043, 19.37579346,end
timer_stats,655795685663609,PAPI_L3_TCM,5,301.06085205, 19.39141846,end
timer_stats,655795686881112,PAPI_L3_TCM,3,301.14788818, 19.40063476,end
timer_stats,655795688098990,PAPI_L3_TCM,2,301.23614502, 19.40982055,end
timer_stats,655795689305008,PAPI_L3_TCM,3,301.32867432, 19.41897583,end
timer_stats,655795690509450,PAPI_L3_TCM,4,301.49145508, 19.44102478,end
timer_stats,655795691728068,PAPI_L3_TCM,0,301.57769775, 19.45152283,end
timer_stats,655795692947378,PAPI_L3_TCM,2,301.67443847, 19.46043396,end
timer_stats,655795694161286,PAPI_L3_TCM,3,301.75695801, 19.46966553,end
timer_stats,655795695383504,PAPI_L3_TCM,6,301.86608887, 19.48510742,end
timer_stats,655795696623086,PAPI_L3_TCM,5,302.00909424, 19.50051880,end
timer_stats,655795697862113,PAPI_L3_TCM,6,302.09881592, 19.50970459,end
timer_stats,655795699091344,PAPI_L3_TCM,5,302.18560791, 19.52041626,end
timer_stats,655795700324509,PAPI_L3_TCM,6,302.27301025, 19.52914429,end
timer_stats,655795701549474,PAPI_L3_TCM,4,302.44012451, 19.55043030,end
timer_stats,655795702776066,PAPI_L3_TCM,6,302.52368164, 19.55967712,end
timer_stats,655795704046868,PAPI_L3_TCM,5,302.60540771, 19.56843567,end
timer_stats,655795705249783,PAPI_L3_TCM,7,302.68969727, 19.57740784,end
timer_stats,655795706477095,PAPI_L3_TCM,3,302.80291748, 19.59193420,end
timer_stats,655795707702090,PAPI_L3_TCM,4,302.95068359, 19.60826111,end
timer_stats,655795708932939,PAPI_L3_TCM,5,303.02972412, 19.61701965,end
timer_stats,655795710163787,PAPI_L3_TCM,5,303.11163330, 19.62599182,end
timer_stats,655795711402552,PAPI_L3_TCM,7,303.21997070, 19.64210510,end
timer_stats,655795712647114,PAPI_L3_TCM,8,303.36669922, 19.65855408,end
timer_stats,655795713886980,PAPI_L3_TCM,5,303.45190430, 19.66795349,end
timer_stats,655795715117538,PAPI_L3_TCM,6,303.53027344, 19.67796326,end
timer_stats,655795716335227,PAPI_L3_TCM,4,303.61254883, 19.68846130,end
timer_stats,655795717563183,PAPI_L3_TCM,6,303.77496338, 19.70921326,end
timer_stats,655795718805021,PAPI_L3_TCM,5,303.84960937, 19.71873474,end
timer_stats,655795720060809,PAPI_L3_TCM,8,303.92657471, 19.72813415,end
timer_stats,655795721260798,PAPI_L3_TCM,2,304.00738525, 19.73683166,end
timer_stats,655795722495510,PAPI_L3_TCM,3,304.10205078, 19.75718689,end
timer_stats,655795723725055,PAPI_L3_TCM,4,304.22863769, 19.76750183,end
timer_stats,655795724955007,PAPI_L3_TCM,4,304.30285644, 19.77626037,end
timer_stats,655795726187059,PAPI_L3_TCM,4,304.37664795, 19.78523254,end
timer_stats,655795727409223,PAPI_L3_TCM,4,304.44769287, 19.79554749,end
timer_stats,655795728643573,PAPI_L3_TCM,1,304.59686279, 19.81590271,end
timer_stats,655795729868295,PAPI_L3_TCM,4,304.66992187, 19.82469177,end
timer_stats,655795731098414,PAPI_L3_TCM,4,304.74359131, 19.83345032,end
timer_stats,655795732325302,PAPI_L3_TCM,5,304.81536865, 19.84226990,end
timer_stats,655795733553487,PAPI_L3_TCM,0,304.95983887, 19.86291504,end
timer_stats,655795734778299,PAPI_L3_TCM,1,305.03466797, 19.87164307,end
timer_stats,655795736028705,PAPI_L3_TCM,1,305.11004639, 19.88041687,end
timer_stats,655795737255297,PAPI_L3_TCM,1,305.17797852, 19.88926697,end
timer_stats,655795738479988,PAPI_L3_TCM,2,305.27441406, 19.90449524,end
timer_stats,655795739709420,PAPI_L3_TCM,4,305.40380859, 19.91990662,end
timer_stats,655795740928709,PAPI_L3_TCM,1,305.47430420, 19.92869568,end
timer_stats,655795742147494,PAPI_L3_TCM,1,305.54730225, 19.93743896,end
timer_stats,655795743357904,PAPI_L3_TCM,0,305.61968994, 19.94619751,end
timer_stats,655795744544611,PAPI_L3_TCM,2,305.76928711, 19.96655273,end
timer_stats,655795745739903,PAPI_L3_TCM,0,305.84490967, 19.97711182,end
timer_stats,655795746958914,PAPI_L3_TCM,1,305.92034912, 19.98608398,end
timer_stats,655795748190143,PAPI_L3_TCM,3,305.99035644, 19.99511719,end
timer_stats,655795749428192,PAPI_L3_TCM,5,306.08770752, 20.00387573,end
timer_stats,655795750647174,PAPI_L3_TCM,0,306.21490478, 20.01913452,end
timer_stats,655795751873595,PAPI_L3_TCM,5,306.28259277, 20.02774048,end
timer_stats,655795753087607,PAPI_L3_TCM,4,306.35821533, 20.03286743,end
timer_stats,655795754309536,PAPI_L3_TCM,1,306.42742920, 20.04168701,end
timer_stats,655795755532531,PAPI_L3_TCM,0,306.52923584, 20.06207275,end
timer_stats,655795756760146,PAPI_L3_TCM,2,306.64953613, 20.07214355,end
timer_stats,655795757993358,PAPI_L3_TCM,0,306.72637939, 20.08090210,end
timer_stats,655795759218217,PAPI_L3_TCM,3,306.79925537, 20.08988953,end
timer_stats,655795760474426,PAPI_L3_TCM,4,306.89709473, 20.10084534,end
timer_stats,655795761945372,PAPI_L3_TCM,19,307.01379394, 20.11677551,end
timer_stats,655795763165437,PAPI_L3_TCM,7,307.08880615, 20.12641907,end
timer_stats,655795764389683,PAPI_L3_TCM,8,307.16210937, 20.13517761,end
timer_stats,655795765614238,PAPI_L3_TCM,3,307.30517578, 20.15583801,end
timer_stats,655795766847423,PAPI_L3_TCM,6,307.37939453, 20.16458130,end
timer_stats,655795768072391,PAPI_L3_TCM,5,307.45196533, 20.17337036,end
timer_stats,655795769302760,PAPI_L3_TCM,4,307.52178955, 20.18240356,end
timer_stats,655795770531862,PAPI_L3_TCM,3,307.62188721, 20.19757080,end
timer_stats,655795771763720,PAPI_L3_TCM,4,307.74444580, 20.21307373,end
timer_stats,655795773002753,PAPI_L3_TCM,4,307.81811523, 20.22184753,end
timer_stats,655795774233201,PAPI_L3_TCM,5,307.89184570, 20.23083496,end
timer_stats,655795775457150,PAPI_L3_TCM,3,307.98254394, 20.24502563,end
timer_stats,655795776704762,PAPI_L3_TCM,5,308.11071777, 20.26132202,end
timer_stats,655795777967641,PAPI_L3_TCM,10,308.18182373, 20.27075195,end
timer_stats,655795779197199,PAPI_L3_TCM,8,308.25543213, 20.28042603,end
timer_stats,655795780386896,PAPI_L3_TCM,4,308.32684326, 20.29113769,end
timer_stats,655795781600212,PAPI_L3_TCM,9,308.42138672, 20.30702209,end
timer_stats,655795782798152,PAPI_L3_TCM,11,308.54791260, 20.32333374,end
timer_stats,655795783999320,PAPI_L3_TCM,10,308.62207031, 20.33366394,end
timer_stats,655795785208264,PAPI_L3_TCM,9,308.69885254, 20.34397888,end
timer_stats,655795786404678,PAPI_L3_TCM,4,308.76995850, 20.35432434,end
