timer_stats,697379514724074,PAPI_L3_TCM,298,  0.06341553,  0.00878906,end
timer_stats,697379515855164,PAPI_L3_TCM,45,  0.13043213,  0.01776123,end
timer_stats,697379516966327,PAPI_L3_TCM,3,  0.19213867,  0.02746582,end
timer_stats,697379518107575,PAPI_L3_TCM,1,  0.31921387,  0.04661560,end
timer_stats,697379519218692,PAPI_L3_TCM,2,  0.38958740,  0.05685425,end
timer_stats,697379520331311,PAPI_L3_TCM,2,  0.45709228,  0.06713867,end
timer_stats,697379521417944,PAPI_L3_TCM,12,  0.52307129,  0.07641602,end
timer_stats,697379522528183,PAPI_L3_TCM,11,  0.58593750,  0.08538818,end
timer_stats,697379523674139,PAPI_L3_TCM,3,  0.64984131,  0.09663391,end
timer_stats,697379524815176,PAPI_L3_TCM,4,  0.71350098,  0.10517883,end
timer_stats,697379525949655,PAPI_L3_TCM,0,  0.77709961,  0.11445617,end
timer_stats,697379527084592,PAPI_L3_TCM,1,  0.86743164,  0.13352966,end
timer_stats,697379528196818,PAPI_L3_TCM,3,  0.96685791,  0.14280701,end
timer_stats,697379529282338,PAPI_L3_TCM,0,  1.03570556,  0.15202331,end
timer_stats,697379530391764,PAPI_L3_TCM,0,  1.09631348,  0.16108703,end
timer_stats,697379531503733,PAPI_L3_TCM,0,  1.16204834,  0.17066956,end
timer_stats,697379532596586,PAPI_L3_TCM,1,  1.22949219,  0.18122864,end
timer_stats,697379533708089,PAPI_L3_TCM,2,  1.29876709,  0.19044495,end
timer_stats,697379534821295,PAPI_L3_TCM,2,  1.37207031,  0.20188904,end
timer_stats,697379535930471,PAPI_L3_TCM,1,  1.43255615,  0.21070862,end
timer_stats,697379537039000,PAPI_L3_TCM,0,  1.49993896,  0.22023010,end
timer_stats,697379538145796,PAPI_L3_TCM,0,  1.63281250,  0.23907471,end
timer_stats,697379539253723,PAPI_L3_TCM,0,  1.69812012,  0.24787903,end
timer_stats,697379540337699,PAPI_L3_TCM,1,  1.76904297,  0.25715637,end
timer_stats,697379541424151,PAPI_L3_TCM,2,  1.83673096,  0.26612854,end
timer_stats,697379542509917,PAPI_L3_TCM,2,  1.90600586,  0.27513122,end
timer_stats,697379543595047,PAPI_L3_TCM,0,  1.97613525,  0.28410339,end
timer_stats,697379544681656,PAPI_L3_TCM,3,  2.04437256,  0.29310608,end
timer_stats,697379545767602,PAPI_L3_TCM,0,  2.11242676,  0.30191040,end
timer_stats,697379546851292,PAPI_L3_TCM,1,  2.17987061,  0.31292725,end
timer_stats,697379547934121,PAPI_L3_TCM,0,  2.24914551,  0.32189941,end
timer_stats,697379549017987,PAPI_L3_TCM,0,  2.32019043,  0.33087158,end
timer_stats,697379550101683,PAPI_L3_TCM,1,  2.43078613,  0.34503174,end
timer_stats,697379551185083,PAPI_L3_TCM,2,  2.53161621,  0.35763550,end
timer_stats,697379552269789,PAPI_L3_TCM,0,  2.60589600,  0.36715698,end
timer_stats,697379553354329,PAPI_L3_TCM,1,  2.67608642,  0.37594604,end
timer_stats,697379554435151,PAPI_L3_TCM,0,  2.75262451,  0.38491821,end
timer_stats,697379555525414,PAPI_L3_TCM,0,  2.83087158,  0.39541626,end
timer_stats,697379556606890,PAPI_L3_TCM,0,  2.90637207,  0.40628052,end
timer_stats,697379557687763,PAPI_L3_TCM,0,  2.98077392,  0.41784668,end
timer_stats,697379558769045,PAPI_L3_TCM,0,  3.05877686,  0.42721558,end
timer_stats,697379559897758,PAPI_L3_TCM,3,  3.13903809,  0.43568420,end
timer_stats,697379561036428,PAPI_L3_TCM,3,  3.21295166,  0.44581604,end
timer_stats,697379562174727,PAPI_L3_TCM,2,  3.32836914,  0.46023559,end
timer_stats,697379563331507,PAPI_L3_TCM,0,  3.43109131,  0.47343445,end
timer_stats,697379564488153,PAPI_L3_TCM,0,  3.50152588,  0.48301697,end
timer_stats,697379565644603,PAPI_L3_TCM,0,  3.57055664,  0.49235534,end
timer_stats,697379566800318,PAPI_L3_TCM,1,  3.64068603,  0.50114441,end
timer_stats,697379567956621,PAPI_L3_TCM,0,  3.70751953,  0.51019287,end
timer_stats,697379569122638,PAPI_L3_TCM,3,  3.84454346,  0.52389526,end
timer_stats,697379570277691,PAPI_L3_TCM,0,  3.91333008,  0.53628540,end
timer_stats,697379571433777,PAPI_L3_TCM,1,  3.97998047,  0.54507446,end
timer_stats,697379572589080,PAPI_L3_TCM,0,  4.04742432,  0.55361938,end
timer_stats,697379573745200,PAPI_L3_TCM,0,  4.11944580,  0.56260681,end
timer_stats,697379574901403,PAPI_L3_TCM,0,  4.18328857,  0.57170105,end
timer_stats,697379576066026,PAPI_L3_TCM,2,  4.25006103,  0.58050537,end
timer_stats,697379577201345,PAPI_L3_TCM,0,  4.38665771,  0.59840393,end
timer_stats,697379578361435,PAPI_L3_TCM,2,  4.45092773,  0.60722351,end
timer_stats,697379579538471,PAPI_L3_TCM,0,  4.51745605,  0.61653137,end
timer_stats,697379580696664,PAPI_L3_TCM,1,  4.58691406,  0.62527466,end
timer_stats,697379581854814,PAPI_L3_TCM,0,  4.65411377,  0.63409424,end
timer_stats,697379583012077,PAPI_L3_TCM,0,  4.72375488,  0.64260864,end
timer_stats,697379584170899,PAPI_L3_TCM,0,  4.82775879,  0.65634155,end
timer_stats,697379585309699,PAPI_L3_TCM,0,  4.92712402,  0.66900635,end
timer_stats,697379586470415,PAPI_L3_TCM,0,  4.99438477,  0.67840576,end
timer_stats,697379587629158,PAPI_L3_TCM,2,  5.06945801,  0.68710327,end
timer_stats,697379588792268,PAPI_L3_TCM,0,  5.13305664,  0.69592285,end
timer_stats,697379589952884,PAPI_L3_TCM,1,  5.20397949,  0.70513916,end
timer_stats,697379591120577,PAPI_L3_TCM,0,  5.27343750,  0.71414184,end
timer_stats,697379592282427,PAPI_L3_TCM,0,  5.40820312,  0.73181152,end
timer_stats,697379593446696,PAPI_L3_TCM,0,  5.47619629,  0.74084472,end
timer_stats,697379594612833,PAPI_L3_TCM,0,  5.54913330,  0.75064087,end
timer_stats,697379595774302,PAPI_L3_TCM,0,  5.61602783,  0.75967407,end
timer_stats,697379596938935,PAPI_L3_TCM,2,  5.68511963,  0.76843262,end
timer_stats,697379598098065,PAPI_L3_TCM,0,  5.75610352,  0.77696228,end
timer_stats,697379599258701,PAPI_L3_TCM,1,  5.89062500,  0.79484558,end
timer_stats,697379600421428,PAPI_L3_TCM,0,  5.96228027,  0.80384827,end
timer_stats,697379601579977,PAPI_L3_TCM,0,  6.03234863,  0.81260681,end
timer_stats,697379602740020,PAPI_L3_TCM,0,  6.10211181,  0.82221985,end
timer_stats,697379603899706,PAPI_L3_TCM,0,  6.17083740,  0.83100891,end
timer_stats,697379605059532,PAPI_L3_TCM,0,  6.24212646,  0.83976746,end
timer_stats,697379606220972,PAPI_L3_TCM,2,  6.37774658,  0.85739136,end
timer_stats,697379607380841,PAPI_L3_TCM,0,  6.44866943,  0.86590576,end
timer_stats,697379608543284,PAPI_L3_TCM,1,  6.51654053,  0.87472534,end
timer_stats,697379609703614,PAPI_L3_TCM,0,  6.58929443,  0.88348388,end
timer_stats,697379610866104,PAPI_L3_TCM,0,  6.65942383,  0.89361572,end
timer_stats,697379612030520,PAPI_L3_TCM,0,  6.73443603,  0.90234375,end
timer_stats,697379613194583,PAPI_L3_TCM,1,  6.87390137,  0.91633606,end
timer_stats,697379614332493,PAPI_L3_TCM,0,  6.95141602,  0.93026733,end
timer_stats,697379615497916,PAPI_L3_TCM,2,  7.02368164,  0.93856811,end
timer_stats,697379616661192,PAPI_L3_TCM,0,  7.09069824,  0.94764709,end
timer_stats,697379617823848,PAPI_L3_TCM,1,  7.16412353,  0.95642090,end
timer_stats,697379618985471,PAPI_L3_TCM,0,  7.23559570,  0.96522522,end
timer_stats,697379620147794,PAPI_L3_TCM,0,  7.34332275,  0.97923279,end
timer_stats,697379621310570,PAPI_L3_TCM,0,  7.45159912,  0.99159241,end
timer_stats,697379622475993,PAPI_L3_TCM,0,  7.51953125,  1.00044250,end
timer_stats,697379623639729,PAPI_L3_TCM,0,  7.59338379,  1.00898743,end
timer_stats,697379624802302,PAPI_L3_TCM,2,  7.66998291,  1.01795959,end
timer_stats,697379625965852,PAPI_L3_TCM,0,  7.74237060,  1.02653503,end
timer_stats,697379627127418,PAPI_L3_TCM,2,  7.81176758,  1.03532410,end
timer_stats,697379628315178,PAPI_L3_TCM,0,  7.95794678,  1.05290222,end
timer_stats,697379629520354,PAPI_L3_TCM,0,  8.03112793,  1.06141662,end
timer_stats,697379630709494,PAPI_L3_TCM,0,  8.10229492,  1.07025146,end
timer_stats,697379635194345,PAPI_L3_TCM,44,  8.43591308,  1.11416626,end
timer_stats,697379636385404,PAPI_L3_TCM,3,  8.54260254,  1.12730408,end
timer_stats,697379637580334,PAPI_L3_TCM,1,  8.61602783,  1.13504028,end
timer_stats,697379638766115,PAPI_L3_TCM,0,  8.68591308,  1.14254761,end
timer_stats,697379639955748,PAPI_L3_TCM,2,  8.75909424,  1.15002441,end
timer_stats,697379641145164,PAPI_L3_TCM,0,  8.83544922,  1.16403198,end
timer_stats,697379642336297,PAPI_L3_TCM,0,  8.98712158,  1.17262268,end
timer_stats,697379643529027,PAPI_L3_TCM,0,  9.06396484,  1.18119812,end
timer_stats,697379644718280,PAPI_L3_TCM,0,  9.13702392,  1.19004822,end
timer_stats,697379645910066,PAPI_L3_TCM,0,  9.21343994,  1.19863892,end
timer_stats,697379647099376,PAPI_L3_TCM,1,  9.29211426,  1.20739746,end
timer_stats,697379648279575,PAPI_L3_TCM,0,  9.44403076,  1.22476196,end
timer_stats,697379649471795,PAPI_L3_TCM,1,  9.52056885,  1.23333740,end
timer_stats,697379650673618,PAPI_L3_TCM,0,  9.60247803,  1.24182129,end
timer_stats,697379651850827,PAPI_L3_TCM,0,  9.67370605,  1.25042725,end
timer_stats,697379653029220,PAPI_L3_TCM,0,  9.75256348,  1.25921631,end
timer_stats,697379654209746,PAPI_L3_TCM,0,  9.90753174,  1.27291870,end
timer_stats,697379655377726,PAPI_L3_TCM,0,  9.98785400,  1.28512573,end
timer_stats,697379656569219,PAPI_L3_TCM,1, 10.06616211,  1.29393005,end
timer_stats,697379657759092,PAPI_L3_TCM,0, 10.14379883,  1.30250549,end
timer_stats,697379658934856,PAPI_L3_TCM,2, 10.22222900,  1.31106567,end
timer_stats,697379660124005,PAPI_L3_TCM,0, 10.29833984,  1.31988525,end
timer_stats,697379661302272,PAPI_L3_TCM,0, 10.45330810,  1.33726501,end
timer_stats,697379662481068,PAPI_L3_TCM,0, 10.53277588,  1.34626770,end
timer_stats,697379663669464,PAPI_L3_TCM,8, 10.61145019,  1.35461426,end
timer_stats,697379664836324,PAPI_L3_TCM,0, 10.69122314,  1.36361694,end
timer_stats,697379666013333,PAPI_L3_TCM,1, 10.77075195,  1.37219238,end
timer_stats,697379667191903,PAPI_L3_TCM,0, 10.92266846,  1.38954162,end
timer_stats,697379668381682,PAPI_L3_TCM,2, 11.00128174,  1.39833069,end
timer_stats,697379669573885,PAPI_L3_TCM,0, 11.07495117,  1.40718078,end
timer_stats,697379670764651,PAPI_L3_TCM,0, 11.15490723,  1.41648865,end
timer_stats,697379671955124,PAPI_L3_TCM,0, 11.23327637,  1.42506409,end
timer_stats,697379673144647,PAPI_L3_TCM,0, 11.35778808,  1.43902588,end
timer_stats,697379674333084,PAPI_L3_TCM,0, 11.46661377,  1.45126343,end
timer_stats,697379675508547,PAPI_L3_TCM,1, 11.54241943,  1.46060181,end
timer_stats,697379676685926,PAPI_L3_TCM,0, 11.62176514,  1.47012329,end
timer_stats,697379677873366,PAPI_L3_TCM,2, 11.69976807,  1.47894287,end
timer_stats,697379679062209,PAPI_L3_TCM,0, 11.77722168,  1.48800659,end
timer_stats,697379680250159,PAPI_L3_TCM,0, 11.90368652,  1.50215149,end
timer_stats,697379681445382,PAPI_L3_TCM,0, 12.00939941,  1.51510620,end
timer_stats,697379682606865,PAPI_L3_TCM,0, 12.09106445,  1.52386475,end
timer_stats,697379683796549,PAPI_L3_TCM,0, 12.17492676,  1.53382873,end
timer_stats,697379684964138,PAPI_L3_TCM,1, 12.25469971,  1.54258728,end
timer_stats,697379686134904,PAPI_L3_TCM,1, 12.33758545,  1.55180359,end
timer_stats,697379687306787,PAPI_L3_TCM,2, 12.49310303,  1.56965637,end
timer_stats,697379688476836,PAPI_L3_TCM,0, 12.57556152,  1.57841492,end
timer_stats,697379689686619,PAPI_L3_TCM,2, 12.65948486,  1.58688354,end
timer_stats,697379690866449,PAPI_L3_TCM,0, 12.73883057,  1.59568787,end
timer_stats,697379692059715,PAPI_L3_TCM,0, 12.81707764,  1.60424805,end
timer_stats,697379693195922,PAPI_L3_TCM,0, 12.89892578,  1.61325073,end
timer_stats,697379694383455,PAPI_L3_TCM,1, 13.05780029,  1.63031006,end
timer_stats,697379695573498,PAPI_L3_TCM,0, 13.13775635,  1.63909912,end
timer_stats,697379696762054,PAPI_L3_TCM,3, 13.21691894,  1.64813232,end
timer_stats,697379697950454,PAPI_L3_TCM,0, 13.29437256,  1.65649414,end
timer_stats,697379699136717,PAPI_L3_TCM,0, 13.37487793,  1.66506958,end
timer_stats,697379700326056,PAPI_L3_TCM,0, 13.50354004,  1.68080139,end
timer_stats,697379701491533,PAPI_L3_TCM,1, 13.62908935,  1.69599914,end
timer_stats,697379702671509,PAPI_L3_TCM,0, 13.70983887,  1.70632935,end
timer_stats,697379703862739,PAPI_L3_TCM,1, 13.79290771,  1.71661377,end
timer_stats,697379705053988,PAPI_L3_TCM,0, 13.88232422,  1.72665405,end
timer_stats,697379706243218,PAPI_L3_TCM,2, 13.96887207,  1.74189758,end
timer_stats,697379707434411,PAPI_L3_TCM,0, 14.13763428,  1.75717163,end
timer_stats,697379708627227,PAPI_L3_TCM,0, 14.22363281,  1.76770019,end
timer_stats,697379709818657,PAPI_L3_TCM,0, 14.30938721,  1.77804565,end
timer_stats,697379710998973,PAPI_L3_TCM,0, 14.39422607,  1.78817749,end
timer_stats,697379712185906,PAPI_L3_TCM,0, 14.52624512,  1.80296326,end
timer_stats,697379713354696,PAPI_L3_TCM,1, 14.65545654,  1.81838989,end
timer_stats,697379714535959,PAPI_L3_TCM,0, 14.73968506,  1.82852173,end
timer_stats,697379715723949,PAPI_L3_TCM,2, 14.82580566,  1.83908081,end
timer_stats,697379716880242,PAPI_L3_TCM,0, 14.91235351,  1.84934997,end
timer_stats,697379718037681,PAPI_L3_TCM,0, 15.00207519,  1.86006165,end
timer_stats,697379719192088,PAPI_L3_TCM,0, 15.08789062,  1.87013245,end
timer_stats,697379720374277,PAPI_L3_TCM,1, 15.26489258,  1.89183044,end
timer_stats,697379721522570,PAPI_L3_TCM,0, 15.35406494,  1.90232849,end
timer_stats,697379722675316,PAPI_L3_TCM,1, 15.45428467,  1.91252136,end
timer_stats,697379723827329,PAPI_L3_TCM,0, 15.53259277,  1.92289734,end
timer_stats,697379724991535,PAPI_L3_TCM,2, 15.62207031,  1.93345642,end
timer_stats,697379726144485,PAPI_L3_TCM,0, 15.70941162,  1.94401550,end
timer_stats,697379727309258,PAPI_L3_TCM,0, 15.88385010,  1.96488953,end
timer_stats,697379728475265,PAPI_L3_TCM,0, 15.97723389,  1.97496033,end
timer_stats,697379729639064,PAPI_L3_TCM,0, 16.06854248,  1.98716736,end
timer_stats,697379730794557,PAPI_L3_TCM,0, 16.15350342,  1.99687195,end
timer_stats,697379731953973,PAPI_L3_TCM,1, 16.24792480,  2.00738525,end
timer_stats,697379733134263,PAPI_L3_TCM,0, 16.33306885,  2.01815796,end
timer_stats,697379734285252,PAPI_L3_TCM,2, 16.47161865,  2.03341675,end
timer_stats,697379735447895,PAPI_L3_TCM,0, 16.61047363,  2.04884338,end
timer_stats,697379736611448,PAPI_L3_TCM,0, 16.71020508,  2.05885315,end
timer_stats,697379737773201,PAPI_L3_TCM,0, 16.79248047,  2.06410217,end
timer_stats,697379738924624,PAPI_L3_TCM,0, 16.89074707,  2.07389831,end
timer_stats,697379740087251,PAPI_L3_TCM,0, 16.98687744,  2.08392334,end
timer_stats,697379741224609,PAPI_L3_TCM,1, 17.11535644,  2.09902954,end
timer_stats,697379742388189,PAPI_L3_TCM,0, 17.25323486,  2.11465454,end
timer_stats,697379743550469,PAPI_L3_TCM,1, 17.34271240,  2.12518311,end
timer_stats,697379744717582,PAPI_L3_TCM,0, 17.43890381,  2.13568115,end
timer_stats,697379745877445,PAPI_L3_TCM,0, 17.52960205,  2.14599609,end
timer_stats,697379747038818,PAPI_L3_TCM,0, 17.63055420,  2.15603638,end
timer_stats,697379748203121,PAPI_L3_TCM,0, 17.72656250,  2.16630554,end
timer_stats,697379749340474,PAPI_L3_TCM,0, 17.89886475,  2.18638611,end
timer_stats,697379750463810,PAPI_L3_TCM,2, 17.94927978,  2.19194031,end
timer_stats,697379751569923,PAPI_L3_TCM,4, 18.08776855,  2.20741272,end
timer_stats,697379752664239,PAPI_L3_TCM,1, 18.17785644,  2.21751404,end
timer_stats,697379753756941,PAPI_L3_TCM,1, 18.27703857,  2.22776794,end
timer_stats,697379754849698,PAPI_L3_TCM,0, 18.36193847,  2.23809814,end
timer_stats,697379755955147,PAPI_L3_TCM,0, 18.44866943,  2.24819946,end
timer_stats,697379757060977,PAPI_L3_TCM,0, 18.54156494,  2.25823975,end
timer_stats,697379758154046,PAPI_L3_TCM,0, 18.62908935,  2.27003479,end
timer_stats,697379759249009,PAPI_L3_TCM,2, 18.77191162,  2.28594971,end
timer_stats,697379760354315,PAPI_L3_TCM,0, 18.91430664,  2.30134582,end
timer_stats,697379761436968,PAPI_L3_TCM,1, 18.95904541,  2.30650330,end
timer_stats,697379762532190,PAPI_L3_TCM,0, 19.11639404,  2.32188415,end
timer_stats,697379763625446,PAPI_L3_TCM,0, 19.19665527,  2.33232117,end
timer_stats,697379764730033,PAPI_L3_TCM,0, 19.28881836,  2.34265137,end
timer_stats,697379765822039,PAPI_L3_TCM,0, 19.38488769,  2.35295105,end
timer_stats,697379766914078,PAPI_L3_TCM,0, 19.49267578,  2.36314392,end
timer_stats,697379768011861,PAPI_L3_TCM,1, 19.57318115,  2.37332153,end
timer_stats,697379769109607,PAPI_L3_TCM,1, 19.66809082,  2.38296509,end
timer_stats,697379770213747,PAPI_L3_TCM,2, 19.76257324,  2.39324951,end
timer_stats,697379771317636,PAPI_L3_TCM,0, 19.90631104,  2.40873718,end
timer_stats,697379772422559,PAPI_L3_TCM,0, 19.99627686,  2.41883850,end
timer_stats,697379773527591,PAPI_L3_TCM,0, 20.13970947,  2.43385315,end
timer_stats,697379774634401,PAPI_L3_TCM,0, 20.24230957,  2.44410705,end
timer_stats,697379775738197,PAPI_L3_TCM,0, 20.32458496,  2.45429993,end
timer_stats,697379776845070,PAPI_L3_TCM,1, 20.42999268,  2.46430969,end
timer_stats,697379777954773,PAPI_L3_TCM,1, 20.52581787,  2.47442627,end
timer_stats,697379779119565,PAPI_L3_TCM,3, 20.62322998,  2.48568726,end
timer_stats,697379780281778,PAPI_L3_TCM,0, 20.72161865,  2.49595642,end
timer_stats,697379781415378,PAPI_L3_TCM,0, 20.85968018,  2.50630188,end
timer_stats,697379782562231,PAPI_L3_TCM,0, 21.00012207,  2.52735901,end
timer_stats,697379783733594,PAPI_L3_TCM,0, 21.09332275,  2.53788757,end
timer_stats,697379784900080,PAPI_L3_TCM,0, 21.18572998,  2.54795837,end
timer_stats,697379786041197,PAPI_L3_TCM,1, 21.28314209,  2.55821228,end
timer_stats,697379787192946,PAPI_L3_TCM,0, 21.36883545,  2.56857300,end
timer_stats,697379792814710,PAPI_L3_TCM,46, 21.88604736,  2.62890625,end
timer_stats,697379793994673,PAPI_L3_TCM,2, 21.97125244,  2.63742065,end
timer_stats,697379795155673,PAPI_L3_TCM,0, 22.05816650,  2.64620972,end
timer_stats,697379796321983,PAPI_L3_TCM,0, 22.18334961,  2.65997314,end
timer_stats,697379797522406,PAPI_L3_TCM,0, 22.31610107,  2.67187500,end
timer_stats,697379798701672,PAPI_L3_TCM,0, 22.40417480,  2.68063354,end
timer_stats,697379799884882,PAPI_L3_TCM,1, 22.47662353,  2.68954468,end
timer_stats,697379801072241,PAPI_L3_TCM,0, 22.57141113,  2.69825744,end
timer_stats,697379802253404,PAPI_L3_TCM,2, 22.65765381,  2.71205139,end
timer_stats,697379803445171,PAPI_L3_TCM,0, 22.76757812,  2.71934509,end
timer_stats,697379804606484,PAPI_L3_TCM,0, 22.91125488,  2.73248291,end
timer_stats,697379805801800,PAPI_L3_TCM,0, 22.98791504,  2.74157715,end
timer_stats,697379806998000,PAPI_L3_TCM,0, 23.07165527,  2.75036621,end
timer_stats,697379808168116,PAPI_L3_TCM,0, 23.15972900,  2.75912476,end
timer_stats,697379809335236,PAPI_L3_TCM,1, 23.28009033,  2.77293396,end
timer_stats,697379810527649,PAPI_L3_TCM,0, 23.40856933,  2.78504944,end
timer_stats,697379811717092,PAPI_L3_TCM,2, 23.49108887,  2.79383850,end
timer_stats,697379812910998,PAPI_L3_TCM,0, 23.57513428,  2.80262756,end
timer_stats,697379814104918,PAPI_L3_TCM,0, 23.64758301,  2.81150818,end
timer_stats,697379815272071,PAPI_L3_TCM,0, 23.72973633,  2.82029724,end
timer_stats,697379816734525,PAPI_L3_TCM,1060, 23.90814209,  2.83778381,end
timer_stats,697379817923281,PAPI_L3_TCM,20, 23.99029541,  2.84657288,end
timer_stats,697379819107751,PAPI_L3_TCM,2, 24.07055664,  2.85539246,end
timer_stats,697379820269053,PAPI_L3_TCM,0, 24.15368652,  2.86393738,end
timer_stats,697379821461450,PAPI_L3_TCM,2, 24.26837158,  2.87638855,end
timer_stats,697379822662656,PAPI_L3_TCM,0, 24.39166260,  2.89045715,end
timer_stats,697379823847282,PAPI_L3_TCM,0, 24.47692871,  2.89918518,end
timer_stats,697379825027418,PAPI_L3_TCM,0, 24.55957031,  2.90776062,end
timer_stats,697379826205848,PAPI_L3_TCM,0, 24.64111328,  2.91653442,end
timer_stats,697379827392887,PAPI_L3_TCM,0, 24.74951172,  2.92874145,end
timer_stats,697379828563690,PAPI_L3_TCM,1, 24.88055420,  2.94262695,end
timer_stats,697379829746063,PAPI_L3_TCM,0, 24.95294189,  2.95147705,end
timer_stats,697379830937243,PAPI_L3_TCM,2, 25.03399658,  2.96023559,end
timer_stats,697379832069963,PAPI_L3_TCM,0, 25.11645508,  2.96902466,end
timer_stats,697379833255552,PAPI_L3_TCM,0, 25.19641113,  2.97781372,end
timer_stats,697379834451155,PAPI_L3_TCM,0, 25.35058594,  2.99542236,end
timer_stats,697379835641969,PAPI_L3_TCM,0, 25.42871094,  3.00378418,end
timer_stats,697379836833682,PAPI_L3_TCM,0, 25.51055908,  3.01254272,end
timer_stats,697379838027048,PAPI_L3_TCM,1, 25.59094238,  3.02133179,end
timer_stats,697379839200091,PAPI_L3_TCM,0, 25.66986084,  3.03013611,end
timer_stats,697379840363950,PAPI_L3_TCM,2, 25.77569580,  3.04237366,end
timer_stats,697379841557130,PAPI_L3_TCM,0, 25.90179443,  3.05632019,end
timer_stats,697379842744576,PAPI_L3_TCM,0, 25.97851562,  3.06513977,end
timer_stats,697379843934076,PAPI_L3_TCM,0, 26.05725097,  3.07395935,end
timer_stats,697379845133269,PAPI_L3_TCM,1, 26.13385010,  3.08229065,end
timer_stats,697379846325349,PAPI_L3_TCM,0, 26.21173096,  3.09107971,end
timer_stats,697379847517395,PAPI_L3_TCM,1, 26.36822510,  3.10868835,end
timer_stats,697379848698328,PAPI_L3_TCM,0, 26.44598389,  3.11726379,end
timer_stats,697379849893771,PAPI_L3_TCM,2, 26.52319336,  3.12583923,end
timer_stats,697379851072581,PAPI_L3_TCM,0, 26.60382080,  3.13414001,end
timer_stats,697379852255970,PAPI_L3_TCM,0, 26.68023682,  3.14295959,end
timer_stats,697379853437620,PAPI_L3_TCM,0, 26.75775146,  3.15196228,end
timer_stats,697379854590626,PAPI_L3_TCM,0, 26.91180420,  3.16960144,end
timer_stats,697379855740383,PAPI_L3_TCM,0, 26.98626709,  3.17796326,end
timer_stats,697379856919932,PAPI_L3_TCM,1, 27.06365967,  3.18650818,end
timer_stats,697379858102552,PAPI_L3_TCM,0, 27.13946533,  3.19508362,end
timer_stats,697379859283378,PAPI_L3_TCM,2, 27.21752930,  3.20387268,end
timer_stats,697379860480108,PAPI_L3_TCM,0, 27.32324219,  3.21853638,end
timer_stats,697379861675164,PAPI_L3_TCM,0, 27.44781494,  3.22982788,end
timer_stats,697379862870364,PAPI_L3_TCM,0, 27.52069092,  3.23861694,end
timer_stats,697379864063514,PAPI_L3_TCM,0, 27.59545898,  3.24746704,end
timer_stats,697379865250570,PAPI_L3_TCM,0, 27.67205811,  3.25628662,end
timer_stats,697379866445450,PAPI_L3_TCM,1, 27.74914551,  3.27024841,end
timer_stats,697379867626153,PAPI_L3_TCM,0, 27.89532471,  3.28269958,end
timer_stats,697379868819079,PAPI_L3_TCM,2, 27.97613525,  3.29144287,end
timer_stats,697379870003169,PAPI_L3_TCM,0, 28.05773926,  3.30154419,end
timer_stats,697379871191822,PAPI_L3_TCM,3, 28.13696289,  3.31031799,end
timer_stats,697379872385571,PAPI_L3_TCM,0, 28.21057129,  3.31916809,end
timer_stats,697379873581341,PAPI_L3_TCM,0, 28.35858154,  3.33677673,end
timer_stats,697379874775201,PAPI_L3_TCM,0, 28.44042969,  3.34190369,end
timer_stats,697379877667468,PAPI_L3_TCM,36, 28.65777588,  3.36941528,end
timer_stats,697379878831818,PAPI_L3_TCM,3, 28.73419189,  3.37817383,end
timer_stats,697379879998165,PAPI_L3_TCM,2, 28.80908203,  3.38696289,end
timer_stats,697379881187274,PAPI_L3_TCM,0, 28.89025879,  3.39547729,end
timer_stats,697379882351977,PAPI_L3_TCM,0, 28.96520996,  3.40408325,end
timer_stats,697379883519870,PAPI_L3_TCM,0, 29.12030029,  3.42172241,end
timer_stats,697379884684856,PAPI_L3_TCM,0, 29.19805908,  3.43031311,end
timer_stats,697379885848619,PAPI_L3_TCM,0, 29.27587890,  3.43908691,end
timer_stats,697379887035588,PAPI_L3_TCM,1, 29.34655762,  3.44789124,end
timer_stats,697379888227325,PAPI_L3_TCM,0, 29.42047119,  3.45671081,end
timer_stats,697379889399301,PAPI_L3_TCM,2, 29.49707031,  3.46548462,end
timer_stats,697379890591977,PAPI_L3_TCM,0, 29.63739014,  3.48315430,end
timer_stats,697379891781787,PAPI_L3_TCM,1, 29.71234131,  3.49194336,end
timer_stats,697379892971387,PAPI_L3_TCM,0, 29.78839111,  3.50048828,end
timer_stats,697379894160776,PAPI_L3_TCM,0, 29.86077881,  3.50906372,end
timer_stats,697379895350709,PAPI_L3_TCM,0, 29.93701172,  3.51757812,end
timer_stats,697379896540192,PAPI_L3_TCM,1, 30.08038330,  3.53472900,end
timer_stats,697379897740155,PAPI_L3_TCM,0, 30.15234375,  3.54354858,end
timer_stats,697379898928438,PAPI_L3_TCM,2, 30.22412109,  3.55236816,end
timer_stats,697379900118605,PAPI_L3_TCM,0, 30.29840088,  3.56068420,end
timer_stats,697379901283778,PAPI_L3_TCM,1, 30.36785889,  3.56953430,end
timer_stats,697379902473177,PAPI_L3_TCM,0, 30.51275635,  3.58712768,end
timer_stats,697379903663457,PAPI_L3_TCM,1, 30.58917236,  3.59588623,end
timer_stats,697379904851853,PAPI_L3_TCM,0, 30.66241455,  3.60469055,end
timer_stats,697379906014730,PAPI_L3_TCM,1, 30.73706055,  3.61347961,end
timer_stats,697379907178206,PAPI_L3_TCM,0, 30.80401611,  3.62185669,end
timer_stats,697379908367769,PAPI_L3_TCM,2, 30.87927246,  3.63063049,end
timer_stats,697379909559665,PAPI_L3_TCM,0, 31.02459717,  3.64823913,end
timer_stats,697379910750758,PAPI_L3_TCM,1, 31.09735107,  3.65705871,end
timer_stats,697379911939051,PAPI_L3_TCM,0, 31.16766357,  3.66563415,end
timer_stats,697379913142608,PAPI_L3_TCM,0, 31.24072265,  3.67424011,end
timer_stats,697379914333691,PAPI_L3_TCM,0, 31.31481933,  3.68302917,end
timer_stats,697379915526630,PAPI_L3_TCM,1, 31.45562744,  3.70063782,end
timer_stats,697379916724420,PAPI_L3_TCM,0, 31.52447510,  3.70921326,end
timer_stats,697379917914420,PAPI_L3_TCM,1, 31.59661865,  3.71800232,end
timer_stats,697379919103346,PAPI_L3_TCM,0, 31.66687012,  3.72682190,end
timer_stats,697379920298002,PAPI_L3_TCM,0, 31.74194336,  3.73530578,end
timer_stats,697379921498395,PAPI_L3_TCM,0, 31.88049316,  3.75294494,end
timer_stats,697379922687349,PAPI_L3_TCM,0, 31.95513916,  3.76148987,end
timer_stats,697379923876956,PAPI_L3_TCM,0, 32.02453613,  3.77033996,end
timer_stats,697379925067442,PAPI_L3_TCM,1, 32.09387207,  3.77915955,end
timer_stats,697379926255845,PAPI_L3_TCM,0, 32.16522217,  3.78797913,end
timer_stats,697379927448755,PAPI_L3_TCM,1, 32.23925781,  3.79673767,end
timer_stats,697379928642081,PAPI_L3_TCM,0, 32.38006592,  3.81388855,end
timer_stats,697379929841331,PAPI_L3_TCM,1, 32.45227051,  3.82289124,end
timer_stats,697379931031270,PAPI_L3_TCM,1, 32.52093506,  3.83148193,end
timer_stats,697379932225570,PAPI_L3_TCM,0, 32.59918213,  3.84020996,end
timer_stats,697379933417506,PAPI_L3_TCM,0, 32.66943359,  3.84855652,end
timer_stats,697379934608429,PAPI_L3_TCM,1, 32.81146240,  3.86598205,end
timer_stats,697379935798725,PAPI_L3_TCM,0, 32.88830566,  3.86958313,end
timer_stats,697379936989631,PAPI_L3_TCM,2, 32.95550537,  3.87843323,end
timer_stats,697379938178011,PAPI_L3_TCM,0, 33.03076172,  3.88694763,end
timer_stats,697379939367277,PAPI_L3_TCM,1, 33.09851074,  3.89576721,end
timer_stats,697379940558133,PAPI_L3_TCM,0, 33.24493408,  3.91313171,end
timer_stats,697379941746963,PAPI_L3_TCM,0, 33.31958008,  3.92193603,end
timer_stats,697379942938349,PAPI_L3_TCM,0, 33.39093018,  3.93054199,end
timer_stats,697379944130769,PAPI_L3_TCM,1, 33.46655273,  3.93908691,end
timer_stats,697379945294252,PAPI_L3_TCM,0, 33.54260254,  3.94274902,end
timer_stats,697379946485346,PAPI_L3_TCM,2, 33.68499756,  3.95965576,end
timer_stats,697379947674022,PAPI_L3_TCM,0, 33.75720215,  3.96841431,end
timer_stats,697379948866822,PAPI_L3_TCM,0, 33.82904053,  3.97723388,end
timer_stats,697379950057342,PAPI_L3_TCM,0, 33.89782715,  3.98608398,end
timer_stats,697379951245425,PAPI_L3_TCM,0, 33.97064209,  3.99462890,end
timer_stats,697379952440594,PAPI_L3_TCM,1, 34.03692627,  4.00323486,end
timer_stats,697379953582697,PAPI_L3_TCM,2, 34.18737793,  4.02316284,end
timer_stats,697379954741319,PAPI_L3_TCM,0, 34.26892090,  4.03213501,end
timer_stats,697379955899919,PAPI_L3_TCM,2, 34.34411621,  4.04092407,end
timer_stats,697379957068915,PAPI_L3_TCM,0, 34.42315674,  4.04965210,end
timer_stats,697379958226348,PAPI_L3_TCM,0, 34.50231934,  4.05819702,end
timer_stats,697379959384998,PAPI_L3_TCM,0, 34.57739258,  4.06698608,end
timer_stats,697379960549978,PAPI_L3_TCM,1, 34.68438721,  4.07960510,end
timer_stats,697379963460595,PAPI_L3_TCM,33, 34.88226318,  4.10362244,end
timer_stats,697379964616891,PAPI_L3_TCM,5, 35.03045654,  4.11965942,end
timer_stats,697379965785484,PAPI_L3_TCM,0, 35.10931396,  4.12844849,end
timer_stats,697379966970137,PAPI_L3_TCM,2, 35.18310547,  4.13705444,end
timer_stats,697379968154061,PAPI_L3_TCM,0, 35.25952148,  4.14585876,end
timer_stats,697379969292016,PAPI_L3_TCM,1, 35.33660889,  4.15441894,end
timer_stats,697379970478593,PAPI_L3_TCM,0, 35.41442871,  4.16375732,end
timer_stats,697379971664069,PAPI_L3_TCM,1, 35.57012939,  4.18135071,end
timer_stats,697379972847845,PAPI_L3_TCM,0, 35.65081787,  4.18986511,end
timer_stats,697379974014115,PAPI_L3_TCM,2, 35.73303223,  4.19865417,end
timer_stats,697379975181901,PAPI_L3_TCM,0, 35.81683349,  4.20742798,end
timer_stats,697379976346418,PAPI_L3_TCM,3, 35.89801025,  4.21646118,end
timer_stats,697379977487047,PAPI_L3_TCM,0, 35.98394775,  4.22499084,end
timer_stats,697379978651310,PAPI_L3_TCM,1, 36.14385986,  4.24250793,end
timer_stats,697379979818120,PAPI_L3_TCM,1, 36.22546387,  4.25254822,end
timer_stats,697379981011640,PAPI_L3_TCM,1, 36.30371094,  4.26155090,end
timer_stats,697379982197496,PAPI_L3_TCM,0, 36.38909912,  4.27003479,end
timer_stats,697379983383602,PAPI_L3_TCM,2, 36.45629883,  4.27928162,end
timer_stats,697379984578372,PAPI_L3_TCM,0, 36.56811523,  4.29681396,end
timer_stats,697379985763142,PAPI_L3_TCM,2, 36.69549560,  4.30560303,end
timer_stats,697379986937491,PAPI_L3_TCM,0, 36.77423096,  4.31414795,end
timer_stats,697379988121601,PAPI_L3_TCM,1, 36.85998535,  4.32258606,end
timer_stats,697379989263021,PAPI_L3_TCM,0, 36.92962646,  4.33155823,end
timer_stats,697379990423567,PAPI_L3_TCM,1, 37.01715088,  4.34182739,end
timer_stats,697379991583797,PAPI_L3_TCM,0, 37.17938232,  4.35424805,end
timer_stats,697379992752106,PAPI_L3_TCM,1, 37.26605224,  4.36791992,end
timer_stats,697379993918589,PAPI_L3_TCM,0, 37.34271240,  4.37675476,end
timer_stats,697379995076449,PAPI_L3_TCM,2, 37.42053223,  4.38554382,end
timer_stats,697379996230021,PAPI_L3_TCM,0, 37.50134277,  4.39433288,end
timer_stats,697379997370007,PAPI_L3_TCM,1, 37.58752441,  4.40306091,end
timer_stats,697379998526997,PAPI_L3_TCM,3, 37.66473389,  4.41342163,end
timer_stats,697379999683690,PAPI_L3_TCM,1, 37.80181885,  4.42706299,end
timer_stats,697380000851150,PAPI_L3_TCM,0, 37.91326904,  4.44100952,end
timer_stats,697380002003096,PAPI_L3_TCM,1, 37.99420166,  4.44978332,end
timer_stats,697380003155476,PAPI_L3_TCM,0, 38.08013916,  4.45848083,end
timer_stats,697380004323875,PAPI_L3_TCM,2, 38.14532471,  4.46745300,end
timer_stats,697380005490992,PAPI_L3_TCM,0, 38.22393799,  4.47621155,end
timer_stats,697380006682035,PAPI_L3_TCM,1, 38.34448242,  4.49018860,end
timer_stats,697380007846054,PAPI_L3_TCM,0, 38.45025635,  4.50238037,end
timer_stats,697380009008407,PAPI_L3_TCM,1, 38.52972412,  4.51115417,end
timer_stats,697380010169574,PAPI_L3_TCM,0, 38.60333252,  4.51998901,end
timer_stats,697380011359257,PAPI_L3_TCM,1, 38.67791748,  4.52879333,end
timer_stats,697380012548406,PAPI_L3_TCM,0, 38.77832031,  4.54096985,end
timer_stats,697380013737533,PAPI_L3_TCM,2, 38.89489746,  4.55497742,end
timer_stats,697380014921422,PAPI_L3_TCM,0, 38.96850586,  4.56353760,end
timer_stats,697380016113235,PAPI_L3_TCM,1, 39.04827881,  4.57225037,end
timer_stats,697380017254678,PAPI_L3_TCM,0, 39.12402344,  4.58236694,end
timer_stats,697380018436671,PAPI_L3_TCM,1, 39.20257568,  4.59112549,end
timer_stats,697380019620274,PAPI_L3_TCM,0, 39.32000732,  4.60525513,end
timer_stats,697380020800097,PAPI_L3_TCM,1, 39.42364502,  4.61770630,end
timer_stats,697380021983393,PAPI_L3_TCM,1, 39.50372314,  4.62640381,end
timer_stats,697380023140176,PAPI_L3_TCM,2, 39.58117676,  4.63647461,end
timer_stats,697380024294409,PAPI_L3_TCM,1, 39.66101074,  4.64524841,end
timer_stats,697380025436518,PAPI_L3_TCM,1, 39.73437500,  4.65428162,end
timer_stats,697380026592865,PAPI_L3_TCM,0, 39.88214111,  4.67172241,end
timer_stats,697380027748811,PAPI_L3_TCM,1, 39.93377685,  4.67660522,end
timer_stats,697380028887967,PAPI_L3_TCM,0, 40.04772949,  4.68914795,end
timer_stats,697380030043617,PAPI_L3_TCM,1, 40.11614990,  4.69812012,end
timer_stats,697380031217306,PAPI_L3_TCM,0, 40.19848633,  4.70684814,end
timer_stats,697380032394933,PAPI_L3_TCM,2, 40.26965332,  4.71546936,end
timer_stats,697380033582929,PAPI_L3_TCM,0, 40.42266846,  4.73329162,end
timer_stats,697380034759266,PAPI_L3_TCM,0, 40.50219726,  4.74208069,end
timer_stats,697380035933779,PAPI_L3_TCM,0, 40.58734131,  4.75077820,end
timer_stats,697380037120682,PAPI_L3_TCM,1, 40.66198730,  4.75962829,end
timer_stats,697380038296871,PAPI_L3_TCM,0, 40.74121094,  4.76841736,end
timer_stats,697380039471508,PAPI_L3_TCM,2, 40.82110596,  4.77742004,end
timer_stats,697380040647397,PAPI_L3_TCM,0, 40.97052002,  4.79493713,end
timer_stats,697380041829804,PAPI_L3_TCM,2, 41.04956055,  4.80372620,end
timer_stats,697380043006560,PAPI_L3_TCM,0, 41.13653564,  4.81242370,end
timer_stats,697380044182613,PAPI_L3_TCM,1, 41.21588135,  4.82121277,end
timer_stats,697380045323555,PAPI_L3_TCM,0, 41.29699707,  4.83020019,end
timer_stats,697380046502661,PAPI_L3_TCM,1, 41.36718750,  4.83892822,end
timer_stats,697380047680901,PAPI_L3_TCM,0, 41.52423096,  4.85655212,end
timer_stats,697380048855247,PAPI_L3_TCM,2, 41.61279297,  4.86601257,end
timer_stats,697380050034974,PAPI_L3_TCM,0, 41.68609619,  4.87464905,end
timer_stats,697380051188167,PAPI_L3_TCM,2, 41.77020264,  4.88316345,end
timer_stats,697380052370910,PAPI_L3_TCM,1, 41.85272217,  4.89195251,end
timer_stats,697380053524566,PAPI_L3_TCM,1, 41.93310547,  4.90251159,end
timer_stats,697380055008313,PAPI_L3_TCM,247, 42.09466553,  4.92175293,end
timer_stats,697380057876614,PAPI_L3_TCM,108, 42.30914307,  4.95007324,end
timer_stats,697380059090973,PAPI_L3_TCM,7, 42.38275146,  4.95883179,end
timer_stats,697380060246293,PAPI_L3_TCM,2, 42.45849609,  4.96835327,end
timer_stats,697380061412913,PAPI_L3_TCM,0, 42.53015137,  4.97872925,end
timer_stats,697380062600632,PAPI_L3_TCM,2, 42.60894775,  4.98796082,end
timer_stats,697380063764502,PAPI_L3_TCM,0, 42.75579834,  5.00640869,end
timer_stats,697380064922268,PAPI_L3_TCM,3, 42.83898926,  5.01516723,end
timer_stats,697380066091205,PAPI_L3_TCM,1, 42.91479492,  5.02418518,end
timer_stats,697380067258008,PAPI_L3_TCM,2, 42.98815918,  5.03323364,end
timer_stats,697380068412461,PAPI_L3_TCM,0, 43.06164551,  5.04255676,end
timer_stats,697380069589664,PAPI_L3_TCM,2, 43.14605713,  5.05146789,end
timer_stats,697380070763037,PAPI_L3_TCM,0, 43.26953125,  5.06021118,end
timer_stats,697380071919449,PAPI_L3_TCM,2, 43.38098144,  5.07437134,end
timer_stats,697380073075722,PAPI_L3_TCM,0, 43.46057129,  5.08294678,end
timer_stats,697380074245728,PAPI_L3_TCM,1, 43.53900146,  5.09196472,end
timer_stats,697380075417801,PAPI_L3_TCM,0, 43.61627197,  5.10101318,end
timer_stats,697380076581331,PAPI_L3_TCM,1, 43.69360351,  5.11029053,end
timer_stats,697380077749664,PAPI_L3_TCM,0, 43.82348633,  5.12417602,end
timer_stats,697380078919913,PAPI_L3_TCM,2, 43.95098877,  5.13861084,end
timer_stats,697380080085467,PAPI_L3_TCM,0, 44.03430176,  5.14739990,end
timer_stats,697380081228739,PAPI_L3_TCM,3, 44.12347412,  5.15771484,end
timer_stats,697380082395049,PAPI_L3_TCM,0, 44.20538330,  5.16651916,end
timer_stats,697380083561362,PAPI_L3_TCM,1, 44.29229736,  5.17683411,end
timer_stats,697380084729588,PAPI_L3_TCM,0, 44.41992187,  5.19075012,end
timer_stats,697380085896238,PAPI_L3_TCM,1, 44.54925537,  5.20465088,end
timer_stats,697380087062801,PAPI_L3_TCM,0, 44.63214111,  5.21343994,end
timer_stats,697380088229131,PAPI_L3_TCM,2, 44.71667480,  5.22201538,end
timer_stats,697380089395630,PAPI_L3_TCM,0, 44.80450439,  5.23052978,end
timer_stats,697380090560923,PAPI_L3_TCM,2, 44.88879395,  5.23931885,end
timer_stats,697380091728460,PAPI_L3_TCM,0, 45.01940918,  5.25167847,end
timer_stats,697380092893929,PAPI_L3_TCM,1, 45.14648438,  5.26583862,end
timer_stats,697380094061429,PAPI_L3_TCM,0, 45.23089599,  5.27618408,end
timer_stats,697380095226081,PAPI_L3_TCM,1, 45.31829834,  5.28494263,end
timer_stats,697380096405851,PAPI_L3_TCM,0, 45.40679932,  5.29345703,end
timer_stats,697380097571471,PAPI_L3_TCM,2, 45.49041748,  5.30203247,end
timer_stats,697380098737911,PAPI_L3_TCM,0, 45.61108398,  5.31500244,end
timer_stats,697380099905691,PAPI_L3_TCM,2, 45.74432373,  5.33055115,end
timer_stats,697380101071440,PAPI_L3_TCM,0, 45.82708740,  5.33934021,end
timer_stats,697380102238523,PAPI_L3_TCM,1, 45.91278076,  5.34785461,end
timer_stats,697380103402819,PAPI_L3_TCM,0, 46.00170898,  5.35789490,end
timer_stats,697380104571822,PAPI_L3_TCM,2, 46.08685303,  5.36668396,end
timer_stats,697380105740278,PAPI_L3_TCM,0, 46.21124268,  5.37931824,end
timer_stats,697380106898168,PAPI_L3_TCM,2, 46.29455566,  5.38856506,end
timer_stats,697380108084634,PAPI_L3_TCM,0, 46.42572021,  5.40249634,end
timer_stats,697380109223424,PAPI_L3_TCM,3, 46.50915527,  5.41262817,end
timer_stats,697380110388707,PAPI_L3_TCM,0, 46.59112549,  5.42141724,end
timer_stats,697380111554593,PAPI_L3_TCM,1, 46.67694092,  5.43019104,end
timer_stats,697380112720286,PAPI_L3_TCM,0, 46.79718018,  5.44282532,end
timer_stats,697380113886386,PAPI_L3_TCM,1, 46.92767334,  5.45701599,end
timer_stats,697380115052082,PAPI_L3_TCM,0, 47.01470947,  5.46577454,end
timer_stats,697380116219102,PAPI_L3_TCM,3, 47.09442138,  5.47438049,end
timer_stats,697380117358391,PAPI_L3_TCM,0, 47.18023682,  5.48316955,end
timer_stats,697380118525258,PAPI_L3_TCM,2, 47.26379395,  5.49241638,end
timer_stats,697380119692094,PAPI_L3_TCM,0, 47.35711670,  5.50167847,end
timer_stats,697380120859270,PAPI_L3_TCM,1, 47.52459717,  5.51440430,end
timer_stats,697380122025430,PAPI_L3_TCM,0, 47.60540771,  5.52905273,end
timer_stats,697380123189263,PAPI_L3_TCM,1, 47.69335937,  5.53756714,end
timer_stats,697380124359852,PAPI_L3_TCM,0, 47.77655029,  5.54663086,end
timer_stats,697380125525338,PAPI_L3_TCM,2, 47.85937500,  5.55519104,end
timer_stats,697380126678581,PAPI_L3_TCM,0, 47.97918701,  5.56396484,end
timer_stats,697380127854244,PAPI_L3_TCM,1, 48.11614990,  5.58355713,end
timer_stats,697380129020090,PAPI_L3_TCM,0, 48.20129394,  5.59210205,end
timer_stats,697380130170857,PAPI_L3_TCM,1, 48.28137207,  5.60116577,end
timer_stats,697380131334100,PAPI_L3_TCM,0, 48.37109375,  5.61013794,end
timer_stats,697380132497623,PAPI_L3_TCM,1, 48.45983887,  5.61886597,end
timer_stats,697380133664056,PAPI_L3_TCM,0, 48.53997803,  5.62844848,end
timer_stats,697380134819885,PAPI_L3_TCM,2, 48.65795898,  5.64108276,end
timer_stats,697380135971628,PAPI_L3_TCM,0, 48.78875732,  5.65475464,end
timer_stats,697380137150245,PAPI_L3_TCM,1, 48.88006592,  5.66415405,end
timer_stats,697380138315294,PAPI_L3_TCM,0, 48.96020508,  5.67320251,end
timer_stats,697380139479731,PAPI_L3_TCM,1, 49.04553223,  5.68223572,end
timer_stats,697380140747907,PAPI_L3_TCM,32, 49.17016601,  5.69560242,end
timer_stats,697380141943937,PAPI_L3_TCM,9, 49.30291748,  5.71015930,end
timer_stats,697380143107720,PAPI_L3_TCM,1, 49.38275146,  5.71939087,end
timer_stats,697380144545113,PAPI_L3_TCM,36, 49.47558594,  5.72828674,end
timer_stats,697380145711396,PAPI_L3_TCM,4, 49.56024170,  5.73899841,end
timer_stats,697380146875802,PAPI_L3_TCM,3, 49.71832275,  5.76036072,end
timer_stats,697380148048402,PAPI_L3_TCM,0, 49.80358887,  5.77064514,end
timer_stats,697380149183648,PAPI_L3_TCM,2, 49.88287353,  5.78114319,end
timer_stats,697380150344388,PAPI_L3_TCM,0, 49.95971680,  5.78865051,end
timer_stats,697380151514251,PAPI_L3_TCM,1, 50.03930664,  5.79609680,end
timer_stats,697380152675837,PAPI_L3_TCM,1, 50.11761474,  5.80387878,end
timer_stats,697380153838940,PAPI_L3_TCM,2, 50.27386474,  5.81973267,end
timer_stats,697380154999496,PAPI_L3_TCM,0, 50.35308838,  5.82696533,end
timer_stats,697380156161589,PAPI_L3_TCM,2, 50.42803955,  5.83401489,end
timer_stats,697380157299326,PAPI_L3_TCM,1, 50.50683594,  5.84127807,end
timer_stats,697380158462415,PAPI_L3_TCM,1, 50.58520508,  5.84851074,end
timer_stats,697380159625572,PAPI_L3_TCM,0, 50.66033935,  5.85601807,end
timer_stats,697380160789291,PAPI_L3_TCM,6, 50.77587891,  5.86819458,end
timer_stats,697380161950664,PAPI_L3_TCM,1, 50.89428711,  5.87911987,end
timer_stats,697380163111184,PAPI_L3_TCM,2, 50.97320557,  5.88656616,end
timer_stats,697380164277166,PAPI_L3_TCM,1, 51.04925537,  5.89378357,end
timer_stats,697380165413666,PAPI_L3_TCM,1, 51.12438965,  5.90106201,end
timer_stats,697380166569159,PAPI_L3_TCM,0, 51.19860840,  5.90811157,end
timer_stats,697380167759115,PAPI_L3_TCM,0, 51.30480957,  5.91934204,end
timer_stats,697380168939238,PAPI_L3_TCM,5, 51.41906738,  5.93148804,end
timer_stats,697380170095188,PAPI_L3_TCM,2, 51.49816894,  5.94024658,end
timer_stats,697380171266601,PAPI_L3_TCM,1, 51.57592773,  5.94958496,end
timer_stats,697380172436707,PAPI_L3_TCM,6, 51.65667724,  5.95834351,end
timer_stats,697380173619630,PAPI_L3_TCM,2, 51.73730469,  5.96710205,end
timer_stats,697380174797000,PAPI_L3_TCM,1, 51.86248779,  5.98123169,end
timer_stats,697380175968066,PAPI_L3_TCM,1, 51.97467041,  5.99444580,end
timer_stats,697380177149189,PAPI_L3_TCM,3, 52.05889893,  6.00317383,end
timer_stats,697380178334492,PAPI_L3_TCM,0, 52.13293457,  6.01226806,end
timer_stats,697380179516968,PAPI_L3_TCM,2, 52.21099853,  6.02104187,end
timer_stats,697380180702548,PAPI_L3_TCM,0, 52.28869629,  6.02980041,end
timer_stats,697380181891111,PAPI_L3_TCM,2, 52.44488525,  6.04714966,end
timer_stats,697380183075334,PAPI_L3_TCM,2, 52.51892090,  6.05596924,end
timer_stats,697380184260684,PAPI_L3_TCM,3, 52.59417724,  6.06451416,end
timer_stats,697380185417843,PAPI_L3_TCM,0, 52.67602539,  6.07325745,end
timer_stats,697380186607723,PAPI_L3_TCM,0, 52.75115967,  6.08229065,end
timer_stats,697380187796829,PAPI_L3_TCM,0, 52.87084961,  6.09646606,end
timer_stats,697380188988232,PAPI_L3_TCM,10, 52.98364258,  6.10960388,end
timer_stats,697380190174549,PAPI_L3_TCM,4, 53.05426025,  6.11863708,end
timer_stats,697380191358422,PAPI_L3_TCM,7, 53.12750244,  6.12741089,end
