timer_stats,697414179784563,PAPI_L3_TCM,372,  0.08691406,  0.01000977,end
timer_stats,697414180930740,PAPI_L3_TCM,43,  0.17718506,  0.02072143,end
timer_stats,697414182070293,PAPI_L3_TCM,3,  0.30816650,  0.04164123,end
timer_stats,697414183235599,PAPI_L3_TCM,3,  0.43432617,  0.05215454,end
timer_stats,697414184605492,PAPI_L3_TCM,29,  0.52679443,  0.06289673,end
timer_stats,697414185740415,PAPI_L3_TCM,15,  0.61529541,  0.07339477,end
timer_stats,697414186879411,PAPI_L3_TCM,7,  0.70477295,  0.08340454,end
timer_stats,697414188032898,PAPI_L3_TCM,6,  0.79339600,  0.09432983,end
timer_stats,697414189176734,PAPI_L3_TCM,3,  0.96795654,  0.11602783,end
timer_stats,697414190318934,PAPI_L3_TCM,9,  1.06201172,  0.12738037,end
timer_stats,697414191458440,PAPI_L3_TCM,2,  1.15307617,  0.13874817,end
timer_stats,697414192580853,PAPI_L3_TCM,6,  1.23980713,  0.15034485,end
timer_stats,697414193715013,PAPI_L3_TCM,3,  1.33044433,  0.16127014,end
timer_stats,697414194855126,PAPI_L3_TCM,2,  1.41442871,  0.17158508,end
timer_stats,697414195993762,PAPI_L3_TCM,0,  1.50500488,  0.18208313,end
timer_stats,697414197149032,PAPI_L3_TCM,3,  1.68371582,  0.20356750,end
timer_stats,697414198286311,PAPI_L3_TCM,0,  1.77319336,  0.21409607,end
timer_stats,697414199423748,PAPI_L3_TCM,0,  1.85632324,  0.22396851,end
timer_stats,697414200545111,PAPI_L3_TCM,0,  1.94531250,  0.23403931,end
timer_stats,697414201678907,PAPI_L3_TCM,1,  2.03363037,  0.24456787,end
timer_stats,697414202819467,PAPI_L3_TCM,0,  2.12457275,  0.25506592,end
timer_stats,697414203956746,PAPI_L3_TCM,2,  2.21392822,  0.26557922,end
timer_stats,697414205053053,PAPI_L3_TCM,2,  2.29846191,  0.27589416,end
timer_stats,697414206185409,PAPI_L3_TCM,4,  2.48748779,  0.29666138,end
timer_stats,697414207326772,PAPI_L3_TCM,0,  2.58215332,  0.30691528,end
timer_stats,697414208457498,PAPI_L3_TCM,0,  2.67864990,  0.31744385,end
timer_stats,697414209578501,PAPI_L3_TCM,2,  2.77227783,  0.32775879,end
timer_stats,697414210715358,PAPI_L3_TCM,1,  2.87152100,  0.33758545,end
timer_stats,697414211856297,PAPI_L3_TCM,0,  2.97369385,  0.34786987,end
timer_stats,697414212977097,PAPI_L3_TCM,1,  3.07269287,  0.35813904,end
timer_stats,697414214097467,PAPI_L3_TCM,0,  3.23254395,  0.37446594,end
timer_stats,697414215232793,PAPI_L3_TCM,1,  3.36822510,  0.39035034,end
timer_stats,697414216344529,PAPI_L3_TCM,1,  3.46484375,  0.40087891,end
timer_stats,697414217472358,PAPI_L3_TCM,2,  3.55932617,  0.41098022,end
timer_stats,697414218585631,PAPI_L3_TCM,1,  3.65502930,  0.42330933,end
timer_stats,697414219721941,PAPI_L3_TCM,0,  3.74786377,  0.43557739,end
timer_stats,697414220823517,PAPI_L3_TCM,3,  3.84259033,  0.44621277,end
timer_stats,697414221934247,PAPI_L3_TCM,2,  3.94122314,  0.45628357,end
timer_stats,697414223042853,PAPI_L3_TCM,0,  4.02020264,  0.46482849,end
timer_stats,697414224136439,PAPI_L3_TCM,4,  4.15051269,  0.47970581,end
timer_stats,697414225242529,PAPI_L3_TCM,0,  4.26770019,  0.49359131,end
timer_stats,697414226351192,PAPI_L3_TCM,0,  4.34832764,  0.50238037,end
timer_stats,697414227487368,PAPI_L3_TCM,0,  4.42523193,  0.51098633,end
timer_stats,697414228630608,PAPI_L3_TCM,2,  4.50653076,  0.51954651,end
timer_stats,697414229746938,PAPI_L3_TCM,1,  4.59161377,  0.52983093,end
timer_stats,697414230855904,PAPI_L3_TCM,2,  4.67346191,  0.53861999,end
timer_stats,697414231989830,PAPI_L3_TCM,0,  4.75158691,  0.54722595,end
timer_stats,697414233147517,PAPI_L3_TCM,7,  4.83416748,  0.55599975,end
timer_stats,697414234289156,PAPI_L3_TCM,0,  4.99670410,  0.57400513,end
timer_stats,697414235432043,PAPI_L3_TCM,0,  5.07489014,  0.58283997,end
timer_stats,697414236575152,PAPI_L3_TCM,1,  5.15832519,  0.59159851,end
timer_stats,697414237692685,PAPI_L3_TCM,3,  5.23730469,  0.60173035,end
timer_stats,697414238826051,PAPI_L3_TCM,0,  5.31933594,  0.61048889,end
timer_stats,697414239967634,PAPI_L3_TCM,2,  5.39550781,  0.61909485,end
timer_stats,697414241104427,PAPI_L3_TCM,2,  5.47961426,  0.62272644,end
timer_stats,697414242240440,PAPI_L3_TCM,1,  5.63891602,  0.64143372,end
timer_stats,697414243382073,PAPI_L3_TCM,0,  5.72015381,  0.65022278,end
timer_stats,697414244526552,PAPI_L3_TCM,1,  5.79797363,  0.65950012,end
timer_stats,697414245644592,PAPI_L3_TCM,1,  5.87744140,  0.66960144,end
timer_stats,697414246779392,PAPI_L3_TCM,1,  5.95599365,  0.67793274,end
timer_stats,697414247922295,PAPI_L3_TCM,0,  6.03289795,  0.68669128,end
timer_stats,697414249039834,PAPI_L3_TCM,4,  6.11505127,  0.69587707,end
timer_stats,697414250151754,PAPI_L3_TCM,0,  6.23968506,  0.71047973,end
timer_stats,697414251286974,PAPI_L3_TCM,1,  6.34674072,  0.72286987,end
timer_stats,697414252404043,PAPI_L3_TCM,0,  6.42492676,  0.73188782,end
timer_stats,697414253536993,PAPI_L3_TCM,0,  6.50842285,  0.74195862,end
timer_stats,697414254647079,PAPI_L3_TCM,0,  6.58520508,  0.75074768,end
timer_stats,697414255782186,PAPI_L3_TCM,1,  6.66558838,  0.75949097,end
timer_stats,697414256901102,PAPI_L3_TCM,2,  6.74548340,  0.77049255,end
timer_stats,697414258011865,PAPI_L3_TCM,1,  6.82171631,  0.77903747,end
timer_stats,697414259146471,PAPI_L3_TCM,0,  6.90063476,  0.78779602,end
timer_stats,697414260262701,PAPI_L3_TCM,2,  7.05389404,  0.80583191,end
timer_stats,697414261379961,PAPI_L3_TCM,1,  7.13525391,  0.81436157,end
timer_stats,697414262492667,PAPI_L3_TCM,0,  7.20916748,  0.82293701,end
timer_stats,697414263630530,PAPI_L3_TCM,0,  7.28906250,  0.83145141,end
timer_stats,697414264773366,PAPI_L3_TCM,1,  7.36700439,  0.84025574,end
timer_stats,697414265917546,PAPI_L3_TCM,1,  7.44262695,  0.84883118,end
timer_stats,697414267060078,PAPI_L3_TCM,1,  7.51617431,  0.85743713,end
timer_stats,697414268176341,PAPI_L3_TCM,4,  7.59405518,  0.86602783,end
timer_stats,697414269317791,PAPI_L3_TCM,2,  7.74713135,  0.88336182,end
timer_stats,697414274549285,PAPI_L3_TCM,10,  8.10217285,  0.92509460,end
timer_stats,697414275695531,PAPI_L3_TCM,0,  8.17626953,  0.93284607,end
timer_stats,697414276839321,PAPI_L3_TCM,1,  8.25335693,  0.94181824,end
timer_stats,697414277983687,PAPI_L3_TCM,3,  8.32556152,  0.95063782,end
timer_stats,697414279128783,PAPI_L3_TCM,0,  8.40222168,  0.95941162,end
timer_stats,697414280245773,PAPI_L3_TCM,3,  8.55584717,  0.97726440,end
timer_stats,697414281387436,PAPI_L3_TCM,1,  8.63244629,  0.98559570,end
timer_stats,697414282531249,PAPI_L3_TCM,1,  8.70587158,  0.99465942,end
timer_stats,697414283674939,PAPI_L3_TCM,0,  8.78112793,  1.00369263,end
timer_stats,697414284823508,PAPI_L3_TCM,1,  8.85522461,  1.01251221,end
timer_stats,697414285976901,PAPI_L3_TCM,1,  8.93145752,  1.02127075,end
timer_stats,697414287125878,PAPI_L3_TCM,1,  9.01000976,  1.03028870,end
timer_stats,697414288244447,PAPI_L3_TCM,1,  9.15991211,  1.04615784,end
timer_stats,697414289391444,PAPI_L3_TCM,2,  9.22998047,  1.05693054,end
timer_stats,697414290545840,PAPI_L3_TCM,0,  9.30401611,  1.06573486,end
timer_stats,697414291696176,PAPI_L3_TCM,1,  9.37915039,  1.07426453,end
timer_stats,697414292838373,PAPI_L3_TCM,1,  9.45495605,  1.08326721,end
timer_stats,697414293962922,PAPI_L3_TCM,1,  9.53186035,  1.09230041,end
timer_stats,697414295105555,PAPI_L3_TCM,0,  9.60174560,  1.10139465,end
timer_stats,697414296227972,PAPI_L3_TCM,3,  9.75134277,  1.11897278,end
timer_stats,697414297351311,PAPI_L3_TCM,1,  9.82958984,  1.12773132,end
timer_stats,697414298472944,PAPI_L3_TCM,2,  9.90399170,  1.13630676,end
timer_stats,697414299615774,PAPI_L3_TCM,0,  9.97869873,  1.14485168,end
timer_stats,697414300757310,PAPI_L3_TCM,2, 10.05279541,  1.15385437,end
timer_stats,697414301883810,PAPI_L3_TCM,1, 10.12615967,  1.16267395,end
timer_stats,697414303000310,PAPI_L3_TCM,0, 10.20019531,  1.17149353,end
timer_stats,697414304120789,PAPI_L3_TCM,1, 10.27160644,  1.18031311,end
timer_stats,697414305273619,PAPI_L3_TCM,3, 10.42138672,  1.19766235,end
timer_stats,697414306428215,PAPI_L3_TCM,0, 10.49346924,  1.20626831,end
timer_stats,697414307580138,PAPI_L3_TCM,2, 10.56549072,  1.21484375,end
timer_stats,697414308733325,PAPI_L3_TCM,1, 10.64190674,  1.22363281,end
timer_stats,697414309863681,PAPI_L3_TCM,2, 10.71380615,  1.23220825,end
timer_stats,697414310981944,PAPI_L3_TCM,0, 10.78857422,  1.24099731,end
timer_stats,697414312101107,PAPI_L3_TCM,1, 10.86212158,  1.24958801,end
timer_stats,697414313254987,PAPI_L3_TCM,1, 11.01226807,  1.26350403,end
timer_stats,697414314406370,PAPI_L3_TCM,2, 11.08044433,  1.27597046,end
timer_stats,697414315565653,PAPI_L3_TCM,0, 11.15380859,  1.28479004,end
timer_stats,697414316722786,PAPI_L3_TCM,3, 11.22875976,  1.29379272,end
timer_stats,697414317853089,PAPI_L3_TCM,1, 11.30334473,  1.30238342,end
timer_stats,697414318973964,PAPI_L3_TCM,1, 11.37304687,  1.31095886,end
timer_stats,697414320094424,PAPI_L3_TCM,1, 11.44567871,  1.31956482,end
timer_stats,697414321245570,PAPI_L3_TCM,1, 11.59570312,  1.33715820,end
timer_stats,697414322397636,PAPI_L3_TCM,0, 11.67132568,  1.34594726,end
timer_stats,697414323563323,PAPI_L3_TCM,2, 11.74444580,  1.35455322,end
timer_stats,697414324718532,PAPI_L3_TCM,1, 11.82543945,  1.36375427,end
timer_stats,697414325848299,PAPI_L3_TCM,3, 11.90515137,  1.37297058,end
timer_stats,697414326963302,PAPI_L3_TCM,0, 11.98455810,  1.38169861,end
timer_stats,697414328101325,PAPI_L3_TCM,120, 12.05841064,  1.39076233,end
timer_stats,697414329252988,PAPI_L3_TCM,0, 12.21826172,  1.40382385,end
timer_stats,697414330407044,PAPI_L3_TCM,0, 12.29217529,  1.41728210,end
timer_stats,697414331563684,PAPI_L3_TCM,0, 12.36944580,  1.42631531,end
timer_stats,697414332717868,PAPI_L3_TCM,2, 12.44482422,  1.43531799,end
timer_stats,697414333848507,PAPI_L3_TCM,2, 12.52050781,  1.44407654,end
timer_stats,697414334968740,PAPI_L3_TCM,2, 12.60363769,  1.45411682,end
timer_stats,697414336075459,PAPI_L3_TCM,2, 12.67669678,  1.46293640,end
timer_stats,697414337223022,PAPI_L3_TCM,1, 12.80718994,  1.47691345,end
timer_stats,697414338379546,PAPI_L3_TCM,0, 12.90545654,  1.48933411,end
timer_stats,697414339540916,PAPI_L3_TCM,0, 12.98699951,  1.49763489,end
timer_stats,697414340686069,PAPI_L3_TCM,1, 13.06585693,  1.50617981,end
timer_stats,697414341815718,PAPI_L3_TCM,2, 13.14007568,  1.51499939,end
timer_stats,697414342938045,PAPI_L3_TCM,0, 13.20959473,  1.52311706,end
timer_stats,697414344048204,PAPI_L3_TCM,4, 13.28521728,  1.53169250,end
timer_stats,697414345193316,PAPI_L3_TCM,0, 13.41992187,  1.54615784,end
timer_stats,697414346343989,PAPI_L3_TCM,1, 13.52062988,  1.55838013,end
timer_stats,697414347494536,PAPI_L3_TCM,1, 13.60308838,  1.56735229,end
timer_stats,697414348621419,PAPI_L3_TCM,2, 13.68310547,  1.57614136,end
timer_stats,697414349740228,PAPI_L3_TCM,0, 13.75811767,  1.58493042,end
timer_stats,697414350855115,PAPI_L3_TCM,3, 13.84014892,  1.59362793,end
timer_stats,697414351969678,PAPI_L3_TCM,0, 13.91882324,  1.60238647,end
timer_stats,697414353062327,PAPI_L3_TCM,4, 13.99346924,  1.61138916,end
timer_stats,697414354172610,PAPI_L3_TCM,0, 14.07238769,  1.62014770,end
timer_stats,697414355315700,PAPI_L3_TCM,1, 14.20361328,  1.63754272,end
timer_stats,697414356468653,PAPI_L3_TCM,1, 14.30456543,  1.64634704,end
timer_stats,697414357621496,PAPI_L3_TCM,1, 14.37799072,  1.65493774,end
timer_stats,697414358771109,PAPI_L3_TCM,0, 14.45837402,  1.66368103,end
timer_stats,697414359922922,PAPI_L3_TCM,2, 14.53393555,  1.67295837,end
timer_stats,697414361075992,PAPI_L3_TCM,1, 14.61090088,  1.68176269,end
timer_stats,697414362227001,PAPI_L3_TCM,3, 14.68878174,  1.69073486,end
timer_stats,697414363351514,PAPI_L3_TCM,0, 14.85528564,  1.71115112,end
timer_stats,697414364476261,PAPI_L3_TCM,3, 14.93304443,  1.72085571,end
timer_stats,697414365625457,PAPI_L3_TCM,0, 15.01074219,  1.72961426,end
timer_stats,697414366781000,PAPI_L3_TCM,0, 15.09149170,  1.74087524,end
timer_stats,697414367936620,PAPI_L3_TCM,0, 15.17041016,  1.75033569,end
timer_stats,697414369092819,PAPI_L3_TCM,2, 15.24652099,  1.75956726,end
timer_stats,697414370249849,PAPI_L3_TCM,1, 15.38311767,  1.77351379,end
timer_stats,697414371409845,PAPI_L3_TCM,2, 15.48370361,  1.78617859,end
timer_stats,697414372562688,PAPI_L3_TCM,0, 15.56250000,  1.79498291,end
timer_stats,697414373714911,PAPI_L3_TCM,1, 15.64715576,  1.80523681,end
timer_stats,697414374869321,PAPI_L3_TCM,0, 15.72393799,  1.81404114,end
timer_stats,697414376036724,PAPI_L3_TCM,1, 15.79888916,  1.82308960,end
timer_stats,697414377194927,PAPI_L3_TCM,0, 15.87854004,  1.83248901,end
timer_stats,697414378353417,PAPI_L3_TCM,2, 16.03863525,  1.85211182,end
timer_stats,697414379505760,PAPI_L3_TCM,0, 16.11651611,  1.86090088,end
timer_stats,697414380663676,PAPI_L3_TCM,3, 16.19573975,  1.86968994,end
timer_stats,697414381819976,PAPI_L3_TCM,1, 16.27496338,  1.87844849,end
timer_stats,697414382972549,PAPI_L3_TCM,1, 16.35424805,  1.88702393,end
timer_stats,697414384103732,PAPI_L3_TCM,5, 16.43493652,  1.89558410,end
timer_stats,697414385259861,PAPI_L3_TCM,1, 16.51391601,  1.90437317,end
timer_stats,697414386415148,PAPI_L3_TCM,0, 16.66717529,  1.92222595,end
timer_stats,697414387576744,PAPI_L3_TCM,2, 16.74816894,  1.93074035,end
timer_stats,697414388735360,PAPI_L3_TCM,1, 16.82427978,  1.93955993,end
timer_stats,697414389893220,PAPI_L3_TCM,3, 16.90179443,  1.94859314,end
timer_stats,697414391044537,PAPI_L3_TCM,0, 16.97979736,  1.95877075,end
timer_stats,697414392168919,PAPI_L3_TCM,2, 17.06079101,  1.96795654,end
timer_stats,697414393326463,PAPI_L3_TCM,1, 17.22290039,  1.98724365,end
timer_stats,697414394485590,PAPI_L3_TCM,0, 17.30401611,  1.99572754,end
timer_stats,697414395641329,PAPI_L3_TCM,0, 17.37829590,  2.00457764,end
timer_stats,697414396801539,PAPI_L3_TCM,1, 17.45886230,  2.01359558,end
timer_stats,697414397931282,PAPI_L3_TCM,1, 17.53900146,  2.02256775,end
timer_stats,697414399046068,PAPI_L3_TCM,2, 17.61779785,  2.03179932,end
timer_stats,697414400158148,PAPI_L3_TCM,2, 17.70440674,  2.04095459,end
timer_stats,697414401275593,PAPI_L3_TCM,3, 17.78735351,  2.05220032,end
timer_stats,697414402392236,PAPI_L3_TCM,0, 17.95220947,  2.07279968,end
timer_stats,697414403538569,PAPI_L3_TCM,0, 18.03460693,  2.08311462,end
timer_stats,697414404690432,PAPI_L3_TCM,0, 18.11517334,  2.09324646,end
timer_stats,697414405815865,PAPI_L3_TCM,1, 18.19909668,  2.10357666,end
timer_stats,697414406959118,PAPI_L3_TCM,0, 18.28088379,  2.11451721,end
timer_stats,697414408091411,PAPI_L3_TCM,3, 18.36267090,  2.12528992,end
timer_stats,697414409241144,PAPI_L3_TCM,1, 18.44494629,  2.13581848,end
timer_stats,697414410393567,PAPI_L3_TCM,1, 18.60919189,  2.15644836,end
timer_stats,697414411549710,PAPI_L3_TCM,0, 18.69232178,  2.16676330,end
timer_stats,697414412702000,PAPI_L3_TCM,1, 18.77142334,  2.17665100,end
timer_stats,697414413828850,PAPI_L3_TCM,1, 18.85235596,  2.18717957,end
timer_stats,697414414971006,PAPI_L3_TCM,1, 18.93609619,  2.19725036,end
timer_stats,697414416102129,PAPI_L3_TCM,1, 19.01324463,  2.20759582,end
timer_stats,697414417251775,PAPI_L3_TCM,2, 19.09704590,  2.21788025,end
timer_stats,697414418401775,PAPI_L3_TCM,0, 19.26031494,  2.23783874,end
timer_stats,697414419554545,PAPI_L3_TCM,1, 19.34069824,  2.24751282,end
timer_stats,697414420704361,PAPI_L3_TCM,1, 19.42437744,  2.25779724,end
timer_stats,697414421862871,PAPI_L3_TCM,1, 19.50561523,  2.26835632,end
timer_stats,697414422993160,PAPI_L3_TCM,0, 19.58758545,  2.27912903,end
timer_stats,697414428816296,PAPI_L3_TCM,5, 20.02404785,  2.33357239,end
timer_stats,697414429971185,PAPI_L3_TCM,1, 20.10083008,  2.34230041,end
timer_stats,697414431122425,PAPI_L3_TCM,1, 20.17956543,  2.35101318,end
timer_stats,697414432246221,PAPI_L3_TCM,1, 20.24353027,  2.35998535,end
timer_stats,697414433397934,PAPI_L3_TCM,1, 20.38940430,  2.37738037,end
timer_stats,697414434550454,PAPI_L3_TCM,0, 20.46734619,  2.38612366,end
timer_stats,697414435700593,PAPI_L3_TCM,0, 20.53533935,  2.39472961,end
timer_stats,697414436852923,PAPI_L3_TCM,1, 20.61114502,  2.40348816,end
timer_stats,697414438004619,PAPI_L3_TCM,2, 20.68011475,  2.41209412,end
timer_stats,697414439157422,PAPI_L3_TCM,0, 20.75195312,  2.42089844,end
timer_stats,697414440280982,PAPI_L3_TCM,3, 20.87768555,  2.42965698,end
timer_stats,697414441420132,PAPI_L3_TCM,1, 20.97271728,  2.44680786,end
timer_stats,697414442575138,PAPI_L3_TCM,1, 21.04400635,  2.45562744,end
timer_stats,697414443727208,PAPI_L3_TCM,0, 21.11651611,  2.46484375,end
timer_stats,697414444879788,PAPI_L3_TCM,0, 21.19317627,  2.47361755,end
timer_stats,697414446012381,PAPI_L3_TCM,0, 21.26898193,  2.48391724,end
timer_stats,697414447163484,PAPI_L3_TCM,1, 21.33953857,  2.49270630,end
timer_stats,697414448287670,PAPI_L3_TCM,1, 21.41461182,  2.50170898,end
timer_stats,697414449426060,PAPI_L3_TCM,3, 21.55761719,  2.51913452,end
timer_stats,697414450579623,PAPI_L3_TCM,0, 21.62908936,  2.52746582,end
timer_stats,697414451744103,PAPI_L3_TCM,1, 21.70001221,  2.53601074,end
timer_stats,697414452875362,PAPI_L3_TCM,2, 21.77667236,  2.54501343,end
timer_stats,697414453993621,PAPI_L3_TCM,3, 21.84271240,  2.55386352,end
timer_stats,697414455137951,PAPI_L3_TCM,5, 21.92230225,  2.56259155,end
timer_stats,697414456261631,PAPI_L3_TCM,2, 21.99652100,  2.57138061,end
timer_stats,697414457391597,PAPI_L3_TCM,3, 22.13824463,  2.58853149,end
timer_stats,697414458519113,PAPI_L3_TCM,2, 22.20928955,  2.59713745,end
timer_stats,697414459669296,PAPI_L3_TCM,2, 22.28045654,  2.60574341,end
timer_stats,697414460813819,PAPI_L3_TCM,4, 22.36273193,  2.61419678,end
timer_stats,697414461944319,PAPI_L3_TCM,1, 22.43395996,  2.62301636,end
timer_stats,697414463093079,PAPI_L3_TCM,0, 22.50451660,  2.63183594,end
timer_stats,697414464220362,PAPI_L3_TCM,1, 22.58038330,  2.64056396,end
timer_stats,697414465349731,PAPI_L3_TCM,2, 22.67053222,  2.64913940,end
timer_stats,697414466476994,PAPI_L3_TCM,0, 22.77075195,  2.66323853,end
timer_stats,697414467631337,PAPI_L3_TCM,2, 22.86340332,  2.67550659,end
timer_stats,697414468788367,PAPI_L3_TCM,1, 22.93585205,  2.68409729,end
timer_stats,697414469945063,PAPI_L3_TCM,2, 23.00909424,  2.69288635,end
timer_stats,697414471103906,PAPI_L3_TCM,0, 23.08166504,  2.69653320,end
timer_stats,697414472227713,PAPI_L3_TCM,1, 23.15728760,  2.70504761,end
timer_stats,697414473381789,PAPI_L3_TCM,1, 23.29528808,  2.72300720,end
timer_stats,697414474539755,PAPI_L3_TCM,1, 23.36633301,  2.73181152,end
timer_stats,697414475695808,PAPI_L3_TCM,2, 23.44287109,  2.74050903,end
timer_stats,697414476854788,PAPI_L3_TCM,3, 23.52111816,  2.74902344,end
timer_stats,697414478010671,PAPI_L3_TCM,1, 23.58422851,  2.75823975,end
timer_stats,697414479572789,PAPI_L3_TCM,1191, 23.73297119,  2.77639770,end
timer_stats,697414480730619,PAPI_L3_TCM,25, 23.80212402,  2.78547668,end
timer_stats,697414481888014,PAPI_L3_TCM,2, 23.87689209,  2.79423523,end
timer_stats,697414483041817,PAPI_L3_TCM,0, 23.94915771,  2.80326843,end
timer_stats,697414484162077,PAPI_L3_TCM,3, 24.01678467,  2.81187439,end
timer_stats,697414485289383,PAPI_L3_TCM,0, 24.08886719,  2.82069397,end
timer_stats,697414486438456,PAPI_L3_TCM,2, 24.21423340,  2.83460998,end
timer_stats,697414487598829,PAPI_L3_TCM,0, 24.30242920,  2.84715271,end
timer_stats,697414488752356,PAPI_L3_TCM,2, 24.37811279,  2.85591125,end
timer_stats,697414489885242,PAPI_L3_TCM,1, 24.44897461,  2.86494446,end
timer_stats,697414491029745,PAPI_L3_TCM,2, 24.52868652,  2.87339783,end
timer_stats,697414492147191,PAPI_L3_TCM,4, 24.59844971,  2.88215637,end
timer_stats,697414493301244,PAPI_L3_TCM,2, 24.66650391,  2.89097595,end
timer_stats,697414494454394,PAPI_L3_TCM,0, 24.79522705,  2.90846252,end
timer_stats,697414495608490,PAPI_L3_TCM,2, 24.86834717,  2.91717529,end
timer_stats,697414496763980,PAPI_L3_TCM,1, 24.93475342,  2.92584228,end
timer_stats,697414497862266,PAPI_L3_TCM,2, 25.00878906,  2.93434143,end
timer_stats,697414499004086,PAPI_L3_TCM,2, 25.07678223,  2.94313049,end
timer_stats,697414500121169,PAPI_L3_TCM,1, 25.14343262,  2.95195007,end
timer_stats,697414501269549,PAPI_L3_TCM,1, 25.21191406,  2.96054077,end
timer_stats,697414502425708,PAPI_L3_TCM,1, 25.32342529,  2.97463989,end
timer_stats,697414503579938,PAPI_L3_TCM,0, 25.41339111,  2.98324585,end
timer_stats,697414504734808,PAPI_L3_TCM,3, 25.48248291,  2.99206543,end
timer_stats,697414505890065,PAPI_L3_TCM,1, 25.55432129,  3.00056457,end
timer_stats,697414506990360,PAPI_L3_TCM,1, 25.61810303,  3.00920105,end
timer_stats,697414508084427,PAPI_L3_TCM,0, 25.69195557,  3.01789856,end
timer_stats,697414509223600,PAPI_L3_TCM,0, 25.76672363,  3.02864075,end
timer_stats,697414510373719,PAPI_L3_TCM,0, 25.91595459,  3.04907226,end
timer_stats,697414511527052,PAPI_L3_TCM,1, 25.99444580,  3.05911255,end
timer_stats,697414512679802,PAPI_L3_TCM,0, 26.07110596,  3.06918335,end
timer_stats,697414513829435,PAPI_L3_TCM,4, 26.14398193,  3.07949829,end
timer_stats,697414514981365,PAPI_L3_TCM,0, 26.22241211,  3.08953857,end
timer_stats,697414517367914,PAPI_L3_TCM,5, 26.40197754,  3.11361694,end
timer_stats,697414518525057,PAPI_L3_TCM,1, 26.50146484,  3.12911987,end
timer_stats,697414519681040,PAPI_L3_TCM,0, 26.57763672,  3.13943481,end
timer_stats,697414520830850,PAPI_L3_TCM,0, 26.65966797,  3.14967346,end
timer_stats,697414521982240,PAPI_L3_TCM,2, 26.73382568,  3.15956116,end
timer_stats,697414523132956,PAPI_L3_TCM,0, 26.80834961,  3.16967773,end
timer_stats,697414524284936,PAPI_L3_TCM,3, 26.88586426,  3.17977905,end
timer_stats,697414525440289,PAPI_L3_TCM,1, 27.00433350,  3.19503784,end
timer_stats,697414526598582,PAPI_L3_TCM,1, 27.10876465,  3.20999145,end
timer_stats,697414527751955,PAPI_L3_TCM,0, 27.18017578,  3.21987915,end
timer_stats,697414528902895,PAPI_L3_TCM,1, 27.25360107,  3.22976684,end
timer_stats,697414530053241,PAPI_L3_TCM,1, 27.31799316,  3.23849487,end
timer_stats,697414531205091,PAPI_L3_TCM,2, 27.39648437,  3.24719238,end
timer_stats,697414532358174,PAPI_L3_TCM,1, 27.46362304,  3.25576782,end
timer_stats,697414533510210,PAPI_L3_TCM,3, 27.58319092,  3.26950073,end
timer_stats,697414534661253,PAPI_L3_TCM,0, 27.67871094,  3.28167725,end
timer_stats,697414535811363,PAPI_L3_TCM,1, 27.74499512,  3.29028320,end
timer_stats,697414536963246,PAPI_L3_TCM,1, 27.81915283,  3.29904175,end
timer_stats,697414538114649,PAPI_L3_TCM,1, 27.88861084,  3.30784607,end
timer_stats,697414539266869,PAPI_L3_TCM,0, 27.96032715,  3.31663513,end
timer_stats,697414540418055,PAPI_L3_TCM,2, 28.07684326,  3.33038330,end
timer_stats,697414541572551,PAPI_L3_TCM,1, 28.14727783,  3.33895874,end
timer_stats,697414542724794,PAPI_L3_TCM,2, 28.24157715,  3.35115051,end
timer_stats,697414543876764,PAPI_L3_TCM,0, 28.31579590,  3.35966492,end
timer_stats,697414545028707,PAPI_L3_TCM,2, 28.38159180,  3.36827087,end
timer_stats,697414546128847,PAPI_L3_TCM,1, 28.45587158,  3.37680054,end
timer_stats,697414547213013,PAPI_L3_TCM,0, 28.52490234,  3.38562012,end
timer_stats,697414548352536,PAPI_L3_TCM,1, 28.59429932,  3.39416504,end
timer_stats,697414549508862,PAPI_L3_TCM,2, 28.71392822,  3.40786743,end
timer_stats,697414550633049,PAPI_L3_TCM,0, 28.80743408,  3.42034912,end
timer_stats,697414551748458,PAPI_L3_TCM,2, 28.88110351,  3.42889404,end
timer_stats,697414552863751,PAPI_L3_TCM,2, 28.94537353,  3.43751526,end
timer_stats,697414553980727,PAPI_L3_TCM,1, 29.01879883,  3.44606018,end
timer_stats,697414555094943,PAPI_L3_TCM,0, 29.08947754,  3.45463562,end
timer_stats,697414556211343,PAPI_L3_TCM,2, 29.16107178,  3.46345520,end
timer_stats,697414557327656,PAPI_L3_TCM,0, 29.23217773,  3.47200012,end
timer_stats,697414558445075,PAPI_L3_TCM,2, 29.34808350,  3.48600769,end
timer_stats,697414559589315,PAPI_L3_TCM,0, 29.44342041,  3.49848938,end
timer_stats,697414560741668,PAPI_L3_TCM,3, 29.51544189,  3.50724792,end
timer_stats,697414561891934,PAPI_L3_TCM,1, 29.58349609,  3.51606750,end
timer_stats,697414563042167,PAPI_L3_TCM,1, 29.65502930,  3.52464294,end
timer_stats,697414564194320,PAPI_L3_TCM,1, 29.72436523,  3.53370666,end
timer_stats,697414565319090,PAPI_L3_TCM,1, 29.79791260,  3.54248047,end
timer_stats,697414566430410,PAPI_L3_TCM,1, 29.91345215,  3.55645752,end
timer_stats,697414567558243,PAPI_L3_TCM,2, 29.98858643,  3.56520080,end
timer_stats,697414568705759,PAPI_L3_TCM,1, 30.08074951,  3.57771301,end
timer_stats,697414569856652,PAPI_L3_TCM,3, 30.15087890,  3.58628845,end
timer_stats,697414571007138,PAPI_L3_TCM,0, 30.21997070,  3.59486389,end
timer_stats,697414572157585,PAPI_L3_TCM,2, 30.29144287,  3.60368347,end
timer_stats,697414573307848,PAPI_L3_TCM,1, 30.36578369,  3.61245727,end
timer_stats,697414574407051,PAPI_L3_TCM,0, 30.47814941,  3.62625122,end
timer_stats,697414575546100,PAPI_L3_TCM,0, 30.55511475,  3.62985229,end
timer_stats,697414576697627,PAPI_L3_TCM,2, 30.64807129,  3.64207458,end
timer_stats,697414577846826,PAPI_L3_TCM,0, 30.71722412,  3.65065002,end
timer_stats,697414578996946,PAPI_L3_TCM,2, 30.78881836,  3.65921020,end
timer_stats,697414580150666,PAPI_L3_TCM,1, 30.85968018,  3.66780090,end
timer_stats,697414581302205,PAPI_L3_TCM,2, 30.93353271,  3.67634582,end
timer_stats,697414582453075,PAPI_L3_TCM,0, 31.04913330,  3.69007873,end
timer_stats,697414583552118,PAPI_L3_TCM,0, 31.14337158,  3.70230102,end
timer_stats,697414584690011,PAPI_L3_TCM,1, 31.21411133,  3.71112061,end
timer_stats,697414585841157,PAPI_L3_TCM,3, 31.28857422,  3.71966553,end
timer_stats,697414586991414,PAPI_L3_TCM,0, 31.36016846,  3.72825622,end
timer_stats,697414588142917,PAPI_L3_TCM,3, 31.43249512,  3.73683166,end
timer_stats,697414589293740,PAPI_L3_TCM,1, 31.50549316,  3.74565124,end
timer_stats,697414590445703,PAPI_L3_TCM,1, 31.61907959,  3.75938415,end
timer_stats,697414591598659,PAPI_L3_TCM,0, 31.71258545,  3.76795959,end
timer_stats,697414592749412,PAPI_L3_TCM,2, 31.78192139,  3.78041077,end
timer_stats,697414593918638,PAPI_L3_TCM,1, 31.85284424,  3.78897095,end
timer_stats,697414595077761,PAPI_L3_TCM,1, 31.93707275,  3.79920959,end
timer_stats,697414596208851,PAPI_L3_TCM,1, 32.01574707,  3.80923462,end
timer_stats,697414597338921,PAPI_L3_TCM,4, 32.09033203,  3.82025146,end
timer_stats,697414598460210,PAPI_L3_TCM,1, 32.21374512,  3.83564758,end
timer_stats,697414599575400,PAPI_L3_TCM,1, 32.28845215,  3.84620666,end
timer_stats,697414600690993,PAPI_L3_TCM,2, 32.39294434,  3.86166382,end
timer_stats,697414601802983,PAPI_L3_TCM,1, 32.47052002,  3.87222290,end
timer_stats,697414602921142,PAPI_L3_TCM,0, 32.54833984,  3.88253784,end
timer_stats,697414604049362,PAPI_L3_TCM,3, 32.62384033,  3.89263916,end
timer_stats,697414605191755,PAPI_L3_TCM,0, 32.69781494,  3.90277100,end
timer_stats,697414607952649,PAPI_L3_TCM,6, 32.91864013,  3.93464661,end
timer_stats,697414609085329,PAPI_L3_TCM,0, 32.99200439,  3.94450378,end
timer_stats,697414610207751,PAPI_L3_TCM,3, 33.07812500,  3.95457458,end
timer_stats,697414611319551,PAPI_L3_TCM,0, 33.16088867,  3.96488953,end
timer_stats,697414612455363,PAPI_L3_TCM,1, 33.30187988,  3.98033142,end
timer_stats,697414613571561,PAPI_L3_TCM,1, 33.38671875,  3.99066162,end
timer_stats,697414614675726,PAPI_L3_TCM,2, 33.50958252,  4.00584412,end
timer_stats,697414615776242,PAPI_L3_TCM,0, 33.59954834,  4.01637268,end
timer_stats,697414616875914,PAPI_L3_TCM,2, 33.68914795,  4.02668762,end
timer_stats,697414617972376,PAPI_L3_TCM,1, 33.77520752,  4.03706360,end
timer_stats,697414619073916,PAPI_L3_TCM,1, 33.86157226,  4.04685974,end
timer_stats,697414620169052,PAPI_L3_TCM,4, 33.95312500,  4.05686951,end
timer_stats,697414621291115,PAPI_L3_TCM,0, 34.03863525,  4.06700134,end
timer_stats,697414622401282,PAPI_L3_TCM,0, 34.12829590,  4.07676697,end
timer_stats,697414623508133,PAPI_L3_TCM,1, 34.27203369,  4.08702087,end
timer_stats,697414624636268,PAPI_L3_TCM,1, 34.35980224,  4.10224914,end
timer_stats,697414625761346,PAPI_L3_TCM,3, 34.47442627,  4.11730957,end
timer_stats,697414626872680,PAPI_L3_TCM,0, 34.55969238,  4.12716675,end
timer_stats,697414627976952,PAPI_L3_TCM,1, 34.65167236,  4.13720703,end
timer_stats,697414629093623,PAPI_L3_TCM,1, 34.73675537,  4.14712524,end
timer_stats,697414630215309,PAPI_L3_TCM,4, 34.82519531,  4.15695190,end
timer_stats,697414631325624,PAPI_L3_TCM,0, 34.91027832,  4.16752624,end
timer_stats,697414632456517,PAPI_L3_TCM,3, 34.99743652,  4.17762756,end
timer_stats,697414633593280,PAPI_L3_TCM,1, 35.13494873,  4.19334412,end
timer_stats,697414634725433,PAPI_L3_TCM,2, 35.24694824,  4.20899963,end
timer_stats,697414635836592,PAPI_L3_TCM,0, 35.32489014,  4.21910095,end
timer_stats,697414636963504,PAPI_L3_TCM,1, 35.40710449,  4.22938537,end
timer_stats,697414638105231,PAPI_L3_TCM,1, 35.48394775,  4.23951721,end
timer_stats,697414639221900,PAPI_L3_TCM,0, 35.56201172,  4.24935913,end
timer_stats,697414640331013,PAPI_L3_TCM,3, 35.63122559,  4.25820923,end
timer_stats,697414641439631,PAPI_L3_TCM,1, 35.70825195,  4.26672363,end
timer_stats,697414642546136,PAPI_L3_TCM,0, 35.82141113,  4.28051758,end
timer_stats,697414643654479,PAPI_L3_TCM,2, 35.89538574,  4.28906250,end
timer_stats,697414644757647,PAPI_L3_TCM,2, 35.99761963,  4.30169678,end
timer_stats,697414645853868,PAPI_L3_TCM,1, 36.06494140,  4.31054687,end
timer_stats,697414646949960,PAPI_L3_TCM,0, 36.14410400,  4.31927490,end
timer_stats,697414648049192,PAPI_L3_TCM,2, 36.22290039,  4.32958984,end
timer_stats,697414649188043,PAPI_L3_TCM,0, 36.29461670,  4.33972168,end
timer_stats,697414650338120,PAPI_L3_TCM,1, 36.37200928,  4.34846496,end
timer_stats,697414651468793,PAPI_L3_TCM,0, 36.44177246,  4.35704041,end
timer_stats,697414652605792,PAPI_L3_TCM,3, 36.56152344,  4.37055969,end
timer_stats,697414653751575,PAPI_L3_TCM,1, 36.65362549,  4.38279724,end
timer_stats,697414654877465,PAPI_L3_TCM,1, 36.72070312,  4.39140320,end
timer_stats,697414655994581,PAPI_L3_TCM,0, 36.79229736,  4.40019226,end
timer_stats,697414657153058,PAPI_L3_TCM,2, 36.86431885,  4.40876770,end
timer_stats,697414658304419,PAPI_L3_TCM,0, 36.93719482,  4.41752624,end
timer_stats,697414659432004,PAPI_L3_TCM,2, 37.00769043,  4.42790222,end
timer_stats,697414660575100,PAPI_L3_TCM,3, 37.15124512,  4.44038391,end
timer_stats,697414661727450,PAPI_L3_TCM,4, 37.22796631,  4.44911194,end
timer_stats,697414662881983,PAPI_L3_TCM,0, 37.29815674,  4.45793152,end
timer_stats,697414664025586,PAPI_L3_TCM,3, 37.36749267,  4.46772766,end
timer_stats,697414665171812,PAPI_L3_TCM,0, 37.44152832,  4.47599792,end
timer_stats,697414666322582,PAPI_L3_TCM,1, 37.51110840,  4.48460388,end
timer_stats,697414667417860,PAPI_L3_TCM,0, 37.58251953,  4.49291992,end
timer_stats,697414668560098,PAPI_L3_TCM,3, 37.70562744,  4.50686645,end
timer_stats,697414669710971,PAPI_L3_TCM,1, 37.80310059,  4.51911926,end
timer_stats,697414670865414,PAPI_L3_TCM,3, 37.88616943,  4.52787781,end
timer_stats,697414671992717,PAPI_L3_TCM,1, 37.96191406,  4.53669739,end
timer_stats,697414673150873,PAPI_L3_TCM,3, 38.03863525,  4.54551697,end
timer_stats,697414674308073,PAPI_L3_TCM,0, 38.12188721,  4.55448913,end
timer_stats,697414675435855,PAPI_L3_TCM,1, 38.19793701,  4.56306457,end
timer_stats,697414676587654,PAPI_L3_TCM,1, 38.33148193,  4.57637024,end
timer_stats,697414677740348,PAPI_L3_TCM,4, 38.43548584,  4.58876037,end
timer_stats,697414678895984,PAPI_L3_TCM,0, 38.51580810,  4.59730530,end
timer_stats,697414680102264,PAPI_L3_TCM,21, 38.58935547,  4.60588074,end
timer_stats,697414681360521,PAPI_L3_TCM,60, 38.66833496,  4.61509704,end
timer_stats,697414682594657,PAPI_L3_TCM,23, 38.82067871,  4.62901306,end
timer_stats,697414683726253,PAPI_L3_TCM,4, 38.90130615,  4.64144897,end
timer_stats,697414684876706,PAPI_L3_TCM,5, 38.97741699,  4.65103149,end
timer_stats,697414686030663,PAPI_L3_TCM,1, 39.05804443,  4.65957642,end
timer_stats,697414687186389,PAPI_L3_TCM,5, 39.13641357,  4.66836548,end
timer_stats,697414688344466,PAPI_L3_TCM,15, 39.21301270,  4.67791748,end
timer_stats,697414689463908,PAPI_L3_TCM,6, 39.28308105,  4.68649292,end
timer_stats,697414690617798,PAPI_L3_TCM,6, 39.42236328,  4.70564270,end
timer_stats,697414691743551,PAPI_L3_TCM,4, 39.49255371,  4.71421814,end
timer_stats,697414692853981,PAPI_L3_TCM,5, 39.56964111,  4.72248840,end
timer_stats,697414693945557,PAPI_L3_TCM,5, 39.64257812,  4.73170471,end
timer_stats,697414695087153,PAPI_L3_TCM,7, 39.70965576,  4.74049377,end
timer_stats,697414696222436,PAPI_L3_TCM,2, 39.77612305,  4.74897766,end
timer_stats,697414697371733,PAPI_L3_TCM,0, 39.84130859,  4.75819397,end
timer_stats,697414698551826,PAPI_L3_TCM,2, 39.94396973,  4.76618957,end
timer_stats,697414699706259,PAPI_L3_TCM,0, 40.02691650,  4.78224182,end
timer_stats,697414700830055,PAPI_L3_TCM,1, 40.09490967,  4.79103088,end
timer_stats,697414701983801,PAPI_L3_TCM,0, 40.16156006,  4.80006408,end
timer_stats,697414703130678,PAPI_L3_TCM,0, 40.22607422,  4.80755615,end
timer_stats,697414704265307,PAPI_L3_TCM,0, 40.29760742,  4.81781006,end
timer_stats,697414705404974,PAPI_L3_TCM,2, 40.36492920,  4.82708740,end
timer_stats,697414706538277,PAPI_L3_TCM,0, 40.47644043,  4.84152222,end
timer_stats,697414707653900,PAPI_L3_TCM,2, 40.57055664,  4.85375976,end
timer_stats,697414708788859,PAPI_L3_TCM,0, 40.64709473,  4.86401367,end
timer_stats,697414709907152,PAPI_L3_TCM,3, 40.72235107,  4.87429810,end
timer_stats,697414711038199,PAPI_L3_TCM,0, 40.78778076,  4.88157654,end
timer_stats,697414712196082,PAPI_L3_TCM,0, 40.85186768,  4.88887024,end
timer_stats,697414716640240,PAPI_L3_TCM,0, 41.14080810,  4.92471313,end
timer_stats,697414717779483,PAPI_L3_TCM,2, 41.23510742,  4.93560791,end
timer_stats,697414718893800,PAPI_L3_TCM,0, 41.29956055,  4.94287109,end
timer_stats,697414720011972,PAPI_L3_TCM,2, 41.35968018,  4.95019531,end
timer_stats,697414721169936,PAPI_L3_TCM,0, 41.42529297,  4.95744324,end
timer_stats,697414722337715,PAPI_L3_TCM,1, 41.48767090,  4.96624756,end
timer_stats,697414723487152,PAPI_L3_TCM,0, 41.56054687,  4.97424316,end
timer_stats,697414724635938,PAPI_L3_TCM,0, 41.66711426,  4.98976135,end
timer_stats,697414725779661,PAPI_L3_TCM,0, 41.77532959,  5.00520325,end
timer_stats,697414726928504,PAPI_L3_TCM,3, 41.84869385,  5.01548767,end
timer_stats,697414728072644,PAPI_L3_TCM,0, 41.92376709,  5.02577209,end
timer_stats,697414729185861,PAPI_L3_TCM,3, 42.00018310,  5.03630066,end
timer_stats,697414730308122,PAPI_L3_TCM,0, 42.07543945,  5.04661560,end
timer_stats,697414731437657,PAPI_L3_TCM,1, 42.15332031,  5.05642700,end
timer_stats,697414732566348,PAPI_L3_TCM,1, 42.26184082,  5.07214355,end
timer_stats,697414733687904,PAPI_L3_TCM,0, 42.33959961,  5.08485412,end
timer_stats,697414734804375,PAPI_L3_TCM,0, 42.44921875,  5.09785461,end
timer_stats,697414735921398,PAPI_L3_TCM,2, 42.52563476,  5.10856628,end
timer_stats,697414737040941,PAPI_L3_TCM,1, 42.59826660,  5.11933899,end
timer_stats,697414738176331,PAPI_L3_TCM,2, 42.67877197,  5.12940979,end
timer_stats,697414739289997,PAPI_L3_TCM,0, 42.75579834,  5.13975525,end
timer_stats,697414740406906,PAPI_L3_TCM,1, 42.83709717,  5.14952087,end
timer_stats,697414741531615,PAPI_L3_TCM,0, 42.91149902,  5.15965271,end
timer_stats,697414742680974,PAPI_L3_TCM,0, 43.03778076,  5.17558288,end
timer_stats,697414743789612,PAPI_L3_TCM,0, 43.16809082,  5.19123840,end
timer_stats,697414744907179,PAPI_L3_TCM,1, 43.24890137,  5.20184326,end
timer_stats,697414746029781,PAPI_L3_TCM,0, 43.33428955,  5.21234131,end
timer_stats,697414747152443,PAPI_L3_TCM,2, 43.41748047,  5.22285461,end
timer_stats,697414748242467,PAPI_L3_TCM,1, 43.50585937,  5.23265075,end
timer_stats,697414749358020,PAPI_L3_TCM,1, 43.58447266,  5.24275207,end
timer_stats,697414750478456,PAPI_L3_TCM,1, 43.65948486,  5.25152588,end
timer_stats,697414751587601,PAPI_L3_TCM,0, 43.78344726,  5.26522827,end
timer_stats,697414752710571,PAPI_L3_TCM,0, 43.86419678,  5.27426147,end
timer_stats,697414753838082,PAPI_L3_TCM,2, 43.97839355,  5.28665161,end
timer_stats,697414754965817,PAPI_L3_TCM,0, 44.05194092,  5.29589844,end
timer_stats,697414756062243,PAPI_L3_TCM,2, 44.13024902,  5.30465698,end
timer_stats,697414757182623,PAPI_L3_TCM,0, 44.20953369,  5.31539917,end
timer_stats,697414758308606,PAPI_L3_TCM,1, 44.29748535,  5.32388306,end
timer_stats,697414759423668,PAPI_L3_TCM,2, 44.38171387,  5.33267212,end
timer_stats,697414760551404,PAPI_L3_TCM,1, 44.47113037,  5.34196472,end
timer_stats,697414761680270,PAPI_L3_TCM,0, 44.60906982,  5.35636902,end
timer_stats,697414762805486,PAPI_L3_TCM,2, 44.73077393,  5.36944580,end
timer_stats,697414763928107,PAPI_L3_TCM,0, 44.80987549,  5.37825012,end
timer_stats,697414765067865,PAPI_L3_TCM,2, 44.89239502,  5.38731384,end
timer_stats,697414766226976,PAPI_L3_TCM,0, 44.96704101,  5.39634704,end
timer_stats,697414767390180,PAPI_L3_TCM,1, 45.03820801,  5.40565491,end
timer_stats,697414768544292,PAPI_L3_TCM,0, 45.10742187,  5.41291809,end
timer_stats,697414769711173,PAPI_L3_TCM,0, 45.21343994,  5.42581177,end
timer_stats,697414770855063,PAPI_L3_TCM,0, 45.31768799,  5.43646240,end
timer_stats,697414771995204,PAPI_L3_TCM,2, 45.38439941,  5.44378662,end
timer_stats,697414773148607,PAPI_L3_TCM,0, 45.45819092,  5.45101929,end
timer_stats,697414774314545,PAPI_L3_TCM,2, 45.52825928,  5.45852661,end
timer_stats,697414775481124,PAPI_L3_TCM,0, 45.59777832,  5.46578979,end
timer_stats,697414776633131,PAPI_L3_TCM,1, 45.70642090,  5.47305298,end
timer_stats,697414777797717,PAPI_L3_TCM,0, 45.80847168,  5.48912048,end
timer_stats,697414778963861,PAPI_L3_TCM,0, 45.87536621,  5.49665832,end
timer_stats,697414780089356,PAPI_L3_TCM,0, 45.94586182,  5.50389099,end
timer_stats,697414781172706,PAPI_L3_TCM,2, 46.01306152,  5.51118469,end
timer_stats,697414782283579,PAPI_L3_TCM,0, 46.08300781,  5.51844787,end
timer_stats,697414783445898,PAPI_L3_TCM,3, 46.15240478,  5.52644348,end
timer_stats,697414784607854,PAPI_L3_TCM,0, 46.22338867,  5.53388977,end
timer_stats,697414785779941,PAPI_L3_TCM,1, 46.36389160,  5.54655456,end
timer_stats,697414786954728,PAPI_L3_TCM,0, 46.42791748,  5.55021667,end
timer_stats,697414788130097,PAPI_L3_TCM,1, 46.49597168,  5.55381775,end
timer_stats,697414789299424,PAPI_L3_TCM,0, 46.56164551,  5.56109619,end
timer_stats,697414790467297,PAPI_L3_TCM,2, 46.62957764,  5.56988525,end
timer_stats,697414791636353,PAPI_L3_TCM,0, 46.72607422,  5.58389282,end
timer_stats,697414792803709,PAPI_L3_TCM,2, 46.82977295,  5.59629822,end
timer_stats,697414793970152,PAPI_L3_TCM,0, 46.89776611,  5.60484314,end
timer_stats,697414795135962,PAPI_L3_TCM,1, 46.96313476,  5.61367798,end
timer_stats,697414796276138,PAPI_L3_TCM,0, 47.03253174,  5.62222290,end
timer_stats,697414797417771,PAPI_L3_TCM,1, 47.10235596,  5.63076782,end
timer_stats,697414798563911,PAPI_L3_TCM,0, 47.16870117,  5.63937378,end
timer_stats,697414799730227,PAPI_L3_TCM,4, 47.27093506,  5.65330505,end
timer_stats,697414800896874,PAPI_L3_TCM,0, 47.36938476,  5.66580200,end
timer_stats,697414802027223,PAPI_L3_TCM,3, 47.44909668,  5.67630005,end
timer_stats,697414803186950,PAPI_L3_TCM,0, 47.52478027,  5.68661499,end
timer_stats,697414804327963,PAPI_L3_TCM,1, 47.60284424,  5.69668579,end
timer_stats,697414805471050,PAPI_L3_TCM,0, 47.67907715,  5.70524597,end
timer_stats,697414806634613,PAPI_L3_TCM,0, 47.75329590,  5.71405029,end
timer_stats,697414807800153,PAPI_L3_TCM,3, 47.90191650,  5.73115540,end
timer_stats,697414808966292,PAPI_L3_TCM,4, 47.97680664,  5.73973083,end
timer_stats,697414810140119,PAPI_L3_TCM,2, 48.05242920,  5.74827576,end
timer_stats,697414811306278,PAPI_L3_TCM,4, 48.12408447,  5.75660705,end
timer_stats,697414812450740,PAPI_L3_TCM,0, 48.19958496,  5.76519775,end
timer_stats,697414813578283,PAPI_L3_TCM,3, 48.28210449,  5.77392578,end
timer_stats,697414814716096,PAPI_L3_TCM,0, 48.39794922,  5.78831482,end
timer_stats,697414815861569,PAPI_L3_TCM,1, 48.50860596,  5.80296326,end
timer_stats,697414817033820,PAPI_L3_TCM,0, 48.57916260,  5.81246948,end
timer_stats,697414818203443,PAPI_L3_TCM,2, 48.64562988,  5.82023621,end
timer_stats,697414819375156,PAPI_L3_TCM,0, 48.71337890,  5.82771301,end
timer_stats,697414820524792,PAPI_L3_TCM,7, 48.77832031,  5.83778381,end
timer_stats,697414821666782,PAPI_L3_TCM,2, 48.88012695,  5.84626770,end
timer_stats,697414822839628,PAPI_L3_TCM,1, 48.97998047,  5.85844421,end
timer_stats,697414824024188,PAPI_L3_TCM,0, 49.04034424,  5.86576843,end
timer_stats,697414825170664,PAPI_L3_TCM,0, 49.11456299,  5.86911011,end
timer_stats,697414826315701,PAPI_L3_TCM,1, 49.18493652,  5.87326050,end
timer_stats,697414827477544,PAPI_L3_TCM,2, 49.24212646,  5.88172912,end
timer_stats,697414828637820,PAPI_L3_TCM,1, 49.30578613,  5.88902283,end
timer_stats,697414829807000,PAPI_L3_TCM,4, 49.40838623,  5.90617370,end
timer_stats,697414830981936,PAPI_L3_TCM,0, 49.50140381,  5.91325378,end
timer_stats,697414832153786,PAPI_L3_TCM,2, 49.56323242,  5.92031860,end
timer_stats,697414833298059,PAPI_L3_TCM,1, 49.62683105,  5.92691040,end
timer_stats,697414834468496,PAPI_L3_TCM,3, 49.69403076,  5.93466186,end
timer_stats,697414835619169,PAPI_L3_TCM,0, 49.76013184,  5.94349670,end
timer_stats,697414836774522,PAPI_L3_TCM,3, 49.85894775,  5.95700073,end
timer_stats,697414837940371,PAPI_L3_TCM,2, 49.95281982,  5.96830749,end
timer_stats,697414839112500,PAPI_L3_TCM,2, 50.02697754,  5.97676086,end
timer_stats,697414840285083,PAPI_L3_TCM,1, 50.08551025,  5.98538208,end
timer_stats,697414841438100,PAPI_L3_TCM,2, 50.15075684,  5.99372864,end
timer_stats,697414842605167,PAPI_L3_TCM,0, 50.21551514,  6.00253296,end
timer_stats,697414843753250,PAPI_L3_TCM,3, 50.31799316,  6.01622009,end
timer_stats,697414844899900,PAPI_L3_TCM,2, 50.41906738,  6.02865601,end
timer_stats,697414846046063,PAPI_L3_TCM,3, 50.48748779,  6.03723144,end
timer_stats,697414847189932,PAPI_L3_TCM,0, 50.55584717,  6.04602051,end
timer_stats,697414848334962,PAPI_L3_TCM,3, 50.62054443,  6.05484009,end
timer_stats,697414849482312,PAPI_L3_TCM,1, 50.69543457,  6.06356811,end
timer_stats,697414850629995,PAPI_L3_TCM,1, 50.75866699,  6.07241821,end
timer_stats,697414851772571,PAPI_L3_TCM,2, 50.83782959,  6.08108520,end
timer_stats,697414852915831,PAPI_L3_TCM,0, 50.96813965,  6.09878540,end
timer_stats,697414854059764,PAPI_L3_TCM,2, 51.03741455,  6.10757446,end
timer_stats,697414855204537,PAPI_L3_TCM,2, 51.11169434,  6.11630249,end
timer_stats,697414856356150,PAPI_L3_TCM,1, 51.18066406,  6.12487793,end
timer_stats,697414857511216,PAPI_L3_TCM,4, 51.25347900,  6.13366699,end
timer_stats,697414858652199,PAPI_L3_TCM,0, 51.32373047,  6.14228821,end
timer_stats,697414859794552,PAPI_L3_TCM,1, 51.44006348,  6.15626526,end
timer_stats,697414860935805,PAPI_L3_TCM,1, 51.55822754,  6.16857910,end
timer_stats,697414862075648,PAPI_L3_TCM,1, 51.62432861,  6.17745972,end
timer_stats,697414863216858,PAPI_L3_TCM,0, 51.70770264,  6.18618774,end
timer_stats,697414864360954,PAPI_L3_TCM,3, 51.78527832,  6.19496155,end
timer_stats,697414865503944,PAPI_L3_TCM,1, 51.86425781,  6.20344543,end
timer_stats,697414866649097,PAPI_L3_TCM,2, 51.92864990,  6.21235657,end
timer_stats,697414867790352,PAPI_L3_TCM,0, 52.04663086,  6.22105408,end
timer_stats,697414868933212,PAPI_L3_TCM,11, 52.15802002,  6.23918152,end
timer_stats,697414870074572,PAPI_L3_TCM,8, 52.23889160,  6.24787903,end
timer_stats,697414871234432,PAPI_L3_TCM,8, 52.29907226,  6.25654602,end
