timer_stats,697637989589089,PAPI_L3_TCM,384,  0.06713867,  0.01049805,end
timer_stats,697637990724696,PAPI_L3_TCM,38,  0.16223145,  0.02645874,end
timer_stats,697637991858446,PAPI_L3_TCM,9,  0.25659180,  0.04322815,end
timer_stats,697637993023369,PAPI_L3_TCM,5,  0.32220459,  0.05194092,end
timer_stats,697637994166993,PAPI_L3_TCM,11,  0.39123535,  0.06076050,end
timer_stats,697637995397571,PAPI_L3_TCM,9,  0.46563721,  0.07147217,end
timer_stats,697637996539964,PAPI_L3_TCM,5,  0.53814697,  0.08265686,end
timer_stats,697637997699438,PAPI_L3_TCM,8,  0.67242432,  0.10325622,end
timer_stats,697637998886507,PAPI_L3_TCM,3,  0.74102783,  0.11198425,end
timer_stats,697638000068435,PAPI_L3_TCM,5,  0.81066894,  0.12095642,end
timer_stats,697638001206704,PAPI_L3_TCM,4,  0.87921143,  0.12973022,end
timer_stats,697638002410195,PAPI_L3_TCM,3,  0.95404053,  0.13990784,end
timer_stats,697638003597229,PAPI_L3_TCM,2,  1.04846191,  0.14994812,end
timer_stats,697638004787259,PAPI_L3_TCM,6,  1.15686035,  0.16979980,end
timer_stats,697638005951463,PAPI_L3_TCM,0,  1.22863769,  0.18054199,end
timer_stats,697638007160687,PAPI_L3_TCM,1,  1.29534912,  0.18954468,end
timer_stats,697638008288040,PAPI_L3_TCM,3,  1.36822510,  0.19851684,end
timer_stats,697638009463450,PAPI_L3_TCM,1,  1.44122314,  0.20901489,end
timer_stats,697638010658724,PAPI_L3_TCM,0,  1.53814697,  0.21800232,end
timer_stats,697638011846597,PAPI_L3_TCM,2,  1.64929199,  0.23730469,end
timer_stats,697638013013798,PAPI_L3_TCM,0,  1.72668457,  0.24682617,end
timer_stats,697638014202788,PAPI_L3_TCM,2,  1.79272461,  0.25564575,end
timer_stats,697638015399012,PAPI_L3_TCM,0,  1.86218262,  0.26443481,end
timer_stats,697638016533656,PAPI_L3_TCM,1,  1.93811035,  0.27337646,end
timer_stats,697638017723975,PAPI_L3_TCM,0,  2.08996582,  0.29263306,end
timer_stats,697638018912446,PAPI_L3_TCM,1,  2.16625976,  0.30245972,end
timer_stats,697638020071246,PAPI_L3_TCM,1,  2.24023437,  0.31124878,end
timer_stats,697638021210876,PAPI_L3_TCM,1,  2.32110596,  0.31997681,end
timer_stats,697638022397810,PAPI_L3_TCM,0,  2.40545654,  0.32873535,end
timer_stats,697638023586050,PAPI_L3_TCM,1,  2.48718262,  0.33770752,end
timer_stats,697638024753634,PAPI_L3_TCM,0,  2.64935303,  0.35705566,end
timer_stats,697638025942218,PAPI_L3_TCM,0,  2.73089600,  0.36703491,end
timer_stats,697638027139381,PAPI_L3_TCM,0,  2.81176758,  0.37826538,end
timer_stats,697638028331285,PAPI_L3_TCM,3,  2.89001465,  0.38726807,end
timer_stats,697638029496416,PAPI_L3_TCM,1,  2.96661377,  0.39727783,end
timer_stats,697638030688445,PAPI_L3_TCM,2,  3.07421875,  0.41227722,end
timer_stats,697638031879119,PAPI_L3_TCM,0,  3.19940186,  0.42936706,end
timer_stats,697638033068757,PAPI_L3_TCM,3,  3.27612305,  0.43804931,end
timer_stats,697638034203836,PAPI_L3_TCM,0,  3.36071777,  0.44677734,end
timer_stats,697638035402164,PAPI_L3_TCM,1,  3.43109131,  0.45693970,end
timer_stats,697638036603633,PAPI_L3_TCM,1,  3.50427246,  0.46652222,end
timer_stats,697638037803314,PAPI_L3_TCM,1,  3.65014648,  0.48559570,end
timer_stats,697638038995821,PAPI_L3_TCM,0,  3.71942139,  0.49440002,end
timer_stats,697638040208191,PAPI_L3_TCM,3,  3.79205322,  0.50315857,end
timer_stats,697638041379248,PAPI_L3_TCM,1,  3.86053467,  0.51197815,end
timer_stats,697638042573056,PAPI_L3_TCM,2,  3.93029785,  0.52075195,end
timer_stats,697638043773745,PAPI_L3_TCM,0,  4.06964111,  0.54006958,end
timer_stats,697638044968479,PAPI_L3_TCM,2,  4.13519287,  0.54891968,end
timer_stats,697638046172803,PAPI_L3_TCM,0,  4.20483398,  0.55770874,end
timer_stats,697638047382144,PAPI_L3_TCM,1,  4.27447510,  0.56604004,end
timer_stats,697638048582735,PAPI_L3_TCM,1,  4.34295654,  0.57485962,end
timer_stats,697638049781808,PAPI_L3_TCM,2,  4.49279785,  0.59498596,end
timer_stats,697638050976878,PAPI_L3_TCM,0,  4.56365967,  0.59992981,end
timer_stats,697638052181439,PAPI_L3_TCM,3,  4.63507080,  0.60873413,end
timer_stats,697638053330842,PAPI_L3_TCM,0,  4.70428467,  0.61708069,end
timer_stats,697638054529486,PAPI_L3_TCM,1,  4.77642822,  0.62556457,end
timer_stats,697638055734656,PAPI_L3_TCM,0,  4.91723633,  0.64450073,end
timer_stats,697638056933700,PAPI_L3_TCM,2,  4.98950195,  0.65328979,end
timer_stats,697638058129290,PAPI_L3_TCM,0,  5.06134033,  0.66209412,end
timer_stats,697638059327220,PAPI_L3_TCM,2,  5.13385010,  0.67060852,end
timer_stats,697638060518004,PAPI_L3_TCM,1,  5.20043945,  0.67919922,end
timer_stats,697638061713915,PAPI_L3_TCM,2,  5.34393310,  0.69824219,end
timer_stats,697638062903101,PAPI_L3_TCM,0,  5.41680908,  0.70698547,end
timer_stats,697638064101012,PAPI_L3_TCM,2,  5.48657227,  0.71577454,end
timer_stats,697638065248329,PAPI_L3_TCM,0,  5.56115722,  0.72453308,end
timer_stats,697638066443345,PAPI_L3_TCM,1,  5.63214111,  0.73330688,end
timer_stats,697638067592323,PAPI_L3_TCM,0,  5.70385742,  0.74209595,end
timer_stats,697638068785920,PAPI_L3_TCM,3,  5.85125732,  0.76248169,end
timer_stats,697638069979196,PAPI_L3_TCM,0,  5.92559814,  0.77125549,end
timer_stats,697638071144644,PAPI_L3_TCM,2,  5.99987793,  0.78175354,end
timer_stats,697638072332138,PAPI_L3_TCM,1,  6.06750488,  0.79035950,end
timer_stats,697638073512697,PAPI_L3_TCM,1,  6.14111328,  0.79893494,end
timer_stats,697638074703048,PAPI_L3_TCM,0,  6.23822021,  0.81260681,end
timer_stats,697638075904868,PAPI_L3_TCM,1,  6.36102295,  0.82606506,end
timer_stats,697638077098208,PAPI_L3_TCM,1,  6.42871094,  0.83488464,end
timer_stats,697638078300259,PAPI_L3_TCM,2,  6.50372314,  0.84339905,end
timer_stats,697638079507316,PAPI_L3_TCM,0,  6.57525635,  0.85197449,end
timer_stats,697638080697219,PAPI_L3_TCM,3,  6.64666748,  0.86051941,end
timer_stats,697638081898160,PAPI_L3_TCM,0,  6.78887939,  0.87770081,end
timer_stats,697638083085397,PAPI_L3_TCM,1,  6.85809326,  0.88655090,end
timer_stats,697638084296911,PAPI_L3_TCM,1,  6.92755127,  0.89535522,end
timer_stats,697638085477561,PAPI_L3_TCM,1,  7.00128174,  0.90390015,end
timer_stats,697638086666868,PAPI_L3_TCM,0,  7.07397461,  0.91267395,end
timer_stats,697638087867952,PAPI_L3_TCM,2,  7.21704102,  0.93336487,end
timer_stats,697638089061579,PAPI_L3_TCM,1,  7.28588867,  0.94194031,end
timer_stats,697638090254013,PAPI_L3_TCM,2,  7.35937500,  0.95048523,end
timer_stats,697638091456836,PAPI_L3_TCM,0,  7.43249512,  0.95903015,end
timer_stats,697638092653573,PAPI_L3_TCM,2,  7.50207519,  0.96736145,end
timer_stats,697638093856550,PAPI_L3_TCM,0,  7.64758301,  0.98646545,end
timer_stats,697638095048113,PAPI_L3_TCM,1,  7.71734619,  0.99505615,end
timer_stats,697638096250037,PAPI_L3_TCM,1,  7.79016113,  1.00361633,end
timer_stats,697638097437568,PAPI_L3_TCM,3,  7.86090088,  1.01240539,end
timer_stats,697638098625784,PAPI_L3_TCM,0,  7.93225098,  1.02098083,end
timer_stats,697638099828962,PAPI_L3_TCM,2,  8.07708740,  1.04006958,end
timer_stats,697638101023139,PAPI_L3_TCM,1,  8.14935303,  1.04885864,end
timer_stats,697638102201570,PAPI_L3_TCM,1,  8.21704101,  1.05795288,end
timer_stats,697638103402106,PAPI_L3_TCM,0,  8.28912353,  1.06648254,end
timer_stats,697638104593507,PAPI_L3_TCM,2,  8.36267090,  1.07551575,end
timer_stats,697638105801667,PAPI_L3_TCM,0,  8.50512695,  1.09486389,end
timer_stats,697638106991384,PAPI_L3_TCM,2,  8.57556152,  1.10365295,end
timer_stats,697638108199614,PAPI_L3_TCM,1,  8.65045166,  1.11241150,end
timer_stats,697638109371015,PAPI_L3_TCM,2,  8.72326660,  1.12117004,end
timer_stats,697638110563475,PAPI_L3_TCM,0,  8.79486084,  1.12948608,end
timer_stats,697638111762459,PAPI_L3_TCM,1,  8.93469238,  1.14840698,end
timer_stats,697638112961913,PAPI_L3_TCM,1,  9.01000976,  1.15716553,end
timer_stats,697638114150472,PAPI_L3_TCM,1,  9.08154297,  1.16598511,end
timer_stats,697638115343736,PAPI_L3_TCM,0,  9.15325928,  1.17477417,end
timer_stats,697638116547764,PAPI_L3_TCM,3,  9.22418213,  1.18334961,end
timer_stats,697638117754283,PAPI_L3_TCM,0,  9.31604004,  1.19551086,end
timer_stats,697638118947541,PAPI_L3_TCM,2,  9.43438721,  1.20927429,end
timer_stats,697638120149908,PAPI_L3_TCM,1,  9.51025391,  1.21806335,end
timer_stats,697638121327588,PAPI_L3_TCM,1,  9.57867432,  1.22663879,end
timer_stats,697638122518818,PAPI_L3_TCM,1,  9.65008545,  1.23542785,end
timer_stats,697638123719272,PAPI_L3_TCM,1,  9.72607422,  1.24348450,end
timer_stats,697638124919053,PAPI_L3_TCM,1,  9.86578369,  1.26263428,end
timer_stats,697638126124109,PAPI_L3_TCM,2,  9.93701172,  1.27120972,end
timer_stats,697638127319940,PAPI_L3_TCM,0, 10.01196289,  1.27969360,end
timer_stats,697638128523507,PAPI_L3_TCM,3, 10.07940674,  1.28852844,end
timer_stats,697638129730540,PAPI_L3_TCM,0, 10.15026855,  1.29733276,end
timer_stats,697638130926241,PAPI_L3_TCM,1, 10.30041504,  1.31710815,end
timer_stats,697638132125512,PAPI_L3_TCM,2, 10.37304687,  1.32614136,end
timer_stats,697638133295955,PAPI_L3_TCM,1, 10.44964599,  1.33486938,end
timer_stats,697638134494005,PAPI_L3_TCM,0, 10.52441406,  1.34390259,end
timer_stats,697638135701433,PAPI_L3_TCM,2, 10.60076904,  1.35418701,end
timer_stats,697638136897986,PAPI_L3_TCM,0, 10.75781250,  1.37347412,end
timer_stats,697638138089670,PAPI_L3_TCM,2, 10.83062744,  1.38362122,end
timer_stats,697638139286354,PAPI_L3_TCM,0, 10.90795898,  1.39241028,end
timer_stats,697638140499801,PAPI_L3_TCM,45, 10.98736572,  1.40187073,end
timer_stats,697638141695804,PAPI_L3_TCM,0, 11.06530762,  1.41218567,end
timer_stats,697638142879291,PAPI_L3_TCM,1, 11.22045898,  1.43325806,end
timer_stats,697638144079599,PAPI_L3_TCM,1, 11.29608154,  1.44186401,end
timer_stats,697638145250542,PAPI_L3_TCM,2, 11.37103271,  1.45088196,end
timer_stats,697638146459396,PAPI_L3_TCM,0, 11.44726562,  1.45964050,end
timer_stats,697638147658393,PAPI_L3_TCM,2, 11.52130127,  1.46842956,end
timer_stats,697638148867123,PAPI_L3_TCM,1, 11.67163086,  1.48796082,end
timer_stats,697638150074163,PAPI_L3_TCM,1, 11.74511719,  1.49676514,end
timer_stats,697638151266627,PAPI_L3_TCM,0, 11.82049560,  1.50631714,end
timer_stats,697638152464567,PAPI_L3_TCM,2, 11.90240478,  1.51705932,end
timer_stats,697638153661498,PAPI_L3_TCM,0, 11.98236084,  1.52780151,end
timer_stats,697638154846252,PAPI_L3_TCM,2, 12.14257812,  1.54716492,end
timer_stats,697638156029815,PAPI_L3_TCM,1, 12.22406006,  1.55593872,end
timer_stats,697638157214059,PAPI_L3_TCM,2, 12.30670166,  1.56472778,end
timer_stats,697638158411223,PAPI_L3_TCM,0, 12.38647461,  1.57330322,end
timer_stats,697638159584586,PAPI_L3_TCM,1, 12.46734619,  1.58337402,end
timer_stats,697638160756956,PAPI_L3_TCM,1, 12.54669189,  1.59347534,end
timer_stats,697638161932630,PAPI_L3_TCM,1, 12.70428467,  1.61367798,end
timer_stats,697638163095703,PAPI_L3_TCM,0, 12.78302002,  1.62377930,end
timer_stats,697638164269614,PAPI_L3_TCM,3, 12.86224365,  1.63403320,end
timer_stats,697638165419230,PAPI_L3_TCM,0, 12.93780517,  1.64436340,end
timer_stats,697638166613834,PAPI_L3_TCM,2, 13.01428223,  1.65312195,end
timer_stats,697638167800475,PAPI_L3_TCM,0, 13.11419678,  1.66682434,end
timer_stats,697638168993025,PAPI_L3_TCM,2, 13.24835205,  1.68070984,end
timer_stats,697638170183675,PAPI_L3_TCM,0, 13.32476807,  1.68949890,end
timer_stats,697638171370206,PAPI_L3_TCM,1, 13.40045166,  1.69853210,end
timer_stats,697638172565409,PAPI_L3_TCM,1, 13.47766113,  1.70726013,end
timer_stats,697638173767640,PAPI_L3_TCM,2, 13.57196045,  1.71992493,end
timer_stats,697638174962577,PAPI_L3_TCM,0, 13.70178223,  1.73426819,end
timer_stats,697638176147753,PAPI_L3_TCM,3, 13.78082275,  1.74345398,end
timer_stats,697638177297087,PAPI_L3_TCM,0, 13.85742187,  1.75222778,end
timer_stats,697638178488291,PAPI_L3_TCM,1, 13.93286133,  1.76252747,end
timer_stats,697638179676434,PAPI_L3_TCM,0, 14.00891113,  1.77153015,end
timer_stats,697638180867242,PAPI_L3_TCM,1, 14.08276367,  1.78138733,end
timer_stats,697638182027486,PAPI_L3_TCM,0, 14.24340820,  1.80282593,end
timer_stats,697638183211792,PAPI_L3_TCM,2, 14.32476807,  1.81204224,end
timer_stats,697638184388736,PAPI_L3_TCM,0, 14.40112305,  1.82081604,end
timer_stats,697638185593300,PAPI_L3_TCM,2, 14.48449707,  1.82929993,end
timer_stats,697638186776756,PAPI_L3_TCM,0, 14.56555176,  1.83961487,end
timer_stats,697638187952520,PAPI_L3_TCM,1, 14.72790527,  1.85993957,end
timer_stats,697638189140373,PAPI_L3_TCM,1, 14.80175781,  1.86878967,end
timer_stats,697638190326204,PAPI_L3_TCM,1, 14.88262939,  1.88008118,end
timer_stats,697638191513971,PAPI_L3_TCM,0, 14.95831299,  1.88909912,end
timer_stats,697638192684938,PAPI_L3_TCM,2, 15.04211426,  1.89782715,end
timer_stats,697638193851872,PAPI_L3_TCM,0, 15.13940430,  1.91802978,end
timer_stats,697638195040189,PAPI_L3_TCM,3, 15.27880859,  1.92724609,end
timer_stats,697638196219402,PAPI_L3_TCM,1, 15.35253906,  1.93608093,end
timer_stats,697638197365943,PAPI_L3_TCM,2, 15.43029785,  1.94439697,end
timer_stats,697638198553377,PAPI_L3_TCM,0, 15.51086426,  1.95338440,end
timer_stats,697638199733816,PAPI_L3_TCM,2, 15.59002685,  1.96240234,end
timer_stats,697638200918260,PAPI_L3_TCM,1, 15.74725342,  1.98146057,end
timer_stats,697638202108203,PAPI_L3_TCM,5, 15.82470703,  1.99101257,end
timer_stats,697638203269447,PAPI_L3_TCM,0, 15.90472412,  2.00003052,end
timer_stats,697638204453435,PAPI_L3_TCM,3, 15.97930908,  2.00827026,end
timer_stats,697638205661574,PAPI_L3_TCM,0, 16.05944824,  2.01901245,end
timer_stats,697638206856758,PAPI_L3_TCM,1, 16.15631103,  2.03295898,end
timer_stats,697638208048202,PAPI_L3_TCM,4, 16.29278564,  2.04667663,end
timer_stats,697638209198972,PAPI_L3_TCM,1, 16.37188721,  2.05543518,end
timer_stats,697638210399713,PAPI_L3_TCM,0, 16.44616699,  2.06427002,end
timer_stats,697638211587606,PAPI_L3_TCM,2, 16.52618408,  2.07458496,end
timer_stats,697638212771486,PAPI_L3_TCM,0, 16.61126709,  2.08448791,end
timer_stats,697638213928650,PAPI_L3_TCM,2, 16.77856445,  2.10630798,end
timer_stats,697638215088100,PAPI_L3_TCM,0, 16.86370850,  2.11634827,end
timer_stats,697638216250451,PAPI_L3_TCM,2, 16.94549561,  2.12644958,end
timer_stats,697638217397575,PAPI_L3_TCM,0, 17.03112793,  2.13652038,end
timer_stats,697638218567668,PAPI_L3_TCM,1, 17.11804199,  2.14848327,end
timer_stats,697638219738398,PAPI_L3_TCM,0, 17.19897461,  2.15904236,end
timer_stats,697638220910271,PAPI_L3_TCM,2, 17.36291504,  2.17967224,end
timer_stats,697638222080685,PAPI_L3_TCM,0, 17.44702148,  2.18974304,end
timer_stats,697638223243809,PAPI_L3_TCM,2, 17.52703857,  2.19963074,end
timer_stats,697638224400809,PAPI_L3_TCM,1, 17.61541748,  2.21012878,end
timer_stats,697638225554186,PAPI_L3_TCM,1, 17.69592285,  2.22026062,end
timer_stats,697638226721153,PAPI_L3_TCM,0, 17.77984619,  2.23030090,end
timer_stats,697638227898217,PAPI_L3_TCM,1, 17.88903808,  2.24555969,end
timer_stats,697638229067410,PAPI_L3_TCM,1, 18.02227783,  2.26109314,end
timer_stats,697638230237157,PAPI_L3_TCM,2, 18.10589600,  2.27095032,end
timer_stats,697638231409590,PAPI_L3_TCM,0, 18.19177246,  2.28121948,end
timer_stats,697638232581577,PAPI_L3_TCM,3, 18.26879883,  2.29110718,end
timer_stats,697638233750635,PAPI_L3_TCM,0, 18.35125732,  2.30166626,end
timer_stats,697638234920205,PAPI_L3_TCM,1, 18.51782226,  2.32247925,end
timer_stats,697638236090312,PAPI_L3_TCM,1, 18.59722900,  2.33236694,end
timer_stats,697638237232589,PAPI_L3_TCM,1, 18.68218994,  2.34240723,end
timer_stats,697638238401035,PAPI_L3_TCM,0, 18.76647949,  2.35270691,end
timer_stats,697638239573066,PAPI_L3_TCM,2, 18.84863281,  2.36305237,end
timer_stats,697638240743526,PAPI_L3_TCM,2, 18.93218994,  2.37336731,end
timer_stats,697638241884216,PAPI_L3_TCM,3, 19.01165771,  2.38349915,end
timer_stats,697638243041210,PAPI_L3_TCM,2, 19.17181396,  2.40359497,end
timer_stats,697638244212413,PAPI_L3_TCM,2, 19.24688721,  2.41366577,end
timer_stats,697638245375124,PAPI_L3_TCM,0, 19.31945801,  2.42370605,end
timer_stats,697638250563783,PAPI_L3_TCM,8, 19.68261719,  2.47573852,end
timer_stats,697638251703913,PAPI_L3_TCM,6, 19.75360107,  2.48603821,end
timer_stats,697638252903914,PAPI_L3_TCM,3, 19.89794922,  2.50666809,end
timer_stats,697638254098804,PAPI_L3_TCM,0, 19.96673584,  2.51545715,end
timer_stats,697638255290617,PAPI_L3_TCM,3, 20.04089355,  2.51908874,end
timer_stats,697638256487645,PAPI_L3_TCM,1, 20.10827637,  2.52790832,end
timer_stats,697638257684449,PAPI_L3_TCM,1, 20.17706299,  2.53671265,end
timer_stats,697638258880272,PAPI_L3_TCM,0, 20.24511719,  2.54528809,end
timer_stats,697638260079606,PAPI_L3_TCM,3, 20.38555908,  2.56079101,end
timer_stats,697638261284600,PAPI_L3_TCM,1, 20.45782471,  2.56954956,end
timer_stats,697638262488416,PAPI_L3_TCM,2, 20.53167725,  2.57516479,end
timer_stats,697638263691090,PAPI_L3_TCM,0, 20.59942627,  2.58528137,end
timer_stats,697638264894577,PAPI_L3_TCM,3, 20.69250488,  2.59898376,end
timer_stats,697638266097707,PAPI_L3_TCM,0, 20.81036377,  2.60908508,end
timer_stats,697638267302818,PAPI_L3_TCM,2, 20.87335205,  2.61793518,end
timer_stats,697638268503055,PAPI_L3_TCM,1, 20.94403076,  2.62669372,end
timer_stats,697638269702379,PAPI_L3_TCM,2, 21.01330566,  2.63523865,end
timer_stats,697638270903635,PAPI_L3_TCM,0, 21.14782715,  2.65388489,end
timer_stats,697638272104093,PAPI_L3_TCM,3, 21.21990967,  2.66264343,end
timer_stats,697638273279630,PAPI_L3_TCM,0, 21.29046631,  2.67161560,end
timer_stats,697638274484567,PAPI_L3_TCM,3, 21.35906982,  2.68040466,end
timer_stats,697638275685364,PAPI_L3_TCM,0, 21.42675781,  2.68922424,end
timer_stats,697638276889191,PAPI_L3_TCM,2, 21.51617432,  2.70292663,end
timer_stats,697638278089921,PAPI_L3_TCM,0, 21.63537598,  2.71730041,end
timer_stats,697638279268381,PAPI_L3_TCM,1, 21.70544433,  2.72737121,end
timer_stats,697638280474652,PAPI_L3_TCM,1, 21.77136230,  2.73622131,end
timer_stats,697638281679429,PAPI_L3_TCM,2, 21.84307861,  2.74497986,end
timer_stats,697638282882672,PAPI_L3_TCM,1, 21.91180420,  2.75874328,end
timer_stats,697638284086106,PAPI_L3_TCM,4, 22.04742432,  2.77223205,end
timer_stats,697638285266003,PAPI_L3_TCM,0, 22.11425781,  2.78105163,end
timer_stats,697638286467030,PAPI_L3_TCM,2, 22.18188476,  2.78987121,end
timer_stats,697638287671281,PAPI_L3_TCM,1, 22.25036621,  2.79866028,end
timer_stats,697638288860554,PAPI_L3_TCM,3, 22.32183838,  2.80738830,end
timer_stats,697638290064338,PAPI_L3_TCM,0, 22.45880127,  2.82763672,end
timer_stats,697638291237218,PAPI_L3_TCM,2, 22.52709961,  2.83642578,end
timer_stats,697638292438809,PAPI_L3_TCM,2, 22.59808350,  2.84518432,end
timer_stats,697638293615865,PAPI_L3_TCM,2, 22.66400146,  2.85403442,end
timer_stats,697638294815133,PAPI_L3_TCM,0, 22.73114014,  2.86285400,end
timer_stats,697638296377408,PAPI_L3_TCM,1235, 22.86730957,  2.88197327,end
timer_stats,697638297544977,PAPI_L3_TCM,26, 22.93841553,  2.89051819,end
timer_stats,697638298733411,PAPI_L3_TCM,1, 23.00518799,  2.89933777,end
timer_stats,697638299921459,PAPI_L3_TCM,0, 23.09545898,  2.90814209,end
timer_stats,697638301130265,PAPI_L3_TCM,3, 23.17340088,  2.92715454,end
timer_stats,697638302326986,PAPI_L3_TCM,0, 23.28814697,  2.93572998,end
timer_stats,697638303527343,PAPI_L3_TCM,2, 23.35601807,  2.94454956,end
timer_stats,697638304725009,PAPI_L3_TCM,3, 23.42565918,  2.94839477,end
timer_stats,697638305925227,PAPI_L3_TCM,1, 23.48303223,  2.95724487,end
timer_stats,697638307123641,PAPI_L3_TCM,0, 23.62152100,  2.97721863,end
timer_stats,697638308290531,PAPI_L3_TCM,4, 23.69049072,  2.98602295,end
timer_stats,697638309491254,PAPI_L3_TCM,0, 23.76678467,  2.99475098,end
timer_stats,697638310689332,PAPI_L3_TCM,2, 23.83599854,  3.00354004,end
timer_stats,697638311889186,PAPI_L3_TCM,0, 23.90289307,  3.01214600,end
timer_stats,697638313093209,PAPI_L3_TCM,4, 23.99346924,  3.02740478,end
timer_stats,697638314291383,PAPI_L3_TCM,0, 24.10864258,  3.04136658,end
timer_stats,697638315487907,PAPI_L3_TCM,1, 24.16955566,  3.05023193,end
timer_stats,697638316685833,PAPI_L3_TCM,2, 24.23632812,  3.05905151,end
timer_stats,697638317885160,PAPI_L3_TCM,1, 24.31573486,  3.06774902,end
timer_stats,697638319085754,PAPI_L3_TCM,0, 24.39288330,  3.08135986,end
timer_stats,697638320252731,PAPI_L3_TCM,3, 24.51049804,  3.09481811,end
timer_stats,697638321457325,PAPI_L3_TCM,1, 24.58251953,  3.10359192,end
timer_stats,697638322655529,PAPI_L3_TCM,2, 24.65173340,  3.11215210,end
timer_stats,697638323849318,PAPI_L3_TCM,0, 24.71234131,  3.12100220,end
timer_stats,697638325021692,PAPI_L3_TCM,1, 24.85992432,  3.14051819,end
timer_stats,697638326200780,PAPI_L3_TCM,1, 24.93475342,  3.15083313,end
timer_stats,697638327375620,PAPI_L3_TCM,1, 25.00939941,  3.16062927,end
timer_stats,697638328563750,PAPI_L3_TCM,0, 25.07965088,  3.16918945,end
timer_stats,697638329763604,PAPI_L3_TCM,2, 25.15008545,  3.17799377,end
timer_stats,697638330961158,PAPI_L3_TCM,0, 25.22253418,  3.18675232,end
timer_stats,697638332150184,PAPI_L3_TCM,3, 25.33081055,  3.20213318,end
timer_stats,697638333311098,PAPI_L3_TCM,0, 25.45269775,  3.21627807,end
timer_stats,697638339693484,PAPI_L3_TCM,5, 25.84887695,  3.26490784,end
timer_stats,697638340891205,PAPI_L3_TCM,3, 25.92779541,  3.27343750,end
timer_stats,697638342090649,PAPI_L3_TCM,1, 26.05493164,  3.29290771,end
timer_stats,697638343291013,PAPI_L3_TCM,0, 26.13726807,  3.30136108,end
timer_stats,697638344494569,PAPI_L3_TCM,3, 26.19335937,  3.31027222,end
timer_stats,697638345696173,PAPI_L3_TCM,0, 26.27368164,  3.31875610,end
timer_stats,697638346896424,PAPI_L3_TCM,3, 26.34295654,  3.32756042,end
timer_stats,697638348104113,PAPI_L3_TCM,1, 26.47454834,  3.34672546,end
timer_stats,697638349302377,PAPI_L3_TCM,1, 26.55450439,  3.35545349,end
timer_stats,697638350504851,PAPI_L3_TCM,0, 26.61254883,  3.36433411,end
timer_stats,697638351705024,PAPI_L3_TCM,1, 26.69329834,  3.37301636,end
timer_stats,697638352906992,PAPI_L3_TCM,1, 26.75048828,  3.38191223,end
timer_stats,697638354107479,PAPI_L3_TCM,2, 26.85223389,  3.39558411,end
timer_stats,697638355306185,PAPI_L3_TCM,0, 26.96044922,  3.40936279,end
timer_stats,697638356509706,PAPI_L3_TCM,3, 27.03942871,  3.41809082,end
timer_stats,697638357711057,PAPI_L3_TCM,1, 27.09759521,  3.42700195,end
timer_stats,697638358910530,PAPI_L3_TCM,1, 27.17657471,  3.43545532,end
timer_stats,697638360058814,PAPI_L3_TCM,2, 27.26013183,  3.45056152,end
timer_stats,697638361257198,PAPI_L3_TCM,3, 27.38989258,  3.46417236,end
timer_stats,697638362448168,PAPI_L3_TCM,0, 27.45751953,  3.47277832,end
timer_stats,697638363633851,PAPI_L3_TCM,2, 27.52868652,  3.48153686,end
timer_stats,697638364836779,PAPI_L3_TCM,1, 27.59875488,  3.49035645,end
timer_stats,697638366035659,PAPI_L3_TCM,2, 27.68768311,  3.50434875,end
timer_stats,697638367233212,PAPI_L3_TCM,0, 27.80621338,  3.51829529,end
timer_stats,697638368433150,PAPI_L3_TCM,3, 27.86254883,  3.52699280,end
timer_stats,697638369634590,PAPI_L3_TCM,1, 27.94335937,  3.53565979,end
timer_stats,697638370836393,PAPI_L3_TCM,1, 28.01214600,  3.54423523,end
timer_stats,697638372022684,PAPI_L3_TCM,2, 28.09991455,  3.55822754,end
timer_stats,697638373224495,PAPI_L3_TCM,2, 28.21612549,  3.57147217,end
timer_stats,697638374423398,PAPI_L3_TCM,1, 28.28802490,  3.57998657,end
timer_stats,697638375621478,PAPI_L3_TCM,2, 28.35888672,  3.58856201,end
timer_stats,697638376822419,PAPI_L3_TCM,1, 28.42523193,  3.59735107,end
timer_stats,697638378020192,PAPI_L3_TCM,1, 28.51470947,  3.61135864,end
timer_stats,697638379219859,PAPI_L3_TCM,0, 28.63177490,  3.62487793,end
timer_stats,697638380419717,PAPI_L3_TCM,3, 28.69970703,  3.63371277,end
timer_stats,697638381618426,PAPI_L3_TCM,0, 28.77099609,  3.64248657,end
timer_stats,697638382818550,PAPI_L3_TCM,2, 28.84313965,  3.65124512,end
timer_stats,697638384038891,PAPI_L3_TCM,2, 28.92883301,  3.66500854,end
timer_stats,697638385237832,PAPI_L3_TCM,2, 29.04394531,  3.67901611,end
timer_stats,697638386439322,PAPI_L3_TCM,0, 29.11450195,  3.68780517,end
timer_stats,697638387636325,PAPI_L3_TCM,2, 29.18762207,  3.69656372,end
timer_stats,697638388834659,PAPI_L3_TCM,1, 29.25372314,  3.70538330,end
timer_stats,697638390034052,PAPI_L3_TCM,2, 29.34466553,  3.71888733,end
timer_stats,697638391234863,PAPI_L3_TCM,0, 29.46081543,  3.73265076,end
timer_stats,697638392438494,PAPI_L3_TCM,4, 29.53088379,  3.74166870,end
timer_stats,697638393626723,PAPI_L3_TCM,1, 29.60015869,  3.75070190,end
timer_stats,697638394824231,PAPI_L3_TCM,2, 29.66778564,  3.75927734,end
timer_stats,697638396032118,PAPI_L3_TCM,1, 29.74035644,  3.76776123,end
timer_stats,697638397215172,PAPI_L3_TCM,1, 29.83270264,  3.78305054,end
timer_stats,697638398413515,PAPI_L3_TCM,0, 29.95300293,  3.79673767,end
timer_stats,697638399611352,PAPI_L3_TCM,1, 30.02325439,  3.80531311,end
timer_stats,697638400807423,PAPI_L3_TCM,0, 30.08966064,  3.81414795,end
timer_stats,697638402001760,PAPI_L3_TCM,2, 30.18157959,  3.82290649,end
timer_stats,697638403195820,PAPI_L3_TCM,0, 30.29681396,  3.84054565,end
timer_stats,697638404390807,PAPI_L3_TCM,3, 30.36712646,  3.84933471,end
timer_stats,697638405590797,PAPI_L3_TCM,0, 30.43933105,  3.85813904,end
timer_stats,697638406787321,PAPI_L3_TCM,1, 30.51025390,  3.86697388,end
timer_stats,697638407982018,PAPI_L3_TCM,1, 30.58563232,  3.87573242,end
timer_stats,697638409180598,PAPI_L3_TCM,3, 30.67742920,  3.89001465,end
timer_stats,697638410378075,PAPI_L3_TCM,0, 30.79272461,  3.90397644,end
timer_stats,697638411576639,PAPI_L3_TCM,2, 30.86151123,  3.91297913,end
timer_stats,697638412776569,PAPI_L3_TCM,1, 30.92913818,  3.92155456,end
timer_stats,697638413959933,PAPI_L3_TCM,3, 30.99792480,  3.93016052,end
timer_stats,697638415119530,PAPI_L3_TCM,0, 31.10070801,  3.94557190,end
timer_stats,697638416295393,PAPI_L3_TCM,2, 31.22552490,  3.95970154,end
timer_stats,697638417456171,PAPI_L3_TCM,1, 31.29992676,  3.96897888,end
timer_stats,697638418636688,PAPI_L3_TCM,1, 31.37524414,  3.97795105,end
timer_stats,697638419811314,PAPI_L3_TCM,0, 31.44592285,  3.98675537,end
timer_stats,697638420999678,PAPI_L3_TCM,3, 31.52740478,  3.99569702,end
timer_stats,697638422196442,PAPI_L3_TCM,0, 31.67370605,  4.01585388,end
timer_stats,697638423394079,PAPI_L3_TCM,2, 31.75146484,  4.02487182,end
timer_stats,697638424594913,PAPI_L3_TCM,1, 31.82458496,  4.03369141,end
timer_stats,697638425780293,PAPI_L3_TCM,1, 31.90313721,  4.04244995,end
timer_stats,697638426973736,PAPI_L3_TCM,0, 31.96856689,  4.05133057,end
timer_stats,697638428169230,PAPI_L3_TCM,2, 32.07598877,  4.06649780,end
timer_stats,697638429339584,PAPI_L3_TCM,0, 32.20123291,  4.08044434,end
timer_stats,697638430729702,PAPI_L3_TCM,24, 32.27447510,  4.08924866,end
timer_stats,697638431926138,PAPI_L3_TCM,1, 32.34790039,  4.09907532,end
timer_stats,697638433135915,PAPI_L3_TCM,3, 32.45141601,  4.11302185,end
timer_stats,697638434335673,PAPI_L3_TCM,0, 32.57971191,  4.12719727,end
timer_stats,697638435540962,PAPI_L3_TCM,1, 32.65936279,  4.13705444,end
timer_stats,697638437021257,PAPI_L3_TCM,72, 32.76135254,  4.14993286,end
timer_stats,697638438383661,PAPI_L3_TCM,43, 32.88708496,  4.16381836,end
timer_stats,697638439590209,PAPI_L3_TCM,11, 32.96166992,  4.17262268,end
timer_stats,697638440791846,PAPI_L3_TCM,5, 33.04040527,  4.18135071,end
timer_stats,697638441991180,PAPI_L3_TCM,4, 33.11773682,  4.19035339,end
timer_stats,697638443193063,PAPI_L3_TCM,3, 33.21673584,  4.20428467,end
timer_stats,697638444399797,PAPI_L3_TCM,2, 33.34381103,  4.21795654,end
timer_stats,697638445578928,PAPI_L3_TCM,1, 33.42565918,  4.22622681,end
timer_stats,697638446778271,PAPI_L3_TCM,0, 33.49279785,  4.23486328,end
timer_stats,697638447977268,PAPI_L3_TCM,6, 33.57678223,  4.24362182,end
timer_stats,697638449187585,PAPI_L3_TCM,2, 33.72595215,  4.26431274,end
timer_stats,697638450389585,PAPI_L3_TCM,2, 33.79901123,  4.27316284,end
timer_stats,697638451591449,PAPI_L3_TCM,3, 33.87994385,  4.28192139,end
timer_stats,697638452791426,PAPI_L3_TCM,3, 33.95062256,  4.29077148,end
timer_stats,697638453991773,PAPI_L3_TCM,3, 34.02770996,  4.29910278,end
timer_stats,697638455190597,PAPI_L3_TCM,3, 34.12377930,  4.31956482,end
timer_stats,697638456401391,PAPI_L3_TCM,3, 34.25396728,  4.32832336,end
timer_stats,697638457601018,PAPI_L3_TCM,4, 34.32873535,  4.33732605,end
timer_stats,697638458801585,PAPI_L3_TCM,0, 34.40167236,  4.34593200,end
timer_stats,697638460017602,PAPI_L3_TCM,2, 34.47808838,  4.35469055,end
timer_stats,697638461222996,PAPI_L3_TCM,0, 34.57678223,  4.36793518,end
timer_stats,697638462426276,PAPI_L3_TCM,6, 34.70196533,  4.38166809,end
timer_stats,697638463630803,PAPI_L3_TCM,1, 34.77734375,  4.39022827,end
timer_stats,697638464835070,PAPI_L3_TCM,5, 34.85418701,  4.39898682,end
timer_stats,697638466026777,PAPI_L3_TCM,0, 34.92083740,  4.40782165,end
timer_stats,697638467236740,PAPI_L3_TCM,1, 35.06677246,  4.42823791,end
timer_stats,697638468441558,PAPI_L3_TCM,1, 35.13946533,  4.43679810,end
timer_stats,697638469645688,PAPI_L3_TCM,4, 35.21356201,  4.44558716,end
timer_stats,697638470836751,PAPI_L3_TCM,0, 35.27844238,  4.45462036,end
timer_stats,697638472049922,PAPI_L3_TCM,6, 35.35321045,  4.46340942,end
timer_stats,697638473213116,PAPI_L3_TCM,2, 35.44732666,  4.47862244,end
timer_stats,697638474408802,PAPI_L3_TCM,1, 35.56567383,  4.49237060,end
timer_stats,697638475615893,PAPI_L3_TCM,3, 35.63641357,  4.50091553,end
timer_stats,697638476818707,PAPI_L3_TCM,2, 35.70910644,  4.50944519,end
timer_stats,697638478020401,PAPI_L3_TCM,2, 35.77581787,  4.51802063,end
timer_stats,697638479227957,PAPI_L3_TCM,11, 35.90869140,  4.53697204,end
timer_stats,697638480433198,PAPI_L3_TCM,1, 35.97845459,  4.54577637,end
timer_stats,697638481635225,PAPI_L3_TCM,2, 36.04760742,  4.55432129,end
timer_stats,697638482837742,PAPI_L3_TCM,0, 36.11688232,  4.56312561,end
timer_stats,697638484050259,PAPI_L3_TCM,4, 36.18548584,  4.57168579,end
timer_stats,697638485215540,PAPI_L3_TCM,0, 36.28015137,  4.58538818,end
timer_stats,697638486422399,PAPI_L3_TCM,1, 36.40112305,  4.59936523,end
timer_stats,697638487630923,PAPI_L3_TCM,0, 36.47167969,  4.60818481,end
timer_stats,697638488836371,PAPI_L3_TCM,7, 36.54174805,  4.61697388,end
timer_stats,697638490040111,PAPI_L3_TCM,2, 36.60681152,  4.62554931,end
timer_stats,697638491247438,PAPI_L3_TCM,2, 36.70233154,  4.64077759,end
timer_stats,697638492451792,PAPI_L3_TCM,1, 36.82519531,  4.65449524,end
timer_stats,697638493662306,PAPI_L3_TCM,1, 36.89447021,  4.66310120,end
timer_stats,697638494864213,PAPI_L3_TCM,7, 36.96551513,  4.67190552,end
timer_stats,697638496059243,PAPI_L3_TCM,2, 37.03918457,  4.68222046,end
timer_stats,697638497220440,PAPI_L3_TCM,0, 37.18377685,  4.70307922,end
timer_stats,697638498425984,PAPI_L3_TCM,2, 37.25543213,  4.71189880,end
timer_stats,697638499633597,PAPI_L3_TCM,0, 37.32788086,  4.72067261,end
timer_stats,697638500840528,PAPI_L3_TCM,3, 37.40142822,  4.72967529,end
timer_stats,697638502044868,PAPI_L3_TCM,1, 37.47705078,  4.73866272,end
timer_stats,697638503253348,PAPI_L3_TCM,1, 37.62200928,  4.75782776,end
timer_stats,697638504457799,PAPI_L3_TCM,1, 37.69897461,  4.76679993,end
timer_stats,697638505661819,PAPI_L3_TCM,1, 37.77374268,  4.77534485,end
timer_stats,697638506856622,PAPI_L3_TCM,0, 37.84246826,  4.78395080,end
timer_stats,697638508060606,PAPI_L3_TCM,3, 37.91973877,  4.79267883,end
timer_stats,697638509239204,PAPI_L3_TCM,0, 38.01074219,  4.81159973,end
timer_stats,697638510446234,PAPI_L3_TCM,2, 38.13909912,  4.82017517,end
timer_stats,697638511654997,PAPI_L3_TCM,0, 38.21118164,  4.82902527,end
timer_stats,697638512858408,PAPI_L3_TCM,2, 38.28973389,  4.83753967,end
timer_stats,697638514061725,PAPI_L3_TCM,0, 38.36102295,  4.84614563,end
timer_stats,697638515264312,PAPI_L3_TCM,1, 38.51104736,  4.86634827,end
timer_stats,697638516473036,PAPI_L3_TCM,1, 38.58642578,  4.87515259,end
timer_stats,697638517675966,PAPI_L3_TCM,8, 38.66058349,  4.88485718,end
timer_stats,697638518868143,PAPI_L3_TCM,1, 38.73901367,  4.89466858,end
timer_stats,697638520074790,PAPI_L3_TCM,4, 38.80523682,  4.90327454,end
timer_stats,697638521235904,PAPI_L3_TCM,1, 38.90972900,  4.91894531,end
timer_stats,697638522433734,PAPI_L3_TCM,6, 39.03253174,  4.93331909,end
timer_stats,697638523784951,PAPI_L3_TCM,1, 39.10058594,  4.94209289,end
timer_stats,697638525222703,PAPI_L3_TCM,20, 39.19842529,  4.95442200,end
timer_stats,697638526399709,PAPI_L3_TCM,0, 39.31237793,  4.96986389,end
timer_stats,697638527608113,PAPI_L3_TCM,3, 39.38317871,  4.97886658,end
timer_stats,697638528789787,PAPI_L3_TCM,0, 39.45672607,  4.98939514,end
timer_stats,697638529975151,PAPI_L3_TCM,3, 39.52429199,  4.99688721,end
timer_stats,697638531158191,PAPI_L3_TCM,0, 39.59344482,  5.00468445,end
timer_stats,697638532343611,PAPI_L3_TCM,2, 39.73565674,  5.02275085,end
timer_stats,697638533530499,PAPI_L3_TCM,1, 39.80725098,  5.03001404,end
timer_stats,697638534714595,PAPI_L3_TCM,1, 39.87835693,  5.03724670,end
timer_stats,697638535899679,PAPI_L3_TCM,0, 39.94830322,  5.04533386,end
timer_stats,697638537072490,PAPI_L3_TCM,2, 40.02062988,  5.05409241,end
timer_stats,697638538246683,PAPI_L3_TCM,1, 40.11608887,  5.06806946,end
timer_stats,697638539418350,PAPI_L3_TCM,2, 40.22906494,  5.08047485,end
timer_stats,697638540593710,PAPI_L3_TCM,0, 40.29913330,  5.08926392,end
timer_stats,697638541790157,PAPI_L3_TCM,1, 40.36450195,  5.09811401,end
timer_stats,697638542985231,PAPI_L3_TCM,2, 40.43182373,  5.10560608,end
timer_stats,697638544182341,PAPI_L3_TCM,1, 40.49938965,  5.11285400,end
timer_stats,697638545327275,PAPI_L3_TCM,1, 40.59893799,  5.13064575,end
timer_stats,697638548934792,PAPI_L3_TCM,39, 40.84094238,  5.15641784,end
timer_stats,697638550132133,PAPI_L3_TCM,3, 40.91363525,  5.16592407,end
timer_stats,697638551301033,PAPI_L3_TCM,2, 41.01702881,  5.18141174,end
timer_stats,697638552471327,PAPI_L3_TCM,0, 41.13818359,  5.19581604,end
timer_stats,697638553647641,PAPI_L3_TCM,1, 41.20922851,  5.20480347,end
timer_stats,697638554818894,PAPI_L3_TCM,0, 41.28540039,  5.21257019,end
timer_stats,697638555996221,PAPI_L3_TCM,1, 41.36004639,  5.21983337,end
timer_stats,697638557156667,PAPI_L3_TCM,0, 41.43286133,  5.22761536,end
timer_stats,697638558327055,PAPI_L3_TCM,2, 41.58093262,  5.24543762,end
timer_stats,697638559496182,PAPI_L3_TCM,0, 41.65783691,  5.25267029,end
timer_stats,697638560654795,PAPI_L3_TCM,2, 41.73254394,  5.26036072,end
timer_stats,697638561821742,PAPI_L3_TCM,0, 41.80780029,  5.26942444,end
timer_stats,697638562989085,PAPI_L3_TCM,1, 41.88659668,  5.27688598,end
timer_stats,697638564157453,PAPI_L3_TCM,0, 41.96173096,  5.28486633,end
timer_stats,697638565299136,PAPI_L3_TCM,2, 42.06878662,  5.30369568,end
timer_stats,697638566468530,PAPI_L3_TCM,0, 42.19543457,  5.31092834,end
timer_stats,697638567636727,PAPI_L3_TCM,2, 42.27124023,  5.31861877,end
timer_stats,697638568791680,PAPI_L3_TCM,1, 42.35089111,  5.32606506,end
timer_stats,697638569956577,PAPI_L3_TCM,2, 42.42932129,  5.33479309,end
timer_stats,697638571120858,PAPI_L3_TCM,0, 42.50781250,  5.34225464,end
timer_stats,697638572274621,PAPI_L3_TCM,1, 42.61608887,  5.35466003,end
timer_stats,697638573423358,PAPI_L3_TCM,0, 42.74151611,  5.36708069,end
timer_stats,697638574592198,PAPI_L3_TCM,1, 42.81890869,  5.37493896,end
timer_stats,697638575761615,PAPI_L3_TCM,3, 42.89501953,  5.38262939,end
timer_stats,697638576931425,PAPI_L3_TCM,2, 42.96826172,  5.39038086,end
timer_stats,697638578098026,PAPI_L3_TCM,0, 43.04162598,  5.39759827,end
timer_stats,697638579266049,PAPI_L3_TCM,5, 43.14172363,  5.40589905,end
timer_stats,697638580434603,PAPI_L3_TCM,0, 43.25823974,  5.42199707,end
timer_stats,697638581606513,PAPI_L3_TCM,2, 43.33129883,  5.42922973,end
timer_stats,697638582772076,PAPI_L3_TCM,0, 43.40820312,  5.43673706,end
timer_stats,697638583939830,PAPI_L3_TCM,1, 43.48492432,  5.44442749,end
timer_stats,697638585105930,PAPI_L3_TCM,0, 43.56146240,  5.45166015,end
timer_stats,697638586271257,PAPI_L3_TCM,3, 43.66772461,  5.46432495,end
timer_stats,697638587437951,PAPI_L3_TCM,0, 43.78466797,  5.47624206,end
timer_stats,697638588608295,PAPI_L3_TCM,3, 43.85430908,  5.48374939,end
timer_stats,697638589774302,PAPI_L3_TCM,0, 43.92547607,  5.49102783,end
timer_stats,697638590939592,PAPI_L3_TCM,1, 43.99658203,  5.49829101,end
timer_stats,697638592106202,PAPI_L3_TCM,0, 44.07067871,  5.50552368,end
timer_stats,697638593271483,PAPI_L3_TCM,1, 44.17541504,  5.51818848,end
timer_stats,697638594439946,PAPI_L3_TCM,0, 44.28753662,  5.52981567,end
timer_stats,697638595608923,PAPI_L3_TCM,2, 44.35943603,  5.53729248,end
timer_stats,697638596776656,PAPI_L3_TCM,0, 44.43066406,  5.54454040,end
timer_stats,697638597944097,PAPI_L3_TCM,2, 44.50115967,  5.55212402,end
timer_stats,697638599108800,PAPI_L3_TCM,0, 44.57183838,  5.55938721,end
timer_stats,697638600273680,PAPI_L3_TCM,1, 44.67681885,  5.57177734,end
timer_stats,697638601459624,PAPI_L3_TCM,0, 44.78723144,  5.58287048,end
timer_stats,697638602628398,PAPI_L3_TCM,1, 44.85852051,  5.59016418,end
timer_stats,697638603793315,PAPI_L3_TCM,0, 44.92987060,  5.59796143,end
timer_stats,697638604957319,PAPI_L3_TCM,2, 44.99981689,  5.60549927,end
timer_stats,697638606123655,PAPI_L3_TCM,0, 45.07391357,  5.61294556,end
timer_stats,697638607287936,PAPI_L3_TCM,2, 45.17767334,  5.62557983,end
timer_stats,697638608431843,PAPI_L3_TCM,0, 45.28729248,  5.63870239,end
timer_stats,697638609570066,PAPI_L3_TCM,1, 45.35797119,  5.64721680,end
timer_stats,697638610732593,PAPI_L3_TCM,0, 45.42694092,  5.65446472,end
timer_stats,697638611897116,PAPI_L3_TCM,1, 45.49212646,  5.66200256,end
timer_stats,697638613062050,PAPI_L3_TCM,2, 45.55859375,  5.66928100,end
timer_stats,697638614228580,PAPI_L3_TCM,2, 45.62652588,  5.67675781,end
timer_stats,697638615393441,PAPI_L3_TCM,0, 45.76245117,  5.69458008,end
timer_stats,697638616560947,PAPI_L3_TCM,2, 45.83319092,  5.70202637,end
timer_stats,697638617724014,PAPI_L3_TCM,0, 45.89453125,  5.70932007,end
timer_stats,697638618886404,PAPI_L3_TCM,1, 45.95666504,  5.71681213,end
timer_stats,697638620055201,PAPI_L3_TCM,0, 46.02038574,  5.72407532,end
timer_stats,697638621222342,PAPI_L3_TCM,1, 46.08642578,  5.73133850,end
timer_stats,697638622385238,PAPI_L3_TCM,0, 46.21978760,  5.74916077,end
timer_stats,697638623550356,PAPI_L3_TCM,2, 46.28759765,  5.75642395,end
timer_stats,697638624715793,PAPI_L3_TCM,0, 46.35394287,  5.76396179,end
timer_stats,697638625879939,PAPI_L3_TCM,2, 46.42272949,  5.77119446,end
timer_stats,697638627043160,PAPI_L3_TCM,0, 46.48498535,  5.77876282,end
timer_stats,697638628215610,PAPI_L3_TCM,1, 46.55426025,  5.78596496,end
timer_stats,697638629384797,PAPI_L3_TCM,0, 46.65313721,  5.80332947,end
timer_stats,697638630550721,PAPI_L3_TCM,1, 46.75317383,  5.81059265,end
timer_stats,697638631712484,PAPI_L3_TCM,0, 46.81744385,  5.81813049,end
timer_stats,697638632876491,PAPI_L3_TCM,2, 46.88684082,  5.82536316,end
timer_stats,697638634024418,PAPI_L3_TCM,0, 46.95080566,  5.83287048,end
timer_stats,697638635172175,PAPI_L3_TCM,2, 47.01745605,  5.84013367,end
timer_stats,697638636341551,PAPI_L3_TCM,6, 47.08209228,  5.84742737,end
timer_stats,697638637505495,PAPI_L3_TCM,1, 47.22070312,  5.86500549,end
timer_stats,697638638655179,PAPI_L3_TCM,0, 47.28686523,  5.87251282,end
timer_stats,697638639804209,PAPI_L3_TCM,1, 47.35278320,  5.88029480,end
timer_stats,697638640936506,PAPI_L3_TCM,0, 47.42254639,  5.88752746,end
timer_stats,697638642090359,PAPI_L3_TCM,5, 47.49011230,  5.89529419,end
timer_stats,697638643239900,PAPI_L3_TCM,1, 47.55804443,  5.90426636,end
timer_stats,697638644404983,PAPI_L3_TCM,2, 47.64776611,  5.91796875,end
timer_stats,697638645572827,PAPI_L3_TCM,0, 47.74957275,  5.92880249,end
timer_stats,697638646735317,PAPI_L3_TCM,1, 47.81127930,  5.93605041,end
timer_stats,697638647897411,PAPI_L3_TCM,1, 47.87585449,  5.94435120,end
timer_stats,697638649059998,PAPI_L3_TCM,1, 47.94244385,  5.95159912,end
timer_stats,697638650221401,PAPI_L3_TCM,0, 48.00146484,  5.95889282,end
timer_stats,697638651369175,PAPI_L3_TCM,2, 48.09301758,  5.97259521,end
timer_stats,697638652522421,PAPI_L3_TCM,0, 48.18981934,  5.98283386,end
timer_stats,697638653687265,PAPI_L3_TCM,2, 48.25677490,  5.99111938,end
timer_stats,697638654850895,PAPI_L3_TCM,0, 48.31463623,  5.99824524,end
timer_stats,697638656023032,PAPI_L3_TCM,1, 48.37768555,  6.00526428,end
timer_stats,697638657186163,PAPI_L3_TCM,3, 48.44116211,  6.01254272,end
timer_stats,697638658347613,PAPI_L3_TCM,1, 48.53210449,  6.02629089,end
timer_stats,697638659514017,PAPI_L3_TCM,0, 48.62860107,  6.03652954,end
timer_stats,697638660676901,PAPI_L3_TCM,2, 48.69860840,  6.04350281,end
timer_stats,697638661838544,PAPI_L3_TCM,0, 48.75494385,  6.05064392,end
timer_stats,697638663000931,PAPI_L3_TCM,3, 48.82006836,  6.05789185,end
timer_stats,697638664164461,PAPI_L3_TCM,0, 48.88317871,  6.06463623,end
timer_stats,697638665327451,PAPI_L3_TCM,6, 48.96472168,  6.07626343,end
timer_stats,697638666491701,PAPI_L3_TCM,0, 49.06988525,  6.09019470,end
timer_stats,697638667657385,PAPI_L3_TCM,1, 49.14001465,  6.09913635,end
timer_stats,697638668820675,PAPI_L3_TCM,0, 49.20953369,  6.10841370,end
timer_stats,697638669983729,PAPI_L3_TCM,2, 49.27545166,  6.11727905,end
timer_stats,697638671148766,PAPI_L3_TCM,0, 49.34234619,  6.12606811,end
timer_stats,697638672315159,PAPI_L3_TCM,2, 49.44036865,  6.13851929,end
timer_stats,697638673500273,PAPI_L3_TCM,0, 49.54760742,  6.15243530,end
timer_stats,697638674666279,PAPI_L3_TCM,1, 49.61138916,  6.16123962,end
timer_stats,697638675830727,PAPI_L3_TCM,0, 49.67706299,  6.17025757,end
timer_stats,697638676995507,PAPI_L3_TCM,1, 49.74926758,  6.17874145,end
timer_stats,697638678160180,PAPI_L3_TCM,0, 49.81713867,  6.18750000,end
timer_stats,697638679324498,PAPI_L3_TCM,2, 49.90545654,  6.19641113,end
timer_stats,697638680492812,PAPI_L3_TCM,0, 49.98590088,  6.21163940,end
timer_stats,697638681657808,PAPI_L3_TCM,2, 50.08483887,  6.22573852,end
timer_stats,697638682822629,PAPI_L3_TCM,1, 50.14550781,  6.23464966,end
timer_stats,697638683988462,PAPI_L3_TCM,11, 50.21820068,  6.24334717,end
timer_stats,697638685162956,PAPI_L3_TCM,0, 50.27496338,  6.25219726,end
timer_stats,697638686329635,PAPI_L3_TCM,1, 50.36663818,  6.26132202,end
