timer_stats,697841288914734,PAPI_L3_TCM,326,  0.06665039,  0.01075744,end
timer_stats,697841290029192,PAPI_L3_TCM,51,  0.13208008,  0.02104187,end
timer_stats,697841291111118,PAPI_L3_TCM,5,  0.19683838,  0.03245544,end
timer_stats,697841292213102,PAPI_L3_TCM,4,  0.26214600,  0.04310608,end
timer_stats,697841293322326,PAPI_L3_TCM,6,  0.32800293,  0.05360413,end
timer_stats,697841294557587,PAPI_L3_TCM,29,  0.43359375,  0.06925964,end
timer_stats,697841295716410,PAPI_L3_TCM,45,  0.53839111,  0.08537292,end
timer_stats,697841296826340,PAPI_L3_TCM,7,  0.60485840,  0.09565735,end
timer_stats,697841297941054,PAPI_L3_TCM,7,  0.67413330,  0.10612488,end
timer_stats,697841299051315,PAPI_L3_TCM,8,  0.73852539,  0.11665344,end
timer_stats,697841300160536,PAPI_L3_TCM,9,  0.80828857,  0.12739563,end
timer_stats,697841301245509,PAPI_L3_TCM,6,  0.87628174,  0.13905334,end
timer_stats,697841302354343,PAPI_L3_TCM,5,  0.94635010,  0.15028381,end
timer_stats,697841303463543,PAPI_L3_TCM,7,  1.01434326,  0.16275024,end
timer_stats,697841304572740,PAPI_L3_TCM,0,  1.11822510,  0.17837524,end
timer_stats,697841305681567,PAPI_L3_TCM,3,  1.22888183,  0.19470215,end
timer_stats,697841306789001,PAPI_L3_TCM,0,  1.30010986,  0.20498657,end
timer_stats,697841307895285,PAPI_L3_TCM,1,  1.36889648,  0.21530151,end
timer_stats,697841309002751,PAPI_L3_TCM,0,  1.44183350,  0.22605896,end
timer_stats,697841310097572,PAPI_L3_TCM,0,  1.50952148,  0.23483276,end
timer_stats,697841311190263,PAPI_L3_TCM,1,  1.58300781,  0.24508667,end
timer_stats,697841312296699,PAPI_L3_TCM,3,  1.64904785,  0.25387573,end
timer_stats,697841313377270,PAPI_L3_TCM,0,  1.71893311,  0.26266479,end
timer_stats,697841314471086,PAPI_L3_TCM,1,  1.78851318,  0.27194214,end
timer_stats,697841315563457,PAPI_L3_TCM,0,  1.88549805,  0.28567505,end
timer_stats,697841316671161,PAPI_L3_TCM,1,  1.99536133,  0.29827881,end
timer_stats,697841317765618,PAPI_L3_TCM,0,  2.06689453,  0.30725097,end
timer_stats,697841318860781,PAPI_L3_TCM,0,  2.14056396,  0.31628418,end
timer_stats,697841319956848,PAPI_L3_TCM,0,  2.21435547,  0.32482910,end
timer_stats,697841321072286,PAPI_L3_TCM,3,  2.28686523,  0.33386230,end
timer_stats,697841322166656,PAPI_L3_TCM,0,  2.36370850,  0.34307861,end
timer_stats,697841323266323,PAPI_L3_TCM,3,  2.43579101,  0.35189819,end
timer_stats,697841324379873,PAPI_L3_TCM,0,  2.50891113,  0.36141968,end
timer_stats,697841325489621,PAPI_L3_TCM,1,  2.58520508,  0.37042236,end
timer_stats,697841326583247,PAPI_L3_TCM,0,  2.69720459,  0.38653564,end
timer_stats,697841327689341,PAPI_L3_TCM,0,  2.80981445,  0.39978027,end
timer_stats,697841328796212,PAPI_L3_TCM,1,  2.88775635,  0.40881347,end
timer_stats,697841329891705,PAPI_L3_TCM,1,  2.96258545,  0.42094421,end
timer_stats,697841330985675,PAPI_L3_TCM,0,  3.03851318,  0.43220520,end
timer_stats,697841332092739,PAPI_L3_TCM,3,  3.11334228,  0.44132995,end
timer_stats,697841333177306,PAPI_L3_TCM,1,  3.19354248,  0.44978332,end
timer_stats,697841334334300,PAPI_L3_TCM,7,  3.26922607,  0.46009827,end
timer_stats,697841335498530,PAPI_L3_TCM,3,  3.33569336,  0.46739197,end
timer_stats,697841336674161,PAPI_L3_TCM,0,  3.46868896,  0.48213196,end
timer_stats,697841337850625,PAPI_L3_TCM,0,  3.53198242,  0.48936462,end
timer_stats,697841339010069,PAPI_L3_TCM,1,  3.59582519,  0.49687195,end
timer_stats,697841340173893,PAPI_L3_TCM,1,  3.65832519,  0.50413513,end
timer_stats,697841341318397,PAPI_L3_TCM,0,  3.72235107,  0.51139831,end
timer_stats,697841342479041,PAPI_L3_TCM,0,  3.78503418,  0.51866150,end
timer_stats,697841343650702,PAPI_L3_TCM,1,  3.90924072,  0.52957153,end
timer_stats,697841344826072,PAPI_L3_TCM,1,  3.97442627,  0.53683472,end
timer_stats,697841345998202,PAPI_L3_TCM,3,  4.03759766,  0.54411316,end
timer_stats,697841347155633,PAPI_L3_TCM,0,  4.09881592,  0.55140686,end
timer_stats,697841348320353,PAPI_L3_TCM,2,  4.16168213,  0.55844116,end
timer_stats,697841349480981,PAPI_L3_TCM,0,  4.22619629,  0.56571960,end
timer_stats,697841350640998,PAPI_L3_TCM,1,  4.35052490,  0.58027649,end
timer_stats,697841351807059,PAPI_L3_TCM,0,  4.41308594,  0.58731079,end
timer_stats,697841352977893,PAPI_L3_TCM,2,  4.47601318,  0.59457397,end
timer_stats,697841354151023,PAPI_L3_TCM,1,  4.53973389,  0.60183716,end
timer_stats,697841355319121,PAPI_L3_TCM,0,  4.60400390,  0.60906982,end
timer_stats,697841356488215,PAPI_L3_TCM,1,  4.66406250,  0.61636353,end
timer_stats,697841357662722,PAPI_L3_TCM,1,  4.79064941,  0.63114929,end
timer_stats,697841358835373,PAPI_L3_TCM,0,  4.85473633,  0.63839722,end
timer_stats,697841360022113,PAPI_L3_TCM,2,  4.91595459,  0.64567566,end
timer_stats,697841361177266,PAPI_L3_TCM,0,  4.97924805,  0.65293884,end
timer_stats,697841362349127,PAPI_L3_TCM,1,  5.03845215,  0.66023254,end
timer_stats,697841363522294,PAPI_L3_TCM,0,  5.10192871,  0.66743469,end
timer_stats,697841364697782,PAPI_L3_TCM,1,  5.22418213,  0.68220520,end
timer_stats,697841365876899,PAPI_L3_TCM,0,  5.28424072,  0.68948364,end
timer_stats,697841367049836,PAPI_L3_TCM,1,  5.34478760,  0.69697571,end
timer_stats,697841368217124,PAPI_L3_TCM,1,  5.40911865,  0.70106506,end
timer_stats,697841369364291,PAPI_L3_TCM,4,  5.46893310,  0.70904541,end
timer_stats,697841370671622,PAPI_L3_TCM,30,  5.58471680,  0.72378540,end
timer_stats,697841371849459,PAPI_L3_TCM,9,  5.64221191,  0.73104858,end
timer_stats,697841373025853,PAPI_L3_TCM,2,  5.70245361,  0.73831177,end
timer_stats,697841374199964,PAPI_L3_TCM,0,  5.75701904,  0.74491882,end
timer_stats,697841375374341,PAPI_L3_TCM,0,  5.81292725,  0.75198364,end
timer_stats,697841376545815,PAPI_L3_TCM,2,  5.89349365,  0.76266479,end
timer_stats,697841377720136,PAPI_L3_TCM,0,  5.98553467,  0.77191162,end
timer_stats,697841378901190,PAPI_L3_TCM,1,  6.04095459,  0.77832031,end
timer_stats,697841380080340,PAPI_L3_TCM,1,  6.10003662,  0.78558350,end
timer_stats,697841381253694,PAPI_L3_TCM,1,  6.15893555,  0.79258728,end
timer_stats,697841382429968,PAPI_L3_TCM,0,  6.21490478,  0.79960632,end
timer_stats,697841383604076,PAPI_L3_TCM,0,  6.29504394,  0.81051636,end
timer_stats,697841384778322,PAPI_L3_TCM,2,  6.38092041,  0.81640625,end
timer_stats,697841385960876,PAPI_L3_TCM,1,  6.44018555,  0.82270813,end
timer_stats,697841387138040,PAPI_L3_TCM,0,  6.49615478,  0.83106994,end
timer_stats,697841388312897,PAPI_L3_TCM,2,  6.54925537,  0.83862305,end
timer_stats,697841389486168,PAPI_L3_TCM,0,  6.60900879,  0.84539795,end
timer_stats,697841390662465,PAPI_L3_TCM,1,  6.71588135,  0.85498047,end
timer_stats,697841391840277,PAPI_L3_TCM,0,  6.77258301,  0.86582947,end
timer_stats,697841393015573,PAPI_L3_TCM,1,  6.82720947,  0.87242126,end
timer_stats,697841394191614,PAPI_L3_TCM,0,  6.88189697,  0.87898254,end
timer_stats,697841395364118,PAPI_L3_TCM,1,  6.93914795,  0.88598633,end
timer_stats,697841396542775,PAPI_L3_TCM,1,  6.99365234,  0.89347839,end
timer_stats,697841397718226,PAPI_L3_TCM,1,  7.10174560,  0.90780640,end
timer_stats,697841398899673,PAPI_L3_TCM,0,  7.15582275,  0.91419983,end
timer_stats,697841400077484,PAPI_L3_TCM,2,  7.21209717,  0.92100525,end
timer_stats,697841401255408,PAPI_L3_TCM,0,  7.26757812,  0.92805481,end
timer_stats,697841402435385,PAPI_L3_TCM,0,  7.31872559,  0.93539429,end
timer_stats,697841403613289,PAPI_L3_TCM,0,  7.39868164,  0.94651794,end
timer_stats,697841404796617,PAPI_L3_TCM,3,  7.48199463,  0.95747375,end
timer_stats,697841405973087,PAPI_L3_TCM,0,  7.53576660,  0.96357727,end
timer_stats,697841407148398,PAPI_L3_TCM,1,  7.58966064,  0.97015381,end
timer_stats,697841408320312,PAPI_L3_TCM,1,  7.64184570,  0.97772217,end
timer_stats,697841409471429,PAPI_L3_TCM,1,  7.69818115,  0.98495483,end
timer_stats,697841410638797,PAPI_L3_TCM,0,  7.77325439,  0.99588013,end
timer_stats,697841411805483,PAPI_L3_TCM,0,  7.85882568,  1.00587463,end
timer_stats,697841412982600,PAPI_L3_TCM,1,  7.91076660,  1.01226806,end
timer_stats,697841414147484,PAPI_L3_TCM,1,  7.96545410,  1.01834106,end
timer_stats,697841415312585,PAPI_L3_TCM,0,  8.01977539,  1.02561951,end
timer_stats,697841416479822,PAPI_L3_TCM,2,  8.07336426,  1.03240967,end
timer_stats,697841417658353,PAPI_L3_TCM,0,  8.14825439,  1.04240417,end
timer_stats,697841418845307,PAPI_L3_TCM,1,  8.23345947,  1.05335998,end
timer_stats,697841420037398,PAPI_L3_TCM,1,  8.28576660,  1.05924988,end
timer_stats,697841421216805,PAPI_L3_TCM,0,  8.33886719,  1.06677246,end
timer_stats,697841422399026,PAPI_L3_TCM,0,  8.39208984,  1.07406616,end
timer_stats,697841423577693,PAPI_L3_TCM,1,  8.44396973,  1.08166504,end
timer_stats,697841424759897,PAPI_L3_TCM,1,  8.54876709,  1.09478760,end
timer_stats,697841425946864,PAPI_L3_TCM,1,  8.60247803,  1.10159302,end
timer_stats,697841427130278,PAPI_L3_TCM,0,  8.65539551,  1.10815430,end
timer_stats,697841428313759,PAPI_L3_TCM,2,  8.70880127,  1.11497497,end
timer_stats,697841429490573,PAPI_L3_TCM,0,  8.75903320,  1.12229919,end
timer_stats,697841430649317,PAPI_L3_TCM,0,  8.83416748,  1.13206482,end
timer_stats,697841431824524,PAPI_L3_TCM,0,  8.91662598,  1.14111328,end
timer_stats,697841432983904,PAPI_L3_TCM,2,  8.96923828,  1.14721680,end
timer_stats,697841434167708,PAPI_L3_TCM,0,  9.02148437,  1.15447998,end
timer_stats,697841435362625,PAPI_L3_TCM,8,  9.07397461,  1.16104126,end
timer_stats,697841436532449,PAPI_L3_TCM,1,  9.12677002,  1.16807556,end
timer_stats,697841437714090,PAPI_L3_TCM,1,  9.20819092,  1.17785644,end
timer_stats,697841438892311,PAPI_L3_TCM,4,  9.28125000,  1.18789673,end
timer_stats,697841440061598,PAPI_L3_TCM,1,  9.33386230,  1.19493103,end
timer_stats,697841441229615,PAPI_L3_TCM,0,  9.38903808,  1.20126343,end
timer_stats,697841442398179,PAPI_L3_TCM,1,  9.43988037,  1.20857239,end
timer_stats,697841443566443,PAPI_L3_TCM,0,  9.49829101,  1.21553040,end
timer_stats,697841444756434,PAPI_L3_TCM,2,  9.57464599,  1.22587585,end
timer_stats,697841445940831,PAPI_L3_TCM,1,  9.64813232,  1.23471069,end
timer_stats,697841447121215,PAPI_L3_TCM,1,  9.70257568,  1.24102783,end
timer_stats,697841448301963,PAPI_L3_TCM,1,  9.75781250,  1.24827576,end
timer_stats,697841449486067,PAPI_L3_TCM,0,  9.81085205,  1.25529480,end
timer_stats,697841450670104,PAPI_L3_TCM,0,  9.87982178,  1.26536560,end
timer_stats,697841451856371,PAPI_L3_TCM,1,  9.94354248,  1.27236938,end
timer_stats,697841453026925,PAPI_L3_TCM,1, 10.01745605,  1.28312683,end
timer_stats,697841454208979,PAPI_L3_TCM,1, 10.06878662,  1.28947449,end
timer_stats,697841455391403,PAPI_L3_TCM,0, 10.12280273,  1.29602051,end
timer_stats,697841456571917,PAPI_L3_TCM,2, 10.17785644,  1.30351257,end
timer_stats,697841457755770,PAPI_L3_TCM,0, 10.27661133,  1.31623840,end
timer_stats,697841458945814,PAPI_L3_TCM,0, 10.32769775,  1.32334900,end
timer_stats,697841460131955,PAPI_L3_TCM,1, 10.38153076,  1.33013916,end
timer_stats,697841461310969,PAPI_L3_TCM,1, 10.43505859,  1.33691406,end
timer_stats,697841462495297,PAPI_L3_TCM,0, 10.49176025,  1.34436035,end
timer_stats,697841463675031,PAPI_L3_TCM,1, 10.56115723,  1.35398865,end
timer_stats,697841464863325,PAPI_L3_TCM,2, 10.64880371,  1.36436462,end
timer_stats,697841466045656,PAPI_L3_TCM,1, 10.69970703,  1.37165832,end
timer_stats,697841467225662,PAPI_L3_TCM,0, 10.74829101,  1.37857056,end
timer_stats,697841468410080,PAPI_L3_TCM,1, 10.80358887,  1.38510132,end
timer_stats,697841469585024,PAPI_L3_TCM,2, 10.85510254,  1.39317322,end
timer_stats,697841470762594,PAPI_L3_TCM,1, 10.91406250,  1.40214538,end
timer_stats,697841471937712,PAPI_L3_TCM,0, 11.02618408,  1.41665649,end
timer_stats,697841473115056,PAPI_L3_TCM,1, 11.08123779,  1.42391968,end
timer_stats,697841474295426,PAPI_L3_TCM,0, 11.13427734,  1.43121338,end
timer_stats,697841475475690,PAPI_L3_TCM,1, 11.19232178,  1.43862915,end
timer_stats,697841476660161,PAPI_L3_TCM,1, 11.24340820,  1.44595337,end
timer_stats,697841477848698,PAPI_L3_TCM,0, 11.35711670,  1.46122742,end
timer_stats,697841479032802,PAPI_L3_TCM,0, 11.40570068,  1.46717834,end
timer_stats,697841480210580,PAPI_L3_TCM,1, 11.46051025,  1.47441101,end
timer_stats,697841481398280,PAPI_L3_TCM,0, 11.51910400,  1.48165894,end
timer_stats,697841482579414,PAPI_L3_TCM,1, 11.57208252,  1.48895263,end
timer_stats,697841483758778,PAPI_L3_TCM,0, 11.67358398,  1.50343323,end
timer_stats,697841484944339,PAPI_L3_TCM,2, 11.73132324,  1.51068115,end
timer_stats,697841486127946,PAPI_L3_TCM,0, 11.79193115,  1.51788330,end
timer_stats,697841487304180,PAPI_L3_TCM,0, 11.84222412,  1.52499389,end
timer_stats,697841488484588,PAPI_L3_TCM,1, 11.89642334,  1.53228760,end
timer_stats,697841489665078,PAPI_L3_TCM,1, 11.95062256,  1.53958130,end
timer_stats,697841490849002,PAPI_L3_TCM,0, 12.05303955,  1.55163574,end
timer_stats,697841492033316,PAPI_L3_TCM,2, 12.10876465,  1.55741882,end
timer_stats,697841493215889,PAPI_L3_TCM,0, 12.16143799,  1.56376648,end
timer_stats,697841494399453,PAPI_L3_TCM,1, 12.21002197,  1.57015991,end
timer_stats,697841495578851,PAPI_L3_TCM,0, 12.26837158,  1.57788086,end
timer_stats,697841496761548,PAPI_L3_TCM,1, 12.32598877,  1.58691406,end
timer_stats,697841497945165,PAPI_L3_TCM,0, 12.43896484,  1.60427856,end
timer_stats,697841499121137,PAPI_L3_TCM,1, 12.49401855,  1.61309814,end
timer_stats,697841500296094,PAPI_L3_TCM,1, 12.54663086,  1.62196350,end
timer_stats,697841501448274,PAPI_L3_TCM,1, 12.60430908,  1.63075256,end
timer_stats,697841502613185,PAPI_L3_TCM,0, 12.66674805,  1.63969421,end
timer_stats,697841503790502,PAPI_L3_TCM,1, 12.72619629,  1.64845276,end
timer_stats,697841504968083,PAPI_L3_TCM,1, 12.84179687,  1.66606140,end
timer_stats,697841506133630,PAPI_L3_TCM,0, 12.89379883,  1.67503357,end
timer_stats,697841507298414,PAPI_L3_TCM,0, 12.95343017,  1.68359375,end
timer_stats,697841508473558,PAPI_L3_TCM,2, 13.01666260,  1.69252014,end
timer_stats,697841509647389,PAPI_L3_TCM,0, 13.07342529,  1.70155334,end
timer_stats,697841510811369,PAPI_L3_TCM,1, 13.14257812,  1.71049499,end
timer_stats,697841511987119,PAPI_L3_TCM,0, 13.27203369,  1.72764587,end
timer_stats,697841513164233,PAPI_L3_TCM,2, 13.33343506,  1.73658752,end
timer_stats,697841514338165,PAPI_L3_TCM,0, 13.40191650,  1.74510193,end
timer_stats,697841515514665,PAPI_L3_TCM,0, 13.46520996,  1.75558472,end
timer_stats,697841516692419,PAPI_L3_TCM,1, 13.55303955,  1.76835632,end
timer_stats,697841517871016,PAPI_L3_TCM,2, 13.66839599,  1.78221130,end
timer_stats,697841519045003,PAPI_L3_TCM,0, 13.73382568,  1.79199219,end
timer_stats,697841520218750,PAPI_L3_TCM,2, 13.79833984,  1.80078125,end
timer_stats,697841521371881,PAPI_L3_TCM,0, 13.86437988,  1.80953979,end
timer_stats,697841522538215,PAPI_L3_TCM,1, 13.93243408,  1.81831360,end
timer_stats,697841523725199,PAPI_L3_TCM,0, 14.02081299,  1.83082580,end
timer_stats,697841524910376,PAPI_L3_TCM,1, 14.13909912,  1.84423828,end
timer_stats,697841526089680,PAPI_L3_TCM,0, 14.20782471,  1.85284424,end
timer_stats,697841527268118,PAPI_L3_TCM,1, 14.27404785,  1.86169433,end
timer_stats,697841528440752,PAPI_L3_TCM,1, 14.35095215,  1.87039185,end
timer_stats,697841529621599,PAPI_L3_TCM,1, 14.42102051,  1.87872314,end
timer_stats,697841530793699,PAPI_L3_TCM,0, 14.49066162,  1.88729858,end
timer_stats,697841531976329,PAPI_L3_TCM,2, 14.62976074,  1.90489197,end
timer_stats,697841533168654,PAPI_L3_TCM,1, 14.69531250,  1.91346741,end
timer_stats,697841534351718,PAPI_L3_TCM,0, 14.76428223,  1.92228699,end
timer_stats,697841535530382,PAPI_L3_TCM,0, 14.83245849,  1.93115234,end
timer_stats,697841536709626,PAPI_L3_TCM,1, 14.89923096,  1.93949890,end
timer_stats,697841537896907,PAPI_L3_TCM,0, 15.04541016,  1.95655823,end
timer_stats,697841539076094,PAPI_L3_TCM,1, 15.12213135,  1.96505737,end
timer_stats,697841540239611,PAPI_L3_TCM,0, 15.19134521,  1.97366333,end
timer_stats,697841541396658,PAPI_L3_TCM,1, 15.26214599,  1.98248291,end
timer_stats,697841542566845,PAPI_L3_TCM,0, 15.33264160,  1.99081421,end
timer_stats,697841543745286,PAPI_L3_TCM,0, 15.40875244,  1.99954224,end
timer_stats,697841544915437,PAPI_L3_TCM,1, 15.54583740,  2.01719665,end
timer_stats,697841546088174,PAPI_L3_TCM,1, 15.61608887,  2.02719116,end
timer_stats,697841547258605,PAPI_L3_TCM,0, 15.69079590,  2.03594971,end
timer_stats,697841548434575,PAPI_L3_TCM,5, 15.76306152,  2.04473877,end
timer_stats,697841549610666,PAPI_L3_TCM,0, 15.83618164,  2.05328369,end
timer_stats,697841550773066,PAPI_L3_TCM,1, 15.90972900,  2.06205749,end
timer_stats,697841551948766,PAPI_L3_TCM,0, 16.05499268,  2.08035278,end
timer_stats,697841553143055,PAPI_L3_TCM,1, 16.12799072,  2.08966064,end
timer_stats,697841554307599,PAPI_L3_TCM,0, 16.20269775,  2.09866333,end
timer_stats,697841555482606,PAPI_L3_TCM,1, 16.27386475,  2.10772705,end
timer_stats,697841556657330,PAPI_L3_TCM,1, 16.35174561,  2.11677551,end
timer_stats,697841557833390,PAPI_L3_TCM,1, 16.47552490,  2.13121033,end
timer_stats,697841559018817,PAPI_L3_TCM,0, 16.57714844,  2.14335632,end
timer_stats,697841560205288,PAPI_L3_TCM,2, 16.64990234,  2.15214538,end
timer_stats,697841561360288,PAPI_L3_TCM,0, 16.72399902,  2.16094971,end
timer_stats,697841562539666,PAPI_L3_TCM,0, 16.79577637,  2.17092895,end
timer_stats,697841563726573,PAPI_L3_TCM,0, 16.86694336,  2.17996216,end
timer_stats,697841564907090,PAPI_L3_TCM,2, 17.01885986,  2.19744873,end
timer_stats,697841566087468,PAPI_L3_TCM,0, 17.09497070,  2.20605469,end
timer_stats,697841567269685,PAPI_L3_TCM,1, 17.17224121,  2.21484375,end
timer_stats,697841568448649,PAPI_L3_TCM,1, 17.24420166,  2.22369385,end
timer_stats,697841569632156,PAPI_L3_TCM,1, 17.32165527,  2.23226929,end
timer_stats,697841570820760,PAPI_L3_TCM,0, 17.39678955,  2.24108887,end
timer_stats,697841572017261,PAPI_L3_TCM,0, 17.55084228,  2.25794983,end
timer_stats,697841573185485,PAPI_L3_TCM,0, 17.62139893,  2.26655579,end
timer_stats,697841574364949,PAPI_L3_TCM,1, 17.70056152,  2.27531433,end
timer_stats,697841575557993,PAPI_L3_TCM,0, 17.77697754,  2.28413391,end
timer_stats,697841576737377,PAPI_L3_TCM,2, 17.85296631,  2.29292297,end
timer_stats,697841577922381,PAPI_L3_TCM,0, 18.00384521,  2.31050110,end
timer_stats,697841583882584,PAPI_L3_TCM,49, 18.43511963,  2.36473083,end
timer_stats,697841585062958,PAPI_L3_TCM,1, 18.50970459,  2.37425232,end
timer_stats,697841586242122,PAPI_L3_TCM,0, 18.58471680,  2.38279724,end
timer_stats,697841587420652,PAPI_L3_TCM,0, 18.66217041,  2.39158630,end
timer_stats,697841588601117,PAPI_L3_TCM,2, 18.73767090,  2.40034485,end
timer_stats,697841589787418,PAPI_L3_TCM,0, 18.81274414,  2.40888977,end
timer_stats,697841591382096,PAPI_L3_TCM,1087, 18.95776367,  2.42634582,end
timer_stats,697841592545867,PAPI_L3_TCM,30, 19.04010010,  2.43556213,end
timer_stats,697841593721444,PAPI_L3_TCM,2, 19.11578369,  2.44413757,end
timer_stats,697841594910471,PAPI_L3_TCM,0, 19.26727295,  2.46177673,end
timer_stats,697841596083212,PAPI_L3_TCM,1, 19.34564209,  2.47033691,end
timer_stats,697841597229519,PAPI_L3_TCM,0, 19.41827393,  2.47888184,end
timer_stats,697841598405143,PAPI_L3_TCM,2, 19.49786377,  2.48767090,end
timer_stats,697841599582743,PAPI_L3_TCM,5, 19.57629394,  2.49621582,end
timer_stats,697841600762780,PAPI_L3_TCM,2, 19.65441894,  2.50500488,end
timer_stats,697841601946064,PAPI_L3_TCM,0, 19.80578613,  2.52281189,end
timer_stats,697841603109735,PAPI_L3_TCM,1, 19.88214111,  2.53163147,end
timer_stats,697841604250766,PAPI_L3_TCM,1, 19.95886230,  2.54042053,end
timer_stats,697841605405823,PAPI_L3_TCM,0, 20.03906250,  2.54939270,end
timer_stats,697841606569457,PAPI_L3_TCM,0, 20.11444092,  2.55847168,end
timer_stats,697841607738991,PAPI_L3_TCM,4, 20.19482422,  2.56721496,end
timer_stats,697841608924835,PAPI_L3_TCM,1, 20.34405518,  2.58482361,end
timer_stats,697841610091932,PAPI_L3_TCM,1, 20.42175293,  2.59361267,end
timer_stats,697841611259693,PAPI_L3_TCM,0, 20.49768066,  2.60221863,end
timer_stats,697841612410387,PAPI_L3_TCM,3, 20.57788086,  2.61094665,end
timer_stats,697841613587331,PAPI_L3_TCM,0, 20.65020752,  2.61979675,end
timer_stats,697841614754815,PAPI_L3_TCM,0, 20.72955322,  2.62809753,end
timer_stats,697841615930578,PAPI_L3_TCM,0, 20.88177490,  2.64570618,end
timer_stats,697841617106942,PAPI_L3_TCM,2, 20.95501709,  2.65431213,end
timer_stats,697841618275386,PAPI_L3_TCM,0, 21.03369140,  2.66285705,end
timer_stats,697841619442723,PAPI_L3_TCM,1, 21.11114502,  2.67164612,end
timer_stats,697841620622674,PAPI_L3_TCM,1, 21.18969726,  2.68040466,end
timer_stats,697841621789255,PAPI_L3_TCM,1, 21.26953125,  2.68894958,end
timer_stats,697841622957122,PAPI_L3_TCM,0, 21.42163086,  2.70661926,end
timer_stats,697841624120579,PAPI_L3_TCM,1, 21.49993896,  2.71540832,end
timer_stats,697841625273343,PAPI_L3_TCM,0, 21.57409668,  2.72425842,end
timer_stats,697841626440831,PAPI_L3_TCM,1, 21.65545654,  2.73326111,end
timer_stats,697841627606635,PAPI_L3_TCM,0, 21.72790527,  2.74186706,end
timer_stats,697841628790815,PAPI_L3_TCM,2, 21.80505371,  2.75041199,end
timer_stats,697841629958483,PAPI_L3_TCM,0, 21.96032715,  2.76780700,end
timer_stats,697841631127926,PAPI_L3_TCM,1, 22.03814697,  2.77615356,end
timer_stats,697841632290626,PAPI_L3_TCM,1, 22.11535644,  2.78495788,end
timer_stats,697841633455214,PAPI_L3_TCM,0, 22.19299316,  2.79353332,end
timer_stats,697841634621978,PAPI_L3_TCM,0, 22.27313232,  2.80207825,end
timer_stats,697841635789352,PAPI_L3_TCM,1, 22.34417725,  2.81092834,end
timer_stats,697841636962482,PAPI_L3_TCM,1, 22.49682617,  2.82829285,end
timer_stats,697841638128840,PAPI_L3_TCM,1, 22.57519531,  2.83711243,end
timer_stats,697841639295517,PAPI_L3_TCM,0, 22.65386963,  2.84544372,end
timer_stats,697841640460361,PAPI_L3_TCM,2, 22.73345947,  2.85377502,end
timer_stats,697841641626642,PAPI_L3_TCM,1, 22.80908203,  2.86236572,end
timer_stats,697841642799286,PAPI_L3_TCM,0, 22.88311768,  2.87094116,end
timer_stats,697841643974350,PAPI_L3_TCM,0, 23.03851318,  2.88803101,end
timer_stats,697841645150140,PAPI_L3_TCM,2, 23.11505127,  2.89685059,end
timer_stats,697841646320458,PAPI_L3_TCM,0, 23.19531250,  2.90562439,end
timer_stats,697841647490461,PAPI_L3_TCM,1, 23.27258301,  2.91441345,end
timer_stats,697841648669841,PAPI_L3_TCM,1, 23.34881592,  2.91934204,end
timer_stats,697841649858429,PAPI_L3_TCM,1, 23.42321777,  2.92819214,end
timer_stats,697841651037629,PAPI_L3_TCM,0, 23.58020019,  2.94528198,end
timer_stats,697841652211780,PAPI_L3_TCM,1, 23.65698242,  2.95388794,end
timer_stats,697841653369161,PAPI_L3_TCM,0, 23.73321533,  2.96270752,end
timer_stats,697841654536045,PAPI_L3_TCM,1, 23.81091308,  2.97106934,end
timer_stats,697841655705099,PAPI_L3_TCM,0, 23.89099121,  2.97982788,end
timer_stats,697841656882736,PAPI_L3_TCM,2, 23.98687744,  2.99227905,end
timer_stats,697841658060773,PAPI_L3_TCM,0, 24.12060547,  3.00622559,end
timer_stats,697841659241927,PAPI_L3_TCM,1, 24.19543457,  3.01499939,end
timer_stats,697841660415968,PAPI_L3_TCM,0, 24.27087402,  3.02424621,end
timer_stats,697841661590419,PAPI_L3_TCM,1, 24.34832764,  3.03276062,end
timer_stats,697841662771989,PAPI_L3_TCM,0, 24.42852783,  3.04176330,end
timer_stats,697841663952897,PAPI_L3_TCM,1, 24.57745361,  3.05946350,end
timer_stats,697841665153681,PAPI_L3_TCM,1, 24.65771484,  3.06820679,end
timer_stats,697841666329528,PAPI_L3_TCM,1, 24.73413086,  3.07702637,end
timer_stats,697841667505772,PAPI_L3_TCM,1, 24.82403564,  3.08618164,end
timer_stats,697841668679549,PAPI_L3_TCM,1, 24.88708496,  3.09503174,end
timer_stats,697841674059766,PAPI_L3_TCM,35, 25.27319336,  3.14236450,end
timer_stats,697841675236417,PAPI_L3_TCM,1, 25.34307861,  3.15158081,end
timer_stats,697841676410581,PAPI_L3_TCM,1, 25.41876221,  3.16006470,end
timer_stats,697841677583862,PAPI_L3_TCM,1, 25.48950195,  3.16867065,end
timer_stats,697841678765126,PAPI_L3_TCM,0, 25.55993652,  3.17749023,end
timer_stats,697841679949734,PAPI_L3_TCM,1, 25.70129394,  3.19483948,end
timer_stats,697841681147871,PAPI_L3_TCM,1, 25.77862549,  3.20338440,end
timer_stats,697841682329334,PAPI_L3_TCM,1, 25.84991455,  3.21195984,end
timer_stats,697841683507858,PAPI_L3_TCM,0, 25.90710449,  3.22084045,end
timer_stats,697841684687536,PAPI_L3_TCM,1, 25.97473144,  3.22944641,end
timer_stats,697841685873173,PAPI_L3_TCM,0, 26.04455566,  3.23823547,end
timer_stats,697841687051710,PAPI_L3_TCM,1, 26.14331055,  3.25062561,end
timer_stats,697841688227841,PAPI_L3_TCM,1, 26.24945068,  3.26463318,end
timer_stats,697841689406718,PAPI_L3_TCM,1, 26.31665039,  3.27345276,end
timer_stats,697841690588122,PAPI_L3_TCM,0, 26.38775635,  3.28221130,end
timer_stats,697841691773183,PAPI_L3_TCM,1, 26.46307373,  3.29048157,end
timer_stats,697841692962457,PAPI_L3_TCM,1, 26.59332275,  3.30772400,end
timer_stats,697841694141334,PAPI_L3_TCM,0, 26.67065430,  3.31379700,end
timer_stats,697841695321978,PAPI_L3_TCM,0, 26.74029541,  3.32505798,end
timer_stats,697841696499996,PAPI_L3_TCM,2, 26.79656982,  3.33393860,end
timer_stats,697841697678826,PAPI_L3_TCM,0, 26.86425781,  3.34228515,end
timer_stats,697841698865030,PAPI_L3_TCM,1, 26.93377686,  3.35087585,end
timer_stats,697841700054961,PAPI_L3_TCM,1, 27.07244873,  3.36822510,end
timer_stats,697841701237975,PAPI_L3_TCM,1, 27.14886475,  3.37698364,end
timer_stats,697841702416082,PAPI_L3_TCM,0, 27.21868896,  3.38531494,end
timer_stats,697841703597590,PAPI_L3_TCM,0, 27.27429199,  3.39422607,end
timer_stats,697841704778104,PAPI_L3_TCM,1, 27.34277344,  3.40303040,end
timer_stats,697841705959601,PAPI_L3_TCM,1, 27.41949463,  3.41154480,end
timer_stats,697841707137138,PAPI_L3_TCM,0, 27.55517578,  3.42869568,end
timer_stats,697841708313218,PAPI_L3_TCM,2, 27.61651611,  3.43754578,end
timer_stats,697841709491192,PAPI_L3_TCM,0, 27.69244385,  3.44606018,end
timer_stats,697841710673069,PAPI_L3_TCM,1, 27.75354004,  3.45469665,end
timer_stats,697841711854360,PAPI_L3_TCM,0, 27.83081055,  3.46318054,end
timer_stats,697841713034281,PAPI_L3_TCM,1, 27.95715332,  3.48060608,end
timer_stats,697841714212721,PAPI_L3_TCM,0, 28.02716064,  3.48939514,end
timer_stats,697841715391485,PAPI_L3_TCM,1, 28.09399414,  3.49800110,end
timer_stats,697841716571306,PAPI_L3_TCM,1, 28.16192627,  3.50657654,end
timer_stats,697841717752800,PAPI_L3_TCM,1, 28.24047851,  3.51507568,end
timer_stats,697841718931977,PAPI_L3_TCM,0, 28.30187988,  3.52392578,end
timer_stats,697841720112068,PAPI_L3_TCM,2, 28.39898682,  3.53610229,end
timer_stats,697841721290229,PAPI_L3_TCM,0, 28.51452637,  3.54934692,end
timer_stats,697841722470876,PAPI_L3_TCM,0, 28.58148193,  3.55453491,end
timer_stats,697841723648577,PAPI_L3_TCM,0, 28.64147949,  3.56320190,end
timer_stats,697841724828104,PAPI_L3_TCM,2, 28.71166992,  3.57174682,end
timer_stats,697841726011041,PAPI_L3_TCM,0, 28.81091308,  3.58361816,end
timer_stats,697841727188672,PAPI_L3_TCM,2, 28.92803955,  3.59735107,end
timer_stats,697841728364509,PAPI_L3_TCM,1, 28.99871826,  3.60592651,end
timer_stats,697841729517693,PAPI_L3_TCM,1, 29.06811523,  3.61453247,end
timer_stats,697841730684940,PAPI_L3_TCM,0, 29.14019775,  3.62286377,end
timer_stats,697841731863864,PAPI_L3_TCM,0, 29.21124268,  3.63143921,end
timer_stats,697841733042844,PAPI_L3_TCM,1, 29.33984375,  3.64913940,end
timer_stats,697841734221588,PAPI_L3_TCM,1, 29.40960693,  3.65795898,end
timer_stats,697841735399393,PAPI_L3_TCM,0, 29.47882080,  3.66676330,end
timer_stats,697841736577464,PAPI_L3_TCM,2, 29.56573486,  3.67565918,end
timer_stats,697841737759164,PAPI_L3_TCM,0, 29.63067627,  3.68426514,end
timer_stats,697841738930268,PAPI_L3_TCM,1, 29.69958496,  3.69284057,end
timer_stats,697841740105882,PAPI_L3_TCM,1, 29.83233643,  3.71026611,end
timer_stats,697841741259372,PAPI_L3_TCM,0, 29.90704346,  3.71978760,end
timer_stats,697841742437666,PAPI_L3_TCM,0, 29.99584961,  3.72848511,end
timer_stats,697841743618937,PAPI_L3_TCM,1, 30.06579590,  3.73730469,end
timer_stats,697841744803251,PAPI_L3_TCM,1, 30.13446045,  3.74588013,end
timer_stats,697841745991465,PAPI_L3_TCM,1, 30.25891113,  3.76362610,end
timer_stats,697841747172872,PAPI_L3_TCM,0, 30.32769775,  3.77220154,end
timer_stats,697841748356606,PAPI_L3_TCM,2, 30.39593506,  3.78053284,end
timer_stats,697841749530070,PAPI_L3_TCM,0, 30.47558594,  3.78901672,end
timer_stats,697841750708384,PAPI_L3_TCM,0, 30.55145264,  3.79823303,end
timer_stats,697841751886435,PAPI_L3_TCM,0, 30.61901855,  3.80737305,end
timer_stats,697841753061509,PAPI_L3_TCM,1, 30.73095703,  3.81999207,end
timer_stats,697841754236203,PAPI_L3_TCM,0, 30.85681152,  3.83369446,end
timer_stats,697841755411200,PAPI_L3_TCM,1, 30.93017578,  3.84248352,end
timer_stats,697841756584788,PAPI_L3_TCM,0, 31.00048828,  3.85157776,end
timer_stats,697841757760695,PAPI_L3_TCM,1, 31.08007812,  3.86006164,end
timer_stats,697841758928241,PAPI_L3_TCM,0, 31.15289307,  3.86839294,end
timer_stats,697841760175313,PAPI_L3_TCM,30, 31.24890137,  3.88079834,end
timer_stats,697841761327286,PAPI_L3_TCM,0, 31.37420654,  3.89546203,end
timer_stats,697841762505850,PAPI_L3_TCM,1, 31.45074463,  3.90400696,end
timer_stats,697841763685054,PAPI_L3_TCM,0, 31.51904297,  3.91282654,end
timer_stats,697841764874631,PAPI_L3_TCM,2, 31.60815430,  3.92124939,end
timer_stats,697841766055722,PAPI_L3_TCM,0, 31.70867920,  3.93394470,end
timer_stats,697841767233766,PAPI_L3_TCM,1, 31.84313965,  3.94810486,end
timer_stats,697841768409670,PAPI_L3_TCM,1, 31.90728760,  3.95310974,end
timer_stats,697841769584287,PAPI_L3_TCM,0, 31.99859619,  3.96382141,end
timer_stats,697841770758838,PAPI_L3_TCM,0, 32.07757568,  3.97242737,end
timer_stats,697841771934545,PAPI_L3_TCM,1, 32.16009521,  3.98100281,end
timer_stats,697841773107339,PAPI_L3_TCM,1, 32.26892090,  3.99336242,end
timer_stats,697841774285837,PAPI_L3_TCM,1, 32.40447998,  4.00727844,end
timer_stats,697841775459154,PAPI_L3_TCM,0, 32.48620605,  4.01603699,end
timer_stats,697841776641738,PAPI_L3_TCM,2, 32.56585693,  4.02505493,end
timer_stats,697841777827335,PAPI_L3_TCM,0, 32.64733887,  4.03358459,end
timer_stats,697841779007179,PAPI_L3_TCM,0, 32.72497559,  4.04194641,end
timer_stats,697841780182190,PAPI_L3_TCM,1, 32.82952881,  4.05433655,end
timer_stats,697841781339590,PAPI_L3_TCM,1, 32.96197510,  4.06852722,end
timer_stats,697841782500754,PAPI_L3_TCM,0, 33.03826904,  4.07713318,end
timer_stats,697841783679634,PAPI_L3_TCM,1, 33.11798096,  4.08589172,end
timer_stats,697841784867165,PAPI_L3_TCM,1, 33.19329834,  4.09443665,end
timer_stats,697841786041009,PAPI_L3_TCM,1, 33.28460693,  4.10664367,end
timer_stats,697841787217657,PAPI_L3_TCM,3, 33.41491699,  4.12083435,end
timer_stats,697841788392897,PAPI_L3_TCM,1, 33.49041748,  4.12965393,end
timer_stats,697841789571774,PAPI_L3_TCM,0, 33.57012939,  4.13844299,end
timer_stats,697841790737585,PAPI_L3_TCM,1, 33.64758301,  4.14701843,end
timer_stats,697841791906226,PAPI_L3_TCM,0, 33.72357178,  4.15559387,end
timer_stats,697841793086226,PAPI_L3_TCM,2, 33.81622314,  4.16783142,end
timer_stats,697841794253950,PAPI_L3_TCM,0, 33.93902588,  4.18156433,end
timer_stats,697841795434574,PAPI_L3_TCM,1, 34.01666260,  4.19084167,end
timer_stats,697841796616545,PAPI_L3_TCM,1, 34.09161377,  4.19981384,end
timer_stats,697841797799962,PAPI_L3_TCM,3, 34.15496826,  4.20848083,end
timer_stats,697841798969590,PAPI_L3_TCM,0, 34.23327637,  4.21723938,end
timer_stats,697841800148847,PAPI_L3_TCM,2, 34.32403564,  4.22996521,end
timer_stats,697841801302897,PAPI_L3_TCM,0, 34.44317627,  4.24348450,end
timer_stats,697841802472377,PAPI_L3_TCM,1, 34.51568604,  4.25202942,end
timer_stats,697841803634208,PAPI_L3_TCM,0, 34.58288574,  4.26086426,end
timer_stats,697841804829425,PAPI_L3_TCM,2, 34.65808105,  4.26962280,end
timer_stats,697841806011109,PAPI_L3_TCM,0, 34.73028564,  4.27844238,end
timer_stats,697841807173387,PAPI_L3_TCM,0, 34.81744385,  4.29071045,end
timer_stats,697841808350247,PAPI_L3_TCM,2, 34.93762207,  4.30419922,end
timer_stats,697841809527961,PAPI_L3_TCM,1, 35.00714111,  4.31300354,end
timer_stats,697841810709469,PAPI_L3_TCM,0, 35.07745361,  4.32154846,end
timer_stats,697841811897609,PAPI_L3_TCM,1, 35.14178467,  4.33012390,end
timer_stats,697841813081410,PAPI_L3_TCM,1, 35.23754883,  4.34254455,end
timer_stats,697841814261617,PAPI_L3_TCM,1, 35.35137939,  4.35603333,end
timer_stats,697841815439615,PAPI_L3_TCM,0, 35.42492676,  4.36479187,end
timer_stats,697841816618919,PAPI_L3_TCM,4, 35.48956299,  4.37364197,end
timer_stats,697841817806563,PAPI_L3_TCM,3, 35.56201172,  4.38221741,end
timer_stats,697841818972353,PAPI_L3_TCM,1, 35.63214111,  4.39082336,end
timer_stats,697841820135537,PAPI_L3_TCM,1, 35.72296143,  4.40330505,end
timer_stats,697841821284810,PAPI_L3_TCM,1, 35.85150146,  4.41795349,end
timer_stats,697841822455061,PAPI_L3_TCM,0, 35.92102051,  4.42652893,end
timer_stats,697841823620942,PAPI_L3_TCM,1, 35.99176025,  4.43510437,end
timer_stats,697841824804872,PAPI_L3_TCM,1, 36.06408691,  4.44371033,end
timer_stats,697841825971673,PAPI_L3_TCM,0, 36.13830566,  4.45225525,end
timer_stats,697841827134857,PAPI_L3_TCM,0, 36.23101807,  4.46670532,end
timer_stats,697841828297851,PAPI_L3_TCM,2, 36.35369873,  4.48086548,end
timer_stats,697841829446495,PAPI_L3_TCM,0, 36.42889404,  4.49116516,end
timer_stats,697841830609146,PAPI_L3_TCM,1, 36.50384521,  4.49967956,end
timer_stats,697841831773620,PAPI_L3_TCM,0, 36.57672119,  4.50846863,end
timer_stats,697841832938980,PAPI_L3_TCM,2, 36.65014648,  4.51701355,end
timer_stats,697841834101671,PAPI_L3_TCM,0, 36.75158691,  4.53074646,end
timer_stats,697841835263694,PAPI_L3_TCM,0, 36.87945557,  4.54464722,end
timer_stats,697841836473639,PAPI_L3_TCM,8, 36.95727539,  4.55337524,end
timer_stats,697841837773933,PAPI_L3_TCM,25, 37.02819824,  4.56384277,end
timer_stats,697841838968614,PAPI_L3_TCM,1, 37.09765625,  4.57128906,end
timer_stats,697841840133404,PAPI_L3_TCM,1, 37.18853760,  4.58242798,end
timer_stats,697841841281075,PAPI_L3_TCM,0, 37.29895019,  4.59686279,end
timer_stats,697841842443772,PAPI_L3_TCM,1, 37.36523437,  4.60415649,end
timer_stats,697841843608693,PAPI_L3_TCM,0, 37.43420410,  4.61163330,end
timer_stats,697841844785014,PAPI_L3_TCM,1, 37.50512695,  4.61886597,end
timer_stats,697841845957908,PAPI_L3_TCM,0, 37.57159424,  4.62771606,end
timer_stats,697841847120891,PAPI_L3_TCM,1, 37.66625976,  4.63861084,end
timer_stats,697841848284701,PAPI_L3_TCM,0, 37.78131103,  4.65274048,end
timer_stats,697841849447032,PAPI_L3_TCM,5, 37.84857178,  4.66287231,end
timer_stats,697841850616133,PAPI_L3_TCM,10, 37.92095947,  4.67164612,end
timer_stats,697841851782430,PAPI_L3_TCM,3, 37.99151611,  4.67884827,end
timer_stats,697841852958377,PAPI_L3_TCM,0, 38.05273437,  4.68640137,end
timer_stats,697841854134131,PAPI_L3_TCM,0, 38.15051270,  4.70056152,end
timer_stats,697841855303069,PAPI_L3_TCM,0, 38.25604248,  4.71298218,end
timer_stats,697841856478303,PAPI_L3_TCM,1, 38.32122803,  4.72048950,end
timer_stats,697841857652723,PAPI_L3_TCM,0, 38.38940430,  4.73083496,end
timer_stats,697841858831163,PAPI_L3_TCM,1, 38.45715332,  4.73808288,end
timer_stats,697841860019134,PAPI_L3_TCM,0, 38.52551270,  4.74533081,end
timer_stats,697841861181324,PAPI_L3_TCM,1, 38.65881348,  4.75621033,end
timer_stats,697841862347638,PAPI_L3_TCM,1, 38.72674560,  4.76864624,end
timer_stats,697841863520656,PAPI_L3_TCM,2, 38.79022217,  4.77621460,end
timer_stats,697841864696857,PAPI_L3_TCM,4, 38.86151123,  4.78527832,end
timer_stats,697841865863827,PAPI_L3_TCM,3, 38.93023682,  4.79248047,end
timer_stats,697841867041828,PAPI_L3_TCM,3, 38.98919678,  4.79937744,end
timer_stats,697841868208148,PAPI_L3_TCM,5, 39.09307861,  4.81072998,end
timer_stats,697841869374992,PAPI_L3_TCM,2, 39.20349121,  4.82507324,end
timer_stats,697841870540966,PAPI_L3_TCM,1, 39.26635742,  4.83282471,end
timer_stats,697841871711894,PAPI_L3_TCM,0, 39.33190918,  4.84164429,end
timer_stats,697841872892391,PAPI_L3_TCM,5, 39.40582275,  4.84902954,end
timer_stats,697841874061322,PAPI_L3_TCM,24, 39.47009277,  4.85629272,end
timer_stats,697841878235059,PAPI_L3_TCM,53, 39.80035400,  4.89866638,end
timer_stats,697841879397580,PAPI_L3_TCM,6, 39.86492920,  4.90594482,end
timer_stats,697841880587037,PAPI_L3_TCM,6, 39.93218994,  4.91340637,end
timer_stats,697841881779488,PAPI_L3_TCM,3, 40.00714111,  4.92237854,end
timer_stats,697841882967472,PAPI_L3_TCM,1, 40.07043457,  4.92970276,end
timer_stats,697841884162026,PAPI_L3_TCM,0, 40.13696289,  4.93693542,end
timer_stats,697841885324256,PAPI_L3_TCM,2, 40.27069092,  4.95652771,end
timer_stats,697841886511600,PAPI_L3_TCM,2, 40.34613037,  4.96530151,end
timer_stats,697841887697601,PAPI_L3_TCM,1, 40.41333008,  4.97438049,end
timer_stats,697841888875751,PAPI_L3_TCM,0, 40.48773193,  4.98313904,end
timer_stats,697841890061421,PAPI_L3_TCM,1, 40.55731201,  4.99194336,end
timer_stats,697841891229259,PAPI_L3_TCM,0, 40.69696045,  5.00956726,end
timer_stats,697841892416686,PAPI_L3_TCM,1, 40.77471924,  5.01878357,end
timer_stats,697841893580757,PAPI_L3_TCM,0, 40.84313965,  5.02738953,end
timer_stats,697841894745474,PAPI_L3_TCM,0, 40.91748047,  5.03614807,end
timer_stats,697841895931171,PAPI_L3_TCM,0, 40.99291992,  5.04490662,end
timer_stats,697841897104395,PAPI_L3_TCM,1, 41.09020996,  5.05738830,end
timer_stats,697841898289713,PAPI_L3_TCM,0, 41.21319580,  5.07130432,end
timer_stats,697841899478863,PAPI_L3_TCM,1, 41.29083252,  5.08007812,end
timer_stats,697841900651604,PAPI_L3_TCM,1, 41.36419678,  5.08911133,end
timer_stats,697841901840711,PAPI_L3_TCM,1, 41.44165039,  5.09841919,end
timer_stats,697841903028412,PAPI_L3_TCM,0, 41.52490234,  5.10714722,end
timer_stats,697841904218403,PAPI_L3_TCM,1, 41.68048096,  5.12545776,end
timer_stats,697841905383797,PAPI_L3_TCM,0, 41.75952148,  5.13403320,end
timer_stats,697841906575001,PAPI_L3_TCM,1, 41.84490967,  5.14279175,end
timer_stats,697841907762998,PAPI_L3_TCM,0, 41.92468262,  5.15136719,end
timer_stats,697841908951002,PAPI_L3_TCM,2, 42.01013184,  5.16033935,end
timer_stats,697841910139396,PAPI_L3_TCM,0, 42.08752441,  5.16970825,end
timer_stats,697841911315427,PAPI_L3_TCM,1, 42.25537109,  5.18719482,end
timer_stats,697841912501894,PAPI_L3_TCM,1, 42.34161377,  5.19671631,end
timer_stats,697841913687648,PAPI_L3_TCM,0, 42.41815185,  5.20532226,end
timer_stats,697841914865659,PAPI_L3_TCM,0, 42.50506592,  5.21380615,end
timer_stats,697841916057659,PAPI_L3_TCM,2, 42.58947754,  5.22256470,end
timer_stats,697841917219153,PAPI_L3_TCM,0, 42.75628662,  5.24142456,end
timer_stats,697841918404917,PAPI_L3_TCM,2, 42.83868408,  5.25044250,end
timer_stats,697841919591611,PAPI_L3_TCM,1, 42.93103027,  5.25892639,end
timer_stats,697841920780925,PAPI_L3_TCM,1, 43.01861572,  5.26255798,end
timer_stats,697841921974346,PAPI_L3_TCM,0, 43.10424805,  5.27206421,end
timer_stats,697841923161223,PAPI_L3_TCM,0, 43.18847656,  5.28088379,end
timer_stats,697841924348407,PAPI_L3_TCM,1, 43.35894775,  5.29849243,end
timer_stats,697841925536264,PAPI_L3_TCM,1, 43.44757080,  5.30703735,end
timer_stats,697841926712718,PAPI_L3_TCM,0, 43.53216553,  5.31584167,end
timer_stats,697841927900882,PAPI_L3_TCM,1, 43.61968994,  5.32461548,end
timer_stats,697841929086539,PAPI_L3_TCM,1, 43.70593262,  5.33340454,end
timer_stats,697841930237380,PAPI_L3_TCM,1, 43.88397217,  5.34622192,end
timer_stats,697841931422954,PAPI_L3_TCM,0, 43.96936035,  5.35997009,end
timer_stats,697841932610274,PAPI_L3_TCM,0, 44.06188965,  5.36872864,end
timer_stats,697841933798422,PAPI_L3_TCM,0, 44.15093994,  5.37831116,end
timer_stats,697841934972139,PAPI_L3_TCM,1, 44.23797607,  5.38752746,end
timer_stats,697841936163573,PAPI_L3_TCM,1, 44.35681152,  5.40019226,end
timer_stats,697841937325814,PAPI_L3_TCM,1, 44.50329590,  5.41453552,end
timer_stats,697841938499994,PAPI_L3_TCM,1, 44.59472656,  5.42308044,end
timer_stats,697841939663112,PAPI_L3_TCM,2, 44.67950439,  5.43241882,end
timer_stats,697841940851122,PAPI_L3_TCM,1, 44.76934814,  5.44192505,end
timer_stats,697841942040053,PAPI_L3_TCM,0, 44.86193848,  5.45040893,end
timer_stats,697841943222800,PAPI_L3_TCM,0, 44.98510742,  5.46327209,end
timer_stats,697841944408348,PAPI_L3_TCM,2, 45.12805176,  5.47740173,end
timer_stats,697841945592302,PAPI_L3_TCM,0, 45.21704101,  5.48670959,end
timer_stats,697841946769229,PAPI_L3_TCM,2, 45.30535889,  5.49569702,end
timer_stats,697841947969993,PAPI_L3_TCM,0, 45.39489746,  5.50445557,end
timer_stats,697841949175437,PAPI_L3_TCM,2, 45.48321533,  5.51301575,end
timer_stats,697841950362898,PAPI_L3_TCM,0, 45.66406250,  5.53105163,end
timer_stats,697841951547508,PAPI_L3_TCM,0, 45.74914551,  5.53990173,end
timer_stats,697841952735352,PAPI_L3_TCM,1, 45.83984375,  5.54870605,end
timer_stats,697841953922633,PAPI_L3_TCM,1, 45.93084717,  5.55773926,end
timer_stats,697841955095107,PAPI_L3_TCM,0, 46.02154541,  5.56674194,end
timer_stats,697841956281268,PAPI_L3_TCM,2, 46.19647217,  5.58454895,end
timer_stats,697841957441428,PAPI_L3_TCM,0, 46.28973389,  5.59327698,end
timer_stats,697841958615166,PAPI_L3_TCM,1, 46.37475586,  5.60237121,end
timer_stats,697841959802116,PAPI_L3_TCM,0, 46.46807861,  5.61219787,end
timer_stats,697841960968636,PAPI_L3_TCM,1, 46.55950928,  5.62098694,end
timer_stats,697841962142260,PAPI_L3_TCM,0, 46.64685059,  5.62959290,end
timer_stats,697841963318817,PAPI_L3_TCM,1, 46.82116699,  5.64717102,end
timer_stats,697841964506705,PAPI_L3_TCM,1, 46.90313721,  5.65574646,end
timer_stats,697841965691982,PAPI_L3_TCM,1, 46.99060059,  5.66453552,end
timer_stats,697841966877383,PAPI_L3_TCM,0, 47.08081055,  5.67329407,end
timer_stats,697841968073320,PAPI_L3_TCM,1, 47.17663574,  5.68180847,end
timer_stats,697841969235944,PAPI_L3_TCM,1, 47.30413818,  5.69398498,end
timer_stats,697841970424668,PAPI_L3_TCM,0, 47.45214844,  5.70771789,end
timer_stats,697841971610799,PAPI_L3_TCM,0, 47.54327393,  5.71632385,end
timer_stats,697841972799733,PAPI_L3_TCM,1, 47.63330078,  5.72514343,end
timer_stats,697841973998950,PAPI_L3_TCM,0, 47.72949219,  5.73368835,end
timer_stats,697841975187427,PAPI_L3_TCM,1, 47.82025146,  5.74635315,end
timer_stats,697841976373101,PAPI_L3_TCM,1, 48.00006104,  5.76031494,end
timer_stats,697841977536705,PAPI_L3_TCM,2, 48.09130859,  5.76882935,end
timer_stats,697841978708776,PAPI_L3_TCM,0, 48.17718506,  5.77761841,end
timer_stats,697841979891523,PAPI_L3_TCM,1, 48.26031494,  5.78668213,end
timer_stats,697841981258601,PAPI_L3_TCM,235, 48.38299560,  5.79907227,end
timer_stats,697841982423091,PAPI_L3_TCM,95, 48.52026367,  5.81298828,end
timer_stats,697841983611059,PAPI_L3_TCM,1, 48.61151123,  5.82244873,end
timer_stats,697841984763583,PAPI_L3_TCM,2, 48.70086670,  5.83151245,end
timer_stats,697841985910013,PAPI_L3_TCM,5, 48.78643799,  5.84072876,end
timer_stats,697841987058725,PAPI_L3_TCM,2, 48.87017822,  5.84951782,end
timer_stats,697841988209891,PAPI_L3_TCM,1, 48.95190430,  5.85852051,end
timer_stats,697841989333471,PAPI_L3_TCM,3, 49.12036133,  5.87692261,end
timer_stats,697841990490502,PAPI_L3_TCM,0, 49.20092773,  5.88595581,end
timer_stats,697841991650593,PAPI_L3_TCM,1, 49.28796387,  5.89535522,end
timer_stats,697841992800224,PAPI_L3_TCM,0, 49.37237549,  5.90388489,end
timer_stats,697841993965852,PAPI_L3_TCM,2, 49.45172119,  5.91273498,end
timer_stats,697841995131000,PAPI_L3_TCM,1, 49.53643799,  5.92150879,end
timer_stats,697841996279811,PAPI_L3_TCM,3, 49.65173340,  5.93450928,end
timer_stats,697841997405760,PAPI_L3_TCM,0, 49.78808594,  5.94862366,end
timer_stats,697841998571743,PAPI_L3_TCM,1, 49.86846924,  5.95874023,end
timer_stats,697841999736249,PAPI_L3_TCM,0, 49.95117187,  5.96795654,end
timer_stats,697842000895544,PAPI_L3_TCM,5, 50.03259277,  5.97705078,end
timer_stats,697842002069434,PAPI_L3_TCM,0, 50.11804199,  5.98635864,end
timer_stats,697842003240777,PAPI_L3_TCM,2, 50.23944092,  5.99923706,end
timer_stats,697842004407851,PAPI_L3_TCM,1, 50.36657715,  6.01342773,end
timer_stats,697842005573315,PAPI_L3_TCM,2, 50.45141601,  6.02243042,end
timer_stats,697842006732831,PAPI_L3_TCM,0, 50.53326416,  6.03121948,end
timer_stats,697842007898235,PAPI_L3_TCM,1, 50.61846924,  6.03971863,end
timer_stats,697842009067605,PAPI_L3_TCM,5, 50.70751953,  6.04893494,end
timer_stats,697842010220641,PAPI_L3_TCM,2, 50.82678223,  6.06524658,end
timer_stats,697842011378427,PAPI_L3_TCM,1, 50.96221924,  6.07423401,end
timer_stats,697842012529518,PAPI_L3_TCM,3, 51.04412842,  6.08843994,end
timer_stats,697842013688383,PAPI_L3_TCM,0, 51.13665771,  6.09841919,end
timer_stats,697842014818726,PAPI_L3_TCM,3, 51.22113037,  6.10771179,end
timer_stats,697842015953338,PAPI_L3_TCM,1, 51.30511474,  6.11647034,end
timer_stats,697842017091905,PAPI_L3_TCM,1, 51.38842773,  6.12522888,end
timer_stats,697842018250257,PAPI_L3_TCM,0, 51.50579834,  6.13795471,end
timer_stats,697842019410292,PAPI_L3_TCM,1, 51.59069824,  6.14695740,end
timer_stats,697842020587714,PAPI_L3_TCM,0, 51.71740723,  6.16113281,end
timer_stats,697842021749310,PAPI_L3_TCM,2, 51.79901123,  6.16983032,end
timer_stats,697842022905497,PAPI_L3_TCM,0, 51.86755371,  6.17715454,end
timer_stats,697842024071188,PAPI_L3_TCM,3, 51.94427490,  6.18467712,end
timer_stats,697842025206265,PAPI_L3_TCM,0, 52.02087402,  6.19190979,end
timer_stats,697842026363276,PAPI_L3_TCM,1, 52.12817383,  6.20332336,end
timer_stats,697842027522820,PAPI_L3_TCM,0, 52.23999023,  6.21730041,end
timer_stats,697842028683334,PAPI_L3_TCM,3, 52.31500244,  6.22454834,end
timer_stats,697842029842911,PAPI_L3_TCM,0, 52.39123535,  6.23178101,end
timer_stats,697842031000168,PAPI_L3_TCM,2, 52.46380615,  6.23925781,end
timer_stats,697842032164785,PAPI_L3_TCM,1, 52.53924560,  6.24723816,end
timer_stats,697842033295257,PAPI_L3_TCM,2, 52.64373779,  6.25868225,end
timer_stats,697842034437249,PAPI_L3_TCM,0, 52.76104736,  6.27279663,end
timer_stats,697842035580075,PAPI_L3_TCM,4, 52.83532715,  6.28137207,end
