timer_stats,697441136399817,PAPI_L3_TCM,356,  0.15045166,  0.02058411,end
timer_stats,697441137525883,PAPI_L3_TCM,34,  0.22271728,  0.03132629,end
timer_stats,697441138657096,PAPI_L3_TCM,9,  0.29620361,  0.04170227,end
timer_stats,697441139786846,PAPI_L3_TCM,4,  0.36547852,  0.05070496,end
timer_stats,697441140921439,PAPI_L3_TCM,3,  0.44366455,  0.06101990,end
timer_stats,697441142432473,PAPI_L3_TCM,15,  0.59960937,  0.08253479,end
timer_stats,697441143586153,PAPI_L3_TCM,12,  0.68402100,  0.09272766,end
timer_stats,697441144745009,PAPI_L3_TCM,7,  0.74987793,  0.10356140,end
timer_stats,697441145912266,PAPI_L3_TCM,10,  0.83129883,  0.11427307,end
timer_stats,697441147076756,PAPI_L3_TCM,12,  0.90533447,  0.12528992,end
timer_stats,697441148186142,PAPI_L3_TCM,7,  0.98846435,  0.13578796,end
timer_stats,697441149321065,PAPI_L3_TCM,2,  1.06506348,  0.14671325,end
timer_stats,697441150496975,PAPI_L3_TCM,4,  1.22778320,  0.16905212,end
timer_stats,697441151663811,PAPI_L3_TCM,2,  1.30944824,  0.17976379,end
timer_stats,697441152828414,PAPI_L3_TCM,1,  1.38977051,  0.19029236,end
timer_stats,697441153993781,PAPI_L3_TCM,0,  1.46582031,  0.20086670,end
timer_stats,697441155131594,PAPI_L3_TCM,0,  1.54876709,  0.21115112,end
timer_stats,697441156268207,PAPI_L3_TCM,1,  1.63128662,  0.22143555,end
timer_stats,697441157405600,PAPI_L3_TCM,0,  1.78900146,  0.24163818,end
timer_stats,697441158558630,PAPI_L3_TCM,0,  1.87115479,  0.25166321,end
timer_stats,697441159723530,PAPI_L3_TCM,0,  1.95080566,  0.26176453,end
timer_stats,697441160893710,PAPI_L3_TCM,2,  2.04040527,  0.27198791,end
timer_stats,697441162041839,PAPI_L3_TCM,0,  2.11254883,  0.28257751,end
timer_stats,697441163192146,PAPI_L3_TCM,0,  2.18707275,  0.29267883,end
timer_stats,697441164325795,PAPI_L3_TCM,0,  2.27258301,  0.30268860,end
timer_stats,697441165463278,PAPI_L3_TCM,0,  2.39056396,  0.31785583,end
timer_stats,697441166612011,PAPI_L3_TCM,0,  2.50433350,  0.33316040,end
timer_stats,697441167772408,PAPI_L3_TCM,0,  2.58233642,  0.34347534,end
timer_stats,697441168939231,PAPI_L3_TCM,1,  2.66668701,  0.35446167,end
timer_stats,697441170078951,PAPI_L3_TCM,1,  2.76116943,  0.36489868,end
timer_stats,697441171218258,PAPI_L3_TCM,0,  2.84588623,  0.37539673,end
timer_stats,697441172357854,PAPI_L3_TCM,1,  2.92681885,  0.38574219,end
timer_stats,697441173496290,PAPI_L3_TCM,0,  3.05395508,  0.40087891,end
timer_stats,697441174633880,PAPI_L3_TCM,0,  3.17944336,  0.41638183,end
timer_stats,697441175773770,PAPI_L3_TCM,1,  3.26116943,  0.42648315,end
timer_stats,697441176917673,PAPI_L3_TCM,0,  3.35015869,  0.43655395,end
timer_stats,697441178055592,PAPI_L3_TCM,0,  3.42407226,  0.44696045,end
timer_stats,697441179194495,PAPI_L3_TCM,1,  3.51690674,  0.45739746,end
timer_stats,697441180333735,PAPI_L3_TCM,1,  3.59906006,  0.46746826,end
timer_stats,697441181471985,PAPI_L3_TCM,0,  3.75317383,  0.48791504,end
timer_stats,697441182644108,PAPI_L3_TCM,0,  3.83184814,  0.49827576,end
timer_stats,697441183795981,PAPI_L3_TCM,0,  3.92346191,  0.50898743,end
timer_stats,697441184963088,PAPI_L3_TCM,1,  4.01165771,  0.51899719,end
timer_stats,697441186117828,PAPI_L3_TCM,0,  4.08215332,  0.52919006,end
timer_stats,697441187272167,PAPI_L3_TCM,0,  4.16461182,  0.53932190,end
timer_stats,697441188431070,PAPI_L3_TCM,2,  4.29571533,  0.55499268,end
timer_stats,697441189588513,PAPI_L3_TCM,0,  4.42602539,  0.57292175,end
timer_stats,697441190741890,PAPI_L3_TCM,1,  4.50061035,  0.58363342,end
timer_stats,697441191872349,PAPI_L3_TCM,1,  4.58526611,  0.59391784,end
timer_stats,697441193007762,PAPI_L3_TCM,1,  4.68273926,  0.60418701,end
timer_stats,697441194173172,PAPI_L3_TCM,0,  4.76116943,  0.61502075,end
timer_stats,697441195340309,PAPI_L3_TCM,0,  4.84210205,  0.62405395,end
timer_stats,697441196523586,PAPI_L3_TCM,0,  4.95745850,  0.63882446,end
timer_stats,697441197713262,PAPI_L3_TCM,1,  5.09387207,  0.65249634,end
timer_stats,697441198899708,PAPI_L3_TCM,0,  5.17724609,  0.66104126,end
timer_stats,697441200090115,PAPI_L3_TCM,2,  5.26074219,  0.66983032,end
timer_stats,697441201252834,PAPI_L3_TCM,0,  5.33154297,  0.67845154,end
timer_stats,697441202440362,PAPI_L3_TCM,0,  5.46063232,  0.69242859,end
timer_stats,697441203614631,PAPI_L3_TCM,0,  5.57434082,  0.70793152,end
timer_stats,697441204802934,PAPI_L3_TCM,1,  5.66882324,  0.71661377,end
timer_stats,697441205981827,PAPI_L3_TCM,0,  5.73779297,  0.72550964,end
timer_stats,697441207167550,PAPI_L3_TCM,2,  5.81890869,  0.73432922,end
timer_stats,697441208344363,PAPI_L3_TCM,1,  5.90924072,  0.74307251,end
timer_stats,697441209517537,PAPI_L3_TCM,1,  6.06384277,  0.76179504,end
timer_stats,697441210690830,PAPI_L3_TCM,0,  6.15399170,  0.77006531,end
timer_stats,697441211869283,PAPI_L3_TCM,0,  6.22674560,  0.77867126,end
timer_stats,697441213043636,PAPI_L3_TCM,1,  6.31457519,  0.78742981,end
timer_stats,697441214229186,PAPI_L3_TCM,1,  6.39526367,  0.79673767,end
timer_stats,697441215419787,PAPI_L3_TCM,0,  6.50946045,  0.81047058,end
timer_stats,697441216608520,PAPI_L3_TCM,1,  6.59271240,  0.81947327,end
timer_stats,697441217815266,PAPI_L3_TCM,0,  6.72332764,  0.83345032,end
timer_stats,697441218979526,PAPI_L3_TCM,1,  6.80596924,  0.84202576,end
timer_stats,697441220169659,PAPI_L3_TCM,1,  6.88903809,  0.85102844,end
timer_stats,697441221319505,PAPI_L3_TCM,0,  6.96954346,  0.86030578,end
timer_stats,697441222494991,PAPI_L3_TCM,0,  7.08148193,  0.87422180,end
timer_stats,697441223684255,PAPI_L3_TCM,1,  7.20666504,  0.88841247,end
timer_stats,697441224879178,PAPI_L3_TCM,1,  7.28723144,  0.89749145,end
timer_stats,697441226068221,PAPI_L3_TCM,1,  7.36785889,  0.90628052,end
timer_stats,697441227256228,PAPI_L3_TCM,0,  7.44433594,  0.91510010,end
timer_stats,697441228446132,PAPI_L3_TCM,2,  7.56365967,  0.92951965,end
timer_stats,697441229635008,PAPI_L3_TCM,0,  7.68878174,  0.94322204,end
timer_stats,697441230825788,PAPI_L3_TCM,1,  7.77130127,  0.95173645,end
timer_stats,697441232037991,PAPI_L3_TCM,1,  7.84014893,  0.96083069,end
timer_stats,697441233200274,PAPI_L3_TCM,1,  7.93115234,  0.96955872,end
timer_stats,697441234392183,PAPI_L3_TCM,0,  8.00732422,  0.97941589,end
timer_stats,697441235580820,PAPI_L3_TCM,2,  8.11761474,  0.99485779,end
timer_stats,697441236773774,PAPI_L3_TCM,1,  8.24188232,  1.00791931,end
timer_stats,697441237965180,PAPI_L3_TCM,1,  8.32147217,  1.01670837,end
timer_stats,697441239155420,PAPI_L3_TCM,0,  8.40332031,  1.02546692,end
timer_stats,697441240345840,PAPI_L3_TCM,2,  8.48205566,  1.03401184,end
timer_stats,697441241535647,PAPI_L3_TCM,0,  8.58557129,  1.04779053,end
timer_stats,697441242725780,PAPI_L3_TCM,2,  8.71630859,  1.06149292,end
timer_stats,697441243917023,PAPI_L3_TCM,0,  8.79412842,  1.07029724,end
timer_stats,697441245126709,PAPI_L3_TCM,4,  8.87200928,  1.07911682,end
timer_stats,697441246263932,PAPI_L3_TCM,0,  8.95477295,  1.08918762,end
timer_stats,697441247455728,PAPI_L3_TCM,0,  9.06427002,  1.10292053,end
timer_stats,697441248647996,PAPI_L3_TCM,1,  9.14196777,  1.11665344,end
timer_stats,697441249837732,PAPI_L3_TCM,0,  9.26843262,  1.12521362,end
timer_stats,697441251032688,PAPI_L3_TCM,0,  9.34960937,  1.13398743,end
timer_stats,697441252222975,PAPI_L3_TCM,3,  9.41979980,  1.14262390,end
timer_stats,697441253386932,PAPI_L3_TCM,0,  9.50518799,  1.15159607,end
timer_stats,697441254554182,PAPI_L3_TCM,2,  9.61492920,  1.16535950,end
timer_stats,697441255735185,PAPI_L3_TCM,0,  9.74511719,  1.17909241,end
timer_stats,697441256916851,PAPI_L3_TCM,2,  9.81817627,  1.18769836,end
timer_stats,697441258096261,PAPI_L3_TCM,0,  9.90313721,  1.19642639,end
timer_stats,697441259275447,PAPI_L3_TCM,0,  9.97662353,  1.20545959,end
timer_stats,697441260454830,PAPI_L3_TCM,2, 10.05603027,  1.21449280,end
timer_stats,697441261634537,PAPI_L3_TCM,2, 10.17565918,  1.23039246,end
timer_stats,697441262803740,PAPI_L3_TCM,0, 10.30566406,  1.24435425,end
timer_stats,697441263984273,PAPI_L3_TCM,2, 10.38873291,  1.25286865,end
timer_stats,697441265196180,PAPI_L3_TCM,1, 10.46258545,  1.26171875,end
timer_stats,697441266385803,PAPI_L3_TCM,1, 10.54180908,  1.27052307,end
timer_stats,697441267576343,PAPI_L3_TCM,0, 10.65472412,  1.28445434,end
timer_stats,697441268767253,PAPI_L3_TCM,1, 10.78222656,  1.29841614,end
timer_stats,697441269947659,PAPI_L3_TCM,0, 10.86004639,  1.30744934,end
timer_stats,697441271115316,PAPI_L3_TCM,2, 10.94854736,  1.31642151,end
timer_stats,697441272282719,PAPI_L3_TCM,1, 11.01885986,  1.32554626,end
timer_stats,697441273452352,PAPI_L3_TCM,2, 11.10498047,  1.33451843,end
timer_stats,697441274630616,PAPI_L3_TCM,0, 11.26159668,  1.35368347,end
timer_stats,697441275812025,PAPI_L3_TCM,1, 11.34552002,  1.36219787,end
timer_stats,697441276996142,PAPI_L3_TCM,1, 11.42175293,  1.37103271,end
timer_stats,697441278174681,PAPI_L3_TCM,1, 11.50671387,  1.37954712,end
timer_stats,697441279353718,PAPI_L3_TCM,0, 11.58728027,  1.38832092,end
timer_stats,697441280535714,PAPI_L3_TCM,2, 11.70050049,  1.40205383,end
timer_stats,697441281715721,PAPI_L3_TCM,0, 11.82867432,  1.41600037,end
timer_stats,697441282898138,PAPI_L3_TCM,2, 11.91033935,  1.42498779,end
timer_stats,697441284082434,PAPI_L3_TCM,1, 11.98406982,  1.43383789,end
timer_stats,697441285258507,PAPI_L3_TCM,140, 12.06677246,  1.44236755,end
timer_stats,697441286437253,PAPI_L3_TCM,0, 12.14709473,  1.45117187,end
timer_stats,697441287618011,PAPI_L3_TCM,1, 12.25750732,  1.46615600,end
timer_stats,697441288783184,PAPI_L3_TCM,0, 12.39483642,  1.48057556,end
timer_stats,697441289950857,PAPI_L3_TCM,2, 12.47570801,  1.48934936,end
timer_stats,697441291113890,PAPI_L3_TCM,0, 12.55249023,  1.49868774,end
timer_stats,697441292282833,PAPI_L3_TCM,2, 12.63647461,  1.50769043,end
timer_stats,697441293451432,PAPI_L3_TCM,0, 12.71936035,  1.51666260,end
timer_stats,697441294638405,PAPI_L3_TCM,1, 12.83721924,  1.53189087,end
timer_stats,697441295818218,PAPI_L3_TCM,0, 12.96771240,  1.54611206,end
timer_stats,697441296999195,PAPI_L3_TCM,0, 13.04772949,  1.55490112,end
timer_stats,697441298187235,PAPI_L3_TCM,1, 13.12811279,  1.56390381,end
timer_stats,697441299352415,PAPI_L3_TCM,0, 13.20611572,  1.57272339,end
timer_stats,697441300516938,PAPI_L3_TCM,0, 13.29022217,  1.58146667,end
timer_stats,697441301680274,PAPI_L3_TCM,2, 13.45471191,  1.60142517,end
timer_stats,697441302832847,PAPI_L3_TCM,0, 13.53417969,  1.61024475,end
timer_stats,697441304018454,PAPI_L3_TCM,1, 13.61767578,  1.61877441,end
timer_stats,697441305169091,PAPI_L3_TCM,0, 13.70123291,  1.62728882,end
timer_stats,697441306334571,PAPI_L3_TCM,0, 13.77636719,  1.63612366,end
timer_stats,697441307506090,PAPI_L3_TCM,0, 13.85949707,  1.64463806,end
timer_stats,697441308691960,PAPI_L3_TCM,3, 14.02252197,  1.66508484,end
timer_stats,697441309866680,PAPI_L3_TCM,1, 14.10638428,  1.67387390,end
timer_stats,697441311044829,PAPI_L3_TCM,2, 14.19458008,  1.68284607,end
timer_stats,697441312218580,PAPI_L3_TCM,1, 14.28216553,  1.69160461,end
timer_stats,697441313369730,PAPI_L3_TCM,2, 14.36236572,  1.70042419,end
timer_stats,697441314556283,PAPI_L3_TCM,1, 14.44787598,  1.70967102,end
timer_stats,697441315743616,PAPI_L3_TCM,1, 14.61254883,  1.72883606,end
timer_stats,697441316929592,PAPI_L3_TCM,1, 14.69427490,  1.73786926,end
timer_stats,697441318116142,PAPI_L3_TCM,1, 14.78039551,  1.74661255,end
timer_stats,697441319282101,PAPI_L3_TCM,0, 14.86004639,  1.75564575,end
timer_stats,697441320457925,PAPI_L3_TCM,3, 14.94641113,  1.76441955,end
timer_stats,697441321635025,PAPI_L3_TCM,0, 15.06164551,  1.77964783,end
timer_stats,697441322797288,PAPI_L3_TCM,0, 15.19024658,  1.79341125,end
timer_stats,697441323987504,PAPI_L3_TCM,0, 15.27502441,  1.80213928,end
timer_stats,697441325184627,PAPI_L3_TCM,4, 15.35882568,  1.81068420,end
timer_stats,697441326375275,PAPI_L3_TCM,0, 15.44390869,  1.82243347,end
timer_stats,697441327573838,PAPI_L3_TCM,1, 15.57092285,  1.83767700,end
timer_stats,697441328765364,PAPI_L3_TCM,1, 15.71008301,  1.85275269,end
timer_stats,697441329957350,PAPI_L3_TCM,2, 15.79748535,  1.86309814,end
timer_stats,697441331148743,PAPI_L3_TCM,0, 15.88897705,  1.87338257,end
timer_stats,697441332345880,PAPI_L3_TCM,2, 15.98321533,  1.88363647,end
timer_stats,697441333530794,PAPI_L3_TCM,0, 16.10626221,  1.89892578,end
timer_stats,697441334724153,PAPI_L3_TCM,1, 16.25079346,  1.91461181,end
timer_stats,697441335919726,PAPI_L3_TCM,0, 16.33953857,  1.92468262,end
timer_stats,697441337133100,PAPI_L3_TCM,3, 16.43151855,  1.93475342,end
timer_stats,697441338325100,PAPI_L3_TCM,0, 16.51757812,  1.94506836,end
timer_stats,697441339521053,PAPI_L3_TCM,4, 16.64849853,  1.96072388,end
timer_stats,697441340686339,PAPI_L3_TCM,1, 16.79589844,  1.97708130,end
timer_stats,697441341877999,PAPI_L3_TCM,1, 16.88751221,  1.98736572,end
timer_stats,697441343073022,PAPI_L3_TCM,0, 16.97778320,  1.99787903,end
timer_stats,697441344240448,PAPI_L3_TCM,1, 17.07153320,  2.00840759,end
timer_stats,697441345405132,PAPI_L3_TCM,0, 17.16418457,  2.01890564,end
timer_stats,697441346588362,PAPI_L3_TCM,1, 17.28826904,  2.03416443,end
timer_stats,697441347780948,PAPI_L3_TCM,0, 17.43383789,  2.04917908,end
timer_stats,697441348983381,PAPI_L3_TCM,2, 17.52301025,  2.05949402,end
timer_stats,697441350167945,PAPI_L3_TCM,0, 17.61456299,  2.07002258,end
timer_stats,697441351353615,PAPI_L3_TCM,1, 17.71166992,  2.08030701,end
timer_stats,697441352554898,PAPI_L3_TCM,2, 17.79840088,  2.09013367,end
timer_stats,697441353748408,PAPI_L3_TCM,1, 17.98016357,  2.11054993,end
timer_stats,697441354920194,PAPI_L3_TCM,1, 18.06933594,  2.12084961,end
timer_stats,697441356105881,PAPI_L3_TCM,2, 18.16546631,  2.13134765,end
timer_stats,697441357258928,PAPI_L3_TCM,0, 18.25646972,  2.14190674,end
timer_stats,697441358437224,PAPI_L3_TCM,1, 18.34820557,  2.15173340,end
timer_stats,697441359619307,PAPI_L3_TCM,0, 18.52429199,  2.17196655,end
timer_stats,697441360803307,PAPI_L3_TCM,2, 18.62127686,  2.18176269,end
timer_stats,697441361988006,PAPI_L3_TCM,0, 18.70959473,  2.19189453,end
timer_stats,697441363143649,PAPI_L3_TCM,1, 18.80261230,  2.20217895,end
timer_stats,697441364344717,PAPI_L3_TCM,1, 18.89227295,  2.21228027,end
timer_stats,697441365509210,PAPI_L3_TCM,1, 18.98773193,  2.22232056,end
timer_stats,697441366691973,PAPI_L3_TCM,0, 19.17205811,  2.24246216,end
timer_stats,697441367884552,PAPI_L3_TCM,1, 19.26123047,  2.25234985,end
timer_stats,697441369078673,PAPI_L3_TCM,0, 19.36138916,  2.26306152,end
timer_stats,697441370261973,PAPI_L3_TCM,1, 19.44989014,  2.27340698,end
timer_stats,697441371432112,PAPI_L3_TCM,0, 19.54278564,  2.28353882,end
timer_stats,697441372620205,PAPI_L3_TCM,1, 19.68225097,  2.29946899,end
timer_stats,697441373817642,PAPI_L3_TCM,0, 19.82989502,  2.31564331,end
timer_stats,697441375002215,PAPI_L3_TCM,2, 19.92340088,  2.32595825,end
timer_stats,697441376197624,PAPI_L3_TCM,1, 20.01623535,  2.33584595,end
timer_stats,697441377365092,PAPI_L3_TCM,1, 20.11218262,  2.34567261,end
timer_stats,697441378548391,PAPI_L3_TCM,0, 20.24847412,  2.35665893,end
timer_stats,697441379746361,PAPI_L3_TCM,1, 20.38812256,  2.37210083,end
timer_stats,697441380946327,PAPI_L3_TCM,1, 20.48498535,  2.38259888,end
timer_stats,697441382131205,PAPI_L3_TCM,1, 20.57995605,  2.39340210,end
timer_stats,697441383348104,PAPI_L3_TCM,0, 20.67443847,  2.40368652,end
timer_stats,697441384542464,PAPI_L3_TCM,2, 20.77056885,  2.41357422,end
timer_stats,697441385706210,PAPI_L3_TCM,0, 20.95825195,  2.43356323,end
timer_stats,697441386884970,PAPI_L3_TCM,1, 21.05267334,  2.44363403,end
timer_stats,697441388081723,PAPI_L3_TCM,1, 21.14996338,  2.45394897,end
timer_stats,697441389253047,PAPI_L3_TCM,2, 21.24468994,  2.46400452,end
timer_stats,697441390444093,PAPI_L3_TCM,0, 21.33868408,  2.47434997,end
timer_stats,697441391637493,PAPI_L3_TCM,1, 21.47979736,  2.49075317,end
timer_stats,697441392833219,PAPI_L3_TCM,1, 21.62701416,  2.50575256,end
timer_stats,697441394027176,PAPI_L3_TCM,1, 21.72052002,  2.51631165,end
timer_stats,697441395207856,PAPI_L3_TCM,0, 21.81750488,  2.52665710,end
timer_stats,697441396399316,PAPI_L3_TCM,2, 21.91552734,  2.53646851,end
timer_stats,697441397597029,PAPI_L3_TCM,0, 22.05737305,  2.55171204,end
timer_stats,697441398777032,PAPI_L3_TCM,0, 22.19409180,  2.56724548,end
timer_stats,697441399960062,PAPI_L3_TCM,0, 22.28948975,  2.57731628,end
timer_stats,697441401152155,PAPI_L3_TCM,2, 22.38531494,  2.58714294,end
timer_stats,697441407163288,PAPI_L3_TCM,29, 22.92321777,  2.64561462,end
timer_stats,697441408365671,PAPI_L3_TCM,8, 23.01586914,  2.65434265,end
timer_stats,697441409547848,PAPI_L3_TCM,1, 23.10693359,  2.66444397,end
timer_stats,697441410734311,PAPI_L3_TCM,2, 23.29571533,  2.68479919,end
timer_stats,697441411902887,PAPI_L3_TCM,3, 23.39874268,  2.69570923,end
timer_stats,697441413063827,PAPI_L3_TCM,3, 23.48675537,  2.70608520,end
timer_stats,697441414222701,PAPI_L3_TCM,0, 23.58105469,  2.71591186,end
timer_stats,697441415381274,PAPI_L3_TCM,1, 23.67065430,  2.72604370,end
timer_stats,697441416542147,PAPI_L3_TCM,1, 23.76342773,  2.73614502,end
timer_stats,697441417703860,PAPI_L3_TCM,2, 23.89984131,  2.75114441,end
timer_stats,697441418862616,PAPI_L3_TCM,0, 24.04266357,  2.76683044,end
timer_stats,697441420026999,PAPI_L3_TCM,2, 24.13836670,  2.77714538,end
timer_stats,697441421186505,PAPI_L3_TCM,0, 24.23303223,  2.78742981,end
timer_stats,697441422345812,PAPI_L3_TCM,0, 24.32574463,  2.79753113,end
timer_stats,697441423482928,PAPI_L3_TCM,0, 24.41595459,  2.80760193,end
timer_stats,697441424631718,PAPI_L3_TCM,2, 24.54876709,  2.81791687,end
timer_stats,697441425779818,PAPI_L3_TCM,0, 24.69293213,  2.83811951,end
timer_stats,697441426931021,PAPI_L3_TCM,2, 24.78234863,  2.84823608,end
timer_stats,697441428091934,PAPI_L3_TCM,2, 24.87261963,  2.85858154,end
timer_stats,697441429253254,PAPI_L3_TCM,2, 24.96661377,  2.86862182,end
timer_stats,697441430411617,PAPI_L3_TCM,0, 25.06097412,  2.87911987,end
timer_stats,697441431570110,PAPI_L3_TCM,1, 25.15100098,  2.88946533,end
timer_stats,697441432732520,PAPI_L3_TCM,3, 25.28088379,  2.90451050,end
timer_stats,697441433898669,PAPI_L3_TCM,3, 25.42584228,  2.91998291,end
timer_stats,697441435059163,PAPI_L3_TCM,0, 25.51306152,  2.93035889,end
timer_stats,697441436219436,PAPI_L3_TCM,3, 25.60656738,  2.94090271,end
timer_stats,697441437354033,PAPI_L3_TCM,0, 25.69659424,  2.95079040,end
timer_stats,697441438502616,PAPI_L3_TCM,2, 25.79162597,  2.96081543,end
timer_stats,697441439651919,PAPI_L3_TCM,0, 25.91937256,  2.97116089,end
timer_stats,697441441160689,PAPI_L3_TCM,1880, 26.05859375,  2.99179077,end
timer_stats,697441442319436,PAPI_L3_TCM,48, 26.14691162,  3.00189209,end
timer_stats,697441443477769,PAPI_L3_TCM,2, 26.23449707,  3.01223755,end
timer_stats,697441444635902,PAPI_L3_TCM,1, 26.32086182,  3.02258301,end
timer_stats,697441445793488,PAPI_L3_TCM,2, 26.50073242,  3.04272461,end
timer_stats,697441446953365,PAPI_L3_TCM,0, 26.59210205,  3.05302429,end
timer_stats,697441448065484,PAPI_L3_TCM,2, 26.67840576,  3.06315613,end
timer_stats,697441449187658,PAPI_L3_TCM,4, 26.77014160,  3.07347107,end
timer_stats,697441450350461,PAPI_L3_TCM,0, 26.86010742,  3.08326721,end
timer_stats,697441451513641,PAPI_L3_TCM,0, 26.93798828,  3.09211731,end
timer_stats,697441452639560,PAPI_L3_TCM,3, 27.05871582,  3.10086059,end
timer_stats,697441453788207,PAPI_L3_TCM,1, 27.19647217,  3.12048340,end
timer_stats,697441454960456,PAPI_L3_TCM,2, 27.28057861,  3.12924194,end
timer_stats,697441456093806,PAPI_L3_TCM,2, 27.36450195,  3.13827515,end
timer_stats,697441457266706,PAPI_L3_TCM,2, 27.45178222,  3.14724731,end
timer_stats,697441458444229,PAPI_L3_TCM,0, 27.52954101,  3.15609741,end
timer_stats,697441459610515,PAPI_L3_TCM,1, 27.61401367,  3.16510010,end
timer_stats,697441460779176,PAPI_L3_TCM,1, 27.78125000,  3.18572998,end
timer_stats,697441461946752,PAPI_L3_TCM,0, 27.86602783,  3.19424438,end
timer_stats,697441463116838,PAPI_L3_TCM,0, 27.94201660,  3.20309448,end
timer_stats,697441464291411,PAPI_L3_TCM,3, 28.02276611,  3.21188354,end
timer_stats,697441465479261,PAPI_L3_TCM,1, 28.10559082,  3.22042847,end
timer_stats,697441466668255,PAPI_L3_TCM,1, 28.18426514,  3.22921753,end
timer_stats,697441467859275,PAPI_L3_TCM,0, 28.34570312,  3.24938965,end
timer_stats,697441469053798,PAPI_L3_TCM,1, 28.42535400,  3.25817871,end
timer_stats,697441470231471,PAPI_L3_TCM,0, 28.50219726,  3.26699829,end
timer_stats,697441471409427,PAPI_L3_TCM,0, 28.58380127,  3.27575684,end
timer_stats,697441472587603,PAPI_L3_TCM,1, 28.66156006,  3.28457642,end
timer_stats,697441473789741,PAPI_L3_TCM,1, 28.76843262,  3.30322265,end
timer_stats,697441474982967,PAPI_L3_TCM,0, 28.89416504,  3.31207275,end
timer_stats,697441476176097,PAPI_L3_TCM,2, 28.97332764,  3.32107544,end
timer_stats,697441477366200,PAPI_L3_TCM,0, 29.05175781,  3.32987976,end
timer_stats,697441478556604,PAPI_L3_TCM,0, 29.12963867,  3.33843994,end
timer_stats,697441479748263,PAPI_L3_TCM,0, 29.20751953,  3.34722900,end
timer_stats,697441480930543,PAPI_L3_TCM,1, 29.36523437,  3.36785889,end
timer_stats,697441482120069,PAPI_L3_TCM,0, 29.44439697,  3.37664795,end
timer_stats,697441483295839,PAPI_L3_TCM,1, 29.52136230,  3.38543701,end
timer_stats,697441484458422,PAPI_L3_TCM,0, 29.60363769,  3.39489746,end
timer_stats,697441485622868,PAPI_L3_TCM,6, 29.69079590,  3.40539551,end
timer_stats,697441486785502,PAPI_L3_TCM,0, 29.80834961,  3.42581177,end
timer_stats,697441487981749,PAPI_L3_TCM,0, 29.93621826,  3.43463135,end
timer_stats,697441489167652,PAPI_L3_TCM,1, 30.01837158,  3.44314575,end
timer_stats,697441490344191,PAPI_L3_TCM,0, 30.10003662,  3.45191955,end
timer_stats,697441491519504,PAPI_L3_TCM,0, 30.18145752,  3.46049499,end
timer_stats,697441492708698,PAPI_L3_TCM,1, 30.26177978,  3.46929932,end
timer_stats,697441493899228,PAPI_L3_TCM,0, 30.42181396,  3.48922729,end
timer_stats,697441499237172,PAPI_L3_TCM,6, 30.81475830,  3.54051208,end
timer_stats,697441500399485,PAPI_L3_TCM,3, 30.89978027,  3.55101013,end
timer_stats,697441501575435,PAPI_L3_TCM,1, 30.98309326,  3.55924988,end
timer_stats,697441502753302,PAPI_L3_TCM,0, 31.08892822,  3.57331848,end
timer_stats,697441503931785,PAPI_L3_TCM,0, 31.21197510,  3.58706665,end
timer_stats,697441505095938,PAPI_L3_TCM,2, 31.29943848,  3.59732056,end
timer_stats,697441506271951,PAPI_L3_TCM,1, 31.37432861,  3.60598755,end
timer_stats,697441507407921,PAPI_L3_TCM,0, 31.45623779,  3.61601257,end
timer_stats,697441508586157,PAPI_L3_TCM,3, 31.52874756,  3.62495422,end
timer_stats,697441509767083,PAPI_L3_TCM,0, 31.63922119,  3.63893127,end
timer_stats,697441510947194,PAPI_L3_TCM,1, 31.76983643,  3.65257263,end
timer_stats,697441512125454,PAPI_L3_TCM,1, 31.84106445,  3.66151428,end
timer_stats,697441513299280,PAPI_L3_TCM,0, 31.92138672,  3.67008972,end
timer_stats,697441514498946,PAPI_L3_TCM,0, 32.00213623,  3.67835999,end
timer_stats,697441515690783,PAPI_L3_TCM,1, 32.10198974,  3.69093323,end
timer_stats,697441516884346,PAPI_L3_TCM,1, 32.22979736,  3.70460510,end
timer_stats,697441518077343,PAPI_L3_TCM,2, 32.30590820,  3.71342468,end
timer_stats,697441519267146,PAPI_L3_TCM,0, 32.38128662,  3.72200012,end
timer_stats,697441520417816,PAPI_L3_TCM,1, 32.45538330,  3.73081970,end
timer_stats,697441521567919,PAPI_L3_TCM,0, 32.53320312,  3.73941040,end
timer_stats,697441522746978,PAPI_L3_TCM,0, 32.64105224,  3.75292969,end
timer_stats,697441523942546,PAPI_L3_TCM,0, 32.76953125,  3.76635742,end
timer_stats,697441525135759,PAPI_L3_TCM,2, 32.84588623,  3.77490234,end
timer_stats,697441526327048,PAPI_L3_TCM,0, 32.91528320,  3.78384399,end
timer_stats,697441527516108,PAPI_L3_TCM,1, 32.99780273,  3.79257202,end
timer_stats,697441528707561,PAPI_L3_TCM,1, 33.06921387,  3.80142212,end
timer_stats,697441529902152,PAPI_L3_TCM,1, 33.18890381,  3.81626892,end
timer_stats,697441531093818,PAPI_L3_TCM,0, 33.29913330,  3.82987976,end
timer_stats,697441532285491,PAPI_L3_TCM,1, 33.37261963,  3.83866882,end
timer_stats,697441533477124,PAPI_L3_TCM,0, 33.44274902,  3.84739685,end
timer_stats,697441534668327,PAPI_L3_TCM,1, 33.52697754,  3.85562134,end
timer_stats,697441535862814,PAPI_L3_TCM,0, 33.67462158,  3.87435913,end
timer_stats,697441537056717,PAPI_L3_TCM,3, 33.74871826,  3.88293457,end
timer_stats,697441538248784,PAPI_L3_TCM,0, 33.82623291,  3.89147949,end
timer_stats,697441539440993,PAPI_L3_TCM,0, 33.89978027,  3.90028381,end
timer_stats,697441540634130,PAPI_L3_TCM,1, 33.97534180,  3.90907288,end
timer_stats,697441541826007,PAPI_L3_TCM,0, 34.11907959,  3.92826843,end
timer_stats,697441543021567,PAPI_L3_TCM,0, 34.19940185,  3.93675232,end
timer_stats,697441544213433,PAPI_L3_TCM,2, 34.26678467,  3.94572449,end
timer_stats,697441545404929,PAPI_L3_TCM,0, 34.34484863,  3.95445251,end
timer_stats,697441546598793,PAPI_L3_TCM,2, 34.42315674,  3.96318054,end
timer_stats,697441547763243,PAPI_L3_TCM,0, 34.49871826,  3.97172546,end
timer_stats,697441548959829,PAPI_L3_TCM,1, 34.64373779,  3.98545837,end
timer_stats,697441550149782,PAPI_L3_TCM,0, 34.71270752,  3.99913025,end
timer_stats,697441551341075,PAPI_L3_TCM,0, 34.79254150,  4.00785828,end
timer_stats,697441552534105,PAPI_L3_TCM,1, 34.86151123,  4.01679993,end
timer_stats,697441553727819,PAPI_L3_TCM,1, 34.93829346,  4.02555847,end
timer_stats,697441554934995,PAPI_L3_TCM,0, 35.01391601,  4.03944397,end
timer_stats,697441556118195,PAPI_L3_TCM,2, 35.16290283,  4.05397034,end
timer_stats,697441557311401,PAPI_L3_TCM,0, 35.23083496,  4.06291199,end
timer_stats,697441558489518,PAPI_L3_TCM,0, 35.30450439,  4.07170105,end
timer_stats,697441559669742,PAPI_L3_TCM,0, 35.38195801,  4.08021545,end
timer_stats,697441560849118,PAPI_L3_TCM,0, 35.47949219,  4.09788513,end
timer_stats,697441562031228,PAPI_L3_TCM,0, 35.60223389,  4.10643005,end
timer_stats,697441563212207,PAPI_L3_TCM,1, 35.68090820,  4.11540222,end
timer_stats,697441564407934,PAPI_L3_TCM,1, 35.75164795,  4.12431335,end
timer_stats,697441565602977,PAPI_L3_TCM,2, 35.82360840,  4.13313293,end
timer_stats,697441566796624,PAPI_L3_TCM,0, 35.92199707,  4.14559936,end
timer_stats,697441567991670,PAPI_L3_TCM,0, 36.05023193,  4.15948486,end
timer_stats,697441569186930,PAPI_L3_TCM,1, 36.12481689,  4.16827393,end
timer_stats,697441570380856,PAPI_L3_TCM,0, 36.20172119,  4.17680359,end
timer_stats,697441571561290,PAPI_L3_TCM,0, 36.27459717,  4.18641662,end
timer_stats,697441572743147,PAPI_L3_TCM,1, 36.35388184,  4.19517517,end
timer_stats,697441573940336,PAPI_L3_TCM,0, 36.47113037,  4.20918274,end
timer_stats,697441575137529,PAPI_L3_TCM,1, 36.56774902,  4.22471619,end
timer_stats,697441576332072,PAPI_L3_TCM,1, 36.64526367,  4.23347473,end
timer_stats,697441577526812,PAPI_L3_TCM,0, 36.72009277,  4.24224853,end
timer_stats,697441578729726,PAPI_L3_TCM,0, 36.79058838,  4.25108337,end
timer_stats,697441579922632,PAPI_L3_TCM,0, 36.86926270,  4.26554870,end
timer_stats,697441581125342,PAPI_L3_TCM,2, 37.01800537,  4.27598572,end
timer_stats,697441582318432,PAPI_L3_TCM,1, 37.10003662,  4.28450012,end
timer_stats,697441583512782,PAPI_L3_TCM,0, 37.17712402,  4.29350281,end
timer_stats,697441584705815,PAPI_L3_TCM,3, 37.25445557,  4.30247497,end
timer_stats,697441585902322,PAPI_L3_TCM,0, 37.35662842,  4.31153870,end
timer_stats,697441587085551,PAPI_L3_TCM,0, 37.47949219,  4.33064270,end
timer_stats,697441588279094,PAPI_L3_TCM,1, 37.55584717,  4.33915710,end
timer_stats,697441589446171,PAPI_L3_TCM,0, 37.63085937,  4.34776306,end
timer_stats,697441590629001,PAPI_L3_TCM,0, 37.70562744,  4.35679626,end
timer_stats,697441592409736,PAPI_L3_TCM,2, 37.86352539,  4.37429810,end
timer_stats,697441593559576,PAPI_L3_TCM,19, 37.93920898,  4.38464355,end
timer_stats,697441594697856,PAPI_L3_TCM,3, 38.01672363,  4.39343262,end
timer_stats,697441595833395,PAPI_L3_TCM,1, 38.09808349,  4.40219116,end
timer_stats,697441596971768,PAPI_L3_TCM,2, 38.25366211,  4.42131042,end
timer_stats,697441598108161,PAPI_L3_TCM,0, 38.33697510,  4.43006897,end
timer_stats,697441599244111,PAPI_L3_TCM,0, 38.42163086,  4.44035339,end
timer_stats,697441600354547,PAPI_L3_TCM,1, 38.50573730,  4.45088196,end
timer_stats,697441601463470,PAPI_L3_TCM,1, 38.58447265,  4.46054077,end
timer_stats,697441602574220,PAPI_L3_TCM,0, 38.67010498,  4.47082519,end
timer_stats,697441603709806,PAPI_L3_TCM,2, 38.75030517,  4.48114014,end
timer_stats,697441604833483,PAPI_L3_TCM,1, 38.83874512,  4.49139404,end
timer_stats,697441605958549,PAPI_L3_TCM,1, 39.00012207,  4.50643921,end
timer_stats,697441607081422,PAPI_L3_TCM,0, 39.08404541,  4.52189636,end
timer_stats,697441608203785,PAPI_L3_TCM,1, 39.16754150,  4.53192139,end
timer_stats,697441609298755,PAPI_L3_TCM,0, 39.24737549,  4.54202270,end
timer_stats,697441610421058,PAPI_L3_TCM,1, 39.33178711,  4.55230713,end
timer_stats,697441611542481,PAPI_L3_TCM,0, 39.40924072,  4.56221008,end
timer_stats,697441612665020,PAPI_L3_TCM,4, 39.49084473,  4.57209778,end
timer_stats,697441613786707,PAPI_L3_TCM,0, 39.57269287,  4.58244324,end
timer_stats,697441614922363,PAPI_L3_TCM,1, 39.70574951,  4.59765625,end
timer_stats,697441616058566,PAPI_L3_TCM,3, 39.82189941,  4.61248779,end
timer_stats,697441617165966,PAPI_L3_TCM,0, 39.90246582,  4.62283325,end
timer_stats,697441618300375,PAPI_L3_TCM,0, 39.98706055,  4.63287353,end
timer_stats,697441619434072,PAPI_L3_TCM,1, 40.07305908,  4.64317322,end
timer_stats,697441620555885,PAPI_L3_TCM,2, 40.14929199,  4.65354919,end
timer_stats,697441621679854,PAPI_L3_TCM,2, 40.23632812,  4.66313171,end
timer_stats,697441622801521,PAPI_L3_TCM,0, 40.32330322,  4.67341614,end
timer_stats,697441623945000,PAPI_L3_TCM,0, 40.48699951,  4.69514465,end
timer_stats,697441625082403,PAPI_L3_TCM,3, 40.57818604,  4.70539856,end
timer_stats,697441626226563,PAPI_L3_TCM,0, 40.65917969,  4.71598816,end
timer_stats,697441627362187,PAPI_L3_TCM,0, 40.74096680,  4.72476196,end
timer_stats,697441628497877,PAPI_L3_TCM,1, 40.81768799,  4.73356628,end
timer_stats,697441629631133,PAPI_L3_TCM,0, 40.89514160,  4.74368286,end
timer_stats,697441630766453,PAPI_L3_TCM,2, 40.96820068,  4.75248718,end
timer_stats,697441631901706,PAPI_L3_TCM,0, 41.04388428,  4.76106262,end
timer_stats,697441633044692,PAPI_L3_TCM,1, 41.20355225,  4.78172302,end
timer_stats,697441634163822,PAPI_L3_TCM,0, 41.28485107,  4.79045105,end
timer_stats,697441635282601,PAPI_L3_TCM,0, 41.35522461,  4.79908752,end
timer_stats,697441636413491,PAPI_L3_TCM,2, 41.43542480,  4.80760193,end
timer_stats,697441637545141,PAPI_L3_TCM,1, 41.50622559,  4.81776428,end
timer_stats,697441638679017,PAPI_L3_TCM,0, 41.58569336,  4.82652283,end
timer_stats,697441639811130,PAPI_L3_TCM,2, 41.65466309,  4.83512878,end
timer_stats,697441640946603,PAPI_L3_TCM,2, 41.77667236,  4.85037231,end
timer_stats,697441642065839,PAPI_L3_TCM,1, 41.87774658,  4.86535644,end
timer_stats,697441643183839,PAPI_L3_TCM,0, 41.95263672,  4.87414551,end
timer_stats,697441644295665,PAPI_L3_TCM,2, 42.02758789,  4.88291931,end
timer_stats,697441645390735,PAPI_L3_TCM,0, 42.10235596,  4.89170837,end
timer_stats,697441646501288,PAPI_L3_TCM,1, 42.17999268,  4.90020752,end
timer_stats,697441647611721,PAPI_L3_TCM,0, 42.24694824,  4.90881348,end
timer_stats,697441648723654,PAPI_L3_TCM,4, 42.32104492,  4.91760254,end
timer_stats,697441649833974,PAPI_L3_TCM,0, 42.39428711,  4.92639160,end
timer_stats,697441650945847,PAPI_L3_TCM,0, 42.54296875,  4.94186401,end
timer_stats,697441652056863,PAPI_L3_TCM,2, 42.61761474,  4.95579529,end
timer_stats,697441653164056,PAPI_L3_TCM,0, 42.69372559,  4.96456909,end
timer_stats,697441654298739,PAPI_L3_TCM,1, 42.76422119,  4.97338867,end
timer_stats,697441655420662,PAPI_L3_TCM,1, 42.83898926,  4.98220825,end
timer_stats,697441656545798,PAPI_L3_TCM,2, 42.91424560,  4.99099731,end
timer_stats,697441657672218,PAPI_L3_TCM,2, 42.99536133,  4.99996948,end
timer_stats,697441658783764,PAPI_L3_TCM,0, 43.07647705,  5.00874329,end
timer_stats,697441659896827,PAPI_L3_TCM,1, 43.15777588,  5.01774597,end
timer_stats,697441661013700,PAPI_L3_TCM,2, 43.31939697,  5.03837585,end
timer_stats,697441662094617,PAPI_L3_TCM,0, 43.40356445,  5.04866028,end
timer_stats,697441663218836,PAPI_L3_TCM,0, 43.48876953,  5.05738830,end
timer_stats,697441664345193,PAPI_L3_TCM,3, 43.56793213,  5.06573486,end
timer_stats,697441665453176,PAPI_L3_TCM,0, 43.64843750,  5.07453918,end
timer_stats,697441666577529,PAPI_L3_TCM,1, 43.73358154,  5.08308411,end
timer_stats,697441667703845,PAPI_L3_TCM,0, 43.81225586,  5.09193420,end
timer_stats,697441668922995,PAPI_L3_TCM,44, 43.92492676,  5.10560608,end
timer_stats,697441670108868,PAPI_L3_TCM,12, 44.06018066,  5.11978149,end
timer_stats,697441671221651,PAPI_L3_TCM,2, 44.14019775,  5.12832642,end
timer_stats,697441672337607,PAPI_L3_TCM,2, 44.22033691,  5.13739014,end
timer_stats,697441673422430,PAPI_L3_TCM,6, 44.30706787,  5.14788818,end
timer_stats,697441674547076,PAPI_L3_TCM,1, 44.38226318,  5.15625000,end
timer_stats,697441675671876,PAPI_L3_TCM,10, 44.46063232,  5.16503906,end
timer_stats,697441676795539,PAPI_L3_TCM,11, 44.54296875,  5.17398071,end
timer_stats,697441677909925,PAPI_L3_TCM,2, 44.61492920,  5.18280029,end
timer_stats,697441679023052,PAPI_L3_TCM,4, 44.72399902,  5.20388794,end
timer_stats,697441680136871,PAPI_L3_TCM,5, 44.85162353,  5.21286011,end
timer_stats,697441681244598,PAPI_L3_TCM,0, 44.93029785,  5.22181702,end
timer_stats,697441682710218,PAPI_L3_TCM,66, 44.99816894,  5.23091125,end
timer_stats,697441683982165,PAPI_L3_TCM,6, 45.10351562,  5.24433899,end
timer_stats,697441685109354,PAPI_L3_TCM,2, 45.22015381,  5.25694275,end
timer_stats,697441693755852,PAPI_L3_TCM,21, 45.79675293,  5.32826233,end
timer_stats,697441694892911,PAPI_L3_TCM,4, 45.87042236,  5.33732605,end
timer_stats,697441696012864,PAPI_L3_TCM,1, 45.95574951,  5.35321045,end
timer_stats,697441697129167,PAPI_L3_TCM,2, 46.11462402,  5.36891174,end
timer_stats,697441698224144,PAPI_L3_TCM,0, 46.19757080,  5.37919617,end
timer_stats,697441699319963,PAPI_L3_TCM,1, 46.28234863,  5.38945007,end
timer_stats,697441700416646,PAPI_L3_TCM,1, 46.36590576,  5.39994812,end
timer_stats,697441701531569,PAPI_L3_TCM,2, 46.43939209,  5.41053772,end
timer_stats,697441702624746,PAPI_L3_TCM,0, 46.51556396,  5.42082214,end
timer_stats,697441703722502,PAPI_L3_TCM,0, 46.59509277,  5.43132019,end
timer_stats,697441704820141,PAPI_L3_TCM,1, 46.67395020,  5.44078064,end
timer_stats,697441705914938,PAPI_L3_TCM,0, 46.74645996,  5.45164490,end
timer_stats,697441707027034,PAPI_L3_TCM,0, 46.87823486,  5.46731567,end
timer_stats,697441708136674,PAPI_L3_TCM,3, 46.99041748,  5.48168945,end
timer_stats,697441709232750,PAPI_L3_TCM,0, 47.07531738,  5.49176025,end
timer_stats,697441710346963,PAPI_L3_TCM,2, 47.15551758,  5.50056457,end
timer_stats,697441711440102,PAPI_L3_TCM,0, 47.24255371,  5.50932312,end
timer_stats,697441712545222,PAPI_L3_TCM,1, 47.32769775,  5.51988220,end
timer_stats,697441713663685,PAPI_L3_TCM,0, 47.42053223,  5.52836609,end
timer_stats,697441714792508,PAPI_L3_TCM,0, 47.50268555,  5.53742981,end
timer_stats,697441715913044,PAPI_L3_TCM,0, 47.59393310,  5.54640198,end
timer_stats,697441717024437,PAPI_L3_TCM,2, 47.77209473,  5.56721496,end
timer_stats,697441718107657,PAPI_L3_TCM,0, 47.86560059,  5.57749939,end
timer_stats,697441719216506,PAPI_L3_TCM,2, 47.95721435,  5.58647156,end
timer_stats,697441720325246,PAPI_L3_TCM,1, 48.05200195,  5.59544372,end
timer_stats,697441721464349,PAPI_L3_TCM,1, 48.14630127,  5.60636902,end
timer_stats,697441722582452,PAPI_L3_TCM,0, 48.23425293,  5.61558533,end
timer_stats,697441723715285,PAPI_L3_TCM,0, 48.32745361,  5.62455750,end
timer_stats,697441724848908,PAPI_L3_TCM,1, 48.41833496,  5.63482666,end
timer_stats,697441725984714,PAPI_L3_TCM,2, 48.56323242,  5.64874267,end
timer_stats,697441727121624,PAPI_L3_TCM,0, 48.70355224,  5.66436767,end
timer_stats,697441728228784,PAPI_L3_TCM,3, 48.80224609,  5.67486572,end
timer_stats,697441729323677,PAPI_L3_TCM,0, 48.90148926,  5.68508911,end
timer_stats,697441730442304,PAPI_L3_TCM,2, 48.99877930,  5.69381714,end
timer_stats,697441731561904,PAPI_L3_TCM,0, 49.09259033,  5.70431518,end
timer_stats,697441732683163,PAPI_L3_TCM,1, 49.18194580,  5.71310425,end
timer_stats,697441733802670,PAPI_L3_TCM,0, 49.26977539,  5.72213745,end
timer_stats,697441734914649,PAPI_L3_TCM,2, 49.35803223,  5.73094177,end
timer_stats,697441736036378,PAPI_L3_TCM,0, 49.48504638,  5.74125671,end
timer_stats,697441737132088,PAPI_L3_TCM,2, 49.62628174,  5.76087952,end
timer_stats,697441738251824,PAPI_L3_TCM,1, 49.71850586,  5.76962280,end
timer_stats,697441739387144,PAPI_L3_TCM,1, 49.80535889,  5.77844238,end
timer_stats,697441740508730,PAPI_L3_TCM,1, 49.89428711,  5.78701782,end
timer_stats,697441741629240,PAPI_L3_TCM,0, 49.97857666,  5.79583740,end
timer_stats,697441742719410,PAPI_L3_TCM,0, 50.06445312,  5.80488586,end
timer_stats,697441743827607,PAPI_L3_TCM,2, 50.15539551,  5.81410217,end
timer_stats,697441744936756,PAPI_L3_TCM,1, 50.24468994,  5.82307434,end
timer_stats,697441746055779,PAPI_L3_TCM,1, 50.38330078,  5.83900452,end
timer_stats,697441747175411,PAPI_L3_TCM,0, 50.51104736,  5.85447693,end
timer_stats,697441748310944,PAPI_L3_TCM,2, 50.59808350,  5.86491394,end
timer_stats,697441749407967,PAPI_L3_TCM,2, 50.68719482,  5.87341309,end
timer_stats,697441750530057,PAPI_L3_TCM,0, 50.77343750,  5.88220215,end
timer_stats,697441751637720,PAPI_L3_TCM,0, 50.85833740,  5.89102173,end
timer_stats,697441752761570,PAPI_L3_TCM,3, 50.95092773,  5.89999390,end
timer_stats,697441753883573,PAPI_L3_TCM,0, 51.03662109,  5.90879822,end
timer_stats,697441755006360,PAPI_L3_TCM,6, 51.12579346,  5.91731262,end
timer_stats,697441756121556,PAPI_L3_TCM,2, 51.30187988,  5.93304443,end
timer_stats,697441757219056,PAPI_L3_TCM,1, 51.38867187,  5.94677734,end
timer_stats,697441758312818,PAPI_L3_TCM,0, 51.47406006,  5.95559692,end
timer_stats,697441759421564,PAPI_L3_TCM,1, 51.56195068,  5.96458435,end
timer_stats,697441760542344,PAPI_L3_TCM,0, 51.64801025,  5.97358704,end
timer_stats,697441761664537,PAPI_L3_TCM,2, 51.73455810,  5.98234558,end
timer_stats,697441762773543,PAPI_L3_TCM,1, 51.82324219,  5.99089050,end
timer_stats,697441763894120,PAPI_L3_TCM,2, 51.91015625,  5.99967957,end
timer_stats,697441765029233,PAPI_L3_TCM,1, 51.99761963,  6.01390076,end
timer_stats,697441766135589,PAPI_L3_TCM,1, 52.17364502,  6.02911377,end
timer_stats,697441767258066,PAPI_L3_TCM,0, 52.26031494,  6.03768921,end
timer_stats,697441768396439,PAPI_L3_TCM,0, 52.35058594,  6.04644775,end
timer_stats,697441769529009,PAPI_L3_TCM,1, 52.43652344,  6.05526733,end
timer_stats,697441770638188,PAPI_L3_TCM,2, 52.52313232,  6.06454468,end
timer_stats,697441771760934,PAPI_L3_TCM,0, 52.60900879,  6.07334900,end
timer_stats,697441772881734,PAPI_L3_TCM,1, 52.69824219,  6.08213806,end
timer_stats,697441773979300,PAPI_L3_TCM,0, 52.78594971,  6.08732605,end
timer_stats,697441775102050,PAPI_L3_TCM,1, 52.92431640,  6.10226440,end
timer_stats,697441776225673,PAPI_L3_TCM,0, 53.04888916,  6.11795044,end
timer_stats,697441777332536,PAPI_L3_TCM,2, 53.13464355,  6.12670898,end
timer_stats,697441778450709,PAPI_L3_TCM,0, 53.21600342,  6.13574219,end
timer_stats,697441779570143,PAPI_L3_TCM,1, 53.30145264,  6.14450073,end
timer_stats,697441780703806,PAPI_L3_TCM,0, 53.38220215,  6.15332031,end
timer_stats,697441781834062,PAPI_L3_TCM,2, 53.46594238,  6.16207886,end
timer_stats,697441782954645,PAPI_L3_TCM,1, 53.55505371,  6.17056274,end
timer_stats,697441784074604,PAPI_L3_TCM,1, 53.68261719,  6.18460083,end
timer_stats,697441785180280,PAPI_L3_TCM,0, 53.80676270,  6.20002746,end
timer_stats,697441786298283,PAPI_L3_TCM,1, 53.89044189,  6.21005249,end
timer_stats,697441787416726,PAPI_L3_TCM,0, 53.97351074,  6.21884155,end
timer_stats,697441788537769,PAPI_L3_TCM,3, 54.05926514,  6.22781372,end
timer_stats,697441789657232,PAPI_L3_TCM,0, 54.13867187,  6.23663330,end
timer_stats,697441790789696,PAPI_L3_TCM,1, 54.21752930,  6.24520874,end
timer_stats,697441791919929,PAPI_L3_TCM,1, 54.30126953,  6.25393677,end
timer_stats,697441793028932,PAPI_L3_TCM,2, 54.37670898,  6.26303101,end
timer_stats,697441794134755,PAPI_L3_TCM,0, 54.50793457,  6.27851868,end
timer_stats,697441795311905,PAPI_L3_TCM,13, 54.62579346,  6.29243469,end
timer_stats,697441796490824,PAPI_L3_TCM,3, 54.70764160,  6.30122375,end
timer_stats,697441797667807,PAPI_L3_TCM,1, 54.78613281,  6.31022644,end
timer_stats,697441799078531,PAPI_L3_TCM,7, 54.91479492,  6.32417297,end
timer_stats,697441800229688,PAPI_L3_TCM,4, 55.02880859,  6.33827209,end
timer_stats,697441801380814,PAPI_L3_TCM,1, 55.10870361,  6.34858704,end
timer_stats,697441802566120,PAPI_L3_TCM,2, 55.19012451,  6.35908508,end
timer_stats,697441803729597,PAPI_L3_TCM,0, 55.26452637,  6.36915588,end
timer_stats,697441804891071,PAPI_L3_TCM,1, 55.34222412,  6.37922668,end
timer_stats,697441806083530,PAPI_L3_TCM,1, 55.42156982,  6.38954162,end
timer_stats,697441807263753,PAPI_L3_TCM,2, 55.58276367,  6.41014099,end
timer_stats,697441808428033,PAPI_L3_TCM,0, 55.66076660,  6.42024231,end
timer_stats,697441809620149,PAPI_L3_TCM,2, 55.74133301,  6.43034363,end
timer_stats,697441810808609,PAPI_L3_TCM,0, 55.81878662,  6.44047546,end
timer_stats,697441811985255,PAPI_L3_TCM,1, 55.89953613,  6.45075989,end
timer_stats,697441813149173,PAPI_L3_TCM,0, 56.05432129,  6.47099304,end
timer_stats,697441814341892,PAPI_L3_TCM,0, 56.13458252,  6.48158264,end
timer_stats,697441815505725,PAPI_L3_TCM,0, 56.21734619,  6.49137878,end
timer_stats,697441816670482,PAPI_L3_TCM,3, 56.29608154,  6.50193787,end
timer_stats,697441817860045,PAPI_L3_TCM,0, 56.37719726,  6.51179504,end
timer_stats,697441819054168,PAPI_L3_TCM,4, 56.45312500,  6.52168274,end
timer_stats,697441820228568,PAPI_L3_TCM,1, 56.61236572,  6.54129028,end
timer_stats,697441821366075,PAPI_L3_TCM,1, 56.69030762,  6.55162048,end
timer_stats,697441822544608,PAPI_L3_TCM,0, 56.76934814,  6.56172180,end
timer_stats,697441823708081,PAPI_L3_TCM,0, 56.85070801,  6.57225037,end
timer_stats,697441824877230,PAPI_L3_TCM,3, 56.93249512,  6.58253479,end
timer_stats,697441826044570,PAPI_L3_TCM,2, 57.01092529,  6.59288025,end
timer_stats,697441827210164,PAPI_L3_TCM,0, 57.17712402,  6.61369324,end
timer_stats,697441828375234,PAPI_L3_TCM,3, 57.26177978,  6.62373352,end
timer_stats,697441829551487,PAPI_L3_TCM,1, 57.34167480,  6.63432312,end
timer_stats,697441830727070,PAPI_L3_TCM,2, 57.42395020,  6.64439392,end
timer_stats,697441831835553,PAPI_L3_TCM,1, 57.50659180,  6.65493774,end
timer_stats,697441832978342,PAPI_L3_TCM,4, 57.59912109,  6.66543579,end
timer_stats,697441834117909,PAPI_L3_TCM,0, 57.68402099,  6.67526245,end
timer_stats,697441835255832,PAPI_L3_TCM,1, 57.86541748,  6.69583130,end
timer_stats,697441836421061,PAPI_L3_TCM,1, 57.94970703,  6.70614624,end
timer_stats,697441837585331,PAPI_L3_TCM,2, 58.03704834,  6.71646118,end
timer_stats,697441838746881,PAPI_L3_TCM,0, 58.12432861,  6.72653198,end
timer_stats,697441839911108,PAPI_L3_TCM,1, 58.21459961,  6.73706055,end
timer_stats,697441841065334,PAPI_L3_TCM,1, 58.29821777,  6.74743652,end
timer_stats,697441842227857,PAPI_L3_TCM,1, 58.47814941,  6.76802063,end
timer_stats,697441843390364,PAPI_L3_TCM,0, 58.56439209,  6.77835083,end
timer_stats,697441844542803,PAPI_L3_TCM,2, 58.65441895,  6.78839111,end
timer_stats,697441845721643,PAPI_L3_TCM,0, 58.74139404,  6.79895019,end
timer_stats,697441846886849,PAPI_L3_TCM,2, 58.82952881,  6.80923462,end
timer_stats,697441848050479,PAPI_L3_TCM,1, 58.91601562,  6.82040405,end
timer_stats,697441849188425,PAPI_L3_TCM,2, 59.08807373,  6.84100342,end
