timer_stats,697302675126088,PAPI_L3_TCM,126,  0.07830811,  0.00880432,end
timer_stats,697302676278713,PAPI_L3_TCM,30,  0.15850830,  0.01780701,end
timer_stats,697302677426104,PAPI_L3_TCM,3,  0.23815918,  0.02824402,end
timer_stats,697302678598503,PAPI_L3_TCM,15,  0.31585693,  0.03677368,end
timer_stats,697302679750594,PAPI_L3_TCM,6,  0.39965820,  0.04626465,end
timer_stats,697302680933319,PAPI_L3_TCM,5,  0.56066894,  0.06636047,end
timer_stats,697302682109254,PAPI_L3_TCM,21,  0.64001465,  0.07609558,end
timer_stats,697302683577367,PAPI_L3_TCM,54,  0.71905518,  0.08586121,end
timer_stats,697302684753381,PAPI_L3_TCM,7,  0.79260254,  0.09507751,end
timer_stats,697302685931099,PAPI_L3_TCM,9,  0.94580078,  0.11308288,end
timer_stats,697302687089638,PAPI_L3_TCM,4,  1.02429199,  0.12379456,end
timer_stats,697302688219376,PAPI_L3_TCM,9,  1.10473633,  0.13319397,end
timer_stats,697302689375604,PAPI_L3_TCM,5,  1.18835449,  0.14236450,end
timer_stats,697302690526538,PAPI_L3_TCM,10,  1.26678467,  0.15090942,end
timer_stats,697302691677137,PAPI_L3_TCM,7,  1.34130859,  0.16021728,end
timer_stats,697302692823261,PAPI_L3_TCM,10,  1.42779541,  0.16870117,end
timer_stats,697302693971926,PAPI_L3_TCM,1,  1.58972168,  0.18719482,end
timer_stats,697302695105317,PAPI_L3_TCM,8,  1.67254638,  0.19816589,end
timer_stats,697302696232709,PAPI_L3_TCM,1,  1.75476074,  0.20812988,end
timer_stats,697302697365286,PAPI_L3_TCM,1,  1.83728027,  0.21868896,end
timer_stats,697302698524795,PAPI_L3_TCM,0,  1.91711426,  0.22903442,end
timer_stats,697302699681816,PAPI_L3_TCM,1,  2.00451660,  0.23928833,end
timer_stats,697302700828895,PAPI_L3_TCM,0,  2.14215088,  0.25492859,end
timer_stats,697302701986292,PAPI_L3_TCM,2,  2.27526855,  0.26988220,end
timer_stats,697302703141784,PAPI_L3_TCM,0,  2.36358642,  0.27995300,end
timer_stats,697302704273529,PAPI_L3_TCM,2,  2.45184326,  0.29008484,end
timer_stats,697302705407184,PAPI_L3_TCM,0,  2.54644775,  0.30059814,end
timer_stats,697302706570654,PAPI_L3_TCM,1,  2.64105225,  0.31060791,end
timer_stats,697302707728583,PAPI_L3_TCM,0,  2.73303223,  0.32156372,end
timer_stats,697302708877608,PAPI_L3_TCM,2,  2.87890625,  0.33746338,end
timer_stats,697302710035413,PAPI_L3_TCM,0,  3.01464844,  0.35440063,end
timer_stats,697302711193691,PAPI_L3_TCM,2,  3.11291504,  0.36535644,end
timer_stats,697302712303468,PAPI_L3_TCM,2,  3.21002197,  0.37557983,end
timer_stats,697302713437083,PAPI_L3_TCM,2,  3.29925537,  0.38546753,end
timer_stats,697302714603542,PAPI_L3_TCM,0,  3.38574219,  0.39645386,end
timer_stats,697302715737946,PAPI_L3_TCM,1,  3.47119140,  0.40673828,end
timer_stats,697302716873011,PAPI_L3_TCM,1,  3.60632324,  0.42172241,end
timer_stats,697302718005299,PAPI_L3_TCM,1,  3.74346924,  0.43713379,end
timer_stats,697302719139096,PAPI_L3_TCM,0,  3.83746338,  0.44766235,end
timer_stats,697302720274891,PAPI_L3_TCM,2,  3.92828369,  0.45751953,end
timer_stats,697302721414502,PAPI_L3_TCM,0,  4.02117920,  0.46762085,end
timer_stats,697302722550090,PAPI_L3_TCM,2,  4.11810303,  0.47790527,end
timer_stats,697302723682349,PAPI_L3_TCM,1,  4.21606445,  0.48818970,end
timer_stats,697302724817580,PAPI_L3_TCM,2,  4.30792236,  0.49829102,end
timer_stats,697302725988688,PAPI_L3_TCM,0,  4.48754883,  0.51849365,end
timer_stats,697302727151926,PAPI_L3_TCM,1,  4.57336426,  0.52905273,end
timer_stats,697302728303931,PAPI_L3_TCM,1,  4.65734863,  0.53762817,end
timer_stats,697302729456473,PAPI_L3_TCM,3,  4.74481201,  0.54620361,end
timer_stats,697302730615258,PAPI_L3_TCM,0,  4.82696533,  0.55480957,end
timer_stats,697302731761748,PAPI_L3_TCM,2,  4.91204834,  0.56338501,end
timer_stats,697302732908197,PAPI_L3_TCM,1,  5.04431152,  0.57238769,end
timer_stats,697302734058755,PAPI_L3_TCM,1,  5.16143799,  0.59057617,end
timer_stats,697302735210823,PAPI_L3_TCM,0,  5.24743652,  0.59931946,end
timer_stats,697302736360508,PAPI_L3_TCM,2,  5.33245850,  0.60832214,end
timer_stats,697302737521169,PAPI_L3_TCM,0,  5.41668701,  0.61735535,end
timer_stats,697302738671124,PAPI_L3_TCM,2,  5.50280762,  0.62634277,end
timer_stats,697302739823792,PAPI_L3_TCM,0,  5.58337402,  0.63537598,end
timer_stats,697302740971737,PAPI_L3_TCM,3,  5.75054931,  0.64883423,end
timer_stats,697302742129158,PAPI_L3_TCM,0,  5.83282471,  0.65832519,end
timer_stats,697302743289236,PAPI_L3_TCM,1,  5.91381836,  0.66665649,end
timer_stats,697302744436998,PAPI_L3_TCM,0,  5.99298096,  0.67547607,end
timer_stats,697302745594460,PAPI_L3_TCM,1,  6.07855225,  0.68423462,end
timer_stats,697302746728304,PAPI_L3_TCM,0,  6.15710449,  0.69284057,end
timer_stats,697302747873672,PAPI_L3_TCM,2,  6.24072266,  0.70161438,end
timer_stats,697302749021306,PAPI_L3_TCM,0,  6.40057373,  0.71875000,end
timer_stats,697302750175544,PAPI_L3_TCM,2,  6.48352051,  0.72750854,end
timer_stats,697302751337066,PAPI_L3_TCM,0,  6.56402588,  0.73652649,end
timer_stats,697302752496714,PAPI_L3_TCM,3,  6.64312744,  0.74488831,end
timer_stats,697302753665939,PAPI_L3_TCM,1,  6.72558594,  0.75364685,end
timer_stats,697302754820274,PAPI_L3_TCM,1,  6.80664062,  0.76194763,end
timer_stats,697302755975105,PAPI_L3_TCM,0,  6.96386719,  0.77955627,end
timer_stats,697302757137870,PAPI_L3_TCM,2,  7.04663086,  0.78810119,end
timer_stats,697302758299712,PAPI_L3_TCM,0,  7.12463379,  0.79670715,end
timer_stats,697302759460170,PAPI_L3_TCM,3,  7.20703125,  0.80525207,end
timer_stats,697302760638095,PAPI_L3_TCM,0,  7.28942871,  0.81401062,end
timer_stats,697302761795746,PAPI_L3_TCM,1,  7.36743164,  0.82284546,end
timer_stats,697302762954641,PAPI_L3_TCM,1,  7.52337646,  0.84042358,end
timer_stats,697302764113979,PAPI_L3_TCM,1,  7.60253906,  0.84922791,end
timer_stats,697302765273547,PAPI_L3_TCM,0,  7.67938232,  0.85804748,end
timer_stats,697302766432752,PAPI_L3_TCM,2,  7.76184082,  0.86631775,end
timer_stats,697302767592970,PAPI_L3_TCM,1,  7.84045410,  0.87489319,end
timer_stats,697302768754225,PAPI_L3_TCM,2,  7.91912842,  0.88368225,end
timer_stats,697302769913673,PAPI_L3_TCM,0,  8.08117676,  0.90124512,end
timer_stats,697302771071498,PAPI_L3_TCM,1,  8.16424560,  0.91000366,end
timer_stats,697302772230526,PAPI_L3_TCM,1,  8.24395752,  0.91879272,end
timer_stats,697302773383884,PAPI_L3_TCM,1,  8.32598877,  0.92781067,end
timer_stats,697302774543412,PAPI_L3_TCM,0,  8.40667724,  0.93681335,end
timer_stats,697302775703740,PAPI_L3_TCM,2,  8.48828125,  0.94532776,end
timer_stats,697302776864194,PAPI_L3_TCM,0,  8.56439209,  0.95391846,end
timer_stats,697302778024456,PAPI_L3_TCM,3,  8.72454834,  0.97106934,end
timer_stats,697302779184184,PAPI_L3_TCM,0,  8.80310058,  0.97966003,end
timer_stats,697302780344269,PAPI_L3_TCM,1,  8.88433838,  0.98774719,end
timer_stats,697302781502624,PAPI_L3_TCM,0,  8.96026611,  0.99635315,end
timer_stats,697302782663112,PAPI_L3_TCM,2,  9.03784180,  1.00495910,end
timer_stats,697302783821863,PAPI_L3_TCM,0,  9.11804199,  1.01373291,end
timer_stats,697302784980965,PAPI_L3_TCM,2,  9.27636719,  1.03086853,end
timer_stats,697302786139587,PAPI_L3_TCM,2,  9.35791016,  1.04011535,end
timer_stats,697302787288468,PAPI_L3_TCM,2,  9.44262695,  1.04911804,end
timer_stats,697302788437172,PAPI_L3_TCM,0,  9.52258301,  1.05743408,end
timer_stats,697302789596494,PAPI_L3_TCM,1,  9.60260010,  1.06532287,end
timer_stats,697302790745462,PAPI_L3_TCM,0,  9.67883301,  1.07389831,end
timer_stats,697302795129484,PAPI_L3_TCM,76, 10.07312012,  1.11903381,end
timer_stats,697302796297339,PAPI_L3_TCM,2, 10.15484619,  1.12756348,end
timer_stats,697302797457194,PAPI_L3_TCM,2, 10.23529053,  1.13589477,end
timer_stats,697302798617251,PAPI_L3_TCM,0, 10.31158447,  1.14448547,end
timer_stats,697302799778536,PAPI_L3_TCM,3, 10.39422607,  1.15325928,end
timer_stats,697302800943861,PAPI_L3_TCM,0, 10.52056885,  1.16337585,end
timer_stats,697302802105083,PAPI_L3_TCM,1, 10.64172363,  1.18356323,end
timer_stats,697302803268470,PAPI_L3_TCM,1, 10.72375488,  1.19387817,end
timer_stats,697302804430478,PAPI_L3_TCM,1, 10.81054687,  1.20414734,end
timer_stats,697302805598700,PAPI_L3_TCM,1, 10.89434814,  1.21444702,end
timer_stats,697302806762418,PAPI_L3_TCM,2, 10.97955322,  1.22476196,end
timer_stats,697302807924180,PAPI_L3_TCM,0, 11.10162353,  1.24002075,end
timer_stats,697302809087008,PAPI_L3_TCM,3, 11.23303223,  1.25526428,end
timer_stats,697302810249416,PAPI_L3_TCM,0, 11.31579590,  1.26539612,end
timer_stats,697302811413074,PAPI_L3_TCM,1, 11.40240478,  1.27546692,end
timer_stats,697302812549186,PAPI_L3_TCM,0, 11.48382568,  1.28535461,end
timer_stats,697302813683594,PAPI_L3_TCM,1, 11.57287598,  1.29536438,end
timer_stats,697302814846488,PAPI_L3_TCM,1, 11.65350342,  1.30549622,end
timer_stats,697302816019973,PAPI_L3_TCM,2, 11.82287598,  1.32589721,end
timer_stats,697302817179448,PAPI_L3_TCM,0, 11.90942383,  1.33575439,end
timer_stats,697302818343690,PAPI_L3_TCM,4, 11.99218750,  1.34585571,end
timer_stats,697302819506751,PAPI_L3_TCM,0, 12.08093262,  1.35589600,end
timer_stats,697302820674300,PAPI_L3_TCM,2, 12.16284180,  1.36578369,end
timer_stats,697302821835237,PAPI_L3_TCM,0, 12.24383545,  1.37567139,end
timer_stats,697302822995535,PAPI_L3_TCM,1, 12.41381836,  1.39657593,end
timer_stats,697302824158160,PAPI_L3_TCM,0, 12.49877930,  1.40667725,end
timer_stats,697302825333419,PAPI_L3_TCM,168, 12.58984375,  1.41647339,end
timer_stats,697302826495959,PAPI_L3_TCM,1, 12.67248535,  1.42611694,end
timer_stats,697302827657108,PAPI_L3_TCM,2, 12.75762939,  1.43621826,end
timer_stats,697302828818653,PAPI_L3_TCM,0, 12.84716797,  1.44628906,end
timer_stats,697302829980998,PAPI_L3_TCM,2, 12.97857666,  1.46130371,end
timer_stats,697302831143275,PAPI_L3_TCM,0, 13.10290527,  1.47637939,end
timer_stats,697302832306250,PAPI_L3_TCM,2, 13.18579101,  1.48651123,end
timer_stats,697302833467698,PAPI_L3_TCM,0, 13.27362060,  1.49682617,end
timer_stats,697302834632033,PAPI_L3_TCM,2, 13.36254883,  1.50689697,end
timer_stats,697302835765765,PAPI_L3_TCM,0, 13.45104980,  1.51721191,end
timer_stats,697302836900979,PAPI_L3_TCM,2, 13.53308105,  1.52731323,end
timer_stats,697302838062347,PAPI_L3_TCM,1, 13.70794678,  1.54812622,end
timer_stats,697302839223962,PAPI_L3_TCM,1, 13.79797363,  1.55374145,end
timer_stats,697302840387591,PAPI_L3_TCM,0, 13.88684082,  1.56330872,end
timer_stats,697302841549526,PAPI_L3_TCM,2, 13.97442627,  1.57460022,end
timer_stats,697302842709580,PAPI_L3_TCM,0, 14.06115723,  1.58515930,end
timer_stats,697302843871098,PAPI_L3_TCM,2, 14.15106201,  1.59519958,end
timer_stats,697302845011140,PAPI_L3_TCM,1, 14.29095459,  1.61155701,end
timer_stats,697302846163365,PAPI_L3_TCM,2, 14.42663574,  1.62675476,end
timer_stats,697302847316396,PAPI_L3_TCM,0, 14.52185058,  1.63728333,end
timer_stats,697302848471257,PAPI_L3_TCM,1, 14.60858154,  1.64765930,end
timer_stats,697302849637989,PAPI_L3_TCM,1, 14.70056152,  1.65773010,end
timer_stats,697302850789860,PAPI_L3_TCM,1, 14.78900146,  1.66806030,end
timer_stats,697302851942572,PAPI_L3_TCM,1, 14.87811279,  1.67861938,end
timer_stats,697302853095333,PAPI_L3_TCM,2, 15.06542969,  1.69956970,end
timer_stats,697302854228331,PAPI_L3_TCM,0, 15.15740967,  1.70964050,end
timer_stats,697302855361182,PAPI_L3_TCM,2, 15.24670410,  1.71972656,end
timer_stats,697302856496150,PAPI_L3_TCM,1, 15.33715820,  1.72961426,end
timer_stats,697302857633995,PAPI_L3_TCM,1, 15.42822266,  1.73947143,end
timer_stats,697302858767543,PAPI_L3_TCM,0, 15.52789307,  1.74948120,end
timer_stats,697302859899667,PAPI_L3_TCM,1, 15.60919189,  1.75988769,end
timer_stats,697302861034049,PAPI_L3_TCM,0, 15.74554443,  1.77468872,end
timer_stats,697302862167444,PAPI_L3_TCM,3, 15.89044189,  1.78967285,end
timer_stats,697302863321311,PAPI_L3_TCM,0, 15.97857666,  1.80023193,end
timer_stats,697302864455516,PAPI_L3_TCM,3, 16.07531738,  1.81051636,end
timer_stats,697302865590278,PAPI_L3_TCM,0, 16.17352295,  1.82055664,end
timer_stats,697302866723636,PAPI_L3_TCM,1, 16.26922607,  1.83035278,end
timer_stats,697302867854370,PAPI_L3_TCM,0, 16.36413574,  1.84042358,end
timer_stats,697302868987872,PAPI_L3_TCM,2, 16.47125244,  1.85043335,end
timer_stats,697302870118584,PAPI_L3_TCM,0, 16.65173340,  1.87020874,end
timer_stats,697302871265544,PAPI_L3_TCM,2, 16.74774170,  1.88031006,end
timer_stats,697302872370096,PAPI_L3_TCM,3, 16.84613037,  1.89172363,end
timer_stats,697302873507258,PAPI_L3_TCM,3, 16.94763183,  1.90155029,end
timer_stats,697302874659395,PAPI_L3_TCM,0, 17.04675293,  1.91165161,end
timer_stats,697302875809380,PAPI_L3_TCM,1, 17.14477539,  1.92196655,end
timer_stats,697302876959112,PAPI_L3_TCM,1, 17.23919678,  1.93185425,end
timer_stats,697302878108163,PAPI_L3_TCM,1, 17.43225098,  1.95156860,end
timer_stats,697302879257355,PAPI_L3_TCM,0, 17.52453613,  1.96170044,end
timer_stats,697302880388429,PAPI_L3_TCM,3, 17.61981201,  1.97204590,end
timer_stats,697302881522511,PAPI_L3_TCM,0, 17.73345947,  1.98272705,end
timer_stats,697302882672428,PAPI_L3_TCM,2, 17.81958008,  1.99330139,end
timer_stats,697302883824126,PAPI_L3_TCM,0, 17.92199707,  2.00331116,end
timer_stats,697302884974425,PAPI_L3_TCM,2, 18.01879883,  2.01390076,end
timer_stats,697302886130592,PAPI_L3_TCM,0, 18.21118164,  2.03388977,end
timer_stats,697302887281444,PAPI_L3_TCM,1, 18.30786133,  2.04374695,end
timer_stats,697302888431109,PAPI_L3_TCM,1, 18.40289307,  2.05363464,end
timer_stats,697302889585170,PAPI_L3_TCM,2, 18.49792480,  2.06376648,end
timer_stats,697302890736279,PAPI_L3_TCM,0, 18.59509277,  2.07356262,end
timer_stats,697302891885806,PAPI_L3_TCM,2, 18.69274902,  2.08387756,end
timer_stats,697302893036938,PAPI_L3_TCM,1, 18.84344482,  2.09367371,end
timer_stats,697302894189136,PAPI_L3_TCM,1, 18.93774414,  2.11369324,end
timer_stats,697302895340591,PAPI_L3_TCM,0, 19.07336426,  2.12388611,end
timer_stats,697302896492829,PAPI_L3_TCM,2, 19.18157959,  2.13386536,end
timer_stats,697302897630130,PAPI_L3_TCM,0, 19.26715088,  2.14405823,end
timer_stats,697302898762702,PAPI_L3_TCM,2, 19.37023926,  2.15455627,end
timer_stats,697302899868526,PAPI_L3_TCM,0, 19.46350097,  2.16485596,end
timer_stats,697302900999961,PAPI_L3_TCM,3, 19.55432129,  2.17517090,end
timer_stats,697302902139872,PAPI_L3_TCM,0, 19.74163818,  2.19073486,end
timer_stats,697302903271247,PAPI_L3_TCM,1, 19.83233643,  2.20646667,end
timer_stats,697302904394641,PAPI_L3_TCM,0, 19.93621826,  2.21690369,end
timer_stats,697302905527636,PAPI_L3_TCM,2, 20.02227783,  2.22749328,end
timer_stats,697302906667381,PAPI_L3_TCM,0, 20.11932373,  2.23802185,end
timer_stats,697302907802209,PAPI_L3_TCM,2, 20.20825195,  2.24766540,end
timer_stats,697302908952097,PAPI_L3_TCM,2, 20.29846191,  2.25645447,end
timer_stats,697302910101175,PAPI_L3_TCM,2, 20.43792725,  2.27192688,end
timer_stats,697302911253183,PAPI_L3_TCM,0, 20.56646728,  2.28585815,end
timer_stats,697302912407144,PAPI_L3_TCM,3, 20.67010498,  2.29452515,end
timer_stats,697302913575086,PAPI_L3_TCM,0, 20.74597168,  2.30519104,end
timer_stats,697302914726748,PAPI_L3_TCM,1, 20.83758545,  2.31370544,end
timer_stats,697302915890312,PAPI_L3_TCM,1, 20.93725586,  2.32240295,end
timer_stats,697302917054097,PAPI_L3_TCM,3, 21.01239014,  2.33128357,end
timer_stats,697302918220262,PAPI_L3_TCM,0, 21.19635010,  2.35185242,end
timer_stats,697302919375847,PAPI_L3_TCM,2, 21.27661133,  2.36070251,end
timer_stats,697302920542188,PAPI_L3_TCM,0, 21.38006592,  2.36936951,end
timer_stats,697302921700806,PAPI_L3_TCM,3, 21.45623779,  2.38044739,end
timer_stats,697302922865567,PAPI_L3_TCM,0, 21.55749512,  2.39019775,end
timer_stats,697302924038259,PAPI_L3_TCM,1, 21.63024902,  2.39910889,end
timer_stats,697302925181164,PAPI_L3_TCM,1, 21.76562500,  2.41426086,end
timer_stats,697302926344319,PAPI_L3_TCM,2, 21.89746094,  2.42825317,end
timer_stats,697302927509534,PAPI_L3_TCM,0, 21.97619629,  2.43687439,end
timer_stats,697302928668421,PAPI_L3_TCM,3, 22.06243896,  2.44544983,end
timer_stats,697302929833363,PAPI_L3_TCM,0, 22.15637207,  2.45550537,end
timer_stats,697302930990265,PAPI_L3_TCM,1, 22.23571777,  2.46435547,end
timer_stats,697302932150266,PAPI_L3_TCM,1, 22.35321045,  2.47836304,end
timer_stats,697302933288895,PAPI_L3_TCM,1, 22.49914551,  2.49334717,end
timer_stats,697302934444909,PAPI_L3_TCM,0, 22.58251953,  2.50215149,end
timer_stats,697302935600417,PAPI_L3_TCM,2, 22.66748047,  2.51094055,end
timer_stats,697302940808358,PAPI_L3_TCM,56, 23.05908203,  2.55230713,end
timer_stats,697302941965873,PAPI_L3_TCM,6, 23.15277100,  2.56253052,end
timer_stats,697302943124785,PAPI_L3_TCM,2, 23.25817871,  2.57141113,end
timer_stats,697302944285943,PAPI_L3_TCM,2, 23.39935303,  2.58981323,end
timer_stats,697302945449044,PAPI_L3_TCM,1, 23.48388672,  2.59988403,end
timer_stats,697302946617122,PAPI_L3_TCM,2, 23.56707764,  2.60864258,end
timer_stats,697302947782214,PAPI_L3_TCM,1, 23.64465332,  2.61746216,end
timer_stats,697302948947022,PAPI_L3_TCM,4, 23.72595215,  2.62557983,end
timer_stats,697302950117714,PAPI_L3_TCM,0, 23.80950928,  2.63566589,end
timer_stats,697302951283759,PAPI_L3_TCM,2, 23.92437744,  2.65559387,end
timer_stats,697302952449177,PAPI_L3_TCM,1, 24.05676269,  2.66419983,end
timer_stats,697302953619131,PAPI_L3_TCM,1, 24.14318848,  2.67445373,end
timer_stats,697302954778349,PAPI_L3_TCM,0, 24.22674561,  2.68299866,end
timer_stats,697302955935484,PAPI_L3_TCM,2, 24.30853271,  2.69232178,end
timer_stats,697302957101833,PAPI_L3_TCM,0, 24.39312744,  2.70109558,end
timer_stats,697302958263391,PAPI_L3_TCM,2, 24.50634766,  2.71507263,end
timer_stats,697302959430179,PAPI_L3_TCM,0, 24.64007568,  2.72903442,end
timer_stats,697302960591793,PAPI_L3_TCM,4, 24.71588135,  2.73741150,end
timer_stats,697302961755258,PAPI_L3_TCM,0, 24.79785156,  2.74728394,end
timer_stats,697302962911646,PAPI_L3_TCM,2, 24.87847900,  2.75585937,end
timer_stats,697302964073761,PAPI_L3_TCM,0, 24.96221924,  2.76440430,end
timer_stats,697302965210022,PAPI_L3_TCM,2, 25.08337402,  2.78096008,end
timer_stats,697302966370074,PAPI_L3_TCM,1, 25.21099853,  2.79692077,end
timer_stats,697302967529469,PAPI_L3_TCM,2, 25.29156494,  2.80207825,end
timer_stats,697302968697180,PAPI_L3_TCM,1, 25.37219238,  2.81042480,end
timer_stats,697302969865488,PAPI_L3_TCM,2, 25.45147705,  2.81536865,end
timer_stats,697302971026893,PAPI_L3_TCM,0, 25.53576660,  2.82412720,end
timer_stats,697302972199275,PAPI_L3_TCM,2, 25.64691162,  2.83963013,end
timer_stats,697302973374513,PAPI_L3_TCM,0, 25.78558350,  2.85485840,end
timer_stats,697302974537275,PAPI_L3_TCM,2, 25.85894775,  2.86322021,end
timer_stats,697302975716519,PAPI_L3_TCM,1, 25.93273926,  2.87207031,end
timer_stats,697302977249302,PAPI_L3_TCM,1714, 26.08807373,  2.89114380,end
timer_stats,697302978438194,PAPI_L3_TCM,52, 26.17065430,  2.89968872,end
timer_stats,697302979614772,PAPI_L3_TCM,3, 26.24694824,  2.90849304,end
timer_stats,697302980795501,PAPI_L3_TCM,4, 26.31890869,  2.91758728,end
timer_stats,697302981979482,PAPI_L3_TCM,1, 26.40148926,  2.92742920,end
timer_stats,697302983158146,PAPI_L3_TCM,2, 26.50982666,  2.94139099,end
timer_stats,697302984315621,PAPI_L3_TCM,7, 26.58551025,  2.94972229,end
timer_stats,697302985534870,PAPI_L3_TCM,2, 26.70904541,  2.96473694,end
timer_stats,697302986718308,PAPI_L3_TCM,4, 26.77978515,  2.97309875,end
timer_stats,697302987902240,PAPI_L3_TCM,2, 26.85571289,  2.98167419,end
timer_stats,697302989079498,PAPI_L3_TCM,3, 26.93450928,  2.99040222,end
timer_stats,697302990263129,PAPI_L3_TCM,0, 27.02929687,  3.00552368,end
timer_stats,697302991449900,PAPI_L3_TCM,2, 27.15350342,  3.01922607,end
timer_stats,697302992622409,PAPI_L3_TCM,2, 27.22766113,  3.02828979,end
timer_stats,697302993808060,PAPI_L3_TCM,2, 27.30383301,  3.03837585,end
timer_stats,697302994993665,PAPI_L3_TCM,1, 27.37561035,  3.04696655,end
timer_stats,697302996148874,PAPI_L3_TCM,4, 27.47515869,  3.06118774,end
timer_stats,697302997317125,PAPI_L3_TCM,0, 27.60131836,  3.07618713,end
timer_stats,697302998501023,PAPI_L3_TCM,2, 27.66815185,  3.08503723,end
timer_stats,697302999681468,PAPI_L3_TCM,1, 27.74517822,  3.09381103,end
timer_stats,697303000870049,PAPI_L3_TCM,3, 27.81616211,  3.10238647,end
timer_stats,697303002058704,PAPI_L3_TCM,0, 27.89184570,  3.11091614,end
timer_stats,697303003245629,PAPI_L3_TCM,1, 28.03533935,  3.12985229,end
timer_stats,697303004435704,PAPI_L3_TCM,1, 28.10827637,  3.13865661,end
timer_stats,697303005623966,PAPI_L3_TCM,2, 28.18060303,  3.14744568,end
timer_stats,697303006811651,PAPI_L3_TCM,1, 28.25225830,  3.15263367,end
timer_stats,697303007998943,PAPI_L3_TCM,3, 28.32855225,  3.16140747,end
timer_stats,697303009199191,PAPI_L3_TCM,2, 28.42932129,  3.17533874,end
timer_stats,697303010389713,PAPI_L3_TCM,2, 28.54028320,  3.18888855,end
timer_stats,697303011572554,PAPI_L3_TCM,1, 28.61346435,  3.19767761,end
timer_stats,697303012754886,PAPI_L3_TCM,3, 28.68658447,  3.20646667,end
timer_stats,697303013944467,PAPI_L3_TCM,0, 28.75921631,  3.21507263,end
timer_stats,697303015112205,PAPI_L3_TCM,2, 28.83306885,  3.22386169,end
timer_stats,697303016270163,PAPI_L3_TCM,0, 28.93542480,  3.24427795,end
timer_stats,697303017427632,PAPI_L3_TCM,4, 29.06420898,  3.25413513,end
timer_stats,697303018587412,PAPI_L3_TCM,0, 29.13714600,  3.26469421,end
timer_stats,697303019744044,PAPI_L3_TCM,1, 29.21197510,  3.27476501,end
timer_stats,697303020910259,PAPI_L3_TCM,1, 29.28668213,  3.28486633,end
timer_stats,697303022099041,PAPI_L3_TCM,1, 29.36163330,  3.29518127,end
timer_stats,697303024928716,PAPI_L3_TCM,39, 29.57678223,  3.32609558,end
timer_stats,697303026095353,PAPI_L3_TCM,5, 29.64843750,  3.33641052,end
timer_stats,697303027285865,PAPI_L3_TCM,1, 29.79284668,  3.35639953,end
timer_stats,697303028452377,PAPI_L3_TCM,3, 29.86901855,  3.36671448,end
timer_stats,697303029646442,PAPI_L3_TCM,0, 29.94757080,  3.37678528,end
timer_stats,697303030827213,PAPI_L3_TCM,1, 30.02056885,  3.38710022,end
timer_stats,697303032022112,PAPI_L3_TCM,1, 30.09503174,  3.39744568,end
timer_stats,697303033178493,PAPI_L3_TCM,1, 30.20013428,  3.41288757,end
timer_stats,697303034369758,PAPI_L3_TCM,1, 30.31945801,  3.42814636,end
timer_stats,697303035554197,PAPI_L3_TCM,2, 30.39270019,  3.43800354,end
timer_stats,697303036728411,PAPI_L3_TCM,0, 30.47045898,  3.44850159,end
timer_stats,697303037901842,PAPI_L3_TCM,2, 30.54187012,  3.45857239,end
timer_stats,697303039077171,PAPI_L3_TCM,0, 30.61560058,  3.46870422,end
timer_stats,697303040253156,PAPI_L3_TCM,2, 30.75738525,  3.48915100,end
timer_stats,697303041439121,PAPI_L3_TCM,0, 30.82995605,  3.49926758,end
timer_stats,697303042624446,PAPI_L3_TCM,1, 30.90081787,  3.50762939,end
timer_stats,697303043817977,PAPI_L3_TCM,0, 30.97296143,  3.51640320,end
timer_stats,697303045012816,PAPI_L3_TCM,3, 31.04638672,  3.52517700,end
timer_stats,697303046211087,PAPI_L3_TCM,0, 31.18231201,  3.54498291,end
timer_stats,697303047400351,PAPI_L3_TCM,2, 31.25531006,  3.55375671,end
timer_stats,697303048591240,PAPI_L3_TCM,1, 31.32720947,  3.56230163,end
timer_stats,697303049786488,PAPI_L3_TCM,1, 31.39813232,  3.57263184,end
timer_stats,697303050980166,PAPI_L3_TCM,0, 31.46350097,  3.58148193,end
timer_stats,697303052172435,PAPI_L3_TCM,2, 31.55981445,  3.59545898,end
timer_stats,697303053366920,PAPI_L3_TCM,0, 31.67694092,  3.61053467,end
timer_stats,697303054564828,PAPI_L3_TCM,2, 31.74816894,  3.61933899,end
timer_stats,697303055752293,PAPI_L3_TCM,0, 31.81781006,  3.62745666,end
timer_stats,697303056950018,PAPI_L3_TCM,3, 31.88800049,  3.63626098,end
timer_stats,697303058145693,PAPI_L3_TCM,2, 31.95751953,  3.64660645,end
timer_stats,697303059341378,PAPI_L3_TCM,1, 32.09716797,  3.66529846,end
timer_stats,697303060540870,PAPI_L3_TCM,1, 32.16259765,  3.67387390,end
timer_stats,697303061736795,PAPI_L3_TCM,1, 32.23443603,  3.68220520,end
timer_stats,697303062927830,PAPI_L3_TCM,0, 32.30371094,  3.69102478,end
timer_stats,697303064077744,PAPI_L3_TCM,3, 32.37182617,  3.70092773,end
timer_stats,697303065277505,PAPI_L3_TCM,0, 32.51434326,  3.72131348,end
timer_stats,697303066480104,PAPI_L3_TCM,2, 32.58605957,  3.73008728,end
timer_stats,697303067680329,PAPI_L3_TCM,0, 32.65209961,  3.73863220,end
timer_stats,697303068876637,PAPI_L3_TCM,2, 32.72448730,  3.74696350,end
timer_stats,697303070069752,PAPI_L3_TCM,0, 32.78930664,  3.75578308,end
timer_stats,697303071258820,PAPI_L3_TCM,1, 32.92767334,  3.77447510,end
timer_stats,697303072458159,PAPI_L3_TCM,1, 32.99908447,  3.78303528,end
timer_stats,697303073661054,PAPI_L3_TCM,2, 33.07098389,  3.79335022,end
timer_stats,697303074861959,PAPI_L3_TCM,0, 33.14019775,  3.80215454,end
timer_stats,697303076062484,PAPI_L3_TCM,3, 33.20355224,  3.81100464,end
timer_stats,697303077257972,PAPI_L3_TCM,1, 33.29534912,  3.82469177,end
timer_stats,697303078429139,PAPI_L3_TCM,2, 33.41400146,  3.83946228,end
timer_stats,697303079640474,PAPI_L3_TCM,0, 33.48370361,  3.84805298,end
timer_stats,697303080840116,PAPI_L3_TCM,2, 33.55419922,  3.85707092,end
timer_stats,697303082031101,PAPI_L3_TCM,0, 33.62115478,  3.86585999,end
timer_stats,697303083220463,PAPI_L3_TCM,2, 33.71209717,  3.87983703,end
timer_stats,697303084412954,PAPI_L3_TCM,1, 33.83441162,  3.89375305,end
timer_stats,697303085617706,PAPI_L3_TCM,2, 33.90673828,  3.90406799,end
timer_stats,697303086810391,PAPI_L3_TCM,0, 33.97540283,  3.91288757,end
timer_stats,697303087993846,PAPI_L3_TCM,2, 34.04632568,  3.92143249,end
timer_stats,697303089204711,PAPI_L3_TCM,1, 34.13586426,  3.93025207,end
timer_stats,697303090398046,PAPI_L3_TCM,1, 34.24865723,  3.94921875,end
timer_stats,697303091594231,PAPI_L3_TCM,0, 34.32153320,  3.95285034,end
timer_stats,697303092795816,PAPI_L3_TCM,3, 34.38580322,  3.96168518,end
timer_stats,697303094008141,PAPI_L3_TCM,0, 34.45629883,  3.97201538,end
timer_stats,697303095201283,PAPI_L3_TCM,3, 34.55059814,  3.98078918,end
timer_stats,697303096403111,PAPI_L3_TCM,1, 34.66113281,  3.99972534,end
timer_stats,697303097609329,PAPI_L3_TCM,1, 34.73242187,  4.01002502,end
timer_stats,697303098802374,PAPI_L3_TCM,0, 34.80017090,  4.01860046,end
timer_stats,697303100014985,PAPI_L3_TCM,3, 34.86834717,  4.02717590,end
timer_stats,697303101222620,PAPI_L3_TCM,0, 34.93829346,  4.03616333,end
timer_stats,697303102416215,PAPI_L3_TCM,2, 35.07470703,  4.05612182,end
timer_stats,697303103607167,PAPI_L3_TCM,0, 35.14312744,  4.06495666,end
timer_stats,697303104774485,PAPI_L3_TCM,2, 35.22296143,  4.07475281,end
timer_stats,697303105939270,PAPI_L3_TCM,0, 35.29272461,  4.08537292,end
timer_stats,697303107135722,PAPI_L3_TCM,1, 35.36352539,  4.09565735,end
timer_stats,697303108337710,PAPI_L3_TCM,1, 35.50994873,  4.11579895,end
timer_stats,697303109530855,PAPI_L3_TCM,1, 35.58135986,  4.12609863,end
timer_stats,697303110727530,PAPI_L3_TCM,0, 35.64904785,  4.13647461,end
timer_stats,697303111924855,PAPI_L3_TCM,2, 35.72656250,  4.14648437,end
timer_stats,697303114249241,PAPI_L3_TCM,36, 35.88684082,  4.17211914,end
timer_stats,697303115437069,PAPI_L3_TCM,6, 36.00183105,  4.18763733,end
timer_stats,697303116628731,PAPI_L3_TCM,1, 36.07513428,  4.19821167,end
timer_stats,697303117823672,PAPI_L3_TCM,1, 36.16015625,  4.20800781,end
timer_stats,697303119023271,PAPI_L3_TCM,1, 36.23809814,  4.21838379,end
timer_stats,697303120225842,PAPI_L3_TCM,3, 36.34753418,  4.23339844,end
timer_stats,697303121400207,PAPI_L3_TCM,0, 36.48516846,  4.24908447,end
timer_stats,697303122599109,PAPI_L3_TCM,2, 36.56878662,  4.25892639,end
timer_stats,697303123800217,PAPI_L3_TCM,1, 36.65295410,  4.26902771,end
timer_stats,697303124979042,PAPI_L3_TCM,3, 36.73565674,  4.27934265,end
timer_stats,697303126172627,PAPI_L3_TCM,1, 36.82073974,  4.28965759,end
timer_stats,697303127377518,PAPI_L3_TCM,1, 36.98480224,  4.31031799,end
timer_stats,697303128704291,PAPI_L3_TCM,43, 37.07165527,  4.32102966,end
timer_stats,697303129918146,PAPI_L3_TCM,22, 37.15032959,  4.33174133,end
timer_stats,697303131110824,PAPI_L3_TCM,9, 37.22882080,  4.34272766,end
timer_stats,697303132276652,PAPI_L3_TCM,3, 37.34197998,  4.35969543,end
timer_stats,697303133427450,PAPI_L3_TCM,1, 37.47229004,  4.37487793,end
timer_stats,697303134599301,PAPI_L3_TCM,2, 37.54949951,  4.38522339,end
timer_stats,697303135768943,PAPI_L3_TCM,0, 37.63085937,  4.39508056,end
timer_stats,697303136929325,PAPI_L3_TCM,1, 37.71173096,  4.40539551,end
timer_stats,697303138098913,PAPI_L3_TCM,0, 37.79217529,  4.41522217,end
timer_stats,697303139269088,PAPI_L3_TCM,1, 37.90313721,  4.43118286,end
timer_stats,697303140426372,PAPI_L3_TCM,0, 38.03601074,  4.44635010,end
timer_stats,697303141595577,PAPI_L3_TCM,2, 38.11157226,  4.45672607,end
timer_stats,697303142762999,PAPI_L3_TCM,0, 38.19244385,  4.46701050,end
timer_stats,697303143932224,PAPI_L3_TCM,3, 38.26763916,  4.47756958,end
timer_stats,697303145079002,PAPI_L3_TCM,6, 38.35003662,  4.48806763,end
timer_stats,697303146258364,PAPI_L3_TCM,3, 38.47265625,  4.49905395,end
timer_stats,697303147425928,PAPI_L3_TCM,0, 38.58782959,  4.51860046,end
timer_stats,697303148590763,PAPI_L3_TCM,1, 38.66387939,  4.52738953,end
timer_stats,697303149734484,PAPI_L3_TCM,0, 38.74114990,  4.53637695,end
timer_stats,697303150889643,PAPI_L3_TCM,2, 38.81268310,  4.54522705,end
timer_stats,697303152064894,PAPI_L3_TCM,0, 38.88757324,  4.55398559,end
timer_stats,697303153207802,PAPI_L3_TCM,4, 38.95880127,  4.56304931,end
timer_stats,697303154378937,PAPI_L3_TCM,6, 39.06573486,  4.57690430,end
timer_stats,697303155541158,PAPI_L3_TCM,3, 39.18084717,  4.58952332,end
timer_stats,697303156701432,PAPI_L3_TCM,0, 39.25164795,  4.59858704,end
timer_stats,697303157858541,PAPI_L3_TCM,1, 39.32263184,  4.60812378,end
timer_stats,697303159015372,PAPI_L3_TCM,1, 39.39581299,  4.61688232,end
timer_stats,697303160178461,PAPI_L3_TCM,2, 39.46618652,  4.62567139,end
timer_stats,697303161341476,PAPI_L3_TCM,0, 39.56927490,  4.63938904,end
timer_stats,697303162498410,PAPI_L3_TCM,2, 39.67254639,  4.65209961,end
timer_stats,697303163661538,PAPI_L3_TCM,0, 39.74676514,  4.66085815,end
timer_stats,697303164820626,PAPI_L3_TCM,4, 39.81683349,  4.67098999,end
timer_stats,697303165959221,PAPI_L3_TCM,0, 39.88775635,  4.67976379,end
timer_stats,697303167096446,PAPI_L3_TCM,1, 39.95989990,  4.68829346,end
timer_stats,697303168235320,PAPI_L3_TCM,0, 40.02618408,  4.69714355,end
timer_stats,697303169375275,PAPI_L3_TCM,2, 40.13006592,  4.71107483,end
timer_stats,697303170513674,PAPI_L3_TCM,0, 40.23352051,  4.72355652,end
timer_stats,697303171650688,PAPI_L3_TCM,2, 40.30364990,  4.73234558,end
timer_stats,697303172787716,PAPI_L3_TCM,0, 40.37298584,  4.74114990,end
timer_stats,697303173924594,PAPI_L3_TCM,1, 40.44116211,  4.74975586,end
timer_stats,697303175063943,PAPI_L3_TCM,0, 40.51373291,  4.75823975,end
timer_stats,697303176212707,PAPI_L3_TCM,1, 40.58264160,  4.76731872,end
timer_stats,697303177349435,PAPI_L3_TCM,0, 40.68652344,  4.77587890,end
timer_stats,697303178506547,PAPI_L3_TCM,2, 40.79046631,  4.79402161,end
timer_stats,697303179682168,PAPI_L3_TCM,0, 40.86016846,  4.80258179,end
timer_stats,697303180835476,PAPI_L3_TCM,3, 40.92980957,  4.81115723,end
timer_stats,697303181993014,PAPI_L3_TCM,0, 40.99542236,  4.81976318,end
timer_stats,697303183151606,PAPI_L3_TCM,1, 41.05963135,  4.82833862,end
timer_stats,697303184313706,PAPI_L3_TCM,0, 41.15850830,  4.84179687,end
timer_stats,697303185482175,PAPI_L3_TCM,1, 41.26129150,  4.85397339,end
timer_stats,697303186656510,PAPI_L3_TCM,0, 41.32897949,  4.86248779,end
timer_stats,697303187798155,PAPI_L3_TCM,2, 41.40185547,  4.87145996,end
timer_stats,697303188953606,PAPI_L3_TCM,0, 41.47534179,  4.88092041,end
timer_stats,697303190109937,PAPI_L3_TCM,2, 41.54296875,  4.88992310,end
timer_stats,697303191271089,PAPI_L3_TCM,0, 41.60937500,  4.89874267,end
timer_stats,697303192427614,PAPI_L3_TCM,1, 41.74719238,  4.91632080,end
timer_stats,697303193598442,PAPI_L3_TCM,0, 41.81750488,  4.92530823,end
timer_stats,697303194753410,PAPI_L3_TCM,4, 41.89080810,  4.93455505,end
timer_stats,697303195891205,PAPI_L3_TCM,0, 41.95886230,  4.94309997,end
timer_stats,697303197030929,PAPI_L3_TCM,2, 42.02673340,  4.95191955,end
timer_stats,697303198169188,PAPI_L3_TCM,0, 42.10144043,  4.96064758,end
timer_stats,697303199307909,PAPI_L3_TCM,2, 42.20501709,  4.97419739,end
timer_stats,697303200450807,PAPI_L3_TCM,2, 42.31152344,  4.98660278,end
timer_stats,697303201597342,PAPI_L3_TCM,3, 42.38940430,  4.99716186,end
timer_stats,697303202734040,PAPI_L3_TCM,0, 42.46673584,  5.00616455,end
timer_stats,697303203870392,PAPI_L3_TCM,1, 42.54473877,  5.01516723,end
timer_stats,697303205020159,PAPI_L3_TCM,1, 42.62200928,  5.02368164,end
timer_stats,697303206184414,PAPI_L3_TCM,2, 42.69934082,  5.03219604,end
timer_stats,697303207346662,PAPI_L3_TCM,0, 42.81561279,  5.04614258,end
timer_stats,697303208501081,PAPI_L3_TCM,2, 42.92248535,  5.05857849,end
timer_stats,697303209659611,PAPI_L3_TCM,0, 43.00231934,  5.06709289,end
timer_stats,697303210819413,PAPI_L3_TCM,1, 43.08544922,  5.07608032,end
timer_stats,697303211977285,PAPI_L3_TCM,0, 43.15893555,  5.08511352,end
timer_stats,697303213144819,PAPI_L3_TCM,1, 43.23645020,  5.09368896,end
timer_stats,697303214282434,PAPI_L3_TCM,0, 43.31445312,  5.10247803,end
timer_stats,697303215418889,PAPI_L3_TCM,2, 43.43572998,  5.11669922,end
timer_stats,697303216559647,PAPI_L3_TCM,0, 43.55224609,  5.12992859,end
timer_stats,697303217697761,PAPI_L3_TCM,2, 43.63092041,  5.13853454,end
timer_stats,697303218832273,PAPI_L3_TCM,0, 43.70886230,  5.14733887,end
timer_stats,697303219968954,PAPI_L3_TCM,1, 43.78002930,  5.15588379,end
timer_stats,697303221103189,PAPI_L3_TCM,0, 43.85516357,  5.16464233,end
timer_stats,697303222235713,PAPI_L3_TCM,1, 43.91992187,  5.17329407,end
timer_stats,697303223367682,PAPI_L3_TCM,2, 44.03039551,  5.18724060,end
timer_stats,697303224514697,PAPI_L3_TCM,7, 44.13873291,  5.19961548,end
timer_stats,697303225665821,PAPI_L3_TCM,0, 44.20874023,  5.20846558,end
timer_stats,697303226804806,PAPI_L3_TCM,2, 44.28521729,  5.21768188,end
timer_stats,697303227954297,PAPI_L3_TCM,0, 44.35430908,  5.22848511,end
timer_stats,697303229315473,PAPI_L3_TCM,17, 44.42468262,  5.23747253,end
timer_stats,697303232820491,PAPI_L3_TCM,47, 44.70147705,  5.27401733,end
timer_stats,697303233984079,PAPI_L3_TCM,23, 44.77178955,  5.28298950,end
timer_stats,697303235171576,PAPI_L3_TCM,5, 44.83300781,  5.29028320,end
timer_stats,697303236323058,PAPI_L3_TCM,7, 44.89544678,  5.29779053,end
timer_stats,697303237484296,PAPI_L3_TCM,0, 45.03533935,  5.31588745,end
timer_stats,697303238646761,PAPI_L3_TCM,4, 45.11584473,  5.32633972,end
timer_stats,697303239806043,PAPI_L3_TCM,1, 45.18756104,  5.33666992,end
timer_stats,697303240954940,PAPI_L3_TCM,1, 45.25476074,  5.34681702,end
timer_stats,697303242107232,PAPI_L3_TCM,1, 45.33050537,  5.35707092,end
timer_stats,697303243269797,PAPI_L3_TCM,5, 45.40368652,  5.36759949,end
timer_stats,697303244425019,PAPI_L3_TCM,1, 45.49810791,  5.38267517,end
timer_stats,697303245591607,PAPI_L3_TCM,2, 45.60101318,  5.39356995,end
timer_stats,697303246753911,PAPI_L3_TCM,0, 45.66662598,  5.40058899,end
timer_stats,697303247913333,PAPI_L3_TCM,2, 45.73687744,  5.40779114,end
timer_stats,697303249067318,PAPI_L3_TCM,1, 45.79766846,  5.41514587,end
timer_stats,697303250228093,PAPI_L3_TCM,1, 45.86932373,  5.42234802,end
timer_stats,697303251386821,PAPI_L3_TCM,0, 45.93731689,  5.42982483,end
timer_stats,697303252539608,PAPI_L3_TCM,1, 46.07995605,  5.44975281,end
timer_stats,697303253701560,PAPI_L3_TCM,0, 46.15692139,  5.46000671,end
timer_stats,697303254852862,PAPI_L3_TCM,2, 46.22106934,  5.47019958,end
timer_stats,697303256025857,PAPI_L3_TCM,3, 46.29602051,  5.48069763,end
timer_stats,697303257159975,PAPI_L3_TCM,2, 46.37677002,  5.49089050,end
timer_stats,697303258314319,PAPI_L3_TCM,0, 46.44012451,  5.50199890,end
timer_stats,697303259466704,PAPI_L3_TCM,1, 46.58300781,  5.52308655,end
timer_stats,697303260631772,PAPI_L3_TCM,0, 46.65795898,  5.53315735,end
timer_stats,697303261789834,PAPI_L3_TCM,1, 46.74096680,  5.54341125,end
timer_stats,697303262953208,PAPI_L3_TCM,0, 46.81909180,  5.55348205,end
timer_stats,697303264111466,PAPI_L3_TCM,3, 46.89227295,  5.56382751,end
timer_stats,697303265250155,PAPI_L3_TCM,0, 46.97045898,  5.57435608,end
timer_stats,697303266422149,PAPI_L3_TCM,2, 47.06341553,  5.58432007,end
timer_stats,697303267588397,PAPI_L3_TCM,0, 47.24475098,  5.60505676,end
timer_stats,697303268755249,PAPI_L3_TCM,1, 47.33038330,  5.61558533,end
timer_stats,697303269920404,PAPI_L3_TCM,2, 47.42224121,  5.62649536,end
timer_stats,697303271075035,PAPI_L3_TCM,1, 47.50756836,  5.63725281,end
timer_stats,697303272240707,PAPI_L3_TCM,1, 47.58172607,  5.64744568,end
timer_stats,697303273377774,PAPI_L3_TCM,2, 47.68218994,  5.65974426,end
timer_stats,697303274531136,PAPI_L3_TCM,0, 47.81817627,  5.67518616,end
timer_stats,697303275685354,PAPI_L3_TCM,2, 47.95611572,  5.69062805,end
timer_stats,697303276850033,PAPI_L3_TCM,0, 48.04486084,  5.70161438,end
timer_stats,697303278004197,PAPI_L3_TCM,2, 48.12438965,  5.71199036,end
timer_stats,697303279159642,PAPI_L3_TCM,0, 48.21691894,  5.72291565,end
timer_stats,697303280328880,PAPI_L3_TCM,2, 48.30694580,  5.73367310,end
timer_stats,697303281467525,PAPI_L3_TCM,0, 48.44451904,  5.74862671,end
timer_stats,697303282622603,PAPI_L3_TCM,2, 48.59411621,  5.76374817,end
timer_stats,697303283775084,PAPI_L3_TCM,0, 48.68438721,  5.77429199,end
timer_stats,697303284939452,PAPI_L3_TCM,3, 48.77734375,  5.78436279,end
timer_stats,697303286093434,PAPI_L3_TCM,0, 48.87005615,  5.79444885,end
timer_stats,697303287247002,PAPI_L3_TCM,1, 48.96960449,  5.80494690,end
timer_stats,697303288409227,PAPI_L3_TCM,1, 49.05206299,  5.81507873,end
timer_stats,697303289574901,PAPI_L3_TCM,1, 49.19714355,  5.82536316,end
timer_stats,697303290726230,PAPI_L3_TCM,1, 49.33892822,  5.84104919,end
timer_stats,697303291881214,PAPI_L3_TCM,2, 49.43432617,  5.85136413,end
timer_stats,697303293065279,PAPI_L3_TCM,1, 49.52252197,  5.86216736,end
timer_stats,697303294220117,PAPI_L3_TCM,2, 49.62194824,  5.87242126,end
timer_stats,697303295373049,PAPI_L3_TCM,0, 49.71777344,  5.88246155,end
timer_stats,697303296533474,PAPI_L3_TCM,2, 49.86267090,  5.89794922,end
timer_stats,697303297699765,PAPI_L3_TCM,0, 49.99285889,  5.91371155,end
timer_stats,697303298854076,PAPI_L3_TCM,1, 50.09777832,  5.92417908,end
timer_stats,697303300024431,PAPI_L3_TCM,1, 50.18078613,  5.93528747,end
timer_stats,697303301161413,PAPI_L3_TCM,2, 50.27331543,  5.94583130,end
timer_stats,697303302326028,PAPI_L3_TCM,0, 50.37768555,  5.95582580,end
timer_stats,697303303492039,PAPI_L3_TCM,2, 50.47534180,  5.96611023,end
timer_stats,697303304651540,PAPI_L3_TCM,1, 50.66180420,  5.98490906,end
timer_stats,697303305810428,PAPI_L3_TCM,1, 50.75000000,  5.99369812,end
timer_stats,697303306958393,PAPI_L3_TCM,0, 50.84210205,  6.00245666,end
timer_stats,697303308110342,PAPI_L3_TCM,2, 50.92718506,  6.01127625,end
timer_stats,697303309273530,PAPI_L3_TCM,0, 51.01580810,  6.02052307,end
timer_stats,697303310432961,PAPI_L3_TCM,2, 51.10382080,  6.02909851,end
timer_stats,697303311595992,PAPI_L3_TCM,0, 51.24035644,  6.04200745,end
timer_stats,697303312756127,PAPI_L3_TCM,2, 51.37652588,  6.05596924,end
timer_stats,697303313906509,PAPI_L3_TCM,0, 51.46588135,  6.06455994,end
timer_stats,697303315055337,PAPI_L3_TCM,1, 51.55444336,  6.07337952,end
timer_stats,697303316205395,PAPI_L3_TCM,1, 51.64593506,  6.08192444,end
timer_stats,697303317357393,PAPI_L3_TCM,2, 51.73760986,  6.09046936,end
timer_stats,697303318512858,PAPI_L3_TCM,0, 51.86755371,  6.10289001,end
timer_stats,697303319670429,PAPI_L3_TCM,2, 51.99597168,  6.11631775,end
timer_stats,697303320827844,PAPI_L3_TCM,0, 52.07263184,  6.12541199,end
timer_stats,697303321972529,PAPI_L3_TCM,2, 52.15673828,  6.13395691,end
timer_stats,697303323132957,PAPI_L3_TCM,0, 52.23730469,  6.14254761,end
timer_stats,697303324282734,PAPI_L3_TCM,2, 52.32275390,  6.15130615,end
timer_stats,697303325426419,PAPI_L3_TCM,0, 52.40484619,  6.15988159,end
timer_stats,697303326575854,PAPI_L3_TCM,1, 52.52777100,  6.17231750,end
timer_stats,697303327719666,PAPI_L3_TCM,0, 52.65527344,  6.18623352,end
timer_stats,697303328867347,PAPI_L3_TCM,3, 52.73638916,  6.19480896,end
timer_stats,697303330016068,PAPI_L3_TCM,0, 52.83502197,  6.20530701,end
timer_stats,697303331160107,PAPI_L3_TCM,2, 52.91870117,  6.21566772,end
timer_stats,697303332310178,PAPI_L3_TCM,1, 53.00567627,  6.22595215,end
timer_stats,697303333444289,PAPI_L3_TCM,1, 53.09490967,  6.23596191,end
timer_stats,697303334591314,PAPI_L3_TCM,0, 53.26672363,  6.25663757,end
timer_stats,697303335737272,PAPI_L3_TCM,1, 53.35388184,  6.26673889,end
timer_stats,697303336891624,PAPI_L3_TCM,1, 53.44268799,  6.27702332,end
timer_stats,697303338046888,PAPI_L3_TCM,2, 53.53082275,  6.28709412,end
timer_stats,697303339202466,PAPI_L3_TCM,1, 53.61877441,  6.29698181,end
timer_stats,697303340368571,PAPI_L3_TCM,3, 53.70355224,  6.30731201,end
timer_stats,697303341526680,PAPI_L3_TCM,14, 53.84082031,  6.32296753,end
timer_stats,697303342671551,PAPI_L3_TCM,2, 53.96972656,  6.33935547,end
timer_stats,697303343815079,PAPI_L3_TCM,0, 54.05950928,  6.35011291,end
timer_stats,697303344928254,PAPI_L3_TCM,4, 54.15325928,  6.36036682,end
timer_stats,697303346086992,PAPI_L3_TCM,0, 54.24359131,  6.37091064,end
timer_stats,697303347236136,PAPI_L3_TCM,2, 54.33642578,  6.38122559,end
timer_stats,697303348395464,PAPI_L3_TCM,1, 54.42755127,  6.39155579,end
timer_stats,697303349555879,PAPI_L3_TCM,2, 54.60565185,  6.41174316,end
timer_stats,697303350704580,PAPI_L3_TCM,0, 54.70202637,  6.42227173,end
timer_stats,697303351866705,PAPI_L3_TCM,1, 54.79803467,  6.43301392,end
timer_stats,697303353024317,PAPI_L3_TCM,2, 54.88885498,  6.44287109,end
timer_stats,697303354182158,PAPI_L3_TCM,1, 54.98254394,  6.45339966,end
timer_stats,697303355340240,PAPI_L3_TCM,1, 55.07995605,  6.46368408,end
timer_stats,697303356506314,PAPI_L3_TCM,3, 55.17651367,  6.47373962,end
timer_stats,697303357668342,PAPI_L3_TCM,0, 55.35925293,  6.49395752,end
timer_stats,697303358826347,PAPI_L3_TCM,2, 55.45739746,  6.50425720,end
timer_stats,697303359987812,PAPI_L3_TCM,0, 55.54968262,  6.51455688,end
timer_stats,697303361155084,PAPI_L3_TCM,3, 55.64294434,  6.52490234,end
timer_stats,697303362315189,PAPI_L3_TCM,0, 55.74224853,  6.53518677,end
timer_stats,697303363473190,PAPI_L3_TCM,1, 55.83843994,  6.54568481,end
timer_stats,697303364634511,PAPI_L3_TCM,1, 56.03009033,  6.56628418,end
timer_stats,697303365793683,PAPI_L3_TCM,2, 56.12231445,  6.57734680,end
timer_stats,697303366949718,PAPI_L3_TCM,0, 56.21685791,  6.58744812,end
timer_stats,697303368114486,PAPI_L3_TCM,4, 56.31231689,  6.59819031,end
timer_stats,697303369252324,PAPI_L3_TCM,3, 56.41094971,  6.60844421,end
timer_stats,697303370430129,PAPI_L3_TCM,2, 56.50463867,  6.61915588,end
timer_stats,697303371602657,PAPI_L3_TCM,0, 56.67016601,  6.63673401,end
timer_stats,697303372773264,PAPI_L3_TCM,4, 56.74761963,  6.64509582,end
timer_stats,697303373953666,PAPI_L3_TCM,0, 56.82690430,  6.65232849,end
timer_stats,697303375129458,PAPI_L3_TCM,2, 56.90447998,  6.65980530,end
timer_stats,697303376329006,PAPI_L3_TCM,1, 56.97943115,  6.66709900,end
timer_stats,697303377484324,PAPI_L3_TCM,2, 57.06231689,  6.67460632,end
timer_stats,697303378654509,PAPI_L3_TCM,1, 57.22283935,  6.69242859,end
timer_stats,697303379821051,PAPI_L3_TCM,1, 57.30035400,  6.69969177,end
timer_stats,697303380995142,PAPI_L3_TCM,1, 57.37463379,  6.70698547,end
timer_stats,697303382175030,PAPI_L3_TCM,1, 57.45892334,  6.71417236,end
timer_stats,697303383356242,PAPI_L3_TCM,0, 57.52972412,  6.72149658,end
timer_stats,697303384542290,PAPI_L3_TCM,3, 57.60986328,  6.72871399,end
timer_stats,697303385730968,PAPI_L3_TCM,0, 57.76153564,  6.74656677,end
timer_stats,697303386917330,PAPI_L3_TCM,2, 57.84143066,  6.75376892,end
timer_stats,697303388100708,PAPI_L3_TCM,0, 57.91906738,  6.76103210,end
timer_stats,697303389261660,PAPI_L3_TCM,1, 58.00158691,  6.76487732,end
timer_stats,697303390451782,PAPI_L3_TCM,0, 58.07189941,  6.77218628,end
timer_stats,697303391645733,PAPI_L3_TCM,1, 58.22436523,  6.78979492,end
timer_stats,697303392821668,PAPI_L3_TCM,1, 58.30108643,  6.79704284,end
timer_stats,697303394008063,PAPI_L3_TCM,2, 58.37731934,  6.80429077,end
timer_stats,697303395197014,PAPI_L3_TCM,0, 58.45019531,  6.81158447,end
timer_stats,697303396385606,PAPI_L3_TCM,3, 58.52313232,  6.81906128,end
timer_stats,697303397575477,PAPI_L3_TCM,2, 58.60040283,  6.82650757,end
timer_stats,697303398766216,PAPI_L3_TCM,19, 58.75268555,  6.84402466,end
timer_stats,697303399954677,PAPI_L3_TCM,8, 58.82879639,  6.85125732,end
