timer_stats,697587732653756,PAPI_L3_TCM,98,  0.07434082,  0.00979614,end
timer_stats,697587733773369,PAPI_L3_TCM,25,  0.22418213,  0.03182983,end
timer_stats,697587734903649,PAPI_L3_TCM,1,  0.29553222,  0.04273987,end
timer_stats,697587736041589,PAPI_L3_TCM,8,  0.36248779,  0.05281067,end
timer_stats,697587737191850,PAPI_L3_TCM,9,  0.44177246,  0.06149292,end
timer_stats,697587738375733,PAPI_L3_TCM,5,  0.51562500,  0.07205200,end
timer_stats,697587739558775,PAPI_L3_TCM,12,  0.58551025,  0.08105469,end
timer_stats,697587740742736,PAPI_L3_TCM,8,  0.69525146,  0.09580993,end
timer_stats,697587741923411,PAPI_L3_TCM,6,  0.80242920,  0.11167908,end
timer_stats,697587743101707,PAPI_L3_TCM,5,  0.87133789,  0.12199402,end
timer_stats,697587744280451,PAPI_L3_TCM,6,  0.94165039,  0.13273620,end
timer_stats,697587745439417,PAPI_L3_TCM,6,  1.01519775,  0.14318848,end
timer_stats,697587746623207,PAPI_L3_TCM,10,  1.08526611,  0.15216064,end
timer_stats,697587747802023,PAPI_L3_TCM,8,  1.21728516,  0.17050171,end
timer_stats,697587748982618,PAPI_L3_TCM,6,  1.28906250,  0.17999267,end
timer_stats,697587750166648,PAPI_L3_TCM,10,  1.36004639,  0.18975830,end
timer_stats,697587751353748,PAPI_L3_TCM,6,  1.43243408,  0.19915771,end
timer_stats,697587752536278,PAPI_L3_TCM,6,  1.50500488,  0.20967102,end
timer_stats,697587753718725,PAPI_L3_TCM,1,  1.64288330,  0.22816467,end
timer_stats,697587754901946,PAPI_L3_TCM,2,  1.71667480,  0.23844910,end
timer_stats,697587756086592,PAPI_L3_TCM,0,  1.78619385,  0.24745178,end
timer_stats,697587757244200,PAPI_L3_TCM,2,  1.85919189,  0.25727844,end
timer_stats,697587758430949,PAPI_L3_TCM,0,  1.92474365,  0.26634216,end
timer_stats,697587759614623,PAPI_L3_TCM,1,  2.00115967,  0.27680969,end
timer_stats,697587760797996,PAPI_L3_TCM,1,  2.14245605,  0.29571533,end
timer_stats,697587761982050,PAPI_L3_TCM,1,  2.21276855,  0.30429077,end
timer_stats,697587763165020,PAPI_L3_TCM,0,  2.28741455,  0.31350708,end
timer_stats,697587764349987,PAPI_L3_TCM,4,  2.36090088,  0.32247925,end
timer_stats,697587765534890,PAPI_L3_TCM,1,  2.43328857,  0.33126831,end
timer_stats,697587766707381,PAPI_L3_TCM,2,  2.53961182,  0.34371948,end
timer_stats,697587767877648,PAPI_L3_TCM,0,  2.64886475,  0.35888672,end
timer_stats,697587769063475,PAPI_L3_TCM,1,  2.72753906,  0.36907959,end
timer_stats,697587770239228,PAPI_L3_TCM,0,  2.80340576,  0.37780762,end
timer_stats,697587771420425,PAPI_L3_TCM,1,  2.87585449,  0.38758850,end
timer_stats,697587772611622,PAPI_L3_TCM,1,  2.95190430,  0.39636230,end
timer_stats,697587773804109,PAPI_L3_TCM,2,  3.10369873,  0.41671753,end
timer_stats,697587774976926,PAPI_L3_TCM,0,  3.18096924,  0.42774963,end
timer_stats,697587776153992,PAPI_L3_TCM,3,  3.25915527,  0.43910217,end
timer_stats,697587777267909,PAPI_L3_TCM,2,  3.34191894,  0.44810486,end
timer_stats,697587778436516,PAPI_L3_TCM,1,  3.41271973,  0.45848083,end
timer_stats,697587779607566,PAPI_L3_TCM,0,  3.47961426,  0.46725464,end
timer_stats,697587780780566,PAPI_L3_TCM,1,  3.57989502,  0.47810364,end
timer_stats,697587781951676,PAPI_L3_TCM,0,  3.68048096,  0.49180603,end
timer_stats,697587783127537,PAPI_L3_TCM,2,  3.74780273,  0.49884033,end
timer_stats,697587784298801,PAPI_L3_TCM,1,  3.81701660,  0.50631714,end
timer_stats,697587785460504,PAPI_L3_TCM,2,  3.88299561,  0.51382446,end
timer_stats,697587786632124,PAPI_L3_TCM,0,  3.95318603,  0.52104187,end
timer_stats,697587787808291,PAPI_L3_TCM,2,  4.07910156,  0.53761291,end
timer_stats,697587788980275,PAPI_L3_TCM,0,  4.14807129,  0.54618835,end
timer_stats,697587790162578,PAPI_L3_TCM,1,  4.21166992,  0.55401611,end
timer_stats,697587791347072,PAPI_L3_TCM,0,  4.27862549,  0.56124878,end
timer_stats,697587792531325,PAPI_L3_TCM,2,  4.34075928,  0.56831360,end
timer_stats,697587793715732,PAPI_L3_TCM,1,  4.44201660,  0.57893371,end
timer_stats,697587794889318,PAPI_L3_TCM,2,  4.53936768,  0.59117126,end
timer_stats,697587796068339,PAPI_L3_TCM,0,  4.60333252,  0.59895325,end
timer_stats,697587797240629,PAPI_L3_TCM,1,  4.66900635,  0.60646057,end
timer_stats,697587798416683,PAPI_L3_TCM,1,  4.73327637,  0.61399841,end
timer_stats,697587799600656,PAPI_L3_TCM,1,  4.79772949,  0.62127685,end
timer_stats,697587800771746,PAPI_L3_TCM,0,  4.86407471,  0.62854004,end
timer_stats,697587801955866,PAPI_L3_TCM,2,  4.99731445,  0.64636230,end
timer_stats,697587803125290,PAPI_L3_TCM,1,  5.06134033,  0.65364075,end
timer_stats,697587804308990,PAPI_L3_TCM,3,  5.12518310,  0.66087341,end
timer_stats,697587805482290,PAPI_L3_TCM,0,  5.18914795,  0.66812134,end
timer_stats,697587806652837,PAPI_L3_TCM,1,  5.25250244,  0.67562866,end
timer_stats,697587807829381,PAPI_L3_TCM,0,  5.38317871,  0.69189453,end
timer_stats,697587809001027,PAPI_L3_TCM,2,  5.44580078,  0.69917297,end
timer_stats,697587810170808,PAPI_L3_TCM,0,  5.51470947,  0.70661926,end
timer_stats,697587811342324,PAPI_L3_TCM,2,  5.57611084,  0.71415710,end
timer_stats,697587812501791,PAPI_L3_TCM,1,  5.64007568,  0.72166443,end
timer_stats,697587813683649,PAPI_L3_TCM,2,  5.70501709,  0.72972107,end
timer_stats,697587814869755,PAPI_L3_TCM,0,  5.83319092,  0.74574280,end
timer_stats,697587816051936,PAPI_L3_TCM,2,  5.89862060,  0.75454712,end
timer_stats,697587817235005,PAPI_L3_TCM,0,  5.96331787,  0.76260376,end
timer_stats,697587818420809,PAPI_L3_TCM,1,  6.02600098,  0.76986694,end
timer_stats,697587819603402,PAPI_L3_TCM,0,  6.09265137,  0.77731323,end
timer_stats,697587820780720,PAPI_L3_TCM,3,  6.19439697,  0.79129028,end
timer_stats,697587821964899,PAPI_L3_TCM,0,  6.29406738,  0.80497742,end
timer_stats,697587823147393,PAPI_L3_TCM,2,  6.35473633,  0.81230163,end
timer_stats,697587824332240,PAPI_L3_TCM,1,  6.41900635,  0.81958008,end
timer_stats,697587825515160,PAPI_L3_TCM,1,  6.48266601,  0.82685852,end
timer_stats,697587826699777,PAPI_L3_TCM,0,  6.54638672,  0.83435059,end
timer_stats,697587827883267,PAPI_L3_TCM,1,  6.67395019,  0.84951782,end
timer_stats,697587829066504,PAPI_L3_TCM,1,  6.73931885,  0.85678100,end
timer_stats,697587830251251,PAPI_L3_TCM,2,  6.80145264,  0.86405945,end
timer_stats,697587831435698,PAPI_L3_TCM,0,  6.86877441,  0.87127685,end
timer_stats,697587832617815,PAPI_L3_TCM,3,  6.93151855,  0.87857056,end
timer_stats,697587833806825,PAPI_L3_TCM,0,  7.02856445,  0.88922119,end
timer_stats,697587834992422,PAPI_L3_TCM,1,  7.12188721,  0.90277100,end
timer_stats,697587836178976,PAPI_L3_TCM,1,  7.18640137,  0.91001892,end
timer_stats,697587837364129,PAPI_L3_TCM,1,  7.25122070,  0.91749573,end
timer_stats,697587838547703,PAPI_L3_TCM,0,  7.31634521,  0.92474365,end
timer_stats,697587839731899,PAPI_L3_TCM,2,  7.38244629,  0.93199158,end
timer_stats,697587840914690,PAPI_L3_TCM,1,  7.50561523,  0.94743347,end
timer_stats,697587842075774,PAPI_L3_TCM,2,  7.57543945,  0.95550537,end
timer_stats,697587843260553,PAPI_L3_TCM,0,  7.63940430,  0.96278381,end
timer_stats,697587844447881,PAPI_L3_TCM,2,  7.70367432,  0.96980286,end
timer_stats,697587845630407,PAPI_L3_TCM,0,  7.76818848,  0.97708130,end
timer_stats,697587846812064,PAPI_L3_TCM,1,  7.86700439,  0.98820496,end
timer_stats,697587847996104,PAPI_L3_TCM,0,  7.96368408,  1.00172424,end
timer_stats,697587849213371,PAPI_L3_TCM,3,  8.03497314,  1.00868225,end
timer_stats,697587850400975,PAPI_L3_TCM,0,  8.09057617,  1.01609802,end
timer_stats,697587851584038,PAPI_L3_TCM,2,  8.15380859,  1.02359009,end
timer_stats,697587852768662,PAPI_L3_TCM,1,  8.21832275,  1.03108215,end
timer_stats,697587853952435,PAPI_L3_TCM,1,  8.35626221,  1.05023193,end
timer_stats,697587855136346,PAPI_L3_TCM,0,  8.42816162,  1.05874634,end
timer_stats,697587856330112,PAPI_L3_TCM,2,  8.50622558,  1.06744385,end
timer_stats,697587857513463,PAPI_L3_TCM,0,  8.56713867,  1.07604980,end
timer_stats,697587858696003,PAPI_L3_TCM,2,  8.64428711,  1.08476257,end
timer_stats,697587859881707,PAPI_L3_TCM,0,  8.77404785,  1.10397339,end
timer_stats,697587864458681,PAPI_L3_TCM,26,  9.03350830,  1.13778686,end
timer_stats,697587865641984,PAPI_L3_TCM,5,  9.09460449,  1.14686584,end
timer_stats,697587866824474,PAPI_L3_TCM,1,  9.19635010,  1.16255188,end
timer_stats,697587868025137,PAPI_L3_TCM,1,  9.26269531,  1.17286682,end
timer_stats,697587869207561,PAPI_L3_TCM,1,  9.37072754,  1.18812561,end
timer_stats,697587870393178,PAPI_L3_TCM,0,  9.44787598,  1.19859314,end
timer_stats,697587871574615,PAPI_L3_TCM,2,  9.50915527,  1.20899963,end
timer_stats,697587872756775,PAPI_L3_TCM,1,  9.59051514,  1.21873474,end
timer_stats,697587873941652,PAPI_L3_TCM,2,  9.72210693,  1.23901367,end
timer_stats,697587875124492,PAPI_L3_TCM,0,  9.78851318,  1.24914551,end
timer_stats,697587876314192,PAPI_L3_TCM,2,  9.85937500,  1.25947571,end
timer_stats,697587877497256,PAPI_L3_TCM,0,  9.93127441,  1.26911926,end
timer_stats,697587878679216,PAPI_L3_TCM,1, 10.00317383,  1.27764893,end
timer_stats,697587879862423,PAPI_L3_TCM,0, 10.07141113,  1.28646850,end
timer_stats,697587881045046,PAPI_L3_TCM,3, 10.21990967,  1.30706787,end
timer_stats,697587882226364,PAPI_L3_TCM,0, 10.29034424,  1.31561279,end
timer_stats,697587883390140,PAPI_L3_TCM,2, 10.35498047,  1.32600403,end
timer_stats,697587884526726,PAPI_L3_TCM,1, 10.43945312,  1.33619690,end
timer_stats,697587885721497,PAPI_L3_TCM,84, 10.49945068,  1.34510803,end
timer_stats,697587886909014,PAPI_L3_TCM,0, 10.60144043,  1.35910034,end
timer_stats,697587888092944,PAPI_L3_TCM,2, 10.71893310,  1.37350464,end
timer_stats,697587889275251,PAPI_L3_TCM,0, 10.78118896,  1.38290405,end
timer_stats,697587890459925,PAPI_L3_TCM,2, 10.85327148,  1.39190674,end
timer_stats,697587891644632,PAPI_L3_TCM,0, 10.93109131,  1.40219116,end
timer_stats,697587892831269,PAPI_L3_TCM,3, 11.01068115,  1.41091919,end
timer_stats,697587894021925,PAPI_L3_TCM,0, 11.14971924,  1.43057251,end
timer_stats,697587895216423,PAPI_L3_TCM,1, 11.23779297,  1.44052124,end
timer_stats,697587896401536,PAPI_L3_TCM,1, 11.30639648,  1.44915771,end
timer_stats,697587897582246,PAPI_L3_TCM,1, 11.38122558,  1.45793152,end
timer_stats,697587898753273,PAPI_L3_TCM,0, 11.44561767,  1.46702576,end
timer_stats,697587899938313,PAPI_L3_TCM,2, 11.60021973,  1.48793030,end
timer_stats,697587901142336,PAPI_L3_TCM,1, 11.68988037,  1.49839783,end
timer_stats,697587902331034,PAPI_L3_TCM,2, 11.76727295,  1.50874329,end
timer_stats,697587903519397,PAPI_L3_TCM,1, 11.84503174,  1.51884460,end
timer_stats,697587904686927,PAPI_L3_TCM,2, 11.92681885,  1.52891540,end
timer_stats,697587905872654,PAPI_L3_TCM,0, 12.03979492,  1.54449463,end
timer_stats,697587907045498,PAPI_L3_TCM,1, 12.11297607,  1.55966186,end
timer_stats,697587908230352,PAPI_L3_TCM,1, 12.23449707,  1.56985474,end
timer_stats,697587909394668,PAPI_L3_TCM,2, 12.32830810,  1.58029175,end
timer_stats,697587910570998,PAPI_L3_TCM,0, 12.40441894,  1.59042358,end
timer_stats,697587911743605,PAPI_L3_TCM,2, 12.48620605,  1.60028076,end
timer_stats,697587912935555,PAPI_L3_TCM,1, 12.60406494,  1.61553955,end
timer_stats,697587914110309,PAPI_L3_TCM,1, 12.72998047,  1.63081360,end
timer_stats,697587915284096,PAPI_L3_TCM,0, 12.80291748,  1.64094543,end
timer_stats,697587916470636,PAPI_L3_TCM,2, 12.89471435,  1.65116882,end
timer_stats,697587917658086,PAPI_L3_TCM,0, 12.97271728,  1.66154480,end
timer_stats,697587918842413,PAPI_L3_TCM,2, 13.05401611,  1.67189026,end
timer_stats,697587920054343,PAPI_L3_TCM,1, 13.17028808,  1.68698120,end
timer_stats,697587921214911,PAPI_L3_TCM,2, 13.29699707,  1.70223999,end
timer_stats,697587922397550,PAPI_L3_TCM,0, 13.39245605,  1.71224975,end
timer_stats,697587923581540,PAPI_L3_TCM,4, 13.46490478,  1.72265625,end
timer_stats,697587924766184,PAPI_L3_TCM,1, 13.56097412,  1.73312378,end
timer_stats,697587925951475,PAPI_L3_TCM,1, 13.67901611,  1.74906921,end
timer_stats,697587927136538,PAPI_L3_TCM,0, 13.80700683,  1.76454162,end
timer_stats,697587928324515,PAPI_L3_TCM,3, 13.89355469,  1.77549743,end
timer_stats,697587929485681,PAPI_L3_TCM,0, 13.97882080,  1.78599548,end
timer_stats,697587930669109,PAPI_L3_TCM,2, 14.05615234,  1.79591370,end
timer_stats,697587931854538,PAPI_L3_TCM,0, 14.18884277,  1.81094360,end
timer_stats,697587933038852,PAPI_L3_TCM,2, 14.26977539,  1.81588745,end
timer_stats,697587934227229,PAPI_L3_TCM,0, 14.41540527,  1.83102417,end
timer_stats,697587935417613,PAPI_L3_TCM,1, 14.50512695,  1.84109497,end
timer_stats,697587936606717,PAPI_L3_TCM,1, 14.58752441,  1.85147095,end
timer_stats,697587937792943,PAPI_L3_TCM,2, 14.67846680,  1.86175537,end
timer_stats,697587938977916,PAPI_L3_TCM,0, 14.80023193,  1.87738037,end
timer_stats,697587940170137,PAPI_L3_TCM,3, 14.94158935,  1.89282226,end
timer_stats,697587941332720,PAPI_L3_TCM,0, 15.03375244,  1.90310669,end
timer_stats,697587942519654,PAPI_L3_TCM,3, 15.11877441,  1.91302490,end
timer_stats,697587943706888,PAPI_L3_TCM,0, 15.20562744,  1.92291260,end
timer_stats,697587944899937,PAPI_L3_TCM,2, 15.29663086,  1.93322754,end
timer_stats,697587946074368,PAPI_L3_TCM,0, 15.43359375,  1.94844055,end
timer_stats,697587947248092,PAPI_L3_TCM,2, 15.55957031,  1.96333313,end
timer_stats,697587948439725,PAPI_L3_TCM,1, 15.65765381,  1.97337341,end
timer_stats,697587949627222,PAPI_L3_TCM,2, 15.75311279,  1.98362732,end
timer_stats,697587950800609,PAPI_L3_TCM,0, 15.84301758,  1.99394226,end
timer_stats,697587951975148,PAPI_L3_TCM,1, 15.97961426,  2.00984192,end
timer_stats,697587953175712,PAPI_L3_TCM,1, 16.12072754,  2.02508545,end
timer_stats,697587954363926,PAPI_L3_TCM,1, 16.21374512,  2.03497314,end
timer_stats,697587955553599,PAPI_L3_TCM,0, 16.30340576,  2.04486084,end
timer_stats,697587956755220,PAPI_L3_TCM,3, 16.39843750,  2.05496216,end
timer_stats,697587957913896,PAPI_L3_TCM,1, 16.49072266,  2.06573486,end
timer_stats,697587959019733,PAPI_L3_TCM,7, 16.62530517,  2.07997131,end
timer_stats,697587960115487,PAPI_L3_TCM,3, 16.76776123,  2.09323120,end
timer_stats,697587961218830,PAPI_L3_TCM,2, 16.85729980,  2.10205078,end
timer_stats,697587962321643,PAPI_L3_TCM,2, 16.94427490,  2.11112976,end
timer_stats,697587963426733,PAPI_L3_TCM,1, 17.04003906,  2.12118530,end
timer_stats,697587964532160,PAPI_L3_TCM,2, 17.13311768,  2.12969971,end
timer_stats,697587965634569,PAPI_L3_TCM,3, 17.22570801,  2.13958740,end
timer_stats,697587966736567,PAPI_L3_TCM,0, 17.31475830,  2.14817810,end
timer_stats,697587967841176,PAPI_L3_TCM,2, 17.40502929,  2.15673828,end
timer_stats,697587968944549,PAPI_L3_TCM,1, 17.49731445,  2.16505432,end
timer_stats,697587970046599,PAPI_L3_TCM,1, 17.62945557,  2.18028259,end
timer_stats,697587971168210,PAPI_L3_TCM,0, 17.76611328,  2.19404602,end
timer_stats,697587972270606,PAPI_L3_TCM,3, 17.85375976,  2.20240784,end
timer_stats,697587973375730,PAPI_L3_TCM,0, 17.94219971,  2.21096802,end
timer_stats,697587974482186,PAPI_L3_TCM,2, 18.03369141,  2.21995544,end
timer_stats,697587975587153,PAPI_L3_TCM,0, 18.11999512,  2.22828674,end
timer_stats,697587976670033,PAPI_L3_TCM,4, 18.21124268,  2.23837280,end
timer_stats,697587977753843,PAPI_L3_TCM,0, 18.29986572,  2.24874878,end
timer_stats,697587978882506,PAPI_L3_TCM,1, 18.39892578,  2.25947571,end
timer_stats,697587980035906,PAPI_L3_TCM,1, 18.52203369,  2.27511597,end
timer_stats,697587981184230,PAPI_L3_TCM,1, 18.65789795,  2.29055786,end
timer_stats,697587982373920,PAPI_L3_TCM,0, 18.74700928,  2.30035400,end
timer_stats,697587983551430,PAPI_L3_TCM,2, 18.83441162,  2.31088257,end
timer_stats,697587984692674,PAPI_L3_TCM,2, 18.91326904,  2.32121277,end
timer_stats,697587985854040,PAPI_L3_TCM,2, 19.00622558,  2.33122253,end
timer_stats,697587987054500,PAPI_L3_TCM,0, 19.12139893,  2.34625244,end
timer_stats,697587988240284,PAPI_L3_TCM,3, 19.24566650,  2.36001587,end
timer_stats,697587989415618,PAPI_L3_TCM,0, 19.32965088,  2.37034607,end
timer_stats,697587990594031,PAPI_L3_TCM,1, 19.41467285,  2.37910461,end
timer_stats,697587991772918,PAPI_L3_TCM,0, 19.49188232,  2.38771057,end
timer_stats,697587992952468,PAPI_L3_TCM,3, 19.57556152,  2.39646911,end
timer_stats,697587994134112,PAPI_L3_TCM,0, 19.73602295,  2.41514587,end
timer_stats,697587995318042,PAPI_L3_TCM,2, 19.82110596,  2.42367554,end
timer_stats,697587996500046,PAPI_L3_TCM,1, 19.90368652,  2.43200684,end
timer_stats,697587997691952,PAPI_L3_TCM,1, 19.98284912,  2.44059753,end
timer_stats,697587998873776,PAPI_L3_TCM,0, 20.06530762,  2.44938660,end
timer_stats,697588000058379,PAPI_L3_TCM,2, 20.17474365,  2.46337890,end
timer_stats,697588001221576,PAPI_L3_TCM,1, 20.30493164,  2.47688293,end
timer_stats,697588002417527,PAPI_L3_TCM,2, 20.38476562,  2.48570251,end
timer_stats,697588003607663,PAPI_L3_TCM,0, 20.46636963,  2.49427795,end
timer_stats,697588004809441,PAPI_L3_TCM,3, 20.54620361,  2.50288391,end
timer_stats,697588005990584,PAPI_L3_TCM,0, 20.65618896,  2.51167297,end
timer_stats,697588007167931,PAPI_L3_TCM,1, 20.77758789,  2.53042603,end
timer_stats,697588008349857,PAPI_L3_TCM,1, 20.86358642,  2.53897095,end
timer_stats,697588009520881,PAPI_L3_TCM,1, 20.93902588,  2.54754639,end
timer_stats,697588010697004,PAPI_L3_TCM,0, 21.01800537,  2.55635071,end
timer_stats,697588011874198,PAPI_L3_TCM,2, 21.10058594,  2.56594848,end
timer_stats,697588013046091,PAPI_L3_TCM,1, 21.21264648,  2.57989502,end
timer_stats,697588014219712,PAPI_L3_TCM,2, 21.33758545,  2.59365845,end
timer_stats,697588015394538,PAPI_L3_TCM,0, 21.42218018,  2.60241699,end
timer_stats,697588016581952,PAPI_L3_TCM,2, 21.49890137,  2.61149597,end
timer_stats,697588017766735,PAPI_L3_TCM,0, 21.57617187,  2.62062073,end
timer_stats,697588018953893,PAPI_L3_TCM,1, 21.65777588,  2.62937927,end
timer_stats,697588020141967,PAPI_L3_TCM,1, 21.81219482,  2.64735413,end
timer_stats,697588021310460,PAPI_L3_TCM,2, 21.89178467,  2.65589905,end
timer_stats,697588022487663,PAPI_L3_TCM,0, 21.96832275,  2.66421509,end
timer_stats,697588023669980,PAPI_L3_TCM,2, 22.04052734,  2.67213440,end
timer_stats,697588024846523,PAPI_L3_TCM,1, 22.12817383,  2.68084717,end
timer_stats,697588026037354,PAPI_L3_TCM,1, 22.20086670,  2.69122314,end
timer_stats,697588027226108,PAPI_L3_TCM,0, 22.35693359,  2.70964050,end
timer_stats,697588028420821,PAPI_L3_TCM,3, 22.43524170,  2.71820068,end
timer_stats,697588029608791,PAPI_L3_TCM,0, 22.50933838,  2.72857666,end
timer_stats,697588030798075,PAPI_L3_TCM,2, 22.59307861,  2.73757934,end
timer_stats,697588031991785,PAPI_L3_TCM,0, 22.66912842,  2.74792480,end
timer_stats,697588033193502,PAPI_L3_TCM,3, 22.82922363,  2.76782226,end
timer_stats,697588034385152,PAPI_L3_TCM,0, 22.90606689,  2.77664184,end
timer_stats,697588035955847,PAPI_L3_TCM,2927, 22.98663330,  2.78788757,end
timer_stats,697588037152810,PAPI_L3_TCM,32, 23.14251709,  2.80804443,end
timer_stats,697588038346971,PAPI_L3_TCM,2, 23.22332764,  2.81655884,end
timer_stats,697588039540405,PAPI_L3_TCM,0, 23.29699707,  2.82539368,end
timer_stats,697588040710288,PAPI_L3_TCM,13, 23.37036133,  2.83421325,end
timer_stats,697588041895195,PAPI_L3_TCM,0, 23.45001221,  2.84295654,end
timer_stats,697588043077055,PAPI_L3_TCM,7, 23.59716797,  2.86190796,end
timer_stats,697588044221798,PAPI_L3_TCM,2, 23.67382812,  2.87068176,end
timer_stats,697588045386235,PAPI_L3_TCM,1, 23.75280762,  2.88079834,end
timer_stats,697588046567039,PAPI_L3_TCM,0, 23.82818603,  2.88937378,end
timer_stats,697588047743192,PAPI_L3_TCM,2, 23.90435791,  2.89797973,end
timer_stats,697588048922546,PAPI_L3_TCM,3, 23.98138428,  2.90628052,end
timer_stats,697588050099322,PAPI_L3_TCM,2, 24.12811279,  2.92623901,end
timer_stats,697588051279636,PAPI_L3_TCM,0, 24.20214844,  2.93505859,end
timer_stats,697588052448980,PAPI_L3_TCM,4, 24.28015137,  2.94381714,end
timer_stats,697588053622173,PAPI_L3_TCM,0, 24.35723877,  2.95303345,end
timer_stats,697588054794483,PAPI_L3_TCM,1, 24.43432617,  2.96377563,end
timer_stats,697588055971827,PAPI_L3_TCM,2, 24.51251221,  2.97407532,end
timer_stats,697588057171317,PAPI_L3_TCM,2, 24.66381836,  2.99406433,end
timer_stats,697588058363377,PAPI_L3_TCM,0, 24.74005127,  3.00282288,end
timer_stats,697588059555408,PAPI_L3_TCM,3, 24.81115723,  3.01116943,end
timer_stats,697588060748381,PAPI_L3_TCM,1, 24.88354492,  3.01951599,end
timer_stats,697588061938782,PAPI_L3_TCM,3, 24.95434570,  3.02966309,end
timer_stats,697588063125111,PAPI_L3_TCM,0, 25.11163330,  3.04959106,end
timer_stats,697588064272762,PAPI_L3_TCM,2, 25.18249512,  3.05842590,end
timer_stats,697588065443448,PAPI_L3_TCM,0, 25.26086426,  3.06848145,end
timer_stats,697588066633869,PAPI_L3_TCM,1, 25.33349609,  3.07731628,end
timer_stats,697588067825892,PAPI_L3_TCM,0, 25.40588379,  3.08587646,end
timer_stats,697588069019489,PAPI_L3_TCM,3, 25.47772217,  3.09446716,end
timer_stats,697588070220629,PAPI_L3_TCM,0, 25.62823486,  3.11439514,end
timer_stats,697588071418583,PAPI_L3_TCM,2, 25.69696045,  3.12298584,end
timer_stats,697588072612133,PAPI_L3_TCM,0, 25.77117920,  3.13177490,end
timer_stats,697588073800240,PAPI_L3_TCM,2, 25.84826660,  3.14207458,end
timer_stats,697588074974867,PAPI_L3_TCM,0, 25.92462158,  3.15214538,end
timer_stats,697588076165750,PAPI_L3_TCM,2, 26.08142090,  3.17268371,end
timer_stats,697588077330834,PAPI_L3_TCM,1, 26.15527344,  3.18345642,end
timer_stats,697588078528651,PAPI_L3_TCM,2, 26.23687744,  3.19395447,end
timer_stats,697588079724695,PAPI_L3_TCM,0, 26.30731201,  3.20408630,end
timer_stats,697588080920072,PAPI_L3_TCM,2, 26.38494873,  3.21281433,end
timer_stats,697588082103378,PAPI_L3_TCM,0, 26.53338623,  3.23300171,end
timer_stats,697588083289592,PAPI_L3_TCM,2, 26.60559082,  3.24179077,end
timer_stats,697588084488365,PAPI_L3_TCM,1, 26.67846680,  3.25056457,end
timer_stats,697588085680266,PAPI_L3_TCM,1, 26.74829101,  3.26069641,end
timer_stats,697588086872219,PAPI_L3_TCM,0, 26.81988525,  3.26951599,end
timer_stats,697588088073146,PAPI_L3_TCM,4, 26.96197510,  3.28892517,end
timer_stats,697588089273077,PAPI_L3_TCM,0, 27.03698730,  3.29383850,end
timer_stats,697588090468050,PAPI_L3_TCM,3, 27.10778808,  3.30265808,end
timer_stats,697588091665987,PAPI_L3_TCM,0, 27.17773437,  3.31144714,end
timer_stats,697588092864774,PAPI_L3_TCM,2, 27.24676514,  3.32026672,end
timer_stats,697588094059554,PAPI_L3_TCM,1, 27.32080078,  3.33056640,end
timer_stats,697588095255068,PAPI_L3_TCM,2, 27.45910644,  3.34970093,end
timer_stats,697588096450825,PAPI_L3_TCM,2, 27.53021240,  3.35848999,end
timer_stats,697588097643758,PAPI_L3_TCM,2, 27.59967041,  3.36837769,end
timer_stats,697588098825108,PAPI_L3_TCM,0, 27.67224121,  3.37716675,end
timer_stats,697588100031008,PAPI_L3_TCM,3, 27.74035644,  3.38549805,end
timer_stats,697588101242835,PAPI_L3_TCM,0, 27.87829590,  3.40492248,end
timer_stats,697588102443963,PAPI_L3_TCM,1, 27.94927978,  3.41368103,end
timer_stats,697588108675828,PAPI_L3_TCM,18, 28.34014892,  3.46636963,end
timer_stats,697588109868395,PAPI_L3_TCM,2, 28.40838623,  3.47665405,end
timer_stats,697588111064015,PAPI_L3_TCM,0, 28.47833252,  3.48696899,end
timer_stats,697588112259762,PAPI_L3_TCM,3, 28.61669922,  3.50736999,end
timer_stats,697588113457236,PAPI_L3_TCM,0, 28.68542480,  3.51768494,end
timer_stats,697588114661333,PAPI_L3_TCM,2, 28.75726318,  3.52772522,end
timer_stats,697588115853126,PAPI_L3_TCM,0, 28.82751465,  3.53805542,end
timer_stats,697588117046483,PAPI_L3_TCM,2, 28.89819336,  3.54840088,end
timer_stats,697588118213963,PAPI_L3_TCM,0, 29.03753662,  3.56884765,end
timer_stats,697588119396304,PAPI_L3_TCM,1, 29.10894775,  3.57873535,end
timer_stats,697588120595853,PAPI_L3_TCM,1, 29.18310547,  3.58877563,end
timer_stats,697588121794907,PAPI_L3_TCM,2, 29.25189209,  3.59866333,end
timer_stats,697588122992167,PAPI_L3_TCM,0, 29.31866455,  3.60745239,end
timer_stats,697588124188558,PAPI_L3_TCM,3, 29.46209717,  3.62673950,end
timer_stats,697588125392385,PAPI_L3_TCM,0, 29.53112793,  3.63684082,end
timer_stats,697588126591202,PAPI_L3_TCM,1, 29.59893799,  3.64544678,end
timer_stats,697588127788819,PAPI_L3_TCM,0, 29.66503906,  3.65402222,end
timer_stats,697588128988896,PAPI_L3_TCM,4, 29.74072265,  3.66268921,end
timer_stats,697588130188349,PAPI_L3_TCM,2, 29.82360840,  3.68222046,end
timer_stats,697588131387690,PAPI_L3_TCM,3, 29.94085693,  3.69102478,end
timer_stats,697588132560553,PAPI_L3_TCM,0, 30.01135254,  3.70005798,end
timer_stats,697588133761603,PAPI_L3_TCM,2, 30.08227539,  3.71034241,end
timer_stats,697588134960496,PAPI_L3_TCM,0, 30.15039062,  3.72047424,end
timer_stats,697588136159984,PAPI_L3_TCM,3, 30.23730469,  3.73448181,end
timer_stats,697588137366228,PAPI_L3_TCM,0, 30.35662842,  3.74974060,end
timer_stats,697588138567854,PAPI_L3_TCM,1, 30.42547607,  3.75804138,end
timer_stats,697588139767425,PAPI_L3_TCM,0, 30.49365234,  3.76704407,end
timer_stats,697588140967721,PAPI_L3_TCM,3, 30.56292725,  3.77583313,end
timer_stats,697588142171462,PAPI_L3_TCM,0, 30.67437744,  3.79089355,end
timer_stats,697588143374649,PAPI_L3_TCM,2, 30.76849365,  3.80609131,end
timer_stats,697588144582792,PAPI_L3_TCM,1, 30.83801269,  3.81486511,end
timer_stats,697588145786056,PAPI_L3_TCM,1, 30.90338135,  3.82522583,end
timer_stats,697588146984916,PAPI_L3_TCM,0, 30.97497558,  3.82884216,end
timer_stats,697588148184316,PAPI_L3_TCM,2, 31.10705566,  3.84754944,end
timer_stats,697588149390389,PAPI_L3_TCM,0, 31.17706299,  3.85630798,end
timer_stats,697588150589307,PAPI_L3_TCM,2, 31.24536133,  3.86512756,end
timer_stats,697588151787457,PAPI_L3_TCM,0, 31.31378174,  3.87391663,end
timer_stats,697588152992600,PAPI_L3_TCM,3, 31.38110351,  3.88270569,end
timer_stats,697588154200528,PAPI_L3_TCM,0, 31.51757812,  3.90115356,end
timer_stats,697588155405642,PAPI_L3_TCM,1, 31.58544922,  3.90972900,end
timer_stats,697588156609671,PAPI_L3_TCM,1, 31.65417480,  3.91851807,end
timer_stats,697588157811709,PAPI_L3_TCM,1, 31.71911621,  3.92839050,end
timer_stats,697588159012972,PAPI_L3_TCM,0, 31.79016113,  3.93669128,end
timer_stats,697588160226062,PAPI_L3_TCM,3, 31.92626953,  3.95584106,end
timer_stats,697588161427980,PAPI_L3_TCM,0, 31.99804687,  3.96435547,end
timer_stats,697588162628029,PAPI_L3_TCM,2, 32.05895996,  3.97299194,end
timer_stats,697588163827453,PAPI_L3_TCM,0, 32.12756348,  3.98181152,end
timer_stats,697588165028696,PAPI_L3_TCM,2, 32.20312500,  3.99050903,end
timer_stats,697588166231234,PAPI_L3_TCM,0, 32.31402588,  4.00405884,end
timer_stats,697588167434513,PAPI_L3_TCM,1, 32.40130615,  4.01739502,end
timer_stats,697588168637544,PAPI_L3_TCM,1, 32.46649170,  4.02600097,end
timer_stats,697588169838085,PAPI_L3_TCM,2, 32.54107666,  4.03622436,end
timer_stats,697588171040368,PAPI_L3_TCM,0, 32.61065674,  4.04479980,end
timer_stats,697588172246978,PAPI_L3_TCM,3, 32.73895264,  4.06413269,end
timer_stats,697588173461736,PAPI_L3_TCM,0, 32.81005859,  4.07267761,end
timer_stats,697588174663779,PAPI_L3_TCM,1, 32.87603760,  4.08151245,end
timer_stats,697588175865463,PAPI_L3_TCM,0, 32.94158935,  4.09008789,end
timer_stats,697588177068813,PAPI_L3_TCM,2, 33.01098633,  4.09886169,end
timer_stats,697588178275706,PAPI_L3_TCM,0, 33.15081787,  4.11927795,end
timer_stats,697588179472914,PAPI_L3_TCM,2, 33.21502685,  4.12812805,end
timer_stats,697588180673047,PAPI_L3_TCM,1, 33.28509521,  4.13690185,end
timer_stats,697588181873927,PAPI_L3_TCM,2, 33.35144043,  4.14654541,end
timer_stats,697588183071484,PAPI_L3_TCM,0, 33.42004394,  4.15513611,end
timer_stats,697588184268004,PAPI_L3_TCM,1, 33.56762695,  4.17419433,end
timer_stats,697588185439018,PAPI_L3_TCM,0, 33.64324951,  4.18447876,end
timer_stats,697588186626381,PAPI_L3_TCM,1, 33.71569824,  4.19451904,end
timer_stats,697588187814498,PAPI_L3_TCM,0, 33.78198242,  4.20492554,end
timer_stats,697588189016372,PAPI_L3_TCM,2, 33.85815430,  4.21514893,end
timer_stats,697588190215532,PAPI_L3_TCM,0, 33.94604492,  4.23071289,end
timer_stats,697588191416789,PAPI_L3_TCM,2, 34.07141113,  4.24591064,end
timer_stats,697588192698419,PAPI_L3_TCM,8, 34.14245605,  4.25671387,end
timer_stats,697588195080461,PAPI_L3_TCM,16, 34.29058838,  4.27746582,end
timer_stats,697588196241474,PAPI_L3_TCM,1, 34.42926025,  4.29872131,end
timer_stats,697588197419544,PAPI_L3_TCM,1, 34.49359131,  4.30854797,end
timer_stats,697588198589307,PAPI_L3_TCM,0, 34.55834961,  4.31733704,end
timer_stats,697588199758530,PAPI_L3_TCM,2, 34.62744141,  4.32604980,end
timer_stats,697588200928858,PAPI_L3_TCM,0, 34.69268799,  4.33456421,end
timer_stats,697588202110471,PAPI_L3_TCM,2, 34.74908447,  4.34320068,end
timer_stats,697588203283698,PAPI_L3_TCM,0, 34.86975098,  4.36038208,end
timer_stats,697588204460742,PAPI_L3_TCM,1, 34.93664551,  4.36891174,end
timer_stats,697588205651072,PAPI_L3_TCM,0, 35.00396728,  4.37924194,end
timer_stats,697588206822505,PAPI_L3_TCM,1, 35.07171631,  4.38824463,end
timer_stats,697588207993965,PAPI_L3_TCM,0, 35.13183594,  4.39712524,end
timer_stats,697588209181293,PAPI_L3_TCM,3, 35.20123291,  4.40634155,end
timer_stats,697588210355752,PAPI_L3_TCM,0, 35.33337402,  4.42352295,end
timer_stats,697588211546466,PAPI_L3_TCM,2, 35.40655517,  4.43197632,end
timer_stats,697588212719379,PAPI_L3_TCM,0, 35.47039795,  4.44078064,end
timer_stats,697588213879633,PAPI_L3_TCM,1, 35.53063965,  4.45094299,end
timer_stats,697588215041770,PAPI_L3_TCM,0, 35.60412598,  4.45964050,end
timer_stats,697588216207613,PAPI_L3_TCM,1, 35.66558838,  4.46824646,end
timer_stats,697588217368247,PAPI_L3_TCM,0, 35.80059814,  4.48532104,end
timer_stats,697588218527347,PAPI_L3_TCM,2, 35.86621094,  4.49389648,end
timer_stats,697588219686807,PAPI_L3_TCM,0, 35.93267822,  4.50268555,end
timer_stats,697588220860114,PAPI_L3_TCM,2, 35.99176025,  4.51158142,end
timer_stats,697588222033227,PAPI_L3_TCM,0, 36.06713867,  4.52159119,end
timer_stats,697588223208285,PAPI_L3_TCM,1, 36.18914795,  4.53517151,end
timer_stats,697588224403031,PAPI_L3_TCM,0, 36.26159668,  4.54753113,end
timer_stats,697588225561928,PAPI_L3_TCM,1, 36.32977295,  4.55784607,end
timer_stats,697588226719918,PAPI_L3_TCM,0, 36.38922119,  4.56718445,end
timer_stats,697588227860421,PAPI_L3_TCM,2, 36.45953369,  4.57591247,end
timer_stats,697588229003172,PAPI_L3_TCM,0, 36.52557373,  4.58445740,end
timer_stats,697588230177076,PAPI_L3_TCM,2, 36.58666992,  4.59484863,end
timer_stats,697588231348802,PAPI_L3_TCM,0, 36.71643066,  4.61175537,end
timer_stats,697588232506359,PAPI_L3_TCM,1, 36.78552246,  4.62051392,end
timer_stats,697588233675749,PAPI_L3_TCM,0, 36.84649658,  4.63092041,end
timer_stats,697588234848035,PAPI_L3_TCM,1, 36.91546631,  4.63964844,end
timer_stats,697588236038889,PAPI_L3_TCM,0, 36.98254395,  4.64837646,end
timer_stats,697588237185346,PAPI_L3_TCM,2, 37.03863525,  4.65771484,end
timer_stats,697588238357413,PAPI_L3_TCM,0, 37.14062500,  4.66989136,end
timer_stats,697588239524730,PAPI_L3_TCM,2, 37.23590088,  4.68359375,end
timer_stats,697588240693173,PAPI_L3_TCM,0, 37.30047607,  4.69238281,end
timer_stats,697588241864151,PAPI_L3_TCM,1, 37.36376953,  4.70120239,end
timer_stats,697588243034207,PAPI_L3_TCM,0, 37.42547607,  4.70980835,end
timer_stats,697588244207804,PAPI_L3_TCM,1, 37.48858643,  4.71861267,end
timer_stats,697588245382724,PAPI_L3_TCM,0, 37.61785889,  4.73350525,end
timer_stats,697588246551998,PAPI_L3_TCM,2, 37.68078613,  4.74476624,end
timer_stats,697588247722114,PAPI_L3_TCM,0, 37.74786377,  4.75352478,end
timer_stats,697588248888538,PAPI_L3_TCM,2, 37.80999756,  4.76237488,end
timer_stats,697588250059141,PAPI_L3_TCM,0, 37.87176514,  4.77119446,end
timer_stats,697588251232669,PAPI_L3_TCM,1, 37.93359375,  4.78004455,end
timer_stats,697588252403868,PAPI_L3_TCM,0, 38.05798340,  4.79792786,end
timer_stats,697588253572969,PAPI_L3_TCM,1, 38.12255859,  4.80668640,end
timer_stats,697588254743935,PAPI_L3_TCM,0, 38.18652344,  4.81549072,end
timer_stats,697588255912722,PAPI_L3_TCM,2, 38.24932861,  4.82409668,end
timer_stats,697588257084796,PAPI_L3_TCM,0, 38.31274414,  4.83288574,end
timer_stats,697588258256550,PAPI_L3_TCM,2, 38.40747070,  4.84532165,end
timer_stats,697588259424503,PAPI_L3_TCM,0, 38.50140381,  4.85908508,end
timer_stats,697588260594180,PAPI_L3_TCM,1, 38.56848144,  4.86782837,end
timer_stats,697588261761386,PAPI_L3_TCM,0, 38.62890625,  4.87667847,end
timer_stats,697588262930249,PAPI_L3_TCM,1, 38.68981934,  4.88528442,end
timer_stats,697588264116093,PAPI_L3_TCM,1, 38.75091553,  4.89434814,end
timer_stats,697588265282673,PAPI_L3_TCM,5, 38.81610107,  4.90386963,end
timer_stats,697588266446570,PAPI_L3_TCM,1, 38.94989014,  4.92425537,end
timer_stats,697588267607661,PAPI_L3_TCM,2, 39.01513672,  4.93460083,end
timer_stats,697588268770854,PAPI_L3_TCM,0, 39.08160400,  4.94491577,end
timer_stats,697588269933235,PAPI_L3_TCM,1, 39.14294434,  4.95529175,end
timer_stats,697588271093804,PAPI_L3_TCM,0, 39.21008301,  4.96514893,end
timer_stats,697588272261192,PAPI_L3_TCM,2, 39.30804443,  4.98039245,end
timer_stats,697588273424515,PAPI_L3_TCM,0, 39.40600586,  4.99559021,end
timer_stats,697588274584602,PAPI_L3_TCM,2, 39.47125244,  5.00590515,end
timer_stats,697588275745458,PAPI_L3_TCM,0, 39.53454590,  5.01579285,end
timer_stats,697588276908641,PAPI_L3_TCM,2, 39.60089111,  5.02610779,end
timer_stats,697588278071445,PAPI_L3_TCM,0, 39.67089844,  5.03642273,end
timer_stats,697588279231169,PAPI_L3_TCM,1, 39.74291992,  5.04655456,end
timer_stats,697588280396562,PAPI_L3_TCM,0, 39.88391113,  5.06626892,end
timer_stats,697588281563102,PAPI_L3_TCM,1, 39.94580078,  5.07505798,end
timer_stats,697588282728263,PAPI_L3_TCM,0, 40.00543213,  5.08363342,end
timer_stats,697588283895809,PAPI_L3_TCM,2, 40.07189941,  5.09169006,end
timer_stats,697588285061930,PAPI_L3_TCM,0, 40.13409424,  5.10047912,end
timer_stats,697588286234699,PAPI_L3_TCM,2, 40.19580078,  5.10908508,end
timer_stats,697588287401710,PAPI_L3_TCM,0, 40.28979492,  5.12147522,end
timer_stats,697588288567950,PAPI_L3_TCM,1, 40.38403320,  5.13523865,end
timer_stats,697588289737127,PAPI_L3_TCM,1, 40.45153809,  5.14476013,end
timer_stats,697588290916931,PAPI_L3_TCM,7, 40.52856445,  5.15525818,end
timer_stats,697588292085451,PAPI_L3_TCM,1, 40.59851074,  5.16581726,end
timer_stats,697588293221917,PAPI_L3_TCM,2, 40.66882324,  5.17662048,end
timer_stats,697588294389618,PAPI_L3_TCM,0, 40.81146240,  5.19743347,end
timer_stats,697588295553121,PAPI_L3_TCM,2, 40.88336182,  5.20793152,end
timer_stats,697588296717408,PAPI_L3_TCM,0, 40.95831299,  5.21818542,end
timer_stats,697588297880294,PAPI_L3_TCM,1, 41.02990723,  5.22848511,end
timer_stats,697588299044632,PAPI_L3_TCM,0, 41.09906006,  5.23858643,end
timer_stats,697588300212898,PAPI_L3_TCM,1, 41.16766357,  5.24870300,end
timer_stats,697588301351585,PAPI_L3_TCM,0, 41.27722168,  5.26417541,end
timer_stats,697588302506388,PAPI_L3_TCM,2, 41.38757324,  5.27946472,end
timer_stats,697588305624407,PAPI_L3_TCM,1, 41.60638428,  5.31010437,end
timer_stats,697588306789568,PAPI_L3_TCM,2, 41.67669678,  5.32069397,end
timer_stats,697588307957218,PAPI_L3_TCM,0, 41.75769043,  5.33143616,end
timer_stats,697588309136232,PAPI_L3_TCM,2, 41.84106445,  5.34169006,end
timer_stats,697588310306482,PAPI_L3_TCM,0, 41.95214844,  5.35206604,end
timer_stats,697588311474319,PAPI_L3_TCM,1, 42.07843018,  5.37239075,end
timer_stats,697588312639926,PAPI_L3_TCM,0, 42.16345215,  5.38291931,end
timer_stats,697588313806669,PAPI_L3_TCM,2, 42.24420166,  5.39300537,end
timer_stats,697588314976006,PAPI_L3_TCM,0, 42.32940674,  5.40350342,end
timer_stats,697588316144279,PAPI_L3_TCM,2, 42.40417480,  5.41432190,end
timer_stats,697588317283962,PAPI_L3_TCM,0, 42.49481201,  5.42433166,end
timer_stats,697588318441926,PAPI_L3_TCM,1, 42.66040039,  5.44561768,end
timer_stats,697588319607677,PAPI_L3_TCM,0, 42.74316406,  5.45570373,end
timer_stats,697588320773893,PAPI_L3_TCM,1, 42.83142090,  5.46598816,end
timer_stats,697588321937390,PAPI_L3_TCM,0, 42.90618896,  5.47615051,end
timer_stats,697588323087397,PAPI_L3_TCM,2, 43.00006103,  5.48616028,end
timer_stats,697588324250727,PAPI_L3_TCM,0, 43.08166504,  5.49668884,end
timer_stats,697588325388197,PAPI_L3_TCM,2, 43.24346924,  5.51713562,end
timer_stats,697588326537567,PAPI_L3_TCM,0, 43.32708740,  5.52720642,end
timer_stats,697588327702371,PAPI_L3_TCM,1, 43.40960693,  5.53752136,end
timer_stats,697588328870164,PAPI_L3_TCM,0, 43.49145508,  5.54710388,end
timer_stats,697588330038791,PAPI_L3_TCM,1, 43.57000732,  5.55632019,end
timer_stats,697588331194478,PAPI_L3_TCM,0, 43.64215088,  5.56489563,end
timer_stats,697588332393644,PAPI_L3_TCM,2, 43.79223633,  5.58250427,end
timer_stats,697588333559771,PAPI_L3_TCM,0, 43.86273193,  5.59130859,end
timer_stats,697588334710808,PAPI_L3_TCM,2, 43.93243408,  5.59988403,end
timer_stats,697588335873915,PAPI_L3_TCM,0, 44.00561523,  5.60861206,end
timer_stats,697588337044139,PAPI_L3_TCM,1, 44.07196045,  5.61718750,end
timer_stats,697588338207405,PAPI_L3_TCM,0, 44.13970947,  5.62576294,end
timer_stats,697588339391926,PAPI_L3_TCM,1, 44.24114990,  5.64001465,end
timer_stats,697588340564672,PAPI_L3_TCM,0, 44.36267090,  5.65344238,end
timer_stats,697588341731866,PAPI_L3_TCM,2, 44.44244385,  5.66198730,end
timer_stats,697588342899183,PAPI_L3_TCM,0, 44.51263428,  5.67062378,end
timer_stats,697588344073123,PAPI_L3_TCM,2, 44.59063721,  5.67941284,end
timer_stats,697588345205763,PAPI_L3_TCM,0, 44.66839599,  5.68820190,end
timer_stats,697588346374584,PAPI_L3_TCM,1, 44.80230713,  5.70584106,end
timer_stats,697588347541000,PAPI_L3_TCM,0, 44.87036133,  5.71444702,end
timer_stats,697588348710837,PAPI_L3_TCM,1, 44.94561767,  5.72317505,end
timer_stats,697588349872267,PAPI_L3_TCM,0, 45.01879883,  5.73202514,end
timer_stats,697588351036943,PAPI_L3_TCM,2, 45.10040283,  5.74075317,end
timer_stats,697588352202037,PAPI_L3_TCM,0, 45.18048096,  5.74926758,end
timer_stats,697588353368790,PAPI_L3_TCM,2, 45.24871826,  5.75784302,end
timer_stats,697588354531904,PAPI_L3_TCM,0, 45.38494873,  5.77478027,end
timer_stats,697588355695401,PAPI_L3_TCM,1, 45.45300293,  5.78338623,end
timer_stats,697588356860055,PAPI_L3_TCM,0, 45.52319336,  5.79196167,end
timer_stats,697588358028529,PAPI_L3_TCM,1, 45.59271240,  5.80075073,end
timer_stats,697588359194422,PAPI_L3_TCM,0, 45.66192627,  5.80935669,end
timer_stats,697588360369216,PAPI_L3_TCM,2, 45.76116943,  5.81817627,end
timer_stats,697588361507272,PAPI_L3_TCM,0, 45.88232422,  5.83526611,end
timer_stats,697588362659428,PAPI_L3_TCM,2, 45.95050049,  5.84411621,end
timer_stats,697588363829502,PAPI_L3_TCM,0, 46.02520752,  5.85287476,end
timer_stats,697588364999889,PAPI_L3_TCM,1, 46.09625244,  5.86170959,end
timer_stats,697588366151816,PAPI_L3_TCM,0, 46.16967773,  5.87025452,end
timer_stats,697588367304749,PAPI_L3_TCM,1, 46.23895264,  5.87861633,end
timer_stats,697588368471756,PAPI_L3_TCM,0, 46.38787842,  5.89576721,end
timer_stats,697588369639926,PAPI_L3_TCM,2, 46.46630859,  5.90458679,end
timer_stats,697588370792067,PAPI_L3_TCM,0, 46.54364013,  5.91294861,end
timer_stats,697588371944450,PAPI_L3_TCM,3, 46.62609863,  5.92149353,end
timer_stats,697588373108483,PAPI_L3_TCM,0, 46.70410156,  5.93052673,end
timer_stats,697588374258083,PAPI_L3_TCM,1, 46.78662109,  5.93928528,end
timer_stats,697588375407634,PAPI_L3_TCM,0, 46.86926269,  5.94804382,end
timer_stats,697588376568857,PAPI_L3_TCM,1, 47.03149414,  5.96560669,end
timer_stats,697588377729521,PAPI_L3_TCM,0, 47.10852051,  5.97419739,end
timer_stats,697588378878737,PAPI_L3_TCM,2, 47.19195557,  5.98320007,end
timer_stats,697588380037931,PAPI_L3_TCM,0, 47.27813721,  5.99192810,end
timer_stats,697588381174174,PAPI_L3_TCM,2, 47.35656738,  6.00051880,end
timer_stats,697588382340987,PAPI_L3_TCM,0, 47.46801758,  6.00929260,end
timer_stats,697588383502645,PAPI_L3_TCM,1, 47.60424805,  6.02688598,end
timer_stats,697588384664688,PAPI_L3_TCM,0, 47.68542480,  6.03616333,end
timer_stats,697588385826162,PAPI_L3_TCM,1, 47.76654053,  6.04492187,end
timer_stats,697588386976001,PAPI_L3_TCM,0, 47.84912109,  6.05374145,end
timer_stats,697588388138782,PAPI_L3_TCM,2, 47.93029785,  6.06275940,end
timer_stats,697588389298515,PAPI_L3_TCM,0, 48.00854492,  6.07156372,end
timer_stats,697588390463909,PAPI_L3_TCM,2, 48.16381836,  6.08377075,end
timer_stats,697588391623629,PAPI_L3_TCM,0, 48.23931885,  6.09771728,end
timer_stats,697588392795552,PAPI_L3_TCM,2, 48.31811523,  6.10652161,end
timer_stats,697588393953986,PAPI_L3_TCM,3, 48.40106201,  6.11479187,end
timer_stats,697588395118743,PAPI_L3_TCM,1, 48.47656250,  6.12339783,end
timer_stats,697588396289203,PAPI_L3_TCM,2, 48.56048584,  6.13214111,end
timer_stats,697588397423439,PAPI_L3_TCM,7, 48.67010498,  6.14785767,end
timer_stats,697588398567570,PAPI_L3_TCM,8, 48.79949951,  6.15853882,end
timer_stats,697588399729889,PAPI_L3_TCM,6, 48.87158203,  6.16912842,end
timer_stats,697588400920473,PAPI_L3_TCM,1, 48.95275879,  6.17893982,end
timer_stats,697588402087630,PAPI_L3_TCM,1, 49.03479004,  6.18925476,end
timer_stats,697588403250997,PAPI_L3_TCM,0, 49.11401367,  6.19441223,end
timer_stats,697588404418913,PAPI_L3_TCM,1, 49.18969726,  6.20451355,end
timer_stats,697588405595757,PAPI_L3_TCM,0, 49.35742187,  6.22506714,end
timer_stats,697588406774495,PAPI_L3_TCM,2, 49.44079590,  6.23513794,end
timer_stats,697588407950084,PAPI_L3_TCM,0, 49.52075195,  6.24522400,end
timer_stats,697588409131688,PAPI_L3_TCM,2, 49.59759521,  6.25556946,end
timer_stats,697588410308778,PAPI_L3_TCM,0, 49.67846679,  6.26585388,end
timer_stats,697588411476185,PAPI_L3_TCM,1, 49.78985596,  6.28065491,end
timer_stats,697588412649332,PAPI_L3_TCM,0, 49.91088867,  6.29127502,end
timer_stats,697588415846392,PAPI_L3_TCM,7, 50.15612793,  6.32145691,end
timer_stats,697588417010121,PAPI_L3_TCM,0, 50.23553467,  6.33222961,end
timer_stats,697588418190659,PAPI_L3_TCM,2, 50.31683349,  6.34249878,end
timer_stats,697588419373522,PAPI_L3_TCM,0, 50.39611816,  6.35282898,end
timer_stats,697588420553116,PAPI_L3_TCM,2, 50.55780029,  6.37324524,end
timer_stats,697588421745322,PAPI_L3_TCM,0, 50.64611816,  6.38333130,end
timer_stats,697588422921843,PAPI_L3_TCM,1, 50.72967529,  6.39236450,end
timer_stats,697588424091546,PAPI_L3_TCM,0, 50.81274414,  6.40039062,end
timer_stats,697588425224563,PAPI_L3_TCM,1, 50.90155029,  6.40914917,end
timer_stats,697588426391806,PAPI_L3_TCM,0, 50.98388672,  6.41795349,end
timer_stats,697588427545880,PAPI_L3_TCM,2, 51.15893555,  6.43833923,end
timer_stats,697588428723443,PAPI_L3_TCM,0, 51.24615478,  6.44711304,end
timer_stats,697588429908234,PAPI_L3_TCM,2, 51.33959961,  6.45587158,end
timer_stats,697588431098393,PAPI_L3_TCM,0, 51.42944336,  6.46464538,end
timer_stats,697588432277217,PAPI_L3_TCM,2, 51.52105713,  6.47343445,end
timer_stats,697588433438127,PAPI_L3_TCM,0, 51.70123291,  6.48757935,end
timer_stats,697588434615538,PAPI_L3_TCM,1, 51.79632568,  6.50000000,end
timer_stats,697588435780944,PAPI_L3_TCM,1, 51.88757324,  6.50909424,end
timer_stats,697588436952425,PAPI_L3_TCM,3, 51.98730469,  6.51782226,end
timer_stats,697588438141711,PAPI_L3_TCM,0, 52.07348633,  6.52688598,end
timer_stats,697588439331578,PAPI_L3_TCM,2, 52.16485596,  6.53662109,end
timer_stats,697588440509968,PAPI_L3_TCM,0, 52.31188965,  6.55096435,end
timer_stats,697588441703222,PAPI_L3_TCM,1, 52.43994140,  6.56463623,end
timer_stats,697588442895933,PAPI_L3_TCM,0, 52.52587890,  6.57345581,end
timer_stats,697588444086609,PAPI_L3_TCM,2, 52.61523437,  6.58242798,end
timer_stats,697588445218983,PAPI_L3_TCM,0, 52.70690918,  6.59092712,end
timer_stats,697588446417656,PAPI_L3_TCM,2, 52.79730224,  6.59968567,end
timer_stats,697588447604683,PAPI_L3_TCM,0, 52.97662353,  6.61994934,end
timer_stats,697588448797024,PAPI_L3_TCM,2, 53.07495117,  6.62867737,end
timer_stats,697588449985374,PAPI_L3_TCM,0, 53.16638184,  6.63748169,end
timer_stats,697588451174714,PAPI_L3_TCM,1, 53.25836182,  6.64620972,end
timer_stats,697588452354524,PAPI_L3_TCM,0, 53.35046387,  6.65501404,end
timer_stats,697588453518328,PAPI_L3_TCM,1, 53.54095459,  6.66960144,end
timer_stats,697588454710544,PAPI_L3_TCM,0, 53.62854004,  6.68373108,end
timer_stats,697588455898258,PAPI_L3_TCM,3, 53.71679687,  6.69274902,end
timer_stats,697588457077038,PAPI_L3_TCM,0, 53.80877685,  6.70298767,end
timer_stats,697588458236672,PAPI_L3_TCM,2, 53.89703369,  6.71173096,end
timer_stats,697588459429638,PAPI_L3_TCM,0, 53.98547363,  6.72583008,end
timer_stats,697588460621529,PAPI_L3_TCM,2, 54.16650390,  6.73977661,end
timer_stats,697588461811279,PAPI_L3_TCM,0, 54.25708008,  6.74853515,end
timer_stats,697588462998766,PAPI_L3_TCM,1, 54.34863281,  6.75799560,end
timer_stats,697588464191276,PAPI_L3_TCM,1, 54.43743896,  6.76701355,end
timer_stats,697588465356190,PAPI_L3_TCM,2, 54.52490234,  6.77586365,end
timer_stats,697588466551079,PAPI_L3_TCM,0, 54.70709229,  6.79495239,end
timer_stats,697588467740597,PAPI_L3_TCM,2, 54.79986572,  6.80346680,end
timer_stats,697588468932286,PAPI_L3_TCM,1, 54.88500976,  6.81230163,end
timer_stats,697588470121920,PAPI_L3_TCM,2, 54.97644043,  6.82127380,end
timer_stats,697588471311171,PAPI_L3_TCM,0, 55.06732178,  6.83027649,end
timer_stats,697588472502551,PAPI_L3_TCM,1, 55.21203613,  6.84397888,end
timer_stats,697588473694641,PAPI_L3_TCM,0, 55.34289551,  6.85942078,end
timer_stats,697588474886702,PAPI_L3_TCM,2, 55.42755127,  6.86820984,end
timer_stats,697588476087462,PAPI_L3_TCM,1, 55.51452637,  6.87672424,end
timer_stats,697588477236156,PAPI_L3_TCM,2, 55.60168457,  6.88552856,end
timer_stats,697588478420052,PAPI_L3_TCM,0, 55.69519043,  6.89480591,end
timer_stats,697588479601086,PAPI_L3_TCM,1, 55.87573242,  6.91435242,end
timer_stats,697588480794032,PAPI_L3_TCM,1, 55.96044922,  6.92314148,end
timer_stats,697588481985070,PAPI_L3_TCM,1, 56.04156494,  6.93196106,end
timer_stats,697588483175309,PAPI_L3_TCM,0, 56.12670898,  6.94047546,end
timer_stats,697588484341930,PAPI_L3_TCM,3, 56.21118164,  6.95080566,end
timer_stats,697588485489246,PAPI_L3_TCM,0, 56.29772949,  6.96719360,end
timer_stats,697588486671370,PAPI_L3_TCM,3, 56.46337891,  6.98348999,end
timer_stats,697588487858933,PAPI_L3_TCM,4, 56.54779053,  6.99288940,end
timer_stats,697588489052891,PAPI_L3_TCM,2, 56.62951660,  7.00166321,end
timer_stats,697588490191980,PAPI_L3_TCM,0, 56.71801758,  7.01232910,end
timer_stats,697588491356244,PAPI_L3_TCM,1, 56.79125976,  7.02093506,end
timer_stats,697588492516404,PAPI_L3_TCM,2, 56.91473389,  7.03355408,end
timer_stats,697588493689115,PAPI_L3_TCM,2, 57.02795410,  7.04771423,end
timer_stats,697588494851768,PAPI_L3_TCM,0, 57.10260010,  7.05653381,end
timer_stats,697588496024188,PAPI_L3_TCM,3, 57.17962646,  7.06532287,end
timer_stats,697588497180981,PAPI_L3_TCM,0, 57.25738525,  7.07383728,end
timer_stats,697588498366422,PAPI_L3_TCM,2, 57.32818603,  7.08241272,end
timer_stats,697588499551398,PAPI_L3_TCM,0, 57.47070312,  7.09974670,end
timer_stats,697588500736239,PAPI_L3_TCM,2, 57.54528809,  7.10856628,end
timer_stats,697588501928739,PAPI_L3_TCM,0, 57.62268066,  7.11712646,end
timer_stats,697588503118786,PAPI_L3_TCM,2, 57.70153809,  7.12570190,end
timer_stats,697588504300730,PAPI_L3_TCM,1, 57.77880859,  7.13447571,end
timer_stats,697588505463893,PAPI_L3_TCM,2, 57.85388184,  7.14375305,end
timer_stats,697588506654050,PAPI_L3_TCM,0, 58.00823974,  7.16113281,end
timer_stats,697588507845173,PAPI_L3_TCM,1, 58.08630371,  7.16966247,end
timer_stats,697588509024177,PAPI_L3_TCM,0, 58.16864014,  7.17326355,end
timer_stats,697588510203784,PAPI_L3_TCM,1, 58.24395752,  7.18185425,end
timer_stats,697588511386671,PAPI_L3_TCM,0, 58.31915283,  7.19067383,end
timer_stats,697588512570807,PAPI_L3_TCM,3, 58.46813965,  7.20899963,end
timer_stats,697588513735931,PAPI_L3_TCM,3, 58.54785156,  7.21781921,end
timer_stats,697588514903115,PAPI_L3_TCM,2, 58.62255859,  7.22639465,end
timer_stats,697588516069958,PAPI_L3_TCM,1, 58.70263672,  7.23518371,end
timer_stats,697588517216545,PAPI_L3_TCM,1, 58.78033447,  7.24421692,end
timer_stats,697588518385295,PAPI_L3_TCM,0, 58.85974121,  7.25297546,end
timer_stats,697588519551125,PAPI_L3_TCM,1, 58.96954346,  7.26594543,end
timer_stats,697588520731179,PAPI_L3_TCM,0, 59.09185791,  7.28108215,end
timer_stats,697588521894619,PAPI_L3_TCM,2, 59.17285156,  7.29185486,end
timer_stats,697588523073496,PAPI_L3_TCM,0, 59.24938965,  7.30244446,end
timer_stats,697588524245546,PAPI_L3_TCM,2, 59.32952881,  7.31123352,end
timer_stats,697588525381013,PAPI_L3_TCM,0, 59.41052246,  7.31996155,end
timer_stats,697588526532436,PAPI_L3_TCM,1, 59.51763916,  7.32847595,end
timer_stats,697588527689416,PAPI_L3_TCM,0, 59.62841797,  7.34626770,end
timer_stats,697588528857040,PAPI_L3_TCM,1, 59.70324707,  7.35501099,end
timer_stats,697588530025624,PAPI_L3_TCM,0, 59.77325439,  7.36381531,end
timer_stats,697588531193760,PAPI_L3_TCM,2, 59.84539795,  7.37281799,end
timer_stats,697588532363547,PAPI_L3_TCM,0, 59.91662598,  7.38160705,end
timer_stats,697588533528780,PAPI_L3_TCM,2, 60.02075195,  7.38890076,end
timer_stats,697588534695234,PAPI_L3_TCM,0, 60.13153076,  7.40306091,end
timer_stats,697588535856887,PAPI_L3_TCM,1, 60.20550537,  7.41203308,end
timer_stats,697588537029114,PAPI_L3_TCM,17, 60.27795410,  7.42100525,end
timer_stats,697588538223214,PAPI_L3_TCM,14, 60.34240723,  7.42959595,end
timer_stats,697588539394732,PAPI_L3_TCM,6, 60.40771484,  7.43685913,end
