timer_stats,698486325221456,PAPI_L3_TCM,461,  0.16845703,  0.02127075,end
timer_stats,698486326349037,PAPI_L3_TCM,41,  0.25134277,  0.03202820,end
timer_stats,698486327530471,PAPI_L3_TCM,6,  0.33325195,  0.04319763,end
timer_stats,698486328696819,PAPI_L3_TCM,8,  0.41729736,  0.05369568,end
timer_stats,698486330261168,PAPI_L3_TCM,65,  0.55285644,  0.07485962,end
timer_stats,698486331422756,PAPI_L3_TCM,17,  0.69366455,  0.08538818,end
timer_stats,698486332561230,PAPI_L3_TCM,6,  0.77178955,  0.09594727,end
timer_stats,698486333719308,PAPI_L3_TCM,1,  0.86016846,  0.10760498,end
timer_stats,698486334882949,PAPI_L3_TCM,2,  0.95233154,  0.11831665,end
timer_stats,698486336025640,PAPI_L3_TCM,5,  1.04937744,  0.12904358,end
timer_stats,698486337163961,PAPI_L3_TCM,2,  1.18267822,  0.14558410,end
timer_stats,698486338352942,PAPI_L3_TCM,3,  1.32257080,  0.16233826,end
timer_stats,698486339540930,PAPI_L3_TCM,0,  1.41558838,  0.17306518,end
timer_stats,698486340669250,PAPI_L3_TCM,6,  1.50878906,  0.18379211,end
timer_stats,698486341846175,PAPI_L3_TCM,3,  1.59265137,  0.19477844,end
timer_stats,698486343033520,PAPI_L3_TCM,5,  1.67590332,  0.20481873,end
timer_stats,698486344179328,PAPI_L3_TCM,3,  1.80963135,  0.22073364,end
timer_stats,698486345327302,PAPI_L3_TCM,2,  1.96105957,  0.23623657,end
timer_stats,698486346467916,PAPI_L3_TCM,1,  2.05169678,  0.24629211,end
timer_stats,698486347616904,PAPI_L3_TCM,2,  2.15502930,  0.25674438,end
timer_stats,698486348782375,PAPI_L3_TCM,1,  2.24499512,  0.26724243,end
timer_stats,698486349974583,PAPI_L3_TCM,2,  2.34515381,  0.27770996,end
timer_stats,698486351168614,PAPI_L3_TCM,0,  2.48583984,  0.29267883,end
timer_stats,698486352314578,PAPI_L3_TCM,1,  2.62701416,  0.30812073,end
timer_stats,698486353520469,PAPI_L3_TCM,0,  2.72821045,  0.31864929,end
timer_stats,698486354710410,PAPI_L3_TCM,1,  2.83776855,  0.32911682,end
timer_stats,698486355891092,PAPI_L3_TCM,0,  2.94470215,  0.33961487,end
timer_stats,698486357060569,PAPI_L3_TCM,2,  3.04998779,  0.35060119,end
timer_stats,698486358254567,PAPI_L3_TCM,0,  3.26702881,  0.37182617,end
timer_stats,698486359445768,PAPI_L3_TCM,2,  3.37280273,  0.38256836,end
timer_stats,698486360618155,PAPI_L3_TCM,0,  3.47814941,  0.39349365,end
timer_stats,698486361820190,PAPI_L3_TCM,2,  3.58892822,  0.40402222,end
timer_stats,698486362992221,PAPI_L3_TCM,0,  3.70043945,  0.41403198,end
timer_stats,698486364180449,PAPI_L3_TCM,4,  3.81048584,  0.42456055,end
timer_stats,698486365323810,PAPI_L3_TCM,1,  4.04052734,  0.44554138,end
timer_stats,698486366463611,PAPI_L3_TCM,3,  4.16320801,  0.45622253,end
timer_stats,698486367619336,PAPI_L3_TCM,2,  4.28143310,  0.46783447,end
timer_stats,698486368757743,PAPI_L3_TCM,2,  4.41406250,  0.48052978,end
timer_stats,698486369899945,PAPI_L3_TCM,2,  4.55535889,  0.49197388,end
timer_stats,698486371033305,PAPI_L3_TCM,6,  4.69586182,  0.50329590,end
timer_stats,698486372151616,PAPI_L3_TCM,1,  4.84204102,  0.51797485,end
timer_stats,698486373268483,PAPI_L3_TCM,2,  5.13452148,  0.54545593,end
timer_stats,698486374392587,PAPI_L3_TCM,1,  5.28625488,  0.55970764,end
timer_stats,698486375509559,PAPI_L3_TCM,4,  5.44512939,  0.57272339,end
timer_stats,698486376650613,PAPI_L3_TCM,1,  5.58789062,  0.58631897,end
timer_stats,698486377765949,PAPI_L3_TCM,5,  5.74920654,  0.60028076,end
timer_stats,698486378872071,PAPI_L3_TCM,1,  5.90661621,  0.61451721,end
timer_stats,698486379965072,PAPI_L3_TCM,8,  6.08923340,  0.62818909,end
timer_stats,698486381048347,PAPI_L3_TCM,7,  6.26715088,  0.64303589,end
timer_stats,698486382133720,PAPI_L3_TCM,2,  6.44500732,  0.65496826,end
timer_stats,698486383219055,PAPI_L3_TCM,0,  6.60589600,  0.66842651,end
timer_stats,698486384309379,PAPI_L3_TCM,3,  6.97833252,  0.69648743,end
timer_stats,698486385397893,PAPI_L3_TCM,1,  7.16333008,  0.70936584,end
timer_stats,698486386479812,PAPI_L3_TCM,2,  7.35821533,  0.71650696,end
timer_stats,698486387572817,PAPI_L3_TCM,1,  7.54541015,  0.73240662,end
timer_stats,698486388662699,PAPI_L3_TCM,3,  7.75103760,  0.74797058,end
timer_stats,698486389758709,PAPI_L3_TCM,1,  7.94482422,  0.76412964,end
timer_stats,698486390849377,PAPI_L3_TCM,1,  8.13952637,  0.77874756,end
timer_stats,698486391946478,PAPI_L3_TCM,1,  8.33612060,  0.79621887,end
timer_stats,698486393035882,PAPI_L3_TCM,5,  8.54766846,  0.81159973,end
timer_stats,698486396194520,PAPI_L3_TCM,21,  9.07434082,  0.85275269,end
timer_stats,698486397436811,PAPI_L3_TCM,47,  9.29956055,  0.87339783,end
timer_stats,698486398555560,PAPI_L3_TCM,14,  9.46551514,  0.88769531,end
timer_stats,698486399659402,PAPI_L3_TCM,10,  9.64715576,  0.90301514,end
timer_stats,698486400783866,PAPI_L3_TCM,3,  9.82397461,  0.91819763,end
timer_stats,698486401879761,PAPI_L3_TCM,2, 10.00756836,  0.93286133,end
timer_stats,698486402992401,PAPI_L3_TCM,4, 10.18121338,  0.94714355,end
timer_stats,698486404084399,PAPI_L3_TCM,4, 10.35284424,  0.96121216,end
timer_stats,698486405171339,PAPI_L3_TCM,1, 10.52783203,  0.97529602,end
timer_stats,698486406270467,PAPI_L3_TCM,2, 10.87463379,  1.00450134,end
timer_stats,698486407363729,PAPI_L3_TCM,2, 11.05798340,  1.01774597,end
timer_stats,698486408488950,PAPI_L3_TCM,7, 11.22711182,  1.03111267,end
timer_stats,698486409588564,PAPI_L3_TCM,0, 11.38250732,  1.04425049,end
timer_stats,698486410679302,PAPI_L3_TCM,20, 11.55047607,  1.05636597,end
timer_stats,698486411778018,PAPI_L3_TCM,2, 11.71032715,  1.06938171,end
timer_stats,698486412860976,PAPI_L3_TCM,7, 11.85943603,  1.08239746,end
timer_stats,698486413959480,PAPI_L3_TCM,1, 12.01660156,  1.09599304,end
timer_stats,698486415057473,PAPI_L3_TCM,2, 12.17437744,  1.10937500,end
timer_stats,698486416155359,PAPI_L3_TCM,5, 12.32910156,  1.12277222,end
timer_stats,698486425110632,PAPI_L3_TCM,69, 13.72479248,  1.23188782,end
timer_stats,698486426217197,PAPI_L3_TCM,18, 13.85589599,  1.24771118,end
timer_stats,698486427331952,PAPI_L3_TCM,2, 14.15832519,  1.27656555,end
timer_stats,698486428445783,PAPI_L3_TCM,5, 14.31683349,  1.29244995,end
timer_stats,698486429561528,PAPI_L3_TCM,4, 14.48852539,  1.30603027,end
timer_stats,698486430681203,PAPI_L3_TCM,1, 14.65026855,  1.32031250,end
timer_stats,698486431788630,PAPI_L3_TCM,9, 14.80084228,  1.33319092,end
timer_stats,698486432889237,PAPI_L3_TCM,1, 14.94451904,  1.34732056,end
timer_stats,698486433980656,PAPI_L3_TCM,3, 15.10296631,  1.36184692,end
timer_stats,698486435092515,PAPI_L3_TCM,8, 15.26220703,  1.37564087,end
timer_stats,698486436177953,PAPI_L3_TCM,4, 15.43084717,  1.38995361,end
timer_stats,698486437261814,PAPI_L3_TCM,2, 15.59631348,  1.40470886,end
timer_stats,698486438371264,PAPI_L3_TCM,9, 15.82147217,  1.42576599,end
timer_stats,698486439469736,PAPI_L3_TCM,2, 16.07348633,  1.44767761,end
timer_stats,698486440585166,PAPI_L3_TCM,7, 16.24615478,  1.46237182,end
timer_stats,698486441704383,PAPI_L3_TCM,5, 16.38696289,  1.47485351,end
timer_stats,698486442804153,PAPI_L3_TCM,2, 16.54382324,  1.48663330,end
timer_stats,698486443900604,PAPI_L3_TCM,1, 16.69244385,  1.49937439,end
timer_stats,698486445017839,PAPI_L3_TCM,1, 16.84613037,  1.51269531,end
timer_stats,698486446132977,PAPI_L3_TCM,0, 16.99243164,  1.52388000,end
timer_stats,698486447249249,PAPI_L3_TCM,2, 17.13818359,  1.53684997,end
timer_stats,698486448382381,PAPI_L3_TCM,1, 17.42895508,  1.56278992,end
timer_stats,698486449521750,PAPI_L3_TCM,2, 17.58813476,  1.57487488,end
timer_stats,698486450639680,PAPI_L3_TCM,2, 17.71087646,  1.58668518,end
timer_stats,698486451748472,PAPI_L3_TCM,5, 17.85388183,  1.59913635,end
timer_stats,698486452851240,PAPI_L3_TCM,3, 18.00170898,  1.61262512,end
timer_stats,698486453998664,PAPI_L3_TCM,4, 18.13397217,  1.62428284,end
timer_stats,698486455123554,PAPI_L3_TCM,0, 18.26922607,  1.63694763,end
timer_stats,698486456240558,PAPI_L3_TCM,2, 18.42547607,  1.64872742,end
timer_stats,698486457365703,PAPI_L3_TCM,2, 18.70239258,  1.67454529,end
timer_stats,698486458491715,PAPI_L3_TCM,5, 18.85723877,  1.68901062,end
timer_stats,698486459615815,PAPI_L3_TCM,0, 19.00036621,  1.70002747,end
timer_stats,698486460747486,PAPI_L3_TCM,4, 19.14953613,  1.71414185,end
timer_stats,698486461880814,PAPI_L3_TCM,4, 19.27496338,  1.72679138,end
timer_stats,698486463023871,PAPI_L3_TCM,5, 19.42620850,  1.73840332,end
timer_stats,698486464147419,PAPI_L3_TCM,5, 19.54187012,  1.75041199,end
timer_stats,698486465290877,PAPI_L3_TCM,5, 19.67718506,  1.76261902,end
timer_stats,698486466451031,PAPI_L3_TCM,2, 19.94152832,  1.78562927,end
timer_stats,698486467593425,PAPI_L3_TCM,3, 20.07135010,  1.79792785,end
timer_stats,698486468747160,PAPI_L3_TCM,0, 20.21093750,  1.80935669,end
timer_stats,698486469880613,PAPI_L3_TCM,1, 20.33874512,  1.82220459,end
timer_stats,698486471016055,PAPI_L3_TCM,3, 20.47717285,  1.83273315,end
timer_stats,698486472138289,PAPI_L3_TCM,3, 20.60491943,  1.84452820,end
timer_stats,698486473273813,PAPI_L3_TCM,0, 20.76403808,  1.85646057,end
timer_stats,698486474411493,PAPI_L3_TCM,2, 21.00628662,  1.87950134,end
timer_stats,698486475529765,PAPI_L3_TCM,0, 21.14331055,  1.89201355,end
timer_stats,698486476656576,PAPI_L3_TCM,3, 21.29791260,  1.90499878,end
timer_stats,698486477812290,PAPI_L3_TCM,0, 21.43157959,  1.91693115,end
timer_stats,698486478978574,PAPI_L3_TCM,6, 21.55218506,  1.92945862,end
timer_stats,698486480081712,PAPI_L3_TCM,2, 21.70562744,  1.94293213,end
timer_stats,698486481198406,PAPI_L3_TCM,6, 21.83715820,  1.95501709,end
timer_stats,698486482302533,PAPI_L3_TCM,1, 22.04980469,  1.96768188,end
timer_stats,698486483444431,PAPI_L3_TCM,2, 22.25616455,  1.99705505,end
timer_stats,698486484579248,PAPI_L3_TCM,3, 22.42224121,  2.00903320,end
timer_stats,698486485718130,PAPI_L3_TCM,3, 22.53894043,  2.02366638,end
timer_stats,698486486823040,PAPI_L3_TCM,2, 22.68457031,  2.03643799,end
timer_stats,698486487971540,PAPI_L3_TCM,5, 22.81091308,  2.04820251,end
timer_stats,698486489128709,PAPI_L3_TCM,4, 22.93786621,  2.05999756,end
timer_stats,698486490288845,PAPI_L3_TCM,4, 23.06304932,  2.07226562,end
timer_stats,698486491455182,PAPI_L3_TCM,3, 23.25817871,  2.09083557,end
timer_stats,698486492570409,PAPI_L3_TCM,15, 23.46484375,  2.10937500,end
timer_stats,698486493715650,PAPI_L3_TCM,5, 23.58569336,  2.12239075,end
timer_stats,698486494863380,PAPI_L3_TCM,2, 23.73211670,  2.13531494,end
timer_stats,698486496034902,PAPI_L3_TCM,10, 23.87066650,  2.14921570,end
timer_stats,698486497171329,PAPI_L3_TCM,2, 23.99652100,  2.16406250,end
timer_stats,698486498325527,PAPI_L3_TCM,2, 24.14349365,  2.17645263,end
timer_stats,698486513854074,PAPI_L3_TCM,190, 26.59283447,  2.38861084,end
timer_stats,698486514966851,PAPI_L3_TCM,68, 26.73632812,  2.40179443,end
timer_stats,698486516064609,PAPI_L3_TCM,14, 26.86846924,  2.41569519,end
timer_stats,698486517177006,PAPI_L3_TCM,2, 27.00622558,  2.42752075,end
timer_stats,698486518311601,PAPI_L3_TCM,3, 27.13500976,  2.44012451,end
timer_stats,698486519439990,PAPI_L3_TCM,1, 27.33795166,  2.46134949,end
timer_stats,698486520575254,PAPI_L3_TCM,5, 27.55505371,  2.48002624,end
timer_stats,698486521702179,PAPI_L3_TCM,4, 27.66864014,  2.49179077,end
timer_stats,698486522846031,PAPI_L3_TCM,5, 27.82781982,  2.50395202,end
timer_stats,698486523982135,PAPI_L3_TCM,6, 27.96002197,  2.51634216,end
timer_stats,698486525135316,PAPI_L3_TCM,5, 28.10552978,  2.52864075,end
timer_stats,698486526270922,PAPI_L3_TCM,4, 28.25006103,  2.54093933,end
timer_stats,698486527408140,PAPI_L3_TCM,5, 28.45629883,  2.56077576,end
timer_stats,698486528532190,PAPI_L3_TCM,1, 28.59735107,  2.57421875,end
timer_stats,698486529644347,PAPI_L3_TCM,2, 28.84136963,  2.59608459,end
timer_stats,698486530757553,PAPI_L3_TCM,1, 28.99029541,  2.61024475,end
timer_stats,698486531912217,PAPI_L3_TCM,2, 29.14935303,  2.62442017,end
timer_stats,698486533059837,PAPI_L3_TCM,1, 29.29956055,  2.63766479,end
timer_stats,698486534174018,PAPI_L3_TCM,2, 29.46063232,  2.65188598,end
timer_stats,698486535300662,PAPI_L3_TCM,0, 29.60223389,  2.66479492,end
timer_stats,698486536409742,PAPI_L3_TCM,2, 29.76263428,  2.67864990,end
timer_stats,698486537501514,PAPI_L3_TCM,2, 30.06903076,  2.70088196,end
timer_stats,698486538626065,PAPI_L3_TCM,2, 30.23046875,  2.72178650,end
timer_stats,698486539733793,PAPI_L3_TCM,1, 30.39367676,  2.73565674,end
timer_stats,698486540853379,PAPI_L3_TCM,5, 30.55169678,  2.75064087,end
timer_stats,698486541955305,PAPI_L3_TCM,1, 30.72393799,  2.76464844,end
timer_stats,698486543077552,PAPI_L3_TCM,3, 30.88427734,  2.77870178,end
timer_stats,698486544194826,PAPI_L3_TCM,5, 31.05523682,  2.79339600,end
timer_stats,698486545303290,PAPI_L3_TCM,5, 31.20849609,  2.80670166,end
timer_stats,698486546430919,PAPI_L3_TCM,3, 31.38165283,  2.82304382,end
timer_stats,698486547543051,PAPI_L3_TCM,5, 31.59954834,  2.84344482,end
timer_stats,698486548665039,PAPI_L3_TCM,10, 31.85302734,  2.86456299,end
timer_stats,698486549786766,PAPI_L3_TCM,17, 31.99578857,  2.87844849,end
timer_stats,698486550907269,PAPI_L3_TCM,7, 32.15844726,  2.89254761,end
timer_stats,698486552013116,PAPI_L3_TCM,8, 32.31060791,  2.90637207,end
timer_stats,698486553133540,PAPI_L3_TCM,9, 32.46801758,  2.91871643,end
timer_stats,698486554263966,PAPI_L3_TCM,4, 32.61846924,  2.93196106,end
timer_stats,698486555384252,PAPI_L3_TCM,0, 32.77630615,  2.94474792,end
timer_stats,698486556500917,PAPI_L3_TCM,4, 33.07873535,  2.96803284,end
timer_stats,698486557642922,PAPI_L3_TCM,3, 33.22283935,  2.98025513,end
timer_stats,698486558768592,PAPI_L3_TCM,3, 33.36517334,  2.99272156,end
timer_stats,698486559882941,PAPI_L3_TCM,1, 33.51129150,  3.00558472,end
timer_stats,698486561007776,PAPI_L3_TCM,5, 33.67297363,  3.02014160,end
timer_stats,698486562142100,PAPI_L3_TCM,0, 33.81793213,  3.03335571,end
timer_stats,698486563285475,PAPI_L3_TCM,4, 33.97113037,  3.04624939,end
timer_stats,698486564413918,PAPI_L3_TCM,4, 34.12402344,  3.05848694,end
timer_stats,698486565566792,PAPI_L3_TCM,3, 34.42266846,  3.08721924,end
timer_stats,698486566690020,PAPI_L3_TCM,0, 34.58282471,  3.10185242,end
timer_stats,698486567830798,PAPI_L3_TCM,3, 34.73242187,  3.11376953,end
timer_stats,698486568958219,PAPI_L3_TCM,2, 34.87652588,  3.12701416,end
timer_stats,698486570116351,PAPI_L3_TCM,5, 35.02770996,  3.13970947,end
timer_stats,698486571244291,PAPI_L3_TCM,1, 35.16668701,  3.15365601,end
timer_stats,698486572358055,PAPI_L3_TCM,8, 35.31182861,  3.16665649,end
timer_stats,698486573465989,PAPI_L3_TCM,8, 35.47766113,  3.17980957,end
timer_stats,698486574629857,PAPI_L3_TCM,3, 35.76959228,  3.20851135,end
timer_stats,698486575765064,PAPI_L3_TCM,3, 35.92443848,  3.22261047,end
timer_stats,698486576877683,PAPI_L3_TCM,4, 36.08093262,  3.23693848,end
timer_stats,698486578020373,PAPI_L3_TCM,1, 36.23541260,  3.24925232,end
timer_stats,698486579156022,PAPI_L3_TCM,2, 36.39447021,  3.26248169,end
timer_stats,698486580276992,PAPI_L3_TCM,5, 36.53387451,  3.27667236,end
timer_stats,698486581395711,PAPI_L3_TCM,10, 36.68701172,  3.28962707,end
timer_stats,698486582536835,PAPI_L3_TCM,5, 36.98077393,  3.31501770,end
timer_stats,698486583651119,PAPI_L3_TCM,2, 37.13415527,  3.32841492,end
timer_stats,698486584786229,PAPI_L3_TCM,12, 37.28302002,  3.34274292,end
timer_stats,698486585882067,PAPI_L3_TCM,4, 37.43463135,  3.35565186,end
timer_stats,698486587004762,PAPI_L3_TCM,0, 37.58459473,  3.36949158,end
timer_stats,698486588103785,PAPI_L3_TCM,4, 37.72460937,  3.38346863,end
timer_stats,698486589218726,PAPI_L3_TCM,3, 37.88116455,  3.39611816,end
timer_stats,698486590328178,PAPI_L3_TCM,3, 38.03259277,  3.41233826,end
timer_stats,698486591450398,PAPI_L3_TCM,1, 38.24774170,  3.43122864,end
timer_stats,698486592552442,PAPI_L3_TCM,1, 38.49829101,  3.45106506,end
timer_stats,698486593673767,PAPI_L3_TCM,1, 38.65991211,  3.46520996,end
timer_stats,698486594780227,PAPI_L3_TCM,2, 38.80395508,  3.47880554,end
timer_stats,698486595903265,PAPI_L3_TCM,0, 38.95709228,  3.49179077,end
timer_stats,698486597019688,PAPI_L3_TCM,2, 39.10760498,  3.50604248,end
timer_stats,698486598161788,PAPI_L3_TCM,1, 39.26354980,  3.52012634,end
timer_stats,698486599280071,PAPI_L3_TCM,3, 39.42065430,  3.53533935,end
timer_stats,698486600403785,PAPI_L3_TCM,2, 39.58459473,  3.55374145,end
timer_stats,698486601553045,PAPI_L3_TCM,5, 39.83654785,  3.57723999,end
timer_stats,698486602661195,PAPI_L3_TCM,3, 40.08062744,  3.59843445,end
timer_stats,698486603775433,PAPI_L3_TCM,4, 40.24133301,  3.61169434,end
timer_stats,698486604891332,PAPI_L3_TCM,1, 40.39337158,  3.62562561,end
timer_stats,698486605990746,PAPI_L3_TCM,4, 40.55114746,  3.63903809,end
timer_stats,698486607115387,PAPI_L3_TCM,6, 40.71258545,  3.65586853,end
timer_stats,698486608206854,PAPI_L3_TCM,5, 40.85821533,  3.67018127,end
timer_stats,698486609331653,PAPI_L3_TCM,1, 41.02191162,  3.68472290,end
timer_stats,698486610472250,PAPI_L3_TCM,5, 41.15985107,  3.70178223,end
timer_stats,698486611597436,PAPI_L3_TCM,1, 41.37811279,  3.72200012,end
timer_stats,698486612722623,PAPI_L3_TCM,2, 41.60552979,  3.74281311,end
timer_stats,698486613867493,PAPI_L3_TCM,2, 41.74957275,  3.75912476,end
timer_stats,698486615002066,PAPI_L3_TCM,2, 41.89453125,  3.77177429,end
timer_stats,698486616116532,PAPI_L3_TCM,6, 42.03991699,  3.78601074,end
timer_stats,698486617246957,PAPI_L3_TCM,6, 42.19842529,  3.79981994,end
timer_stats,698486618404704,PAPI_L3_TCM,0, 42.32519531,  3.81434631,end
timer_stats,698486619543213,PAPI_L3_TCM,1, 42.56304932,  3.83464050,end
timer_stats,698486620681381,PAPI_L3_TCM,0, 42.77801514,  3.85363770,end
timer_stats,698486621830248,PAPI_L3_TCM,1, 42.92944336,  3.86592102,end
timer_stats,698486622950391,PAPI_L3_TCM,0, 43.07781982,  3.87850952,end
timer_stats,698486624073626,PAPI_L3_TCM,15, 43.23126221,  3.89320373,end
timer_stats,698486625203270,PAPI_L3_TCM,4, 43.38757324,  3.90542602,end
timer_stats,698486626343305,PAPI_L3_TCM,2, 43.54064941,  3.91824341,end
timer_stats,698486627444124,PAPI_L3_TCM,3, 43.68450928,  3.93122864,end
timer_stats,698486628562101,PAPI_L3_TCM,3, 44.00012207,  3.95707702,end
timer_stats,698486629726565,PAPI_L3_TCM,0, 44.15258789,  3.96965027,end
timer_stats,698486630848762,PAPI_L3_TCM,1, 44.30938721,  3.98321533,end
timer_stats,698486631959376,PAPI_L3_TCM,2, 44.47503662,  3.99639892,end
timer_stats,698486633086218,PAPI_L3_TCM,2, 44.62841797,  4.01115417,end
timer_stats,698486634192728,PAPI_L3_TCM,1, 44.77117920,  4.02247620,end
timer_stats,698486635346361,PAPI_L3_TCM,3, 44.93731689,  4.03640747,end
timer_stats,698486636479321,PAPI_L3_TCM,0, 45.08752441,  4.05226135,end
timer_stats,698486637935128,PAPI_L3_TCM,2219, 45.39288330,  4.07910156,end
timer_stats,698486639066743,PAPI_L3_TCM,27, 45.55999756,  4.09201050,end
timer_stats,698486640168174,PAPI_L3_TCM,5, 45.71154785,  4.10601807,end
timer_stats,698486641298488,PAPI_L3_TCM,3, 45.85614014,  4.11834717,end
timer_stats,698486642452235,PAPI_L3_TCM,5, 46.00805664,  4.12551880,end
timer_stats,698486643596953,PAPI_L3_TCM,1, 46.30627441,  4.15742493,end
timer_stats,698486644730488,PAPI_L3_TCM,3, 46.46423340,  4.17433166,end
timer_stats,698486645884465,PAPI_L3_TCM,5, 46.61541748,  4.19067383,end
timer_stats,698486647019462,PAPI_L3_TCM,1, 46.77014160,  4.20396423,end
timer_stats,698486648132720,PAPI_L3_TCM,2, 46.91595459,  4.21936035,end
timer_stats,698486649264055,PAPI_L3_TCM,2, 47.06671143,  4.23287964,end
timer_stats,698486650398605,PAPI_L3_TCM,0, 47.21966553,  4.24624634,end
timer_stats,698486651544954,PAPI_L3_TCM,2, 47.51367187,  4.27409363,end
timer_stats,698486652654551,PAPI_L3_TCM,9, 47.67510986,  4.28991699,end
timer_stats,698486653763092,PAPI_L3_TCM,2, 47.82879639,  4.30476379,end
timer_stats,698486654886899,PAPI_L3_TCM,1, 47.98382568,  4.31866455,end
timer_stats,698486656032890,PAPI_L3_TCM,1, 48.14416504,  4.33352661,end
timer_stats,698486657166475,PAPI_L3_TCM,2, 48.31201172,  4.34933472,end
timer_stats,698486658298782,PAPI_L3_TCM,1, 48.46838379,  4.36344909,end
timer_stats,698486659427746,PAPI_L3_TCM,0, 48.62017822,  4.38142395,end
timer_stats,698486660537017,PAPI_L3_TCM,3, 48.77954101,  4.39645386,end
timer_stats,698486661663775,PAPI_L3_TCM,3, 49.09832764,  4.42703247,end
timer_stats,698486662821906,PAPI_L3_TCM,6, 49.23785400,  4.43939209,end
timer_stats,698486663984083,PAPI_L3_TCM,2, 49.38287353,  4.45219421,end
timer_stats,698486665140658,PAPI_L3_TCM,3, 49.53887939,  4.46557617,end
timer_stats,698486666274892,PAPI_L3_TCM,0, 49.68981934,  4.47796631,end
timer_stats,698486667422093,PAPI_L3_TCM,5, 49.84118652,  4.49047852,end
timer_stats,698486668531797,PAPI_L3_TCM,2, 49.99511719,  4.50421143,end
timer_stats,698486669668117,PAPI_L3_TCM,4, 50.29388428,  4.53277588,end
timer_stats,698486670818072,PAPI_L3_TCM,3, 50.44152832,  4.54586792,end
timer_stats,698486671953926,PAPI_L3_TCM,3, 50.58862305,  4.55964661,end
timer_stats,698486673106000,PAPI_L3_TCM,2, 50.74096680,  4.57185364,end
timer_stats,698486674256145,PAPI_L3_TCM,2, 50.88916015,  4.58529663,end
timer_stats,698486675409623,PAPI_L3_TCM,2, 51.03466797,  4.59777832,end
timer_stats,698486676562194,PAPI_L3_TCM,3, 51.24511719,  4.61721802,end
timer_stats,698486677727505,PAPI_L3_TCM,1, 51.46905517,  4.63824463,end
timer_stats,698486678888746,PAPI_L3_TCM,2, 51.62231445,  4.65092468,end
timer_stats,698486680025374,PAPI_L3_TCM,3, 51.76068115,  4.66523742,end
timer_stats,698486681159408,PAPI_L3_TCM,2, 51.91680908,  4.67649841,end
timer_stats,698486682295915,PAPI_L3_TCM,0, 52.06164551,  4.68840027,end
timer_stats,698486683429359,PAPI_L3_TCM,1, 52.21057129,  4.70030212,end
timer_stats,698486684582014,PAPI_L3_TCM,6, 52.42260742,  4.72167969,end
timer_stats,698486685724695,PAPI_L3_TCM,8, 52.65399170,  4.74246216,end
timer_stats,698486686870662,PAPI_L3_TCM,1, 52.80401611,  4.75747680,end
timer_stats,698486688029594,PAPI_L3_TCM,3, 52.94750976,  4.77035522,end
timer_stats,698486689166978,PAPI_L3_TCM,2, 53.09979248,  4.78680420,end
timer_stats,698486690326739,PAPI_L3_TCM,3, 53.25421143,  4.80110168,end
timer_stats,698486691459339,PAPI_L3_TCM,2, 53.40502930,  4.81491089,end
timer_stats,698486692604234,PAPI_L3_TCM,2, 53.63470459,  4.82800293,end
timer_stats,698486693757792,PAPI_L3_TCM,0, 53.86273193,  4.85925293,end
timer_stats,698486694914199,PAPI_L3_TCM,1, 54.01391601,  4.87173462,end
timer_stats,698486696046817,PAPI_L3_TCM,1, 54.16125488,  4.88510132,end
timer_stats,698486697181798,PAPI_L3_TCM,2, 54.30615234,  4.90090942,end
timer_stats,698486698320602,PAPI_L3_TCM,7, 54.45867920,  4.91477966,end
timer_stats,698486699460320,PAPI_L3_TCM,3, 54.60571289,  4.92709351,end
timer_stats,698486700612928,PAPI_L3_TCM,2, 54.80468750,  4.94596863,end
timer_stats,698486701757369,PAPI_L3_TCM,6, 55.03320312,  4.96647644,end
timer_stats,698486702897477,PAPI_L3_TCM,4, 55.17633057,  4.97843933,end
timer_stats,698486704063471,PAPI_L3_TCM,4, 55.31597900,  4.99093628,end
timer_stats,698486705202348,PAPI_L3_TCM,4, 55.46215820,  5.00604248,end
timer_stats,698486706362476,PAPI_L3_TCM,3, 55.61199951,  5.02102661,end
timer_stats,698486707501144,PAPI_L3_TCM,0, 55.76086426,  5.03514099,end
timer_stats,698486708632164,PAPI_L3_TCM,2, 55.97454834,  5.05863953,end
timer_stats,698486709767375,PAPI_L3_TCM,1, 56.20965576,  5.08135986,end
timer_stats,698486710898557,PAPI_L3_TCM,1, 56.36865234,  5.09646606,end
timer_stats,698486712031994,PAPI_L3_TCM,1, 56.51806640,  5.11065674,end
timer_stats,698486713167425,PAPI_L3_TCM,1, 56.66442871,  5.12577820,end
timer_stats,698486714298859,PAPI_L3_TCM,0, 56.81976318,  5.14094543,end
timer_stats,698486715442574,PAPI_L3_TCM,6, 56.97082519,  5.15669250,end
timer_stats,698486716594544,PAPI_L3_TCM,0, 57.18603515,  5.17135620,end
timer_stats,698486717712342,PAPI_L3_TCM,4, 57.41979980,  5.20472717,end
timer_stats,698486718844952,PAPI_L3_TCM,7, 57.56878662,  5.21948242,end
timer_stats,698486719976567,PAPI_L3_TCM,1, 57.72363281,  5.23394775,end
timer_stats,698486721126305,PAPI_L3_TCM,1, 57.88165283,  5.25025940,end
timer_stats,698486722279972,PAPI_L3_TCM,1, 58.03814697,  5.26448059,end
timer_stats,698486723401804,PAPI_L3_TCM,0, 58.18304443,  5.27839661,end
timer_stats,698486724541988,PAPI_L3_TCM,6, 58.33319092,  5.29269409,end
timer_stats,698486725701509,PAPI_L3_TCM,0, 58.62469482,  5.32072449,end
timer_stats,698486726816160,PAPI_L3_TCM,3, 58.77661133,  5.33387756,end
timer_stats,698486727947164,PAPI_L3_TCM,2, 58.93035888,  5.35279846,end
timer_stats,698486729080548,PAPI_L3_TCM,1, 59.08966064,  5.36930847,end
timer_stats,698486730240356,PAPI_L3_TCM,0, 59.23297119,  5.38494873,end
timer_stats,698486731390707,PAPI_L3_TCM,2, 59.37811279,  5.39945984,end
timer_stats,698486732537814,PAPI_L3_TCM,0, 59.53643799,  5.41310120,end
timer_stats,698486733658575,PAPI_L3_TCM,15, 59.75421143,  5.43478393,end
timer_stats,698486734797423,PAPI_L3_TCM,1, 59.98565674,  5.45521545,end
timer_stats,698486735948691,PAPI_L3_TCM,4, 60.12768554,  5.46836853,end
timer_stats,698486737106711,PAPI_L3_TCM,1, 60.27856445,  5.48078918,end
timer_stats,698486738262355,PAPI_L3_TCM,1, 60.41943359,  5.49382019,end
timer_stats,698486739396860,PAPI_L3_TCM,0, 60.56610107,  5.50798035,end
timer_stats,698486740550471,PAPI_L3_TCM,1, 60.71527099,  5.52084351,end
timer_stats,698486741708435,PAPI_L3_TCM,0, 61.00280762,  5.54588318,end
timer_stats,698486742860393,PAPI_L3_TCM,2, 61.14733887,  5.55773926,end
timer_stats,698486743995661,PAPI_L3_TCM,0, 61.30346680,  5.56935120,end
timer_stats,698486745189155,PAPI_L3_TCM,245, 61.44824219,  5.58444214,end
timer_stats,698486746329946,PAPI_L3_TCM,164, 61.60205078,  5.59698486,end
timer_stats,698486747445290,PAPI_L3_TCM,29, 61.74847412,  5.60894775,end
timer_stats,698486748594602,PAPI_L3_TCM,5, 61.89691162,  5.62127685,end
timer_stats,698486749745841,PAPI_L3_TCM,5, 62.19299316,  5.64985657,end
timer_stats,698486750865608,PAPI_L3_TCM,1, 62.34753418,  5.66365051,end
timer_stats,698486752024910,PAPI_L3_TCM,7, 62.49023437,  5.67799377,end
timer_stats,698486753119634,PAPI_L3_TCM,15, 62.64086914,  5.69146728,end
timer_stats,698486754243813,PAPI_L3_TCM,6, 62.79400635,  5.70616150,end
timer_stats,698486755663273,PAPI_L3_TCM,16, 63.09521484,  5.73352051,end
timer_stats,698486756789675,PAPI_L3_TCM,9, 63.24609375,  5.74737549,end
timer_stats,698486757891799,PAPI_L3_TCM,5, 63.39459228,  5.76295471,end
timer_stats,698486759048896,PAPI_L3_TCM,7, 63.54882812,  5.77577209,end
timer_stats,698486760189782,PAPI_L3_TCM,1, 63.69586182,  5.79150390,end
timer_stats,698486761534697,PAPI_L3_TCM,179, 63.83880615,  5.80644226,end
timer_stats,698486762764218,PAPI_L3_TCM,64, 64.12109375,  5.83370972,end
timer_stats,698486763895372,PAPI_L3_TCM,26, 64.26403808,  5.84762573,end
timer_stats,698486765265007,PAPI_L3_TCM,26, 64.40856933,  5.85966492,end
timer_stats,698486766376895,PAPI_L3_TCM,6, 64.55633545,  5.87341309,end
timer_stats,698486767520007,PAPI_L3_TCM,3, 64.70599365,  5.88796997,end
timer_stats,698486768662267,PAPI_L3_TCM,5, 64.85089111,  5.90246582,end
timer_stats,698486769779461,PAPI_L3_TCM,1, 65.14434814,  5.92973328,end
timer_stats,698486770926039,PAPI_L3_TCM,4, 65.28533935,  5.94311523,end
timer_stats,698486772090250,PAPI_L3_TCM,0, 65.43450928,  5.95620727,end
timer_stats,698486773228557,PAPI_L3_TCM,2, 65.58013916,  5.97019958,end
timer_stats,698486774374772,PAPI_L3_TCM,20, 65.71704101,  5.98554993,end
timer_stats,698486775497116,PAPI_L3_TCM,15, 65.87500000,  6.00117492,end
timer_stats,698486776774444,PAPI_L3_TCM,11, 66.17047119,  6.02951050,end
timer_stats,698486777884112,PAPI_L3_TCM,2, 66.31164551,  6.04606628,end
timer_stats,698486779290347,PAPI_L3_TCM,19, 66.46356201,  6.06291199,end
timer_stats,698486780431471,PAPI_L3_TCM,18, 66.62371826,  6.07716370,end
timer_stats,698486781584642,PAPI_L3_TCM,2, 66.76959229,  6.09025574,end
timer_stats,698486782738540,PAPI_L3_TCM,4, 67.06445312,  6.11126709,end
timer_stats,698486783874544,PAPI_L3_TCM,1, 67.21667480,  6.13111877,end
timer_stats,698486785117309,PAPI_L3_TCM,12, 67.36352539,  6.14703369,end
timer_stats,698486786249806,PAPI_L3_TCM,3, 67.51373291,  6.15846252,end
timer_stats,698486787407574,PAPI_L3_TCM,4, 67.66986084,  6.17077637,end
timer_stats,698486788567205,PAPI_L3_TCM,3, 67.80847168,  6.18411255,end
timer_stats,698486789692709,PAPI_L3_TCM,4, 68.10003662,  6.20803833,end
timer_stats,698486790861167,PAPI_L3_TCM,3, 68.25390625,  6.21998596,end
timer_stats,698486792023978,PAPI_L3_TCM,3, 68.40307617,  6.23222351,end
timer_stats,698486793169222,PAPI_L3_TCM,4, 68.54577637,  6.24412537,end
timer_stats,698486794327040,PAPI_L3_TCM,4, 68.70220947,  6.25743103,end
timer_stats,698486795488135,PAPI_L3_TCM,0, 68.84704590,  6.26965332,end
timer_stats,698486796670282,PAPI_L3_TCM,20, 69.00280762,  6.28344727,end
timer_stats,698486797803590,PAPI_L3_TCM,3, 69.29943848,  6.31024170,end
timer_stats,698486798968238,PAPI_L3_TCM,4, 69.44305420,  6.32644653,end
timer_stats,698486800077595,PAPI_L3_TCM,6, 69.58752441,  6.33946228,end
timer_stats,698486801224142,PAPI_L3_TCM,2, 69.72967529,  6.35552978,end
timer_stats,698486802351464,PAPI_L3_TCM,1, 69.87951660,  6.37086487,end
timer_stats,698486803512928,PAPI_L3_TCM,3, 70.02703857,  6.38862610,end
timer_stats,698486804660932,PAPI_L3_TCM,1, 70.23046875,  6.40434265,end
timer_stats,698486805804977,PAPI_L3_TCM,1, 70.46087646,  6.43499756,end
timer_stats,698486806959448,PAPI_L3_TCM,1, 70.60632324,  6.45040893,end
timer_stats,698486808039072,PAPI_L3_TCM,5, 70.75549316,  6.46395874,end
timer_stats,698486809155426,PAPI_L3_TCM,16, 70.90734863,  6.47798157,end
timer_stats,698486810317420,PAPI_L3_TCM,3, 71.04565430,  6.49200439,end
timer_stats,698486811476525,PAPI_L3_TCM,2, 71.19567871,  6.50555420,end
timer_stats,698486812600632,PAPI_L3_TCM,6, 71.33642578,  6.51916504,end
timer_stats,698486813765403,PAPI_L3_TCM,2, 71.63415527,  6.53910828,end
timer_stats,698486814919188,PAPI_L3_TCM,1, 71.77539062,  6.55856323,end
timer_stats,698486816054412,PAPI_L3_TCM,0, 71.90924072,  6.57070923,end
timer_stats,698486817195416,PAPI_L3_TCM,3, 72.04449463,  6.58247375,end
timer_stats,698486818304987,PAPI_L3_TCM,2, 72.19274902,  6.59594726,end
timer_stats,698486819443505,PAPI_L3_TCM,3, 72.33343506,  6.60955810,end
timer_stats,698486820606299,PAPI_L3_TCM,1, 72.47680664,  6.62246704,end
timer_stats,698486821774510,PAPI_L3_TCM,1, 72.75762939,  6.64866638,end
timer_stats,698486822936238,PAPI_L3_TCM,1, 72.90643311,  6.66130066,end
timer_stats,698486824075288,PAPI_L3_TCM,5, 73.05206299,  6.67439270,end
timer_stats,698486825213373,PAPI_L3_TCM,0, 73.19012451,  6.68901062,end
timer_stats,698486826333021,PAPI_L3_TCM,2, 73.34295654,  6.70202637,end
timer_stats,698486827663276,PAPI_L3_TCM,18, 73.48553467,  6.71580505,end
timer_stats,698486835371185,PAPI_L3_TCM,21, 74.64038086,  6.83097839,end
timer_stats,698486836504089,PAPI_L3_TCM,5, 74.78735352,  6.84519958,end
timer_stats,698486837661553,PAPI_L3_TCM,2, 74.93157959,  6.86274719,end
timer_stats,698486838820701,PAPI_L3_TCM,9, 75.21960449,  6.89822388,end
timer_stats,698486839960408,PAPI_L3_TCM,2, 75.36151123,  6.91397095,end
timer_stats,698486841110593,PAPI_L3_TCM,0, 75.50982666,  6.92854309,end
timer_stats,698486842270324,PAPI_L3_TCM,3, 75.65258789,  6.94290161,end
timer_stats,698486843435958,PAPI_L3_TCM,1, 75.80181885,  6.95747375,end
timer_stats,698486844581909,PAPI_L3_TCM,2, 75.94464111,  6.97184753,end
timer_stats,698486845747574,PAPI_L3_TCM,0, 76.15350342,  6.99227905,end
timer_stats,698486846905404,PAPI_L3_TCM,1, 76.37982178,  7.01536560,end
timer_stats,698486848036208,PAPI_L3_TCM,1, 76.52087402,  7.02893066,end
timer_stats,698486849173167,PAPI_L3_TCM,1, 76.66473389,  7.04202270,end
timer_stats,698486850336157,PAPI_L3_TCM,3, 76.81280517,  7.05343628,end
timer_stats,698486851507961,PAPI_L3_TCM,2, 76.95825195,  7.06532287,end
timer_stats,698486852635040,PAPI_L3_TCM,2, 77.11468506,  7.08070373,end
timer_stats,698486853796544,PAPI_L3_TCM,2, 77.38482666,  7.10595703,end
timer_stats,698486854953541,PAPI_L3_TCM,0, 77.53393555,  7.12014770,end
timer_stats,698486856111406,PAPI_L3_TCM,2, 77.68255615,  7.13359070,end
timer_stats,698486857239250,PAPI_L3_TCM,1, 77.82556152,  7.14772034,end
timer_stats,698486858398131,PAPI_L3_TCM,1, 77.97003174,  7.16053772,end
timer_stats,698486859557082,PAPI_L3_TCM,0, 78.10888672,  7.17347717,end
timer_stats,698486860681276,PAPI_L3_TCM,3, 78.26770019,  7.18608093,end
timer_stats,698486861845657,PAPI_L3_TCM,4, 78.55731201,  7.21055603,end
timer_stats,698486863002995,PAPI_L3_TCM,3, 78.69866943,  7.22329712,end
timer_stats,698486864167783,PAPI_L3_TCM,1, 78.85040283,  7.23693847,end
timer_stats,698486865276803,PAPI_L3_TCM,1, 79.00292969,  7.24822998,end
timer_stats,698486866434768,PAPI_L3_TCM,1, 79.14666748,  7.26203918,end
timer_stats,698486867565019,PAPI_L3_TCM,1, 79.29217529,  7.27598572,end
timer_stats,698486868718630,PAPI_L3_TCM,1, 79.44677734,  7.28852844,end
timer_stats,698486869887691,PAPI_L3_TCM,2, 79.73834229,  7.31393433,end
timer_stats,698486871051482,PAPI_L3_TCM,1, 79.88195801,  7.32569885,end
timer_stats,698486872190393,PAPI_L3_TCM,4, 80.02276611,  7.33886719,end
timer_stats,698486873332521,PAPI_L3_TCM,7, 80.17114258,  7.35307312,end
timer_stats,698486874493538,PAPI_L3_TCM,1, 80.31378174,  7.36764526,end
timer_stats,698486875652556,PAPI_L3_TCM,0, 80.46154785,  7.38059997,end
timer_stats,698486876810880,PAPI_L3_TCM,9, 80.66430664,  7.40319824,end
timer_stats,698486877937208,PAPI_L3_TCM,0, 80.89373779,  7.42587280,end
timer_stats,698486879075039,PAPI_L3_TCM,3, 81.02874756,  7.43849182,end
timer_stats,698486880236129,PAPI_L3_TCM,1, 81.17663574,  7.45137024,end
timer_stats,698486881368934,PAPI_L3_TCM,2, 81.32006836,  7.46592712,end
timer_stats,698486882534425,PAPI_L3_TCM,0, 81.46838379,  7.47874451,end
timer_stats,698486883660426,PAPI_L3_TCM,1, 81.61303711,  7.49192810,end
timer_stats,698486884819284,PAPI_L3_TCM,2, 81.90301514,  7.51817322,end
timer_stats,698486885980498,PAPI_L3_TCM,1, 82.05523682,  7.53160095,end
timer_stats,698486887134269,PAPI_L3_TCM,1, 82.19525146,  7.54406738,end
timer_stats,698486888266064,PAPI_L3_TCM,3, 82.33764648,  7.55819702,end
timer_stats,698486889374734,PAPI_L3_TCM,0, 82.48522949,  7.56936645,end
timer_stats,698486890534258,PAPI_L3_TCM,2, 82.63140869,  7.58256531,end
timer_stats,698486891700997,PAPI_L3_TCM,0, 82.77520752,  7.59588623,end
timer_stats,698486892840764,PAPI_L3_TCM,2, 83.06140137,  7.62344360,end
timer_stats,698486893997221,PAPI_L3_TCM,0, 83.20648193,  7.63616943,end
timer_stats,698486895145186,PAPI_L3_TCM,1, 83.35266113,  7.64836120,end
timer_stats,698486896306794,PAPI_L3_TCM,0, 83.50366211,  7.66047668,end
timer_stats,698486897417571,PAPI_L3_TCM,4, 83.64086914,  7.67344666,end
timer_stats,698486898587325,PAPI_L3_TCM,2, 83.79144287,  7.68820190,end
timer_stats,698486899733603,PAPI_L3_TCM,2, 83.93756103,  7.70140075,end
timer_stats,698486900864237,PAPI_L3_TCM,0, 84.23059082,  7.72988892,end
timer_stats,698486902013775,PAPI_L3_TCM,1, 84.38189697,  7.74371338,end
timer_stats,698486903154163,PAPI_L3_TCM,1, 84.52740479,  7.75746155,end
timer_stats,698486904304624,PAPI_L3_TCM,2, 84.67248535,  7.77113342,end
timer_stats,698486905411141,PAPI_L3_TCM,1, 84.81536865,  7.78327942,end
timer_stats,698486906554405,PAPI_L3_TCM,2, 84.96362305,  7.79452514,end
timer_stats,698486907700483,PAPI_L3_TCM,0, 85.10968017,  7.80575561,end
timer_stats,698486908836861,PAPI_L3_TCM,3, 85.32476807,  7.81954956,end
timer_stats,698486910007898,PAPI_L3_TCM,2, 85.54425049,  7.84671020,end
timer_stats,698486911128343,PAPI_L3_TCM,1, 85.67980957,  7.86322021,end
timer_stats,698486912287294,PAPI_L3_TCM,3, 85.82525635,  7.87707519,end
timer_stats,698486913426328,PAPI_L3_TCM,1, 85.97399902,  7.89138794,end
timer_stats,698486914545993,PAPI_L3_TCM,0, 86.12176514,  7.90649414,end
timer_stats,698486915692573,PAPI_L3_TCM,3, 86.26483154,  7.91973877,end
timer_stats,698486916806011,PAPI_L3_TCM,1, 86.40515137,  7.93267822,end
timer_stats,698486917942911,PAPI_L3_TCM,2, 86.69421387,  7.96054077,end
timer_stats,698486919078990,PAPI_L3_TCM,0, 86.83905029,  7.97348022,end
timer_stats,698486920210200,PAPI_L3_TCM,4, 86.98590088,  7.98660278,end
timer_stats,698486921349148,PAPI_L3_TCM,1, 87.13916015,  7.99908447,end
timer_stats,698486922495128,PAPI_L3_TCM,1, 87.28857422,  8.01359558,end
timer_stats,698486923629997,PAPI_L3_TCM,0, 87.43402099,  8.02799988,end
timer_stats,698486924775797,PAPI_L3_TCM,2, 87.58544922,  8.04322815,end
timer_stats,698486925910468,PAPI_L3_TCM,0, 87.87927246,  8.06805420,end
timer_stats,698486927073645,PAPI_L3_TCM,2, 88.03118896,  8.08255005,end
timer_stats,698486928209710,PAPI_L3_TCM,0, 88.18536377,  8.09619141,end
timer_stats,698486929342528,PAPI_L3_TCM,1, 88.34320068,  8.10870361,end
timer_stats,698486930463948,PAPI_L3_TCM,6, 88.49621582,  8.12312317,end
timer_stats,698486931618549,PAPI_L3_TCM,1, 88.64068603,  8.13679504,end
timer_stats,698486932723864,PAPI_L3_TCM,3, 88.79351807,  8.14981079,end
timer_stats,698486933868958,PAPI_L3_TCM,3, 89.01611328,  8.16950989,end
timer_stats,698486934994829,PAPI_L3_TCM,1, 89.25402832,  8.19183350,end
timer_stats,698486936119170,PAPI_L3_TCM,3, 89.40808105,  8.20452881,end
timer_stats,698486937250944,PAPI_L3_TCM,0, 89.56420898,  8.21736145,end
timer_stats,698486938360688,PAPI_L3_TCM,2, 89.71435547,  8.23083496,end
timer_stats,698486939523526,PAPI_L3_TCM,2, 89.86584473,  8.24336243,end
timer_stats,698486940663864,PAPI_L3_TCM,3, 90.01873779,  8.25610351,end
timer_stats,698486941823465,PAPI_L3_TCM,0, 90.23162842,  8.27651978,end
timer_stats,698486942958222,PAPI_L3_TCM,2, 90.47564697,  8.29519653,end
timer_stats,698486944070267,PAPI_L3_TCM,1, 90.62377930,  8.30737305,end
timer_stats,698486945177478,PAPI_L3_TCM,4, 90.77514648,  8.32063293,end
timer_stats,698486946282245,PAPI_L3_TCM,0, 90.92510986,  8.33551025,end
timer_stats,698486947411552,PAPI_L3_TCM,3, 91.07183838,  8.35034180,end
timer_stats,698486948548743,PAPI_L3_TCM,1, 91.22698975,  8.36605835,end
timer_stats,698486949688188,PAPI_L3_TCM,5, 91.37896728,  8.38150024,end
timer_stats,698486950811819,PAPI_L3_TCM,3, 91.52508545,  8.39558411,end
timer_stats,698486951947799,PAPI_L3_TCM,3, 91.81695557,  8.42018127,end
timer_stats,698486953094240,PAPI_L3_TCM,0, 91.96197510,  8.43272400,end
timer_stats,698486954214167,PAPI_L3_TCM,4, 92.11737060,  8.44561767,end
timer_stats,698486955372189,PAPI_L3_TCM,1, 92.26281738,  8.45854187,end
timer_stats,698486956493500,PAPI_L3_TCM,2, 92.40856933,  8.47158813,end
timer_stats,698486957623470,PAPI_L3_TCM,2, 92.55889892,  8.48460388,end
timer_stats,698486958787882,PAPI_L3_TCM,2, 92.70428467,  8.49645996,end
timer_stats,698486959910226,PAPI_L3_TCM,0, 92.98284912,  8.52079773,end
timer_stats,698486961043171,PAPI_L3_TCM,2, 93.13122558,  8.53250122,end
timer_stats,698486962197525,PAPI_L3_TCM,0, 93.27331543,  8.54565430,end
timer_stats,698486963328542,PAPI_L3_TCM,3, 93.41229248,  8.55825806,end
timer_stats,698486964485583,PAPI_L3_TCM,2, 93.55566406,  8.56941223,end
timer_stats,698486965636211,PAPI_L3_TCM,2, 93.71105957,  8.58039856,end
timer_stats,698486966788322,PAPI_L3_TCM,1, 93.85559082,  8.59294128,end
timer_stats,698486967937206,PAPI_L3_TCM,2, 94.13781738,  8.62196350,end
timer_stats,698486969072194,PAPI_L3_TCM,2, 94.28527832,  8.63793945,end
timer_stats,698486970201995,PAPI_L3_TCM,4, 94.43707275,  8.65295410,end
timer_stats,698486971368892,PAPI_L3_TCM,4, 94.57702637,  8.66735840,end
timer_stats,698486972500520,PAPI_L3_TCM,2, 94.72283935,  8.68370056,end
timer_stats,698486973632835,PAPI_L3_TCM,6, 94.87048340,  8.69790649,end
timer_stats,698486974766105,PAPI_L3_TCM,5, 95.01513672,  8.71043396,end
timer_stats,698486975903716,PAPI_L3_TCM,0, 95.30102539,  8.73472595,end
timer_stats,698486977035347,PAPI_L3_TCM,3, 95.44628906,  8.74732971,end
timer_stats,698486978134791,PAPI_L3_TCM,2, 95.58679199,  8.76135254,end
timer_stats,698486979245579,PAPI_L3_TCM,3, 95.73828125,  8.77435303,end
timer_stats,698486980347919,PAPI_L3_TCM,0, 95.88073730,  8.78628540,end
timer_stats,698486981432425,PAPI_L3_TCM,5, 96.02764892,  8.79895019,end
timer_stats,698486982551344,PAPI_L3_TCM,0, 96.18499756,  8.81494141,end
timer_stats,698486983695442,PAPI_L3_TCM,24, 96.33105469,  8.82849121,end
timer_stats,698486984836046,PAPI_L3_TCM,11, 96.47985840,  8.84112549,end
timer_stats,698486985979862,PAPI_L3_TCM,1, 96.76403808,  8.86625671,end
timer_stats,698486987125808,PAPI_L3_TCM,0, 96.90557861,  8.88204956,end
timer_stats,698486988243346,PAPI_L3_TCM,6, 97.04931640,  8.89643860,end
timer_stats,698486989370116,PAPI_L3_TCM,1, 97.19451904,  8.90957642,end
timer_stats,698486990516604,PAPI_L3_TCM,2, 97.34606933,  8.92208862,end
timer_stats,698486991677439,PAPI_L3_TCM,0, 97.48999023,  8.93533325,end
timer_stats,698486992841299,PAPI_L3_TCM,2, 97.62805176,  8.94775391,end
timer_stats,698486994010871,PAPI_L3_TCM,0, 97.91760254,  8.97299194,end
timer_stats,698486995172166,PAPI_L3_TCM,1, 98.06311035,  8.98394775,end
timer_stats,698486996297696,PAPI_L3_TCM,0, 98.20654297,  8.99546814,end
timer_stats,698486997421009,PAPI_L3_TCM,3, 98.36163330,  9.00714111,end
timer_stats,698486998560554,PAPI_L3_TCM,0, 98.50390625,  9.01779175,end
timer_stats,698486999708110,PAPI_L3_TCM,2, 98.64660644,  9.02938843,end
timer_stats,698487000859533,PAPI_L3_TCM,1, 98.79595947,  9.04116821,end
timer_stats,698487002009082,PAPI_L3_TCM,2, 99.09326172,  9.06423950,end
timer_stats,698487003131233,PAPI_L3_TCM,0, 99.23242187,  9.07528686,end
timer_stats,698487004246595,PAPI_L3_TCM,1, 99.37750244,  9.08656311,end
timer_stats,698487005382715,PAPI_L3_TCM,2, 99.52264404,  9.09933472,end
timer_stats,698487006537477,PAPI_L3_TCM,2, 99.67218017,  9.11039734,end
timer_stats,698487007723523,PAPI_L3_TCM,1, 99.82006836,  9.12242126,end
timer_stats,698487008880521,PAPI_L3_TCM,2,100.04840088,  9.13427734,end
timer_stats,698487010040269,PAPI_L3_TCM,0,100.25097656,  9.15640259,end
timer_stats,698487011213540,PAPI_L3_TCM,2,100.40563965,  9.16796875,end
timer_stats,698487012344479,PAPI_L3_TCM,2,100.54943848,  9.17840576,end
timer_stats,698487013464334,PAPI_L3_TCM,2,100.69512939,  9.18934631,end
timer_stats,698487014590847,PAPI_L3_TCM,1,100.84649658,  9.20228576,end
timer_stats,698487015732617,PAPI_L3_TCM,2,100.99334717,  9.21670532,end
timer_stats,698487016873086,PAPI_L3_TCM,0,101.13708496,  9.23086548,end
timer_stats,698487018017281,PAPI_L3_TCM,6,101.43206787,  9.25338745,end
timer_stats,698487019163231,PAPI_L3_TCM,1,101.57623291,  9.26489258,end
timer_stats,698487020289015,PAPI_L3_TCM,2,101.70440674,  9.27622986,end
timer_stats,698487021426087,PAPI_L3_TCM,2,101.84936523,  9.28855896,end
timer_stats,698487022587862,PAPI_L3_TCM,2,101.98846436,  9.29986572,end
timer_stats,698487023751126,PAPI_L3_TCM,0,102.15649414,  9.31153869,end
timer_stats,698487024907683,PAPI_L3_TCM,2,102.36389160,  9.33018494,end
timer_stats,698487026062832,PAPI_L3_TCM,0,102.57214355,  9.34660339,end
timer_stats,698487027224286,PAPI_L3_TCM,2,102.71490478,  9.35797119,end
timer_stats,698487028351775,PAPI_L3_TCM,0,102.86145020,  9.36984253,end
timer_stats,698487029481391,PAPI_L3_TCM,1,103.01208496,  9.38088989,end
timer_stats,698487030626228,PAPI_L3_TCM,0,103.15429687,  9.39456177,end
timer_stats,698487031790160,PAPI_L3_TCM,1,103.29571533,  9.40780640,end
timer_stats,698487032959229,PAPI_L3_TCM,0,103.45404053,  9.41914368,end
timer_stats,698487034105433,PAPI_L3_TCM,3,103.72277832,  9.44284057,end
timer_stats,698487035256293,PAPI_L3_TCM,1,103.87207031,  9.45420837,end
timer_stats,698487036444680,PAPI_L3_TCM,2,104.01574707,  9.46511841,end
timer_stats,698487037627938,PAPI_L3_TCM,0,104.15008545,  9.47747803,end
timer_stats,698487038772490,PAPI_L3_TCM,1,104.29852295,  9.48953247,end
timer_stats,698487039936175,PAPI_L3_TCM,0,104.49755859,  9.50743103,end
timer_stats,698487041096144,PAPI_L3_TCM,1,104.71765137,  9.52513123,end
timer_stats,698487042251751,PAPI_L3_TCM,0,104.85876465,  9.53691101,end
timer_stats,698487043412853,PAPI_L3_TCM,3,105.00543213,  9.54869080,end
timer_stats,698487044578474,PAPI_L3_TCM,0,105.15234375,  9.55992126,end
timer_stats,698487045741544,PAPI_L3_TCM,2,105.28808594,  9.57247925,end
timer_stats,698487046890376,PAPI_L3_TCM,0,105.44836426,  9.58407593,end
timer_stats,698487048064660,PAPI_L3_TCM,2,105.65545654,  9.60357666,end
timer_stats,698487049206766,PAPI_L3_TCM,3,105.86553955,  9.62152099,end
timer_stats,698487050371883,PAPI_L3_TCM,1,106.01556396,  9.63409424,end
timer_stats,698487051532763,PAPI_L3_TCM,0,106.17132568,  9.64669800,end
timer_stats,698487052692090,PAPI_L3_TCM,2,106.31475830,  9.65994263,end
timer_stats,698487053851052,PAPI_L3_TCM,0,106.44903564,  9.67243957,end
timer_stats,698487055006697,PAPI_L3_TCM,2,106.73516846,  9.69712830,end
timer_stats,698487056169993,PAPI_L3_TCM,2,106.82415771,  9.70346069,end
timer_stats,698487057300289,PAPI_L3_TCM,1,107.03265381,  9.72399902,end
timer_stats,698487058441741,PAPI_L3_TCM,0,107.18286133,  9.73663330,end
timer_stats,698487059602849,PAPI_L3_TCM,1,107.32641602,  9.74995422,end
timer_stats,698487060762105,PAPI_L3_TCM,0,107.47406006,  9.76365662,end
timer_stats,698487061918927,PAPI_L3_TCM,2,107.63226318,  9.77835083,end
timer_stats,698487063065144,PAPI_L3_TCM,0,107.91973877,  9.80311584,end
timer_stats,698487064195388,PAPI_L3_TCM,3,108.06079101,  9.81578064,end
timer_stats,698487065344987,PAPI_L3_TCM,0,108.22100830,  9.82791138,end
timer_stats,698487066513176,PAPI_L3_TCM,1,108.34899902,  9.84181213,end
timer_stats,698487067653379,PAPI_L3_TCM,0,108.50134277,  9.85734558,end
timer_stats,698487068797730,PAPI_L3_TCM,1,108.65112305,  9.87182617,end
timer_stats,698487069959967,PAPI_L3_TCM,0,108.84582519,  9.88540649,end
timer_stats,698487071123497,PAPI_L3_TCM,2,109.07568359,  9.91043091,end
timer_stats,698487072269516,PAPI_L3_TCM,2,109.23645020,  9.92135620,end
timer_stats,698487073404353,PAPI_L3_TCM,3,109.36029053,  9.93621826,end
timer_stats,698487074582813,PAPI_L3_TCM,0,109.51824951,  9.94961548,end
timer_stats,698487075741496,PAPI_L3_TCM,1,109.66278076,  9.96156311,end
timer_stats,698487076886661,PAPI_L3_TCM,0,109.79235840,  9.97386169,end
timer_stats,698487078044557,PAPI_L3_TCM,1,110.08367920,  9.99967956,end
timer_stats,698487079214538,PAPI_L3_TCM,0,110.23071289, 10.01225281,end
timer_stats,698487080356442,PAPI_L3_TCM,5,110.39001465, 10.02476501,end
timer_stats,698487081495545,PAPI_L3_TCM,1,110.53143311, 10.03855896,end
timer_stats,698487082651495,PAPI_L3_TCM,2,110.68188477, 10.05201721,end
timer_stats,698487083781026,PAPI_L3_TCM,0,110.82965088, 10.06629944,end
timer_stats,698487084910419,PAPI_L3_TCM,1,110.99121094, 10.07931519,end
timer_stats,698487086036450,PAPI_L3_TCM,0,111.27404785, 10.10720825,end
timer_stats,698487087168632,PAPI_L3_TCM,1,111.35516357, 10.11466980,end
timer_stats,698487088295832,PAPI_L3_TCM,1,111.57958984, 10.13516235,end
timer_stats,698487089423210,PAPI_L3_TCM,8,111.72076416, 10.15077209,end
timer_stats,698487090555172,PAPI_L3_TCM,0,111.85516357, 10.16358948,end
timer_stats,698487091704991,PAPI_L3_TCM,2,111.99353027, 10.17778015,end
timer_stats,698487092848242,PAPI_L3_TCM,0,112.14111328, 10.19065857,end
timer_stats,698487094008427,PAPI_L3_TCM,2,112.34057617, 10.21075439,end
timer_stats,698487095176038,PAPI_L3_TCM,0,112.57360840, 10.23005676,end
timer_stats,698487096332190,PAPI_L3_TCM,1,112.72424316, 10.24287414,end
timer_stats,698487097482693,PAPI_L3_TCM,0,112.84631348, 10.25561523,end
timer_stats,698487098639860,PAPI_L3_TCM,2,113.00079346, 10.26852417,end
timer_stats,698487099795656,PAPI_L3_TCM,0,113.13659668, 10.27992249,end
timer_stats,698487100938717,PAPI_L3_TCM,2,113.28649902, 10.29235840,end
timer_stats,698487102097881,PAPI_L3_TCM,2,113.52050781, 10.31114197,end
timer_stats,698487103252678,PAPI_L3_TCM,3,113.72180176, 10.32923889,end
timer_stats,698487104394230,PAPI_L3_TCM,1,113.85516357, 10.34280396,end
timer_stats,698487105547249,PAPI_L3_TCM,1,114.00579834, 10.35470581,end
timer_stats,698487106704960,PAPI_L3_TCM,0,114.15051270, 10.36775208,end
timer_stats,698487107861871,PAPI_L3_TCM,3,114.29357910, 10.38264465,end
timer_stats,698487109015650,PAPI_L3_TCM,0,114.52612305, 10.39962769,end
timer_stats,698487110169311,PAPI_L3_TCM,2,114.72088623, 10.42240906,end
timer_stats,698487111339412,PAPI_L3_TCM,0,114.86529541, 10.43432617,end
timer_stats,698487112496920,PAPI_L3_TCM,2,115.01867676, 10.44645691,end
timer_stats,698487113679083,PAPI_L3_TCM,0,115.15490723, 10.45870972,end
timer_stats,698487114834332,PAPI_L3_TCM,1,115.30554199, 10.47076416,end
timer_stats,698487116018713,PAPI_L3_TCM,0,115.44250488, 10.48255920,end
timer_stats,698487117151327,PAPI_L3_TCM,2,115.73132324, 10.50172424,end
timer_stats,698487118305045,PAPI_L3_TCM,1,115.87988281, 10.51667785,end
timer_stats,698487119461265,PAPI_L3_TCM,2,116.02795410, 10.52832031,end
timer_stats,698487120605727,PAPI_L3_TCM,2,116.17205811, 10.53961182,end
timer_stats,698487121773387,PAPI_L3_TCM,3,116.30798340, 10.55215454,end
timer_stats,698487122932902,PAPI_L3_TCM,0,116.45404053, 10.56408691,end
timer_stats,698487124087932,PAPI_L3_TCM,2,116.67053223, 10.58398437,end
timer_stats,698487125222087,PAPI_L3_TCM,0,116.87298584, 10.60523987,end
timer_stats,698487126386949,PAPI_L3_TCM,2,117.00036621, 10.61647034,end
timer_stats,698487127563304,PAPI_L3_TCM,2,117.13549805, 10.62709045,end
timer_stats,698487128718537,PAPI_L3_TCM,2,117.26464844, 10.63824463,end
timer_stats,698487129884698,PAPI_L3_TCM,0,117.38757324, 10.64990234,end
timer_stats,698487131043406,PAPI_L3_TCM,1,117.59118652, 10.66822815,end
timer_stats,698487132202857,PAPI_L3_TCM,0,117.72692871, 10.67887878,end
timer_stats,698487133343188,PAPI_L3_TCM,4,117.90850830, 10.69563293,end
timer_stats,698487134508643,PAPI_L3_TCM,0,118.03533935, 10.70765686,end
timer_stats,698487135669793,PAPI_L3_TCM,2,118.16815186, 10.72099304,end
timer_stats,698487136854018,PAPI_L3_TCM,0,118.29229736, 10.73423767,end
timer_stats,698487138003891,PAPI_L3_TCM,2,118.41613769, 10.74723816,end
timer_stats,698487139158233,PAPI_L3_TCM,1,118.60632324, 10.76612854,end
timer_stats,698487140337851,PAPI_L3_TCM,2,118.77569580, 10.78527832,end
timer_stats,698487141467603,PAPI_L3_TCM,0,118.89404297, 10.79937744,end
timer_stats,698487142613211,PAPI_L3_TCM,1,119.01428223, 10.81449890,end
timer_stats,698487143763640,PAPI_L3_TCM,0,119.13275146, 10.82846069,end
timer_stats,698487144933272,PAPI_L3_TCM,2,119.24432373, 10.84088135,end
timer_stats,698487146088678,PAPI_L3_TCM,0,119.41680908, 10.85845947,end
timer_stats,698487147251512,PAPI_L3_TCM,2,119.58825683, 10.87614441,end
timer_stats,698487148407621,PAPI_L3_TCM,0,119.70104980, 10.88792419,end
timer_stats,698487149578213,PAPI_L3_TCM,1,119.81530762, 10.89932251,end
timer_stats,698487150722189,PAPI_L3_TCM,0,119.92205811, 10.91018677,end
timer_stats,698487151872211,PAPI_L3_TCM,1,120.03552246, 10.92259216,end
timer_stats,698487153018139,PAPI_L3_TCM,0,120.15112305, 10.93321228,end
timer_stats,698487154181712,PAPI_L3_TCM,2,120.31939697, 10.94989014,end
timer_stats,698487155335366,PAPI_L3_TCM,0,120.49261474, 10.96557617,end
timer_stats,698487156480421,PAPI_L3_TCM,2,120.61059570, 10.97692871,end
timer_stats,698487157636574,PAPI_L3_TCM,0,120.71630859, 10.98913574,end
timer_stats,698487158783730,PAPI_L3_TCM,1,120.82293701, 11.00167847,end
timer_stats,698487159947876,PAPI_L3_TCM,2,120.94061279, 11.01580810,end
timer_stats,698487161091793,PAPI_L3_TCM,4,121.05389404, 11.02609253,end
timer_stats,698487162231629,PAPI_L3_TCM,0,121.28808594, 11.04833984,end
timer_stats,698487163377677,PAPI_L3_TCM,2,121.40246582, 11.06045532,end
timer_stats,698487164530618,PAPI_L3_TCM,1,121.52026367, 11.07235718,end
timer_stats,698487165671804,PAPI_L3_TCM,4,121.63940430, 11.08500671,end
timer_stats,698487166816024,PAPI_L3_TCM,0,121.75848389, 11.09667969,end
timer_stats,698487167959138,PAPI_L3_TCM,1,121.88024902, 11.10844421,end
timer_stats,698487169106514,PAPI_L3_TCM,0,121.99603271, 11.11932373,end
timer_stats,698487170261951,PAPI_L3_TCM,2,122.18090820, 11.13638306,end
timer_stats,698487171406323,PAPI_L3_TCM,0,122.37359619, 11.15315246,end
timer_stats,698487172553935,PAPI_L3_TCM,3,122.49542236, 11.16452026,end
timer_stats,698487173693770,PAPI_L3_TCM,2,122.61828613, 11.17024231,end
timer_stats,698487174836619,PAPI_L3_TCM,4,122.75048828, 11.18157959,end
timer_stats,698487175995549,PAPI_L3_TCM,0,122.87658691, 11.19352722,end
timer_stats,698487177166299,PAPI_L3_TCM,1,123.12188721, 11.21850586,end
timer_stats,698487178327414,PAPI_L3_TCM,0,123.25262451, 11.23071289,end
timer_stats,698487179498888,PAPI_L3_TCM,1,123.39300537, 11.24288940,end
timer_stats,698487180657199,PAPI_L3_TCM,0,123.52178955, 11.25509643,end
timer_stats,698487181819911,PAPI_L3_TCM,2,123.65454102, 11.26712036,end
timer_stats,698487182980995,PAPI_L3_TCM,0,123.79113769, 11.27883911,end
timer_stats,698487184122012,PAPI_L3_TCM,3,123.92474365, 11.29107666,end
timer_stats,698487185260140,PAPI_L3_TCM,0,124.20849609, 11.31585693,end
timer_stats,698487186423208,PAPI_L3_TCM,1,124.35058594, 11.32691955,end
timer_stats,698487187586330,PAPI_L3_TCM,0,124.49462891, 11.33869934,end
timer_stats,698487188747759,PAPI_L3_TCM,1,124.63244629, 11.35099792,end
timer_stats,698487189910111,PAPI_L3_TCM,0,124.76843262, 11.36328125,end
timer_stats,698487191086672,PAPI_L3_TCM,2,124.90856933, 11.37454223,end
timer_stats,698487192246215,PAPI_L3_TCM,0,125.17480469, 11.39779663,end
timer_stats,698487193388904,PAPI_L3_TCM,2,125.30828857, 11.40887451,end
timer_stats,698487194553360,PAPI_L3_TCM,0,125.44244385, 11.41972351,end
timer_stats,698487195720383,PAPI_L3_TCM,1,125.56512451, 11.43058777,end
timer_stats,698487196894573,PAPI_L3_TCM,0,125.69738769, 11.44194031,end
timer_stats,698487198080949,PAPI_L3_TCM,1,125.82208252, 11.45376587,end
timer_stats,698487199240665,PAPI_L3_TCM,0,126.06628418, 11.47581482,end
timer_stats,698487200398092,PAPI_L3_TCM,4,126.19458008, 11.48649597,end
timer_stats,698487201535047,PAPI_L3_TCM,0,126.32043457, 11.49790955,end
timer_stats,698487202682512,PAPI_L3_TCM,2,126.44262695, 11.50979614,end
timer_stats,698487203851120,PAPI_L3_TCM,0,126.55908203, 11.52088928,end
timer_stats,698487205022208,PAPI_L3_TCM,1,126.67980957, 11.53193665,end
timer_stats,698487206188789,PAPI_L3_TCM,0,126.90478515, 11.55358887,end
timer_stats,698487207350343,PAPI_L3_TCM,1,127.01940918, 11.56408691,end
timer_stats,698487208509731,PAPI_L3_TCM,0,127.13244629, 11.57501221,end
timer_stats,698487209669484,PAPI_L3_TCM,2,127.24151611, 11.58575439,end
timer_stats,698487210816522,PAPI_L3_TCM,1,127.35406494, 11.59619141,end
timer_stats,698487211984001,PAPI_L3_TCM,2,127.46197510, 11.60693359,end
timer_stats,698487213166434,PAPI_L3_TCM,0,127.63842773, 11.62359619,end
timer_stats,698487214330800,PAPI_L3_TCM,1,127.79461670, 11.64270019,end
timer_stats,698487215489596,PAPI_L3_TCM,0,127.89868164, 11.65451050,end
timer_stats,698487216657828,PAPI_L3_TCM,2,128.00653076, 11.66773987,end
timer_stats,698487217817005,PAPI_L3_TCM,0,128.11346435, 11.67941284,end
timer_stats,698487218980643,PAPI_L3_TCM,3,128.22131348, 11.69151306,end
timer_stats,698487220163685,PAPI_L3_TCM,0,128.38464355, 11.70912170,end
timer_stats,698487221296518,PAPI_L3_TCM,5,128.54241943, 11.72459412,end
timer_stats,698487222458466,PAPI_L3_TCM,0,128.64990234, 11.73625183,end
timer_stats,698487223619912,PAPI_L3_TCM,1,128.75268554, 11.74668884,end
timer_stats,698487234665132,PAPI_L3_TCM,394,130.21936035, 11.91616821,end
timer_stats,698487235834857,PAPI_L3_TCM,151,130.33374023, 11.92864990,end
timer_stats,698487237006321,PAPI_L3_TCM,0,130.44293213, 11.94047546,end
timer_stats,698487238174953,PAPI_L3_TCM,2,130.60803223, 11.95159912,end
timer_stats,698487239329670,PAPI_L3_TCM,0,130.77313232, 11.97471619,end
timer_stats,698487240489371,PAPI_L3_TCM,2,130.88464355, 11.98559570,end
timer_stats,698487241648859,PAPI_L3_TCM,0,130.99560547, 11.99720764,end
timer_stats,698487242796727,PAPI_L3_TCM,4,131.10430908, 12.00807190,end
timer_stats,698487243949514,PAPI_L3_TCM,0,131.20269775, 12.01945496,end
timer_stats,698487245108062,PAPI_L3_TCM,3,131.30450439, 12.03053284,end
timer_stats,698487246271003,PAPI_L3_TCM,2,131.46813965, 12.04763794,end
timer_stats,698487247432907,PAPI_L3_TCM,4,131.62188721, 12.06468201,end
timer_stats,698487248602462,PAPI_L3_TCM,0,131.72338867, 12.07533264,end
timer_stats,698487249768839,PAPI_L3_TCM,2,131.82403564, 12.08668518,end
timer_stats,698487250921120,PAPI_L3_TCM,0,131.92675781, 12.09855652,end
timer_stats,698487252084575,PAPI_L3_TCM,2,132.02734375, 12.10987854,end
timer_stats,698487253222092,PAPI_L3_TCM,0,132.17828369, 12.12492371,end
timer_stats,698487254387500,PAPI_L3_TCM,1,132.32604980, 12.14018249,end
timer_stats,698487255552425,PAPI_L3_TCM,0,132.42187500, 12.15049744,end
timer_stats,698487256720225,PAPI_L3_TCM,2,132.52453613, 12.16075134,end
timer_stats,698487257878576,PAPI_L3_TCM,3,132.62329102, 12.17269897,end
timer_stats,698487259035141,PAPI_L3_TCM,10,132.72692871, 12.18313598,end
timer_stats,698487260196598,PAPI_L3_TCM,0,132.82434082, 12.19367981,end
timer_stats,698487261331950,PAPI_L3_TCM,1,133.03204346, 12.21444702,end
timer_stats,698487262489344,PAPI_L3_TCM,0,133.13250732, 12.22494507,end
timer_stats,698487263649262,PAPI_L3_TCM,1,133.23645020, 12.23614502,end
timer_stats,698487264810143,PAPI_L3_TCM,0,133.33679199, 12.24685669,end
timer_stats,698487265970327,PAPI_L3_TCM,3,133.44555664, 12.25222778,end
timer_stats,698487267126012,PAPI_L3_TCM,0,133.54498291, 12.26272583,end
timer_stats,698487268293836,PAPI_L3_TCM,2,133.73760986, 12.27819824,end
timer_stats,698487269430307,PAPI_L3_TCM,0,133.84185791, 12.29364014,end
timer_stats,698487270578644,PAPI_L3_TCM,1,133.93646240, 12.30441284,end
timer_stats,698487271739102,PAPI_L3_TCM,0,134.03515625, 12.31469726,end
timer_stats,698487272898493,PAPI_L3_TCM,1,134.13397217, 12.32522583,end
timer_stats,698487274045730,PAPI_L3_TCM,0,134.23114014, 12.33552551,end
timer_stats,698487275194255,PAPI_L3_TCM,2,134.37847900, 12.35096741,end
timer_stats,698487276354719,PAPI_L3_TCM,0,134.52203369, 12.36645508,end
timer_stats,698487277502030,PAPI_L3_TCM,2,134.62286377, 12.37652588,end
timer_stats,698487278650328,PAPI_L3_TCM,0,134.72430420, 12.38630676,end
timer_stats,698487279818589,PAPI_L3_TCM,1,134.82220459, 12.39663696,end
timer_stats,698487280986796,PAPI_L3_TCM,0,134.91967773, 12.40718078,end
timer_stats,698487282139245,PAPI_L3_TCM,1,135.01965332, 12.41746521,end
timer_stats,698487283300239,PAPI_L3_TCM,0,135.17236328, 12.43370056,end
timer_stats,698487284458179,PAPI_L3_TCM,2,135.31341553, 12.44953918,end
timer_stats,698487285616651,PAPI_L3_TCM,0,135.41040039, 12.45973205,end
timer_stats,698487286775628,PAPI_L3_TCM,2,135.50280762, 12.47044373,end
timer_stats,698487287935103,PAPI_L3_TCM,0,135.59368896, 12.48100281,end
timer_stats,698487289068527,PAPI_L3_TCM,1,135.68994141, 12.49150085,end
timer_stats,698487290200631,PAPI_L3_TCM,0,135.78106689, 12.50199890,end
timer_stats,698487291357850,PAPI_L3_TCM,1,135.96911621, 12.52326965,end
timer_stats,698487292516344,PAPI_L3_TCM,0,136.06091309, 12.53355408,end
timer_stats,698487293677131,PAPI_L3_TCM,2,136.15106201, 12.54388428,end
timer_stats,698487294835123,PAPI_L3_TCM,0,136.25244141, 12.55433655,end
timer_stats,698487295994337,PAPI_L3_TCM,2,136.34594727, 12.56483459,end
timer_stats,698487297155617,PAPI_L3_TCM,0,136.43890381, 12.57511902,end
timer_stats,698487298315032,PAPI_L3_TCM,1,136.58123779, 12.59080505,end
timer_stats,698487299470576,PAPI_L3_TCM,0,136.72344971, 12.60624695,end
timer_stats,698487300627387,PAPI_L3_TCM,1,136.81420898, 12.61679077,end
timer_stats,698487301784352,PAPI_L3_TCM,0,136.91052246, 12.62728882,end
timer_stats,698487302941439,PAPI_L3_TCM,2,136.99841309, 12.63764953,end
timer_stats,698487304099373,PAPI_L3_TCM,1,137.09490967, 12.64793396,end
timer_stats,698487305234081,PAPI_L3_TCM,2,137.23480224, 12.66426086,end
timer_stats,698487306391656,PAPI_L3_TCM,0,137.37750244, 12.68003845,end
timer_stats,698487307549306,PAPI_L3_TCM,1,137.47003174, 12.69078064,end
timer_stats,698487308707421,PAPI_L3_TCM,0,137.56408691, 12.70152283,end
timer_stats,698487309839105,PAPI_L3_TCM,6,137.66674805, 12.71218872,end
timer_stats,698487310955406,PAPI_L3_TCM,1,137.76721191, 12.72360229,end
timer_stats,698487312100233,PAPI_L3_TCM,2,137.86853027, 12.73532104,end
timer_stats,698487313215301,PAPI_L3_TCM,0,137.97363281, 12.74600220,end
timer_stats,698487314365097,PAPI_L3_TCM,2,138.16302490, 12.76745605,end
timer_stats,698487315508192,PAPI_L3_TCM,0,138.25476074, 12.77777099,end
timer_stats,698487316655558,PAPI_L3_TCM,1,138.35095215, 12.78829956,end
timer_stats,698487317800100,PAPI_L3_TCM,0,138.44396973, 12.79882812,end
timer_stats,698487318929016,PAPI_L3_TCM,1,138.53509521, 12.81007385,end
timer_stats,698487320075130,PAPI_L3_TCM,0,138.62976074, 12.82081604,end
timer_stats,698487321199373,PAPI_L3_TCM,2,138.72528076, 12.83155823,end
timer_stats,698487322352842,PAPI_L3_TCM,0,138.86944580, 12.84742737,end
timer_stats,698487323507504,PAPI_L3_TCM,2,139.01025391, 12.86351013,end
timer_stats,698487324657860,PAPI_L3_TCM,0,139.10626221, 12.87379455,end
timer_stats,698487325808400,PAPI_L3_TCM,1,139.20098877, 12.88453674,end
timer_stats,698487326946499,PAPI_L3_TCM,0,139.29248047, 12.89457703,end
timer_stats,698487328087970,PAPI_L3_TCM,1,139.38757324, 12.90510559,end
timer_stats,698487329239910,PAPI_L3_TCM,0,139.48352051, 12.91561890,end
timer_stats,698487330389329,PAPI_L3_TCM,2,139.66436767, 12.93627930,end
timer_stats,698487331548653,PAPI_L3_TCM,1,139.75732422, 12.94659424,end
timer_stats,698487332705515,PAPI_L3_TCM,2,139.85339355, 12.95666504,end
timer_stats,698487333858473,PAPI_L3_TCM,0,139.94720459, 12.96696472,end
timer_stats,698487335015255,PAPI_L3_TCM,1,140.04400635, 12.97746277,end
timer_stats,698487336181608,PAPI_L3_TCM,0,140.13793945, 12.98802185,end
timer_stats,698487337337493,PAPI_L3_TCM,1,140.28289795, 13.00392151,end
timer_stats,698487338500487,PAPI_L3_TCM,0,140.43444824, 13.02021790,end
timer_stats,698487339661284,PAPI_L3_TCM,2,140.53448486, 13.03117371,end
timer_stats,698487340817866,PAPI_L3_TCM,1,140.64135742, 13.04255676,end
timer_stats,698487341979583,PAPI_L3_TCM,2,140.74163818, 13.05354309,end
timer_stats,698487343125790,PAPI_L3_TCM,0,140.84838867, 13.06398010,end
timer_stats,698487344270744,PAPI_L3_TCM,1,140.99682617, 13.08079529,end
timer_stats,698487345400618,PAPI_L3_TCM,0,141.15039062, 13.09733581,end
timer_stats,698487346551433,PAPI_L3_TCM,1,141.25506592, 13.10783386,end
timer_stats,698487347694085,PAPI_L3_TCM,0,141.36322021, 13.11972046,end
timer_stats,698487348836945,PAPI_L3_TCM,2,141.46618652, 13.13102722,end
timer_stats,698487349962956,PAPI_L3_TCM,0,141.57427978, 13.14189148,end
timer_stats,698487351087467,PAPI_L3_TCM,2,141.67663574, 13.15193176,end
timer_stats,698487352231989,PAPI_L3_TCM,0,141.77313232, 13.16224670,end
timer_stats,698487353364515,PAPI_L3_TCM,1,141.92132568, 13.17811584,end
timer_stats,698487354519888,PAPI_L3_TCM,0,142.06542969, 13.19398498,end
timer_stats,698487355659212,PAPI_L3_TCM,1,142.15869141, 13.20452881,end
timer_stats,698487356796801,PAPI_L3_TCM,0,142.25329590, 13.21508789,end
timer_stats,698487357943743,PAPI_L3_TCM,2,142.34326172, 13.22561645,end
timer_stats,698487359092245,PAPI_L3_TCM,0,142.44067383, 13.23611450,end
timer_stats,698487360232642,PAPI_L3_TCM,2,142.53295898, 13.24661255,end
timer_stats,698487361363176,PAPI_L3_TCM,0,142.67553711, 13.26232910,end
timer_stats,698487362515275,PAPI_L3_TCM,1,142.80749512, 13.27519226,end
timer_stats,698487363662360,PAPI_L3_TCM,0,142.89727783, 13.28419494,end
timer_stats,698487364798959,PAPI_L3_TCM,1,142.99298096, 13.29318237,end
timer_stats,698487365947146,PAPI_L3_TCM,0,143.08276367, 13.30195618,end
timer_stats,698487367098065,PAPI_L3_TCM,2,143.17553711, 13.31092834,end
timer_stats,698487368239957,PAPI_L3_TCM,0,143.26538086, 13.32069397,end
timer_stats,698487369363824,PAPI_L3_TCM,3,143.40557861, 13.33561706,end
timer_stats,698487370508613,PAPI_L3_TCM,0,143.54040527, 13.34843445,end
timer_stats,698487371647547,PAPI_L3_TCM,1,143.63000488, 13.35722351,end
timer_stats,698487372785686,PAPI_L3_TCM,0,143.73034668, 13.36689758,end
timer_stats,698487373922646,PAPI_L3_TCM,1,143.81005859, 13.37570190,end
timer_stats,698487375067394,PAPI_L3_TCM,0,143.89520264, 13.38449096,end
timer_stats,698487376209322,PAPI_L3_TCM,2,143.98852539, 13.39320373,end
timer_stats,698487377348446,PAPI_L3_TCM,0,144.06079101, 13.40255737,end
timer_stats,698487378501318,PAPI_L3_TCM,2,144.23077392, 13.41987610,end
timer_stats,698487379655572,PAPI_L3_TCM,0,144.31176758, 13.42869568,end
timer_stats,698487380819040,PAPI_L3_TCM,1,144.39813232, 13.43766785,end
timer_stats,698487381986981,PAPI_L3_TCM,0,144.48095703, 13.44645691,end
timer_stats,698487383156971,PAPI_L3_TCM,1,144.56347656, 13.45526123,end
timer_stats,698487384323073,PAPI_L3_TCM,0,144.68750000, 13.46896362,end
timer_stats,698487385503444,PAPI_L3_TCM,2,144.81103516, 13.48165894,end
timer_stats,698487386666031,PAPI_L3_TCM,0,144.89367676, 13.49021912,end
timer_stats,698487387822798,PAPI_L3_TCM,2,144.97454834, 13.49877930,end
timer_stats,698487388975750,PAPI_L3_TCM,0,145.05694580, 13.50756836,end
timer_stats,698487390142631,PAPI_L3_TCM,1,145.14166260, 13.51657104,end
timer_stats,698487391310926,PAPI_L3_TCM,0,145.26043701, 13.53053284,end
timer_stats,698487392492733,PAPI_L3_TCM,1,145.38092041, 13.54316711,end
timer_stats,698487393668770,PAPI_L3_TCM,0,145.45983887, 13.55192566,end
timer_stats,698487394849359,PAPI_L3_TCM,2,145.54559326, 13.56072998,end
timer_stats,698487396032319,PAPI_L3_TCM,0,145.62329101, 13.56953430,end
timer_stats,698487397202883,PAPI_L3_TCM,2,145.70306396, 13.57806396,end
timer_stats,698487398378322,PAPI_L3_TCM,0,145.81494141, 13.59228516,end
timer_stats,698487399549932,PAPI_L3_TCM,1,145.93902588, 13.60485840,end
timer_stats,698487400727214,PAPI_L3_TCM,0,146.01806641, 13.61407471,end
timer_stats,698487401901308,PAPI_L3_TCM,1,146.09497070, 13.62289429,end
timer_stats,698487403073691,PAPI_L3_TCM,0,146.16259766, 13.63174438,end
timer_stats,698487404249038,PAPI_L3_TCM,2,146.24707031, 13.64065552,end
timer_stats,698487405425129,PAPI_L3_TCM,0,146.35906982, 13.65309143,end
timer_stats,698487406598764,PAPI_L3_TCM,2,146.47241211, 13.66726685,end
timer_stats,698487407770581,PAPI_L3_TCM,0,146.54980469, 13.67579651,end
timer_stats,698487408954075,PAPI_L3_TCM,1,146.62561035, 13.68586731,end
timer_stats,698487410134009,PAPI_L3_TCM,0,146.70367432, 13.69462585,end
timer_stats,698487411308754,PAPI_L3_TCM,1,146.77813721, 13.70362854,end
timer_stats,698487412478878,PAPI_L3_TCM,0,146.92633057, 13.72074890,end
timer_stats,698487413648025,PAPI_L3_TCM,2,147.00292969, 13.72923279,end
timer_stats,698487414819434,PAPI_L3_TCM,0,147.06652832, 13.73832703,end
timer_stats,698487415996184,PAPI_L3_TCM,2,147.14343262, 13.74707031,end
timer_stats,698487417176468,PAPI_L3_TCM,0,147.21197510, 13.75610351,end
timer_stats,698487418349610,PAPI_L3_TCM,1,147.32183838, 13.77000427,end
timer_stats,698487419518992,PAPI_L3_TCM,0,147.42816162, 13.78265381,end
timer_stats,698487420691706,PAPI_L3_TCM,1,147.51019287, 13.79133606,end
timer_stats,698487421866803,PAPI_L3_TCM,0,147.57543945, 13.80024719,end
timer_stats,698487423045524,PAPI_L3_TCM,2,147.66094971, 13.80940246,end
timer_stats,698487424224832,PAPI_L3_TCM,0,147.73748779, 13.81817627,end
timer_stats,698487425400304,PAPI_L3_TCM,2,147.84686279, 13.83288574,end
timer_stats,698487426578654,PAPI_L3_TCM,0,147.95635986, 13.84548950,end
timer_stats,698487427752809,PAPI_L3_TCM,1,148.04260254, 13.85415649,end
timer_stats,698487428939363,PAPI_L3_TCM,0,148.11669922, 13.86296081,end
timer_stats,698487430114375,PAPI_L3_TCM,1,148.19610596, 13.87168884,end
timer_stats,698487431294326,PAPI_L3_TCM,0,148.27288818, 13.88047790,end
timer_stats,698487432472146,PAPI_L3_TCM,2,148.34960937, 13.89311218,end
timer_stats,698487433646480,PAPI_L3_TCM,0,148.50396728, 13.90705871,end
timer_stats,698487434796425,PAPI_L3_TCM,2,148.57989502, 13.91584778,end
timer_stats,698487435976763,PAPI_L3_TCM,0,148.65545654, 13.92494202,end
timer_stats,698487437157684,PAPI_L3_TCM,1,148.73046875, 13.93348694,end
timer_stats,698487438333946,PAPI_L3_TCM,0,148.84393310, 13.94754028,end
timer_stats,698487439525713,PAPI_L3_TCM,1,148.96185303, 13.96034241,end
timer_stats,698487440701994,PAPI_L3_TCM,0,149.03015137, 13.96919250,end
timer_stats,698487441881171,PAPI_L3_TCM,3,149.10852051, 13.97798157,end
timer_stats,698487443057733,PAPI_L3_TCM,0,149.18579102, 13.98698425,end
timer_stats,698487444236148,PAPI_L3_TCM,2,149.27496338, 13.99565124,end
timer_stats,698487445410519,PAPI_L3_TCM,0,149.35052490, 14.00447082,end
timer_stats,698487446588249,PAPI_L3_TCM,1,149.49877930, 14.02180481,end
timer_stats,698487447765198,PAPI_L3_TCM,2,149.58477783, 14.03182983,end
timer_stats,698487448946085,PAPI_L3_TCM,1,149.66162109, 14.04061890,end
timer_stats,698487450100522,PAPI_L3_TCM,0,149.73107910, 14.04925537,end
timer_stats,698487451277521,PAPI_L3_TCM,2,149.81060791, 14.05801392,end
timer_stats,698487452454111,PAPI_L3_TCM,5,149.93627930, 14.07196045,end
timer_stats,698487453607975,PAPI_L3_TCM,2,150.05084228, 14.08581543,end
timer_stats,698487454781422,PAPI_L3_TCM,0,150.12335205, 14.09327698,end
timer_stats,698487455932858,PAPI_L3_TCM,1,150.19207764, 14.10075378,end
timer_stats,698487457120506,PAPI_L3_TCM,0,150.25372314, 14.10816955,end
timer_stats,698487458296863,PAPI_L3_TCM,1,150.33276367, 14.11555481,end
timer_stats,698487459470608,PAPI_L3_TCM,0,150.43328857, 14.12649536,end
timer_stats,698487460651132,PAPI_L3_TCM,2,150.53637695, 14.13778686,end
timer_stats,698487461825969,PAPI_L3_TCM,0,150.60894775, 14.14524841,end
timer_stats,698487463003865,PAPI_L3_TCM,2,150.67315674, 14.15254211,end
timer_stats,698487464182560,PAPI_L3_TCM,0,150.73980713, 14.16004944,end
timer_stats,698487465359217,PAPI_L3_TCM,1,150.81555176, 14.16773987,end
timer_stats,698487466531036,PAPI_L3_TCM,0,150.94732666, 14.18432617,end
timer_stats,698487467703693,PAPI_L3_TCM,1,151.02239990, 14.19174194,end
timer_stats,698487468877038,PAPI_L3_TCM,0,151.09381103, 14.19894409,end
timer_stats,698487470025287,PAPI_L3_TCM,2,151.15985107, 14.20675659,end
timer_stats,698487471177286,PAPI_L3_TCM,0,151.22778320, 14.21401978,end
timer_stats,698487472356523,PAPI_L3_TCM,2,151.29583740, 14.22171020,end
timer_stats,698487473532225,PAPI_L3_TCM,0,151.43084717, 14.23800659,end
timer_stats,698487474710342,PAPI_L3_TCM,1,151.49865723, 14.24525452,end
timer_stats,698487475885682,PAPI_L3_TCM,0,151.56744385, 14.25248718,end
timer_stats,698487477065174,PAPI_L3_TCM,1,151.63641357, 14.25968933,end
timer_stats,698487478244578,PAPI_L3_TCM,0,151.70019531, 14.26722717,end
timer_stats,698487479414808,PAPI_L3_TCM,2,151.76708984, 14.27467346,end
timer_stats,698487480587279,PAPI_L3_TCM,0,151.89990234, 14.28556824,end
timer_stats,698487481758744,PAPI_L3_TCM,2,151.96618652, 14.29820251,end
timer_stats,698487482936416,PAPI_L3_TCM,1,152.03448486, 14.30589294,end
timer_stats,698487484112105,PAPI_L3_TCM,1,152.09466553, 14.31346130,end
timer_stats,698487485284932,PAPI_L3_TCM,0,152.16064453, 14.32093811,end
timer_stats,698487486458296,PAPI_L3_TCM,1,152.22937012, 14.32841492,end
timer_stats,698487487641224,PAPI_L3_TCM,0,152.36126709, 14.34107971,end
timer_stats,698487488817513,PAPI_L3_TCM,2,152.42480469, 14.34835815,end
timer_stats,698487489992237,PAPI_L3_TCM,0,152.49133301, 14.35559082,end
timer_stats,698487491167359,PAPI_L3_TCM,2,152.55273437, 14.36334228,end
timer_stats,698487492340331,PAPI_L3_TCM,0,152.61608887, 14.37063598,end
timer_stats,698487493512096,PAPI_L3_TCM,3,152.71594238, 14.37788391,end
timer_stats,698487494685265,PAPI_L3_TCM,0,152.81414795, 14.39416504,end
timer_stats,698487495858974,PAPI_L3_TCM,1,152.88110352, 14.40194702,end
timer_stats,698487497037226,PAPI_L3_TCM,0,152.94427490, 14.40921020,end
timer_stats,698487498215443,PAPI_L3_TCM,2,153.00531006, 14.41651916,end
timer_stats,698487499387310,PAPI_L3_TCM,0,153.07232666, 14.42375183,end
timer_stats,698487500562540,PAPI_L3_TCM,2,153.16717529, 14.43487549,end
timer_stats,698487501740694,PAPI_L3_TCM,0,153.26098633, 14.44757080,end
timer_stats,698487502915518,PAPI_L3_TCM,1,153.32501221, 14.45504761,end
timer_stats,698487504096856,PAPI_L3_TCM,0,153.38928223, 14.46252441,end
timer_stats,698487505274600,PAPI_L3_TCM,1,153.45172119, 14.47030640,end
timer_stats,698487506462222,PAPI_L3_TCM,0,153.51879883, 14.47750854,end
timer_stats,698487507634409,PAPI_L3_TCM,2,153.64379883, 14.49533081,end
timer_stats,698487508807980,PAPI_L3_TCM,0,153.70819092, 14.50256348,end
timer_stats,698487509987365,PAPI_L3_TCM,2,153.76641846, 14.51013183,end
timer_stats,698487511166086,PAPI_L3_TCM,0,153.83050537, 14.51759338,end
timer_stats,698487512341359,PAPI_L3_TCM,1,153.89581299, 14.52503967,end
timer_stats,698487513514578,PAPI_L3_TCM,0,153.98468017, 14.53817749,end
timer_stats,698487514687800,PAPI_L3_TCM,1,154.08233642, 14.54927063,end
timer_stats,698487515860697,PAPI_L3_TCM,0,154.14373779, 14.55676269,end
timer_stats,698487517040358,PAPI_L3_TCM,2,154.20715332, 14.56423950,end
timer_stats,698487518193603,PAPI_L3_TCM,0,154.26763916, 14.57150268,end
timer_stats,698487519348393,PAPI_L3_TCM,2,154.32830810, 14.57919311,end
timer_stats,698487520528315,PAPI_L3_TCM,0,154.41711426, 14.59187317,end
timer_stats,698487521701617,PAPI_L3_TCM,1,154.51190185, 14.60273743,end
timer_stats,698487522881870,PAPI_L3_TCM,0,154.57165527, 14.61024475,end
timer_stats,698487524058388,PAPI_L3_TCM,1,154.63311767, 14.61772156,end
timer_stats,698487525232435,PAPI_L3_TCM,0,154.69396972, 14.62519836,end
timer_stats,698487526408570,PAPI_L3_TCM,2,154.78076172, 14.63294983,end
timer_stats,698487527583308,PAPI_L3_TCM,0,154.87738037, 14.64973450,end
timer_stats,698487528755826,PAPI_L3_TCM,2,154.93585205, 14.65702820,end
timer_stats,698487529934160,PAPI_L3_TCM,0,154.99676514, 14.66450500,end
timer_stats,698487531090614,PAPI_L3_TCM,1,155.06048584, 14.67326355,end
timer_stats,698487532269978,PAPI_L3_TCM,0,155.12103271, 14.68095398,end
timer_stats,698487533445053,PAPI_L3_TCM,1,155.20599365, 14.69233704,end
timer_stats,698487534624485,PAPI_L3_TCM,0,155.26824951, 14.70338440,end
timer_stats,698487535796275,PAPI_L3_TCM,2,155.35717773, 14.71090698,end
timer_stats,698487536974283,PAPI_L3_TCM,0,155.41882324, 14.71815491,end
timer_stats,698487538152248,PAPI_L3_TCM,2,155.47717285, 14.72566223,end
timer_stats,698487539336678,PAPI_L3_TCM,0,155.53680420, 14.73344421,end
timer_stats,698487540513042,PAPI_L3_TCM,1,155.62329101, 14.74632263,end
timer_stats,698487541699274,PAPI_L3_TCM,169,155.71539307, 14.75770569,end
timer_stats,698487542872419,PAPI_L3_TCM,1,155.77374267, 14.76496887,end
timer_stats,698487544046786,PAPI_L3_TCM,0,155.83538818, 14.77244568,end
timer_stats,698487545221955,PAPI_L3_TCM,2,155.89685059, 14.77989197,end
timer_stats,698487546400592,PAPI_L3_TCM,0,155.95239258, 14.78746033,end
timer_stats,698487547577377,PAPI_L3_TCM,2,156.06835937, 14.80401611,end
timer_stats,698487548751186,PAPI_L3_TCM,0,156.12902832, 14.81147766,end
timer_stats,698487549901848,PAPI_L3_TCM,1,156.18798828, 14.81872558,end
timer_stats,698487551076237,PAPI_L3_TCM,0,156.24969482, 14.82592773,end
timer_stats,698487552249291,PAPI_L3_TCM,1,156.30444336, 14.83349609,end
timer_stats,698487553404088,PAPI_L3_TCM,0,156.36383057, 14.84075928,end
timer_stats,698487554580650,PAPI_L3_TCM,2,156.44885254, 14.85313415,end
timer_stats,698487555754479,PAPI_L3_TCM,0,156.53881836, 14.86424255,end
timer_stats,698487556933934,PAPI_L3_TCM,2,156.59606934, 14.87174988,end
timer_stats,698487558111853,PAPI_L3_TCM,0,156.65399170, 14.87899780,end
timer_stats,698487559286583,PAPI_L3_TCM,1,156.71783447, 14.88778686,end
timer_stats,698487560420001,PAPI_L3_TCM,4,156.77648926, 14.89662170,end
timer_stats,698487561559266,PAPI_L3_TCM,5,156.87152099, 14.91078186,end
timer_stats,698487562724193,PAPI_L3_TCM,0,156.96508789, 14.92320251,end
timer_stats,698487563880767,PAPI_L3_TCM,2,157.02819824, 14.93174744,end
timer_stats,698487565071854,PAPI_L3_TCM,20,157.09252929, 14.94047546,end
timer_stats,698487566213129,PAPI_L3_TCM,2,157.16094971, 14.94969177,end
timer_stats,698487567376851,PAPI_L3_TCM,0,157.22058105, 14.96067810,end
timer_stats,698487568539183,PAPI_L3_TCM,1,157.31213379, 14.97117615,end
timer_stats,698487569701000,PAPI_L3_TCM,1,157.41058349, 14.99304199,end
timer_stats,698487570862316,PAPI_L3_TCM,1,157.47210693, 15.00378418,end
timer_stats,698487572026836,PAPI_L3_TCM,0,157.53619385, 15.01425171,end
timer_stats,698487573159595,PAPI_L3_TCM,3,157.60046387, 15.02520752,end
timer_stats,698487574336492,PAPI_L3_TCM,0,157.67022705, 15.03570557,end
timer_stats,698487575513999,PAPI_L3_TCM,3,157.77288818, 15.04644775,end
timer_stats,698487576697209,PAPI_L3_TCM,0,157.88061523, 15.06698608,end
timer_stats,698487577880787,PAPI_L3_TCM,1,157.95251465, 15.07730103,end
timer_stats,698487579052320,PAPI_L3_TCM,0,158.02575684, 15.08782959,end
timer_stats,698487580228854,PAPI_L3_TCM,1,158.10095215, 15.09811401,end
timer_stats,698487581375443,PAPI_L3_TCM,0,158.17651367, 15.10861206,end
timer_stats,698487582542685,PAPI_L3_TCM,2,158.24981689, 15.11917114,end
timer_stats,698487583715252,PAPI_L3_TCM,0,158.39739990, 15.14001465,end
timer_stats,698487584901336,PAPI_L3_TCM,2,158.47229004, 15.15052795,end
timer_stats,698487586083006,PAPI_L3_TCM,11,158.55090332, 15.16102600,end
timer_stats,698487587261528,PAPI_L3_TCM,1,158.62432861, 15.17135620,end
timer_stats,698487588433820,PAPI_L3_TCM,0,158.69537353, 15.18188476,end
timer_stats,698487589611324,PAPI_L3_TCM,1,158.79089355, 15.20091248,end
timer_stats,698487590790386,PAPI_L3_TCM,0,158.90161133, 15.20968628,end
timer_stats,698487591961924,PAPI_L3_TCM,2,158.96618652, 15.21847534,end
timer_stats,698487593136653,PAPI_L3_TCM,0,159.03393555, 15.22747803,end
timer_stats,698487594323442,PAPI_L3_TCM,2,159.10229492, 15.23620605,end
timer_stats,698487595507014,PAPI_L3_TCM,0,159.19067383, 15.25041199,end
timer_stats,698487596694431,PAPI_L3_TCM,1,159.30670166, 15.26428223,end
timer_stats,698487597874405,PAPI_L3_TCM,0,159.37170410, 15.27334595,end
timer_stats,698487599055498,PAPI_L3_TCM,1,159.43707275, 15.28237915,end
timer_stats,698487600235809,PAPI_L3_TCM,0,159.50744629, 15.29110718,end
timer_stats,698487601413568,PAPI_L3_TCM,2,159.57336426, 15.30014038,end
timer_stats,698487602566308,PAPI_L3_TCM,0,159.66613769, 15.30889892,end
timer_stats,698487603723494,PAPI_L3_TCM,2,159.77355957, 15.32821655,end
timer_stats,698487604904984,PAPI_L3_TCM,0,159.83929443, 15.33700561,end
timer_stats,698487606093239,PAPI_L3_TCM,1,159.90985107, 15.34597778,end
timer_stats,698487607275228,PAPI_L3_TCM,0,159.97467041, 15.35479736,end
timer_stats,698487608460862,PAPI_L3_TCM,1,160.04412842, 15.36352539,end
timer_stats,698487609640639,PAPI_L3_TCM,0,160.13757324, 15.37768555,end
timer_stats,698487610820217,PAPI_L3_TCM,2,160.24926758, 15.39157104,end
timer_stats,698487612030465,PAPI_L3_TCM,0,160.31176758, 15.40066528,end
timer_stats,698487613190763,PAPI_L3_TCM,2,160.38122559, 15.40942383,end
timer_stats,698487614376814,PAPI_L3_TCM,0,160.44512939, 15.41845703,end
timer_stats,698487615558145,PAPI_L3_TCM,1,160.54193115, 15.42742920,end
timer_stats,698487616737092,PAPI_L3_TCM,0,160.65008545, 15.44677734,end
timer_stats,698487617916448,PAPI_L3_TCM,1,160.72052002, 15.45574951,end
timer_stats,698487619094108,PAPI_L3_TCM,0,160.78991699, 15.46478271,end
timer_stats,698487620273280,PAPI_L3_TCM,2,160.85510254, 15.47381592,end
timer_stats,698487621425432,PAPI_L3_TCM,0,160.92272949, 15.48281860,end
timer_stats,698487622582108,PAPI_L3_TCM,2,161.01837158, 15.49697876,end
timer_stats,698487623763583,PAPI_L3_TCM,0,161.12805176, 15.51089478,end
timer_stats,698487624947800,PAPI_L3_TCM,1,161.19537353, 15.51992798,end
timer_stats,698487626130782,PAPI_L3_TCM,0,161.26287842, 15.52893066,end
timer_stats,698487627308084,PAPI_L3_TCM,1,161.33514404, 15.53767395,end
timer_stats,698487628495113,PAPI_L3_TCM,0,161.40435791, 15.54667663,end
timer_stats,698487629643628,PAPI_L3_TCM,15,161.49749756, 15.56105041,end
timer_stats,698487630757352,PAPI_L3_TCM,2,161.61517334, 15.57537842,end
timer_stats,698487631897430,PAPI_L3_TCM,6,161.68811035, 15.58410644,end
timer_stats,698487633036244,PAPI_L3_TCM,4,161.75653076, 15.59310913,end
timer_stats,698487634188585,PAPI_L3_TCM,1,161.82208252, 15.60194397,end
timer_stats,698487635358615,PAPI_L3_TCM,0,161.89141846, 15.61070251,end
timer_stats,698487636531661,PAPI_L3_TCM,1,161.96252441, 15.61949158,end
timer_stats,698487637699905,PAPI_L3_TCM,1,162.09942627, 15.64036560,end
timer_stats,698487638868482,PAPI_L3_TCM,2,162.16998291, 15.64936828,end
timer_stats,698487640042394,PAPI_L3_TCM,0,162.23901367, 15.65837097,end
timer_stats,698487641216553,PAPI_L3_TCM,2,162.31079102, 15.66714478,end
timer_stats,698487642408563,PAPI_L3_TCM,1,162.37792969, 15.67617798,end
timer_stats,698487643592398,PAPI_L3_TCM,1,162.44616699, 15.68548584,end
timer_stats,698487644788905,PAPI_L3_TCM,0,162.58416748, 15.70504761,end
timer_stats,698487645966936,PAPI_L3_TCM,1,162.65838623, 15.71377563,end
timer_stats,698487647145541,PAPI_L3_TCM,0,162.72564697, 15.72256470,end
timer_stats,698487648328885,PAPI_L3_TCM,2,162.80108642, 15.73150635,end
timer_stats,698487649508897,PAPI_L3_TCM,0,162.87017822, 15.74052429,end
timer_stats,698487650688147,PAPI_L3_TCM,2,162.96362305, 15.75442505,end
timer_stats,698487651866789,PAPI_L3_TCM,0,163.07879639, 15.76863098,end
timer_stats,698487653049224,PAPI_L3_TCM,1,163.15136719, 15.77760315,end
timer_stats,698487654232121,PAPI_L3_TCM,0,163.21752930, 15.78643799,end
timer_stats,698487655415118,PAPI_L3_TCM,1,163.28894043, 15.79541016,end
timer_stats,698487656601236,PAPI_L3_TCM,0,163.38226318, 15.80953979,end
timer_stats,698487657784264,PAPI_L3_TCM,2,163.50225830, 15.82369995,end
timer_stats,698487658961862,PAPI_L3_TCM,0,163.57519531, 15.83267212,end
timer_stats,698487660146279,PAPI_L3_TCM,2,163.64166260, 15.84170532,end
timer_stats,698487661322016,PAPI_L3_TCM,0,163.71075439, 15.85047912,end
timer_stats,698487662498575,PAPI_L3_TCM,1,163.78314209, 15.85945129,end
timer_stats,698487663683366,PAPI_L3_TCM,0,163.87164307, 15.87341308,end
timer_stats,698487664865134,PAPI_L3_TCM,1,163.99475098, 15.88774109,end
timer_stats,698487666046795,PAPI_L3_TCM,0,164.06286621, 15.89651489,end
timer_stats,698487667229469,PAPI_L3_TCM,2,164.13470459, 15.90527344,end
timer_stats,698487668428868,PAPI_L3_TCM,0,164.20379639, 15.91406250,end
timer_stats,698487669616065,PAPI_L3_TCM,3,164.27239990, 15.92306519,end
timer_stats,698487670774716,PAPI_L3_TCM,0,164.41430664, 15.94367981,end
timer_stats,698487671961847,PAPI_L3_TCM,1,164.48651123, 15.95265198,end
timer_stats,698487673151871,PAPI_L3_TCM,0,164.55194092, 15.96147156,end
timer_stats,698487674338836,PAPI_L3_TCM,3,164.62316894, 15.97019958,end
timer_stats,698487675520707,PAPI_L3_TCM,0,164.69592285, 15.97898865,end
timer_stats,698487676701275,PAPI_L3_TCM,2,164.78656006, 15.99290466,end
timer_stats,698487677888566,PAPI_L3_TCM,0,164.90435791, 16.00682068,end
timer_stats,698487679073853,PAPI_L3_TCM,2,164.97326660, 16.01560974,end
timer_stats,698487680263835,PAPI_L3_TCM,0,165.04614258, 16.02458191,end
timer_stats,698487681451823,PAPI_L3_TCM,1,165.11621094, 16.03337097,end
timer_stats,698487682637477,PAPI_L3_TCM,0,165.20910644, 16.04777527,end
timer_stats,698487683824259,PAPI_L3_TCM,1,165.32647705, 16.06167602,end
timer_stats,698487685012140,PAPI_L3_TCM,0,165.39611816, 16.07046509,end
timer_stats,698487686204118,PAPI_L3_TCM,2,165.46673584, 16.08016968,end
timer_stats,698487687396539,PAPI_L3_TCM,0,165.53765869, 16.09063721,end
timer_stats,698487688565936,PAPI_L3_TCM,2,165.61206055, 16.09982300,end
timer_stats,698487689753261,PAPI_L3_TCM,0,165.75366211, 16.11976624,end
timer_stats,698487690926758,PAPI_L3_TCM,1,165.83020020, 16.12870789,end
timer_stats,698487692096543,PAPI_L3_TCM,0,165.90130615, 16.13838196,end
timer_stats,698487693234514,PAPI_L3_TCM,1,165.97113037, 16.14857483,end
timer_stats,698487694422391,PAPI_L3_TCM,0,166.04187012, 16.15876770,end
timer_stats,698487695606230,PAPI_L3_TCM,2,166.11322021, 16.16773987,end
timer_stats,698487696782237,PAPI_L3_TCM,0,166.25988770, 16.18872070,end
timer_stats,698487697954615,PAPI_L3_TCM,2,166.33740234, 16.19943237,end
timer_stats,698487699141849,PAPI_L3_TCM,0,166.40502930, 16.20864868,end
timer_stats,698487700309427,PAPI_L3_TCM,1,166.48126221, 16.21784973,end
timer_stats,698487701465135,PAPI_L3_TCM,0,166.55670166, 16.22813415,end
timer_stats,698487702625716,PAPI_L3_TCM,1,166.65679932, 16.24226379,end
timer_stats,698487703803803,PAPI_L3_TCM,0,166.78759766, 16.25810242,end
timer_stats,698487704973671,PAPI_L3_TCM,2,166.86859131, 16.26750183,end
timer_stats,698487706163396,PAPI_L3_TCM,0,166.94494629, 16.27845764,end
timer_stats,698487707352350,PAPI_L3_TCM,2,167.01910400, 16.28770447,end
timer_stats,698487708506585,PAPI_L3_TCM,0,167.09777832, 16.29689026,end
timer_stats,698487709668906,PAPI_L3_TCM,1,167.17578125, 16.30584717,end
timer_stats,698487710830150,PAPI_L3_TCM,0,167.33557129, 16.32632446,end
timer_stats,698487711988721,PAPI_L3_TCM,1,167.41223144, 16.33555603,end
timer_stats,698487713175949,PAPI_L3_TCM,0,167.49438477, 16.34428406,end
timer_stats,698487714333896,PAPI_L3_TCM,2,167.57507324, 16.35350037,end
timer_stats,698487715508568,PAPI_L3_TCM,0,167.64935303, 16.36227417,end
timer_stats,698487716661432,PAPI_L3_TCM,2,167.72265625, 16.37158203,end
timer_stats,698487717847293,PAPI_L3_TCM,0,167.88079834, 16.39064026,end
timer_stats,698487719035651,PAPI_L3_TCM,1,167.96234131, 16.40007019,end
timer_stats,698487720211338,PAPI_L3_TCM,0,168.04022217, 16.40901184,end
timer_stats,698487721349119,PAPI_L3_TCM,1,168.11596680, 16.41781616,end
timer_stats,698487722532721,PAPI_L3_TCM,0,168.19281006, 16.42788696,end
timer_stats,698487723711218,PAPI_L3_TCM,2,168.29260254, 16.44232178,end
timer_stats,698487724881770,PAPI_L3_TCM,0,168.43457031, 16.45620727,end
timer_stats,698487726071260,PAPI_L3_TCM,2,168.51300049, 16.46496582,end
timer_stats,698487727261082,PAPI_L3_TCM,1,168.58935547, 16.47375488,end
timer_stats,698487728438229,PAPI_L3_TCM,1,168.66455078, 16.48257446,end
timer_stats,698487729625208,PAPI_L3_TCM,0,168.74371338, 16.49136353,end
timer_stats,698487730819095,PAPI_L3_TCM,1,168.84033203, 16.50553894,end
timer_stats,698487731985420,PAPI_L3_TCM,0,168.97497559, 16.51924133,end
timer_stats,698487733155517,PAPI_L3_TCM,2,169.05261230, 16.52848816,end
timer_stats,698487734344396,PAPI_L3_TCM,0,169.13104248, 16.53746033,end
timer_stats,698487735532270,PAPI_L3_TCM,2,169.20758057, 16.54643249,end
timer_stats,698487736709594,PAPI_L3_TCM,0,169.30883789, 16.55538940,end
timer_stats,698487737899019,PAPI_L3_TCM,2,169.44561767, 16.57510376,end
timer_stats,698487739086139,PAPI_L3_TCM,0,169.51953125, 16.58612060,end
timer_stats,698487740266058,PAPI_L3_TCM,2,169.60192871, 16.59637451,end
timer_stats,698487741405808,PAPI_L3_TCM,0,169.68133545, 16.60687256,end
timer_stats,698487742594752,PAPI_L3_TCM,2,169.76684570, 16.61782837,end
timer_stats,698487743781091,PAPI_L3_TCM,0,169.92370605, 16.63887024,end
timer_stats,698487744965891,PAPI_L3_TCM,2,170.00671387, 16.64936829,end
timer_stats,698487746134853,PAPI_L3_TCM,0,170.08648682, 16.65986633,end
timer_stats,698487747316334,PAPI_L3_TCM,1,170.16333008, 16.67015076,end
timer_stats,698487748496595,PAPI_L3_TCM,0,170.24151611, 16.68064880,end
timer_stats,698487749687606,PAPI_L3_TCM,2,170.34643554, 16.69673157,end
timer_stats,698487750873387,PAPI_L3_TCM,0,170.48748779, 16.71302795,end
timer_stats,698487752063325,PAPI_L3_TCM,2,170.56518555, 16.72377014,end
timer_stats,698487753228916,PAPI_L3_TCM,1,170.64672851, 16.73472595,end
timer_stats,698487754421657,PAPI_L3_TCM,2,170.73455810, 16.74497986,end
timer_stats,698487755617352,PAPI_L3_TCM,0,170.81781006, 16.75547790,end
timer_stats,698487756806353,PAPI_L3_TCM,1,170.98626709, 16.77760315,end
timer_stats,698487758000084,PAPI_L3_TCM,0,171.07397461, 16.78852844,end
timer_stats,698487759193365,PAPI_L3_TCM,1,171.16406250, 16.79945373,end
timer_stats,698487760393490,PAPI_L3_TCM,0,171.24749756, 16.81037903,end
timer_stats,698487761594288,PAPI_L3_TCM,3,171.33813477, 16.82081604,end
timer_stats,698487762782808,PAPI_L3_TCM,0,171.43505859, 16.83717346,end
timer_stats,698487763971900,PAPI_L3_TCM,2,171.56970215, 16.85171509,end
timer_stats,698487765173904,PAPI_L3_TCM,0,171.64361572, 16.86114502,end
timer_stats,698487766363366,PAPI_L3_TCM,1,171.72033691, 16.87039185,end
timer_stats,698487767550030,PAPI_L3_TCM,0,171.79693603, 16.87957764,end
timer_stats,698487768737808,PAPI_L3_TCM,1,171.89660645, 16.89369202,end
timer_stats,698487769929042,PAPI_L3_TCM,0,172.02368164, 16.90852356,end
timer_stats,698487771117780,PAPI_L3_TCM,2,172.09936523, 16.91825867,end
timer_stats,698487772307084,PAPI_L3_TCM,0,172.17791748, 16.92796326,end
timer_stats,698487773466082,PAPI_L3_TCM,2,172.25738525, 16.93760681,end
timer_stats,698487774656293,PAPI_L3_TCM,0,172.33410644, 16.94873047,end
timer_stats,698487775844901,PAPI_L3_TCM,1,172.48504639, 16.97080994,end
timer_stats,698487777024102,PAPI_L3_TCM,0,172.55511474, 16.97956848,end
timer_stats,698487778215450,PAPI_L3_TCM,1,172.63385010, 16.98811340,end
timer_stats,698487779404455,PAPI_L3_TCM,0,172.70794678, 16.99696350,end
timer_stats,698487780589783,PAPI_L3_TCM,2,172.78887939, 17.00550842,end
timer_stats,698487781775177,PAPI_L3_TCM,0,172.88507080, 17.01947021,end
timer_stats,698487782935818,PAPI_L3_TCM,2,173.01751709, 17.03474426,end
timer_stats,698487784111109,PAPI_L3_TCM,0,173.09472656, 17.04354858,end
timer_stats,698487785271027,PAPI_L3_TCM,1,173.16955566, 17.05233765,end
timer_stats,698487786457544,PAPI_L3_TCM,0,173.24822998, 17.06195068,end
timer_stats,698487787618292,PAPI_L3_TCM,1,173.32928467, 17.07196045,end
timer_stats,698487788791663,PAPI_L3_TCM,0,173.42706299, 17.08700561,end
timer_stats,698487789951994,PAPI_L3_TCM,3,173.56079102, 17.10247803,end
timer_stats,698487791140839,PAPI_L3_TCM,0,173.63989258, 17.11099243,end
timer_stats,698487792315613,PAPI_L3_TCM,2,173.71520996, 17.11981201,end
timer_stats,698487793507964,PAPI_L3_TCM,0,173.79156494, 17.12861633,end
timer_stats,698487794696418,PAPI_L3_TCM,1,173.86572266, 17.13769531,end
timer_stats,698487795883340,PAPI_L3_TCM,0,174.02209472, 17.15811157,end
timer_stats,698487797061187,PAPI_L3_TCM,1,174.09777832, 17.16711426,end
timer_stats,698487798252762,PAPI_L3_TCM,1,174.17279053, 17.17639160,end
timer_stats,698487799440830,PAPI_L3_TCM,2,174.25256348, 17.18688965,end
timer_stats,698487800618301,PAPI_L3_TCM,1,174.32214355, 17.19750976,end
timer_stats,698487801804899,PAPI_L3_TCM,5,174.42047119, 17.21347046,end
timer_stats,698487802993207,PAPI_L3_TCM,0,174.54956055, 17.22891235,end
timer_stats,698487804172014,PAPI_L3_TCM,1,174.62145996, 17.23959350,end
timer_stats,698487805331432,PAPI_L3_TCM,1,174.69946289, 17.24960327,end
timer_stats,698487806520077,PAPI_L3_TCM,1,174.77032471, 17.25973511,end
timer_stats,698487807706434,PAPI_L3_TCM,0,174.84942627, 17.26998901,end
timer_stats,698487808879886,PAPI_L3_TCM,3,174.99902344, 17.29045105,end
timer_stats,698487810063023,PAPI_L3_TCM,0,175.07165527, 17.30058289,end
timer_stats,698487811247315,PAPI_L3_TCM,2,175.14825439, 17.31044006,end
timer_stats,698487812438082,PAPI_L3_TCM,0,175.22314453, 17.31562805,end
timer_stats,698487813624557,PAPI_L3_TCM,1,175.30261230, 17.32569885,end
timer_stats,698487814809728,PAPI_L3_TCM,1,175.41644287, 17.34097290,end
timer_stats,698487815998025,PAPI_L3_TCM,1,175.54785156, 17.35714722,end
timer_stats,698487817180780,PAPI_L3_TCM,0,175.62872314, 17.36701965,end
timer_stats,698487818367254,PAPI_L3_TCM,3,175.71142578, 17.37705993,end
timer_stats,698487819552056,PAPI_L3_TCM,0,175.78759766, 17.38734436,end
timer_stats,698487820724130,PAPI_L3_TCM,2,175.85833740, 17.39622497,end
timer_stats,698487821900848,PAPI_L3_TCM,0,176.00616455, 17.41442871,end
timer_stats,698487823081022,PAPI_L3_TCM,1,176.08038330, 17.42274475,end
timer_stats,698487824264864,PAPI_L3_TCM,0,176.15344238, 17.43110657,end
timer_stats,698487825415848,PAPI_L3_TCM,1,176.22540283, 17.43968201,end
timer_stats,698487826593756,PAPI_L3_TCM,0,176.29992676, 17.44850159,end
timer_stats,698487827768943,PAPI_L3_TCM,2,176.39685059, 17.46199036,end
timer_stats,698487828934661,PAPI_L3_TCM,1,176.51922607, 17.47502136,end
timer_stats,698487830112186,PAPI_L3_TCM,2,176.59533691, 17.48384094,end
timer_stats,698487831289426,PAPI_L3_TCM,0,176.66992187, 17.49218750,end
timer_stats,698487832456754,PAPI_L3_TCM,2,176.74060059, 17.50009155,end
timer_stats,698487833636082,PAPI_L3_TCM,0,176.81787109, 17.50910950,end
timer_stats,698487834814179,PAPI_L3_TCM,1,176.91693115, 17.52169800,end
timer_stats,698487835991524,PAPI_L3_TCM,0,177.04083252, 17.52980041,end
timer_stats,698487837171175,PAPI_L3_TCM,3,177.11401367, 17.53791809,end
timer_stats,698487838348882,PAPI_L3_TCM,0,177.18774414, 17.54602051,end
timer_stats,698487839526097,PAPI_L3_TCM,2,177.26507568, 17.55453491,end
timer_stats,698487840692331,PAPI_L3_TCM,1,177.33538818, 17.56246948,end
timer_stats,698487841868630,PAPI_L3_TCM,1,177.48620605, 17.58357239,end
timer_stats,698487843045440,PAPI_L3_TCM,0,177.56561279, 17.58845520,end
timer_stats,698487844227591,PAPI_L3_TCM,2,177.63879394, 17.59748840,end
timer_stats,698487845382753,PAPI_L3_TCM,0,177.71105957, 17.60604858,end
timer_stats,698487846565781,PAPI_L3_TCM,2,177.78515625, 17.61483765,end
timer_stats,698487847750722,PAPI_L3_TCM,0,177.86315918, 17.62359619,end
timer_stats,698487848922043,PAPI_L3_TCM,2,178.01049805, 17.64097595,end
timer_stats,698487850106991,PAPI_L3_TCM,0,178.08032227, 17.64981079,end
timer_stats,698487851298501,PAPI_L3_TCM,1,178.15356445, 17.65951538,end
timer_stats,698487852469310,PAPI_L3_TCM,1,178.22418213, 17.66760254,end
timer_stats,698487853655550,PAPI_L3_TCM,1,178.29028320, 17.67462158,end
timer_stats,698487854839049,PAPI_L3_TCM,0,178.38098145, 17.68562317,end
timer_stats,698487856033669,PAPI_L3_TCM,3,178.48706055, 17.69441223,end
timer_stats,698487857196403,PAPI_L3_TCM,4,178.55249023, 17.70028686,end
timer_stats,698487858378528,PAPI_L3_TCM,2,178.61798096, 17.70663452,end
timer_stats,698487859563052,PAPI_L3_TCM,0,178.68341064, 17.71319580,end
timer_stats,698487860738781,PAPI_L3_TCM,2,178.75079346, 17.72048950,end
timer_stats,698487861921661,PAPI_L3_TCM,0,178.88275146, 17.73403931,end
timer_stats,698487863109566,PAPI_L3_TCM,1,178.94946289, 17.74012756,end
timer_stats,698487864287427,PAPI_L3_TCM,1,179.01934814, 17.74740600,end
timer_stats,698487865452514,PAPI_L3_TCM,2,179.09063721, 17.75573730,end
timer_stats,698487866630106,PAPI_L3_TCM,0,179.16040039, 17.76452637,end
timer_stats,698487867803867,PAPI_L3_TCM,2,179.25903320, 17.77328491,end
timer_stats,698487868970842,PAPI_L3_TCM,1,179.37359619, 17.79148865,end
timer_stats,698487870151782,PAPI_L3_TCM,1,179.43804932, 17.80014038,end
timer_stats,698487871336101,PAPI_L3_TCM,0,179.50769043, 17.80847168,end
timer_stats,698487872519008,PAPI_L3_TCM,2,179.57263184, 17.81484985,end
timer_stats,698487873700716,PAPI_L3_TCM,0,179.63818359, 17.82167053,end
timer_stats,698487874895610,PAPI_L3_TCM,2,179.76879883, 17.83563232,end
timer_stats,698487876083215,PAPI_L3_TCM,1,179.83874512, 17.84370422,end
timer_stats,698487877264013,PAPI_L3_TCM,2,179.90423584, 17.85255432,end
timer_stats,698487878442010,PAPI_L3_TCM,2,179.97497559, 17.86109924,end
timer_stats,698487879620615,PAPI_L3_TCM,1,180.04156494, 17.86991882,end
timer_stats,698487880805502,PAPI_L3_TCM,0,180.13812256, 17.87872314,end
timer_stats,698487881991037,PAPI_L3_TCM,1,180.24444580, 17.89491272,end
timer_stats,698487883180121,PAPI_L3_TCM,0,180.30731201, 17.90057373,end
timer_stats,698487884350292,PAPI_L3_TCM,3,180.37030029, 17.90786743,end
timer_stats,698487885535404,PAPI_L3_TCM,0,180.43634033, 17.91619873,end
timer_stats,698487886707678,PAPI_L3_TCM,2,180.50024414, 17.92346191,end
timer_stats,698487887893786,PAPI_L3_TCM,0,180.62774658, 17.93714905,end
timer_stats,698487889082533,PAPI_L3_TCM,2,180.69372559, 17.94302368,end
timer_stats,698487890270515,PAPI_L3_TCM,0,180.75341797, 17.94894409,end
timer_stats,698487891452482,PAPI_L3_TCM,1,180.82122803, 17.95616150,end
timer_stats,698487892632820,PAPI_L3_TCM,0,180.88696289, 17.96627808,end
timer_stats,698487893810668,PAPI_L3_TCM,2,180.95843506, 17.96989441,end
timer_stats,698487894989043,PAPI_L3_TCM,0,181.09277344, 17.99006653,end
timer_stats,698487896171647,PAPI_L3_TCM,3,181.15637207, 17.99839783,end
timer_stats,698487897356555,PAPI_L3_TCM,0,181.22082520, 18.00427246,end
timer_stats,698487898543613,PAPI_L3_TCM,1,181.28253174, 18.01086426,end
timer_stats,698487899729570,PAPI_L3_TCM,0,181.34710693, 18.01768493,end
timer_stats,698487900916958,PAPI_L3_TCM,2,181.47344971, 18.03215027,end
timer_stats,698487902104336,PAPI_L3_TCM,0,181.53503418, 18.03802490,end
timer_stats,698487903288317,PAPI_L3_TCM,2,181.59967041, 18.04388428,end
timer_stats,698487904477995,PAPI_L3_TCM,1,181.66540527, 18.05020142,end
timer_stats,698487905662070,PAPI_L3_TCM,2,181.72833252, 18.05700683,end
timer_stats,698487906845907,PAPI_L3_TCM,0,181.79052734, 18.06408691,end
timer_stats,698487908030032,PAPI_L3_TCM,2,181.91497803, 18.08157349,end
timer_stats,698487909219036,PAPI_L3_TCM,0,181.98132324, 18.08741760,end
timer_stats,698487910399547,PAPI_L3_TCM,1,182.04321289, 18.09469604,end
timer_stats,698487911597422,PAPI_L3_TCM,0,182.10589599, 18.10198975,end
timer_stats,698487912773499,PAPI_L3_TCM,4,182.16992187, 18.10906982,end
timer_stats,698487913961334,PAPI_L3_TCM,0,182.27056885, 18.12228393,end
timer_stats,698487915153421,PAPI_L3_TCM,2,182.36169434, 18.12968445,end
timer_stats,698487916338140,PAPI_L3_TCM,6,182.42407226, 18.13829040,end
timer_stats,698487917525520,PAPI_L3_TCM,2,182.48608398, 18.14689636,end
timer_stats,698487918713602,PAPI_L3_TCM,0,182.55102539, 18.15409851,end
timer_stats,698487919898716,PAPI_L3_TCM,1,182.64129639, 18.16697693,end
timer_stats,698487921071214,PAPI_L3_TCM,1,182.73333740, 18.17790222,end
timer_stats,698487922254545,PAPI_L3_TCM,2,182.79766846, 18.18534851,end
timer_stats,698487923409336,PAPI_L3_TCM,0,182.86541748, 18.19612122,end
timer_stats,698487924566961,PAPI_L3_TCM,5,182.93359375, 18.20640564,end
timer_stats,698487925752815,PAPI_L3_TCM,0,182.99945068, 18.21540832,end
timer_stats,698487926943143,PAPI_L3_TCM,1,183.09259033, 18.22598267,end
timer_stats,698487928113234,PAPI_L3_TCM,1,183.18756103, 18.23840332,end
timer_stats,698487929272941,PAPI_L3_TCM,1,183.25244141, 18.24720764,end
timer_stats,698487930454553,PAPI_L3_TCM,0,183.31579590, 18.25575256,end
timer_stats,698487931634327,PAPI_L3_TCM,2,183.38220215, 18.26451111,end
timer_stats,698487932808668,PAPI_L3_TCM,1,183.47393799, 18.27330017,end
timer_stats,698487934008852,PAPI_L3_TCM,4,183.53930664, 18.28816223,end
timer_stats,698487935192137,PAPI_L3_TCM,0,183.63800049, 18.30335998,end
timer_stats,698487936367511,PAPI_L3_TCM,2,183.69726562, 18.31060791,end
timer_stats,698487937560290,PAPI_L3_TCM,0,183.75793457, 18.31423950,end
timer_stats,698487938751737,PAPI_L3_TCM,1,183.81323242, 18.32154846,end
timer_stats,698487939938052,PAPI_L3_TCM,0,183.92626953, 18.33766174,end
