timer_stats,697722471102429,PAPI_L3_TCM,434,  0.14172363,  0.01779175,end
timer_stats,697722472248806,PAPI_L3_TCM,51,  0.21215820,  0.02706909,end
timer_stats,697722473358213,PAPI_L3_TCM,5,  0.27728271,  0.03730774,end
timer_stats,697722474488587,PAPI_L3_TCM,6,  0.34515381,  0.04579163,end
timer_stats,697722475606007,PAPI_L3_TCM,2,  0.41815185,  0.05508423,end
timer_stats,697722476688427,PAPI_L3_TCM,16,  0.49206543,  0.06608582,end
timer_stats,697722477769527,PAPI_L3_TCM,13,  0.56359863,  0.07505798,end
timer_stats,697722478853101,PAPI_L3_TCM,4,  0.63525391,  0.08555603,end
timer_stats,697722479960967,PAPI_L3_TCM,7,  0.70483398,  0.09532165,end
timer_stats,697722481078924,PAPI_L3_TCM,3,  0.77502441,  0.10426331,end
timer_stats,697722482163401,PAPI_L3_TCM,7,  0.91503906,  0.12376404,end
timer_stats,697722483251678,PAPI_L3_TCM,11,  0.98962402,  0.13446045,end
timer_stats,697722484360061,PAPI_L3_TCM,7,  1.06304931,  0.14445495,end
timer_stats,697722485522708,PAPI_L3_TCM,18,  1.13812256,  0.15608215,end
timer_stats,697722486682040,PAPI_L3_TCM,12,  1.21093750,  0.16633606,end
timer_stats,697722487838236,PAPI_L3_TCM,1,  1.27923584,  0.17732239,end
timer_stats,697722488948221,PAPI_L3_TCM,0,  1.34948730,  0.18827820,end
timer_stats,697722490100954,PAPI_L3_TCM,1,  1.49749756,  0.20884705,end
timer_stats,697722491263097,PAPI_L3_TCM,0,  1.57049561,  0.21939087,end
timer_stats,697722492427360,PAPI_L3_TCM,2,  1.64636230,  0.23013306,end
timer_stats,697722493563176,PAPI_L3_TCM,0,  1.72546387,  0.24064636,end
timer_stats,697722494698521,PAPI_L3_TCM,1,  1.80346680,  0.24577331,end
timer_stats,697722495833197,PAPI_L3_TCM,0,  1.88073730,  0.25627136,end
timer_stats,697722496970261,PAPI_L3_TCM,3,  1.95294189,  0.26638794,end
timer_stats,697722498105309,PAPI_L3_TCM,1,  2.11145019,  0.28201294,end
timer_stats,697722499240488,PAPI_L3_TCM,1,  2.19256592,  0.29806519,end
timer_stats,697722500374878,PAPI_L3_TCM,0,  2.27130127,  0.30810547,end
timer_stats,697722501509452,PAPI_L3_TCM,1,  2.34771728,  0.31892395,end
timer_stats,697722502645650,PAPI_L3_TCM,0,  2.43096924,  0.32963562,end
timer_stats,697722503781546,PAPI_L3_TCM,1,  2.50860596,  0.33973694,end
timer_stats,697722504927565,PAPI_L3_TCM,0,  2.58978271,  0.34980774,end
timer_stats,697722506060197,PAPI_L3_TCM,1,  2.71508789,  0.36079407,end
timer_stats,697722507194888,PAPI_L3_TCM,0,  2.83666992,  0.38092041,end
timer_stats,697722508328825,PAPI_L3_TCM,2,  2.92559814,  0.39184570,end
timer_stats,697722509465077,PAPI_L3_TCM,0,  3.00903320,  0.40209961,end
timer_stats,697722510597269,PAPI_L3_TCM,3,  3.09411621,  0.41220093,end
timer_stats,697722511733254,PAPI_L3_TCM,0,  3.18225098,  0.42245483,end
timer_stats,697722512880875,PAPI_L3_TCM,2,  3.25994873,  0.43481445,end
timer_stats,697722514033840,PAPI_L3_TCM,0,  3.34259033,  0.44705200,end
timer_stats,697722515167948,PAPI_L3_TCM,1,  3.46710205,  0.46286011,end
timer_stats,697722516326934,PAPI_L3_TCM,2,  3.58239746,  0.47790527,end
timer_stats,697722517479848,PAPI_L3_TCM,1,  3.66021728,  0.48889160,end
timer_stats,697722518639059,PAPI_L3_TCM,0,  3.72735596,  0.49610901,end
timer_stats,697722519800102,PAPI_L3_TCM,2,  3.79431152,  0.50389099,end
timer_stats,697722520946603,PAPI_L3_TCM,1,  3.86279297,  0.51112366,end
timer_stats,697722522098645,PAPI_L3_TCM,2,  3.96466064,  0.52536011,end
timer_stats,697722523258684,PAPI_L3_TCM,0,  4.06542969,  0.53906250,end
timer_stats,697722524417786,PAPI_L3_TCM,2,  4.13671875,  0.54627991,end
timer_stats,697722525582262,PAPI_L3_TCM,0,  4.20800781,  0.55656433,end
timer_stats,697722526741981,PAPI_L3_TCM,1,  4.27362060,  0.56359863,end
timer_stats,697722527894520,PAPI_L3_TCM,0,  4.34271240,  0.57084656,end
timer_stats,697722529040895,PAPI_L3_TCM,3,  4.40734863,  0.57815552,end
timer_stats,697722530198585,PAPI_L3_TCM,0,  4.55065918,  0.59681701,end
timer_stats,697722531356283,PAPI_L3_TCM,2,  4.61816406,  0.60385132,end
timer_stats,697722532508870,PAPI_L3_TCM,1,  4.68426514,  0.61112976,end
timer_stats,697722533670285,PAPI_L3_TCM,1,  4.75457764,  0.61970520,end
timer_stats,697722534828400,PAPI_L3_TCM,0,  4.81945801,  0.62699890,end
timer_stats,697722535989634,PAPI_L3_TCM,1,  4.89099121,  0.63084412,end
timer_stats,697722537142260,PAPI_L3_TCM,1,  5.02349853,  0.64692688,end
timer_stats,697722538298755,PAPI_L3_TCM,1,  5.09393310,  0.65568542,end
timer_stats,697722539457624,PAPI_L3_TCM,0,  5.15966797,  0.66273498,end
timer_stats,697722540610762,PAPI_L3_TCM,5,  5.23156738,  0.66996765,end
timer_stats,697722541772406,PAPI_L3_TCM,0,  5.29931641,  0.67877197,end
timer_stats,697722542937062,PAPI_L3_TCM,1,  5.36547851,  0.68624878,end
timer_stats,697722544074826,PAPI_L3_TCM,2,  5.43237305,  0.69369507,end
timer_stats,697722545212874,PAPI_L3_TCM,1,  5.56616211,  0.71150207,end
timer_stats,697722546376687,PAPI_L3_TCM,0,  5.63305664,  0.71896362,end
timer_stats,697722547545944,PAPI_L3_TCM,2,  5.69610596,  0.72647095,end
timer_stats,697722548698445,PAPI_L3_TCM,1,  5.76214600,  0.73394775,end
timer_stats,697722549861681,PAPI_L3_TCM,2,  5.83129883,  0.74291992,end
timer_stats,697722551024328,PAPI_L3_TCM,0,  5.89569092,  0.75018310,end
timer_stats,697722552162069,PAPI_L3_TCM,3,  6.02856445,  0.76666260,end
timer_stats,697722553325836,PAPI_L3_TCM,0,  6.09466553,  0.77597046,end
timer_stats,697722554488590,PAPI_L3_TCM,1,  6.16076660,  0.78321838,end
timer_stats,697722555653453,PAPI_L3_TCM,0,  6.22521973,  0.79051208,end
timer_stats,697722556816694,PAPI_L3_TCM,3,  6.29193115,  0.79797363,end
timer_stats,697722557978531,PAPI_L3_TCM,0,  6.35552978,  0.80676269,end
timer_stats,697722559143172,PAPI_L3_TCM,2,  6.42004394,  0.81402588,end
timer_stats,697722560279552,PAPI_L3_TCM,2,  6.54760742,  0.83163452,end
timer_stats,697722561446352,PAPI_L3_TCM,1,  6.61340332,  0.84042358,end
timer_stats,697722562610470,PAPI_L3_TCM,0,  6.68103027,  0.84764099,end
timer_stats,697722563774256,PAPI_L3_TCM,3,  6.74530029,  0.85469055,end
timer_stats,697722564937250,PAPI_L3_TCM,1,  6.81219482,  0.86346435,end
timer_stats,697722566099724,PAPI_L3_TCM,2,  6.87329102,  0.87231445,end
timer_stats,697722567267968,PAPI_L3_TCM,0,  7.00659180,  0.88964844,end
timer_stats,697722568433451,PAPI_L3_TCM,3,  7.07470703,  0.89688110,end
timer_stats,697722569599352,PAPI_L3_TCM,0,  7.13586426,  0.90573120,end
timer_stats,697722570761299,PAPI_L3_TCM,1,  7.20068359,  0.91300964,end
timer_stats,697722571923605,PAPI_L3_TCM,0,  7.26416015,  0.92030334,end
timer_stats,697722573089419,PAPI_L3_TCM,2,  7.33117676,  0.92732239,end
timer_stats,697722574255807,PAPI_L3_TCM,0,  7.46197510,  0.94491577,end
timer_stats,697722575420610,PAPI_L3_TCM,2,  7.52197265,  0.95223999,end
timer_stats,697722576585550,PAPI_L3_TCM,1,  7.58880615,  0.95968628,end
timer_stats,697722577750618,PAPI_L3_TCM,2,  7.65118408,  0.96853638,end
timer_stats,697722578889538,PAPI_L3_TCM,1,  7.71936035,  0.97575378,end
timer_stats,697722580058741,PAPI_L3_TCM,3,  7.77960205,  0.98307800,end
timer_stats,697722581222129,PAPI_L3_TCM,7,  7.91381836,  0.99549866,end
timer_stats,697722582387163,PAPI_L3_TCM,1,  7.97692871,  1.00897217,end
timer_stats,697722583551883,PAPI_L3_TCM,0,  8.03985596,  1.01626587,end
timer_stats,697722584716061,PAPI_L3_TCM,4,  8.10504150,  1.02372742,end
timer_stats,697722585878464,PAPI_L3_TCM,1,  8.17095947,  1.03251648,end
timer_stats,697722587018611,PAPI_L3_TCM,2,  8.23541260,  1.03979492,end
timer_stats,697722588155652,PAPI_L3_TCM,2,  8.32769775,  1.05047607,end
timer_stats,697722589319318,PAPI_L3_TCM,1,  8.42913818,  1.06483459,end
timer_stats,697722590485112,PAPI_L3_TCM,0,  8.49456787,  1.07209778,end
timer_stats,697722591651083,PAPI_L3_TCM,1,  8.55828857,  1.07957458,end
timer_stats,697722592814276,PAPI_L3_TCM,1,  8.62377930,  1.08726501,end
timer_stats,697722593979330,PAPI_L3_TCM,2,  8.68682861,  1.09606933,end
timer_stats,697722595143784,PAPI_L3_TCM,0,  8.75231933,  1.10354614,end
timer_stats,697722596309601,PAPI_L3_TCM,3,  8.88470459,  1.12107849,end
timer_stats,697722597475127,PAPI_L3_TCM,0,  8.94830322,  1.12858582,end
timer_stats,697722598613228,PAPI_L3_TCM,1,  9.01336670,  1.13584900,end
timer_stats,697722599778079,PAPI_L3_TCM,0,  9.07531738,  1.14315796,end
timer_stats,697722600941078,PAPI_L3_TCM,2,  9.14160156,  1.15042114,end
timer_stats,697722602104809,PAPI_L3_TCM,0,  9.20538330,  1.15771484,end
timer_stats,697722603269896,PAPI_L3_TCM,2,  9.33374023,  1.17333984,end
timer_stats,697722604437890,PAPI_L3_TCM,1,  9.39581299,  1.18043518,end
timer_stats,697722605602270,PAPI_L3_TCM,2,  9.46197510,  1.18766785,end
timer_stats,697722606768004,PAPI_L3_TCM,0,  9.52600098,  1.19493103,end
timer_stats,697722607929925,PAPI_L3_TCM,1,  9.58856201,  1.20220947,end
timer_stats,697722609094999,PAPI_L3_TCM,1,  9.65478516,  1.20968628,end
timer_stats,697722610257005,PAPI_L3_TCM,1,  9.78253174,  1.22576904,end
timer_stats,697722611423986,PAPI_L3_TCM,0,  9.84564209,  1.23190307,end
timer_stats,697722612590156,PAPI_L3_TCM,3,  9.90972900,  1.23916626,end
timer_stats,697722613755890,PAPI_L3_TCM,0,  9.97253418,  1.24665832,end
timer_stats,697722614919721,PAPI_L3_TCM,2, 10.03613281,  1.25369263,end
timer_stats,697722616085177,PAPI_L3_TCM,1, 10.09796142,  1.26098633,end
timer_stats,697722617260491,PAPI_L3_TCM,217, 10.22650146,  1.27708435,end
timer_stats,697722618424772,PAPI_L3_TCM,0, 10.29064941,  1.28587341,end
timer_stats,697722619591068,PAPI_L3_TCM,1, 10.35009766,  1.29319763,end
timer_stats,697722620755146,PAPI_L3_TCM,1, 10.41656494,  1.30039978,end
timer_stats,697722621920406,PAPI_L3_TCM,2, 10.47857666,  1.30744934,end
timer_stats,697722623083434,PAPI_L3_TCM,0, 10.54016113,  1.31474304,end
timer_stats,697722624225753,PAPI_L3_TCM,3, 10.63476562,  1.32720947,end
timer_stats,697722625365551,PAPI_L3_TCM,0, 10.73236084,  1.33963013,end
timer_stats,697722626533278,PAPI_L3_TCM,1, 10.79461670,  1.34690857,end
timer_stats,697722627696741,PAPI_L3_TCM,0, 10.85699463,  1.35418701,end
timer_stats,697722628860345,PAPI_L3_TCM,2, 10.92309570,  1.36166382,end
timer_stats,697722630022756,PAPI_L3_TCM,0, 10.98486328,  1.37049866,end
timer_stats,697722631186209,PAPI_L3_TCM,2, 11.04852295,  1.37774658,end
timer_stats,697722632326356,PAPI_L3_TCM,1, 11.14599609,  1.39056396,end
timer_stats,697722633469687,PAPI_L3_TCM,2, 11.24603271,  1.40579224,end
timer_stats,697722634635373,PAPI_L3_TCM,0, 11.30786133,  1.41305542,end
timer_stats,697722635801384,PAPI_L3_TCM,1, 11.37109375,  1.42053223,end
timer_stats,697722636967688,PAPI_L3_TCM,1, 11.43609619,  1.42823791,end
timer_stats,697722638132928,PAPI_L3_TCM,1, 11.50494385,  1.43727112,end
timer_stats,697722639297482,PAPI_L3_TCM,0, 11.62951660,  1.45333862,end
timer_stats,697722640465240,PAPI_L3_TCM,3, 11.69183349,  1.46218872,end
timer_stats,697722641630753,PAPI_L3_TCM,0, 11.76037598,  1.47091675,end
timer_stats,697722642793707,PAPI_L3_TCM,2, 11.82196045,  1.47822571,end
timer_stats,697722643933227,PAPI_L3_TCM,0, 11.88421631,  1.48548889,end
timer_stats,697722645097650,PAPI_L3_TCM,2, 11.94744873,  1.49275207,end
timer_stats,697722646261354,PAPI_L3_TCM,0, 12.07684326,  1.50648498,end
timer_stats,697722647401958,PAPI_L3_TCM,1, 12.13977051,  1.51737976,end
timer_stats,697722648570568,PAPI_L3_TCM,1, 12.20336914,  1.52465820,end
timer_stats,697722649734375,PAPI_L3_TCM,2, 12.26458740,  1.53350830,end
timer_stats,697722650902869,PAPI_L3_TCM,0, 12.33367920,  1.54199219,end
timer_stats,697722652055366,PAPI_L3_TCM,2, 12.40887451,  1.55068970,end
timer_stats,697722653195293,PAPI_L3_TCM,0, 12.47235107,  1.56036377,end
timer_stats,697722654338594,PAPI_L3_TCM,1, 12.57836914,  1.57385254,end
timer_stats,697722655482030,PAPI_L3_TCM,0, 12.68762207,  1.58775329,end
timer_stats,697722656639611,PAPI_L3_TCM,2, 12.75677490,  1.59677124,end
timer_stats,697722657806138,PAPI_L3_TCM,0, 12.83032226,  1.60705566,end
timer_stats,697722658973052,PAPI_L3_TCM,2, 12.89599609,  1.61566162,end
timer_stats,697722660144275,PAPI_L3_TCM,1, 12.96868896,  1.62442017,end
timer_stats,697722661283816,PAPI_L3_TCM,2, 13.10668945,  1.64175415,end
timer_stats,697722662449716,PAPI_L3_TCM,0, 13.18713379,  1.65066528,end
timer_stats,697722663610713,PAPI_L3_TCM,1, 13.24597168,  1.65908813,end
timer_stats,697722664770737,PAPI_L3_TCM,0, 13.31896973,  1.66806030,end
timer_stats,697722665940717,PAPI_L3_TCM,1, 13.39819336,  1.67675781,end
timer_stats,697722667110665,PAPI_L3_TCM,0, 13.45587158,  1.68612671,end
timer_stats,697722668270532,PAPI_L3_TCM,3, 13.60192871,  1.69731140,end
timer_stats,697722669412985,PAPI_L3_TCM,0, 13.67108154,  1.71229553,end
timer_stats,697722670580636,PAPI_L3_TCM,2, 13.74285889,  1.72106933,end
timer_stats,697722671743690,PAPI_L3_TCM,0, 13.81518555,  1.73114014,end
timer_stats,697722672899223,PAPI_L3_TCM,1, 13.88702392,  1.74014282,end
timer_stats,697722674065057,PAPI_L3_TCM,0, 13.96649170,  1.74954224,end
timer_stats,697722675231117,PAPI_L3_TCM,1, 14.06744385,  1.76170349,end
timer_stats,697722676359525,PAPI_L3_TCM,0, 14.13421631,  1.77134704,end
timer_stats,697722677519728,PAPI_L3_TCM,2, 14.25476074,  1.78767395,end
timer_stats,697722678661255,PAPI_L3_TCM,0, 14.33184814,  1.79643249,end
timer_stats,697722679802476,PAPI_L3_TCM,2, 14.40148926,  1.80525207,end
timer_stats,697722680943485,PAPI_L3_TCM,1, 14.46618652,  1.81413269,end
timer_stats,697722682084756,PAPI_L3_TCM,1, 14.55004883,  1.82258606,end
timer_stats,697722683225929,PAPI_L3_TCM,0, 14.65405273,  1.83157349,end
timer_stats,697722684373846,PAPI_L3_TCM,2, 14.71875000,  1.84432983,end
timer_stats,697722685522560,PAPI_L3_TCM,2, 14.83624267,  1.85870361,end
timer_stats,697722686661280,PAPI_L3_TCM,2, 14.92333984,  1.87020874,end
timer_stats,697722687799207,PAPI_L3_TCM,0, 15.00457764,  1.88070679,end
timer_stats,697722688938841,PAPI_L3_TCM,2, 15.07434082,  1.89065552,end
timer_stats,697722690077274,PAPI_L3_TCM,1, 15.15856933,  1.90069580,end
timer_stats,697722691215385,PAPI_L3_TCM,1, 15.25177002,  1.91069031,end
timer_stats,697722692360776,PAPI_L3_TCM,0, 15.40740967,  1.93141174,end
timer_stats,697722693502499,PAPI_L3_TCM,1, 15.48773193,  1.94126892,end
timer_stats,697722694641453,PAPI_L3_TCM,0, 15.58367920,  1.95170593,end
timer_stats,697722695758340,PAPI_L3_TCM,2, 15.65496826,  1.96189880,end
timer_stats,697722696907921,PAPI_L3_TCM,0, 15.73944092,  1.97264099,end
timer_stats,697722698046347,PAPI_L3_TCM,3, 15.82843017,  1.98313904,end
timer_stats,697722699163414,PAPI_L3_TCM,0, 15.90429687,  1.99345398,end
timer_stats,697722700272461,PAPI_L3_TCM,6, 15.99291992,  2.00462341,end
timer_stats,697722701420245,PAPI_L3_TCM,1, 16.12335205,  2.02020264,end
timer_stats,697722702559725,PAPI_L3_TCM,1, 16.24328613,  2.03594971,end
timer_stats,697722703697852,PAPI_L3_TCM,0, 16.32946777,  2.04623413,end
timer_stats,697722704834592,PAPI_L3_TCM,2, 16.40997314,  2.05636597,end
timer_stats,697722705971620,PAPI_L3_TCM,0, 16.50488281,  2.06637573,end
timer_stats,697722707084349,PAPI_L3_TCM,6, 16.58013916,  2.07678223,end
timer_stats,697722708192367,PAPI_L3_TCM,4, 16.68182373,  2.08789062,end
timer_stats,697722709328430,PAPI_L3_TCM,3, 16.81158447,  2.09751892,end
timer_stats,697722710468437,PAPI_L3_TCM,1, 16.89941406,  2.11300659,end
timer_stats,697722711603121,PAPI_L3_TCM,1, 17.03692627,  2.12780762,end
timer_stats,697722712736407,PAPI_L3_TCM,0, 17.12658691,  2.13815307,end
timer_stats,697722713869751,PAPI_L3_TCM,2, 17.21740722,  2.14825439,end
timer_stats,697722715004941,PAPI_L3_TCM,0, 17.30938721,  2.15856934,end
timer_stats,697722716113588,PAPI_L3_TCM,4, 17.40161133,  2.16885376,end
timer_stats,697722717246832,PAPI_L3_TCM,0, 17.49304199,  2.17892456,end
timer_stats,697722718381132,PAPI_L3_TCM,5, 17.62628174,  2.19418335,end
timer_stats,697722719516219,PAPI_L3_TCM,0, 17.76068115,  2.20971680,end
timer_stats,697722720650252,PAPI_L3_TCM,2, 17.84704590,  2.21963501,end
timer_stats,697722721784606,PAPI_L3_TCM,0, 17.95373535,  2.22964477,end
timer_stats,697722722919714,PAPI_L3_TCM,2, 18.03399658,  2.23983765,end
timer_stats,697722724058308,PAPI_L3_TCM,2, 18.14038086,  2.24983215,end
timer_stats,697722725190771,PAPI_L3_TCM,2, 18.22650146,  2.25971985,end
timer_stats,697722726297115,PAPI_L3_TCM,1, 18.32098389,  2.26982117,end
timer_stats,697722727434838,PAPI_L3_TCM,2, 18.45831299,  2.28556824,end
timer_stats,697722728577888,PAPI_L3_TCM,1, 18.59698486,  2.30131531,end
timer_stats,697722729713092,PAPI_L3_TCM,1, 18.70410156,  2.31150818,end
timer_stats,697722730847899,PAPI_L3_TCM,0, 18.79901123,  2.32164001,end
timer_stats,697722731982183,PAPI_L3_TCM,2, 18.89520264,  2.33239746,end
timer_stats,697722733152967,PAPI_L3_TCM,2, 18.99304199,  2.34292603,end
timer_stats,697722734273343,PAPI_L3_TCM,3, 19.08673096,  2.35324097,end
timer_stats,697722735402097,PAPI_L3_TCM,0, 19.22778320,  2.37005615,end
timer_stats,697722736537234,PAPI_L3_TCM,2, 19.36535644,  2.38037109,end
timer_stats,697722737671124,PAPI_L3_TCM,1, 19.45587158,  2.39627075,end
timer_stats,697722738804698,PAPI_L3_TCM,1, 19.54876709,  2.40617371,end
timer_stats,697722739938638,PAPI_L3_TCM,1, 19.63916015,  2.41691589,end
timer_stats,697722741055908,PAPI_L3_TCM,4, 19.72308350,  2.42747497,end
timer_stats,697722742190456,PAPI_L3_TCM,0, 19.82080078,  2.43775940,end
timer_stats,697722743327859,PAPI_L3_TCM,2, 19.90515137,  2.44807434,end
timer_stats,697722744463793,PAPI_L3_TCM,1, 20.03802490,  2.46305847,end
timer_stats,697722745615756,PAPI_L3_TCM,1, 20.17401123,  2.47822571,end
timer_stats,697722746747940,PAPI_L3_TCM,0, 20.25402832,  2.48686218,end
timer_stats,697722747879687,PAPI_L3_TCM,1, 20.34222412,  2.49543762,end
timer_stats,697722749013200,PAPI_L3_TCM,1, 20.43243408,  2.50444031,end
timer_stats,697722750147837,PAPI_L3_TCM,2, 20.50555420,  2.51365661,end
timer_stats,697722751279835,PAPI_L3_TCM,0, 20.59930420,  2.52239990,end
timer_stats,697722752414789,PAPI_L3_TCM,3, 20.76361084,  2.54162598,end
timer_stats,697722753549038,PAPI_L3_TCM,0, 20.85919189,  2.55187988,end
timer_stats,697722754682122,PAPI_L3_TCM,1, 20.94671631,  2.56045532,end
timer_stats,697722755814123,PAPI_L3_TCM,0, 21.03247070,  2.56927490,end
timer_stats,697722756949109,PAPI_L3_TCM,2, 21.11474609,  2.57788086,end
timer_stats,697722758082007,PAPI_L3_TCM,0, 21.20690918,  2.58642578,end
timer_stats,697722759215553,PAPI_L3_TCM,2, 21.29309082,  2.59501648,end
timer_stats,697722760353630,PAPI_L3_TCM,1, 21.42468262,  2.60877991,end
timer_stats,697722765722811,PAPI_L3_TCM,96, 21.87786865,  2.65953064,end
timer_stats,697722766856981,PAPI_L3_TCM,5, 21.96533203,  2.66827392,end
timer_stats,697722768326159,PAPI_L3_TCM,1970, 22.05224609,  2.67684936,end
timer_stats,697722769460183,PAPI_L3_TCM,40, 22.18933105,  2.69099426,end
timer_stats,697722770593467,PAPI_L3_TCM,1, 22.32019043,  2.70602417,end
timer_stats,697722771725726,PAPI_L3_TCM,0, 22.40600586,  2.71484375,end
timer_stats,697722772858734,PAPI_L3_TCM,3, 22.49548340,  2.72338867,end
timer_stats,697722773990414,PAPI_L3_TCM,0, 22.58190918,  2.73220825,end
timer_stats,697722775122491,PAPI_L3_TCM,2, 22.66998291,  2.74101257,end
timer_stats,697722776225255,PAPI_L3_TCM,1, 22.75457764,  2.74986267,end
timer_stats,697722777370805,PAPI_L3_TCM,1, 22.89501953,  2.75889587,end
timer_stats,697722778513912,PAPI_L3_TCM,0, 23.02478027,  2.77951050,end
timer_stats,697722779643859,PAPI_L3_TCM,5, 23.11480713,  2.78981018,end
timer_stats,697722780776540,PAPI_L3_TCM,1, 23.20416260,  2.79911804,end
timer_stats,697722781908706,PAPI_L3_TCM,2, 23.29125976,  2.80842590,end
timer_stats,697722783038663,PAPI_L3_TCM,0, 23.38092041,  2.81718445,end
timer_stats,697722784142203,PAPI_L3_TCM,3, 23.46044922,  2.82655334,end
timer_stats,697722785273324,PAPI_L3_TCM,0, 23.55194092,  2.83531189,end
timer_stats,697722786387098,PAPI_L3_TCM,3, 23.69012451,  2.84924316,end
timer_stats,697722787494424,PAPI_L3_TCM,3, 23.81781006,  2.86373901,end
timer_stats,697722788624345,PAPI_L3_TCM,3, 23.90716553,  2.87387085,end
timer_stats,697722789754781,PAPI_L3_TCM,1, 23.99322510,  2.88269043,end
timer_stats,697722790899202,PAPI_L3_TCM,2, 24.07720947,  2.89175415,end
timer_stats,697722792039102,PAPI_L3_TCM,2, 24.16247558,  2.90054321,end
timer_stats,697722793176722,PAPI_L3_TCM,2, 24.25610351,  2.90414429,end
timer_stats,697722794339456,PAPI_L3_TCM,0, 24.38079834,  2.91275024,end
timer_stats,697722795499873,PAPI_L3_TCM,1, 24.49865722,  2.93170166,end
timer_stats,697722796656213,PAPI_L3_TCM,1, 24.58862305,  2.94021606,end
timer_stats,697722797820007,PAPI_L3_TCM,1, 24.67218017,  2.94876099,end
timer_stats,697722798978274,PAPI_L3_TCM,0, 24.75103760,  2.95758057,end
timer_stats,697722800075004,PAPI_L3_TCM,3, 24.83477783,  2.96640015,end
timer_stats,697722801212878,PAPI_L3_TCM,0, 24.92218018,  2.97494507,end
timer_stats,697722802379149,PAPI_L3_TCM,2, 25.05310058,  2.98892212,end
timer_stats,697722803550895,PAPI_L3_TCM,0, 25.13519287,  2.99752807,end
timer_stats,697722804707229,PAPI_L3_TCM,2, 25.26342773,  3.01300049,end
timer_stats,697722805871526,PAPI_L3_TCM,0, 25.34454346,  3.02185059,end
timer_stats,697722807036514,PAPI_L3_TCM,1, 25.42767334,  3.03042602,end
timer_stats,697722808158544,PAPI_L3_TCM,2, 25.51330566,  3.03897095,end
timer_stats,697722809301837,PAPI_L3_TCM,1, 25.59820557,  3.04753113,end
timer_stats,697722810474268,PAPI_L3_TCM,0, 25.76202393,  3.06101990,end
timer_stats,697722811636832,PAPI_L3_TCM,2, 25.84149170,  3.07608032,end
timer_stats,697722812803852,PAPI_L3_TCM,1, 25.92608643,  3.08462524,end
timer_stats,697722813968172,PAPI_L3_TCM,1, 26.01275635,  3.09289551,end
timer_stats,697722815134336,PAPI_L3_TCM,0, 26.09332275,  3.10174560,end
timer_stats,697722816302524,PAPI_L3_TCM,2, 26.17669678,  3.11054993,end
timer_stats,697722817482107,PAPI_L3_TCM,0, 26.34039307,  3.12921142,end
timer_stats,697722818650497,PAPI_L3_TCM,1, 26.41961670,  3.13931274,end
timer_stats,697722819813551,PAPI_L3_TCM,0, 26.50280762,  3.14785767,end
timer_stats,697722820977988,PAPI_L3_TCM,3, 26.58435058,  3.15644836,end
timer_stats,697722822141812,PAPI_L3_TCM,0, 26.66705322,  3.16523742,end
timer_stats,697722823306752,PAPI_L3_TCM,1, 26.74633789,  3.17379761,end
timer_stats,697722824482316,PAPI_L3_TCM,1, 26.87579346,  3.18753052,end
timer_stats,697722825648116,PAPI_L3_TCM,1, 26.98944092,  3.20233154,end
timer_stats,697722826815433,PAPI_L3_TCM,0, 27.07141113,  3.21093750,end
timer_stats,697722827981507,PAPI_L3_TCM,1, 27.15533447,  3.21948242,end
timer_stats,697722829157755,PAPI_L3_TCM,1, 27.23193359,  3.22830200,end
timer_stats,697722830332098,PAPI_L3_TCM,1, 27.31390381,  3.23687744,end
timer_stats,697722831497485,PAPI_L3_TCM,0, 27.47277832,  3.25601196,end
timer_stats,697722832662019,PAPI_L3_TCM,2, 27.55407715,  3.26455688,end
timer_stats,697722833826496,PAPI_L3_TCM,0, 27.63500976,  3.27311706,end
timer_stats,697722834994057,PAPI_L3_TCM,1, 27.71191406,  3.28196716,end
timer_stats,697722836159413,PAPI_L3_TCM,1, 27.79681396,  3.29051208,end
timer_stats,697722837324487,PAPI_L3_TCM,1, 27.87640381,  3.29930115,end
timer_stats,697722838459515,PAPI_L3_TCM,1, 28.00231933,  3.31303406,end
timer_stats,697722839599038,PAPI_L3_TCM,1, 28.12237549,  3.32823181,end
timer_stats,697722840751402,PAPI_L3_TCM,1, 28.20550537,  3.33854675,end
timer_stats,697722841922979,PAPI_L3_TCM,1, 28.28576660,  3.34840393,end
timer_stats,697722843092983,PAPI_L3_TCM,0, 28.35992432,  3.35725403,end
timer_stats,697722844212749,PAPI_L3_TCM,4, 28.44012451,  3.36604309,end
timer_stats,697722845350280,PAPI_L3_TCM,0, 28.52087402,  3.37480163,end
timer_stats,697722846512806,PAPI_L3_TCM,1, 28.67742920,  3.39414978,end
timer_stats,697722847661120,PAPI_L3_TCM,0, 28.76037598,  3.40419006,end
timer_stats,697722848811108,PAPI_L3_TCM,1, 28.83813476,  3.41429138,end
timer_stats,697722854069758,PAPI_L3_TCM,38, 29.22711182,  3.46676636,end
timer_stats,697722855236784,PAPI_L3_TCM,3, 29.30395508,  3.47454834,end
timer_stats,697722856418035,PAPI_L3_TCM,1, 29.42926025,  3.48959351,end
timer_stats,697722857590792,PAPI_L3_TCM,1, 29.53869629,  3.50488281,end
timer_stats,697722858756769,PAPI_L3_TCM,0, 29.61163330,  3.51348877,end
timer_stats,697722859922569,PAPI_L3_TCM,1, 29.68829346,  3.52203369,end
timer_stats,697722861096213,PAPI_L3_TCM,1, 29.76684570,  3.53057861,end
timer_stats,697722862252481,PAPI_L3_TCM,1, 29.84234619,  3.53912353,end
timer_stats,697722863414671,PAPI_L3_TCM,0, 29.96331787,  3.55285644,end
timer_stats,697722864577782,PAPI_L3_TCM,2, 30.06848144,  3.56658936,end
timer_stats,697722865733078,PAPI_L3_TCM,0, 30.14373779,  3.57519531,end
timer_stats,697722866889402,PAPI_L3_TCM,1, 30.22052002,  3.58374023,end
timer_stats,697722868058666,PAPI_L3_TCM,1, 30.29730225,  3.59231567,end
timer_stats,697722869229409,PAPI_L3_TCM,1, 30.37420654,  3.60110473,end
timer_stats,697722870396190,PAPI_L3_TCM,0, 30.49432373,  3.60968017,end
timer_stats,697722871570797,PAPI_L3_TCM,1, 30.59826660,  3.62840271,end
timer_stats,697722872740175,PAPI_L3_TCM,1, 30.67126465,  3.63697815,end
timer_stats,697722873904078,PAPI_L3_TCM,0, 30.74877930,  3.64573669,end
timer_stats,697722875073785,PAPI_L3_TCM,0, 30.82305908,  3.65455627,end
timer_stats,697722876227156,PAPI_L3_TCM,2, 30.89599609,  3.66337585,end
timer_stats,697722877394612,PAPI_L3_TCM,0, 30.97137451,  3.67173767,end
timer_stats,697722878549736,PAPI_L3_TCM,1, 31.12347412,  3.69145202,end
timer_stats,697722879721743,PAPI_L3_TCM,0, 31.20019531,  3.70024109,end
timer_stats,697722880878837,PAPI_L3_TCM,2, 31.27282715,  3.70881653,end
timer_stats,697722882036654,PAPI_L3_TCM,0, 31.34454346,  3.71739197,end
timer_stats,697722883193288,PAPI_L3_TCM,0, 31.42077637,  3.72593689,end
timer_stats,697722884355705,PAPI_L3_TCM,1, 31.49353027,  3.73472595,end
timer_stats,697722885516765,PAPI_L3_TCM,1, 31.61358643,  3.74851990,end
timer_stats,697722886685689,PAPI_L3_TCM,0, 31.72167969,  3.76371765,end
timer_stats,697722887856389,PAPI_L3_TCM,1, 31.79467773,  3.77204895,end
timer_stats,697722889027673,PAPI_L3_TCM,1, 31.86865234,  3.78085327,end
timer_stats,697722890198591,PAPI_L3_TCM,1, 31.94110107,  3.78941345,end
timer_stats,697722891366847,PAPI_L3_TCM,0, 32.01306152,  3.79777527,end
timer_stats,697722892538538,PAPI_L3_TCM,1, 32.13336182,  3.81153869,end
timer_stats,697722893692788,PAPI_L3_TCM,0, 32.23657226,  3.82707214,end
timer_stats,697722894837062,PAPI_L3_TCM,1, 32.31188965,  3.83564758,end
timer_stats,697722895994209,PAPI_L3_TCM,0, 32.38244629,  3.84449768,end
timer_stats,697722897156909,PAPI_L3_TCM,2, 32.45556641,  3.85307312,end
timer_stats,697722898329577,PAPI_L3_TCM,0, 32.53192139,  3.86164856,end
timer_stats,697722899498554,PAPI_L3_TCM,1, 32.65002441,  3.87516785,end
timer_stats,697722900667827,PAPI_L3_TCM,1, 32.75244141,  3.89065552,end
timer_stats,697722901842104,PAPI_L3_TCM,0, 32.82348633,  3.89950561,end
timer_stats,697722903011802,PAPI_L3_TCM,0, 32.89605713,  3.90830994,end
timer_stats,697722904182538,PAPI_L3_TCM,2, 32.96911621,  3.91711426,end
timer_stats,697722905349095,PAPI_L3_TCM,0, 33.04315185,  3.92590332,end
timer_stats,697722906493016,PAPI_L3_TCM,1, 33.16455078,  3.93603516,end
timer_stats,697722907632242,PAPI_L3_TCM,0, 33.26837158,  3.95642090,end
timer_stats,697722908773986,PAPI_L3_TCM,1, 33.33825684,  3.96476746,end
timer_stats,697722909915197,PAPI_L3_TCM,0, 33.41296387,  3.97378540,end
timer_stats,697722911057410,PAPI_L3_TCM,0, 33.48663330,  3.98236084,end
timer_stats,697722912200227,PAPI_L3_TCM,1, 33.55822754,  3.99096680,end
timer_stats,697722913341908,PAPI_L3_TCM,1, 33.63018799,  3.99957275,end
timer_stats,697722914482074,PAPI_L3_TCM,0, 33.75152588,  4.00833130,end
timer_stats,697722915625285,PAPI_L3_TCM,1, 33.85095215,  4.02900696,end
timer_stats,697722916767349,PAPI_L3_TCM,0, 33.92547607,  4.03733826,end
timer_stats,697722917906436,PAPI_L3_TCM,1, 34.00085449,  4.04594421,end
timer_stats,697722919045313,PAPI_L3_TCM,0, 34.07415771,  4.05427551,end
timer_stats,697722920186123,PAPI_L3_TCM,1, 34.15142822,  4.06352234,end
timer_stats,697722921325744,PAPI_L3_TCM,1, 34.22686768,  4.07209778,end
timer_stats,697722922473824,PAPI_L3_TCM,1, 34.30358887,  4.08065796,end
timer_stats,697722923646224,PAPI_L3_TCM,0, 34.44592285,  4.09957886,end
timer_stats,697722924806822,PAPI_L3_TCM,2, 34.51672363,  4.10995483,end
timer_stats,697722925977205,PAPI_L3_TCM,0, 34.58703613,  4.11878967,end
timer_stats,697722927115069,PAPI_L3_TCM,2, 34.66168213,  4.12728882,end
timer_stats,697722928214469,PAPI_L3_TCM,3, 34.73400879,  4.13636780,end
timer_stats,697722929297606,PAPI_L3_TCM,1, 34.81793213,  4.14685059,end
timer_stats,697722930403630,PAPI_L3_TCM,1, 34.89477539,  4.15734863,end
timer_stats,697722931497763,PAPI_L3_TCM,1, 35.01843262,  4.17375183,end
timer_stats,697722932592610,PAPI_L3_TCM,2, 35.10089111,  4.18400574,end
timer_stats,697722933692786,PAPI_L3_TCM,1, 35.20434570,  4.19950867,end
timer_stats,697722934798127,PAPI_L3_TCM,1, 35.28515625,  4.21000671,end
timer_stats,697722935892460,PAPI_L3_TCM,1, 35.36047363,  4.22033691,end
timer_stats,697722936986751,PAPI_L3_TCM,1, 35.43597412,  4.23043823,end
timer_stats,697722938086237,PAPI_L3_TCM,0, 35.51153564,  4.24057007,end
timer_stats,697722939184751,PAPI_L3_TCM,0, 35.58508301,  4.25070190,end
timer_stats,697722940628088,PAPI_L3_TCM,61, 35.74200439,  4.27175903,end
timer_stats,697722941731959,PAPI_L3_TCM,4, 35.82196045,  4.28186035,end
timer_stats,697722942834209,PAPI_L3_TCM,1, 35.90075684,  4.29199219,end
timer_stats,697722943940359,PAPI_L3_TCM,0, 35.98516846,  4.30203247,end
timer_stats,697722945034359,PAPI_L3_TCM,2, 36.06597900,  4.31216430,end
timer_stats,697722946139906,PAPI_L3_TCM,0, 36.14709473,  4.32205200,end
timer_stats,697722947249350,PAPI_L3_TCM,1, 36.22790527,  4.33192444,end
timer_stats,697722948331737,PAPI_L3_TCM,2, 36.31542969,  4.34217834,end
timer_stats,697722949439334,PAPI_L3_TCM,1, 36.39923096,  4.35270691,end
timer_stats,697722950547747,PAPI_L3_TCM,0, 36.54119873,  4.36860657,end
timer_stats,697722951653154,PAPI_L3_TCM,1, 36.65582275,  4.38383484,end
timer_stats,697722952750357,PAPI_L3_TCM,2, 36.73974609,  4.39506531,end
timer_stats,697722953856805,PAPI_L3_TCM,1, 36.82220459,  4.40516662,end
timer_stats,697722954962605,PAPI_L3_TCM,0, 36.90625000,  4.41502380,end
timer_stats,697722956069378,PAPI_L3_TCM,2, 36.99298096,  4.42529297,end
timer_stats,697722957149658,PAPI_L3_TCM,0, 37.07189941,  4.43676758,end
timer_stats,697722958255005,PAPI_L3_TCM,1, 37.15856934,  4.44659424,end
timer_stats,697722959359495,PAPI_L3_TCM,0, 37.24395752,  4.45687866,end
timer_stats,697722960454696,PAPI_L3_TCM,3, 37.37622070,  4.46722412,end
timer_stats,697722961559966,PAPI_L3_TCM,0, 37.46545410,  4.48269653,end
timer_stats,697722962665303,PAPI_L3_TCM,1, 37.57751465,  4.49819946,end
timer_stats,697722963758503,PAPI_L3_TCM,0, 37.66149902,  4.50830078,end
timer_stats,697722964902253,PAPI_L3_TCM,0, 37.74566650,  4.51861572,end
timer_stats,697722966044280,PAPI_L3_TCM,0, 37.83245850,  4.52865601,end
timer_stats,697722967183500,PAPI_L3_TCM,1, 37.91851807,  4.53742981,end
timer_stats,697722968324011,PAPI_L3_TCM,1, 37.99938965,  4.54667663,end
timer_stats,697722969471415,PAPI_L3_TCM,1, 38.08129883,  4.55522156,end
timer_stats,697722970611864,PAPI_L3_TCM,0, 38.20727539,  4.56925964,end
timer_stats,697722971752472,PAPI_L3_TCM,1, 38.31317139,  4.58482361,end
timer_stats,697722972891506,PAPI_L3_TCM,1, 38.39111328,  4.59413147,end
timer_stats,697722974030356,PAPI_L3_TCM,0, 38.46990967,  4.60322571,end
timer_stats,697722975169423,PAPI_L3_TCM,0, 38.55419922,  4.61225891,end
timer_stats,697722976311417,PAPI_L3_TCM,1, 38.62628174,  4.62110901,end
timer_stats,697722977477031,PAPI_L3_TCM,0, 38.70733643,  4.62986755,end
timer_stats,697722978645958,PAPI_L3_TCM,1, 38.82855224,  4.64402771,end
timer_stats,697722979814638,PAPI_L3_TCM,0, 38.93115234,  4.65971374,end
timer_stats,697722980971232,PAPI_L3_TCM,2, 39.00494385,  4.66853332,end
timer_stats,697722982143026,PAPI_L3_TCM,0, 39.08093262,  4.67707825,end
timer_stats,697722983312652,PAPI_L3_TCM,0, 39.15014648,  4.68592834,end
timer_stats,697722984495806,PAPI_L3_TCM,4, 39.27575684,  4.69566345,end
timer_stats,697722985657753,PAPI_L3_TCM,1, 39.37921143,  4.71452331,end
timer_stats,697722986830341,PAPI_L3_TCM,0, 39.45208740,  4.72312927,end
timer_stats,697722987998817,PAPI_L3_TCM,1, 39.52618408,  4.73170471,end
timer_stats,697722989175911,PAPI_L3_TCM,1, 39.59759521,  4.74079895,end
timer_stats,697722990346475,PAPI_L3_TCM,1, 39.67242432,  4.74937439,end
timer_stats,697722991522239,PAPI_L3_TCM,0, 39.79077148,  4.76338196,end
timer_stats,697722992680055,PAPI_L3_TCM,1, 39.89416504,  4.77862549,end
timer_stats,697722993852286,PAPI_L3_TCM,0, 39.96545410,  4.78875732,end
timer_stats,697722995018430,PAPI_L3_TCM,1, 40.04449463,  4.79748535,end
timer_stats,697722996172446,PAPI_L3_TCM,1, 40.11627197,  4.80627441,end
timer_stats,697722997313547,PAPI_L3_TCM,1, 40.19128418,  4.81532287,end
timer_stats,697722998483234,PAPI_L3_TCM,0, 40.26904297,  4.82408142,end
timer_stats,697722999636464,PAPI_L3_TCM,1, 40.41564941,  4.84347534,end
timer_stats,697723000778521,PAPI_L3_TCM,1, 40.49005127,  4.85424805,end
timer_stats,697723001939615,PAPI_L3_TCM,0, 40.57208252,  4.86401367,end
timer_stats,697723003106743,PAPI_L3_TCM,0, 40.65502930,  4.86763000,end
timer_stats,697723004273333,PAPI_L3_TCM,1, 40.72009277,  4.87606811,end
timer_stats,697723005459574,PAPI_L3_TCM,0, 40.79199219,  4.88488769,end
timer_stats,697723006626390,PAPI_L3_TCM,1, 40.91662598,  4.89860535,end
timer_stats,697723007770704,PAPI_L3_TCM,0, 41.02691650,  4.91378784,end
timer_stats,697723008913548,PAPI_L3_TCM,2, 41.10217285,  4.92236328,end
timer_stats,697723010056381,PAPI_L3_TCM,0, 41.17645264,  4.93118286,end
timer_stats,697723011198322,PAPI_L3_TCM,0, 41.25494385,  4.93972778,end
timer_stats,697723012345866,PAPI_L3_TCM,1, 41.33752441,  4.94825745,end
timer_stats,697723013489442,PAPI_L3_TCM,1, 41.40411377,  4.95689392,end
timer_stats,697723014627770,PAPI_L3_TCM,0, 41.53497314,  4.97056579,end
timer_stats,697723015769746,PAPI_L3_TCM,1, 41.64794922,  4.98580932,end
timer_stats,697723016986143,PAPI_L3_TCM,10, 41.72418213,  4.99502563,end
timer_stats,697723018160907,PAPI_L3_TCM,6, 41.80346680,  5.00396728,end
timer_stats,697723019301131,PAPI_L3_TCM,0, 41.88159180,  5.01348877,end
timer_stats,697723020440498,PAPI_L3_TCM,0, 41.96124268,  5.02246094,end
timer_stats,697723021580238,PAPI_L3_TCM,0, 42.08734131,  5.03642273,end
timer_stats,697723022719569,PAPI_L3_TCM,1, 42.16967773,  5.04670715,end
timer_stats,697723023857445,PAPI_L3_TCM,1, 42.28314209,  5.06217957,end
timer_stats,697723024995776,PAPI_L3_TCM,3, 42.37274170,  5.07113647,end
timer_stats,697723026135343,PAPI_L3_TCM,4, 42.44281006,  5.08023071,end
timer_stats,697723027271446,PAPI_L3_TCM,1, 42.51782226,  5.08923340,end
timer_stats,697723028425070,PAPI_L3_TCM,0, 42.59869385,  5.09640503,end
timer_stats,697723029584614,PAPI_L3_TCM,0, 42.69860840,  5.10920715,end
timer_stats,697723030741092,PAPI_L3_TCM,0, 42.80462646,  5.12315369,end
timer_stats,697723031895791,PAPI_L3_TCM,1, 42.88397217,  5.13032532,end
timer_stats,697723033050052,PAPI_L3_TCM,0, 42.94781494,  5.13774109,end
timer_stats,697723034203913,PAPI_L3_TCM,1, 43.01794434,  5.14479065,end
timer_stats,697723035332109,PAPI_L3_TCM,5, 43.09783935,  5.15196228,end
timer_stats,697723036477826,PAPI_L3_TCM,2, 43.16857910,  5.15977478,end
timer_stats,697723037630974,PAPI_L3_TCM,0, 43.28063965,  5.17375183,end
timer_stats,697723038784230,PAPI_L3_TCM,1, 43.35241699,  5.18426514,end
timer_stats,697723039948927,PAPI_L3_TCM,0, 43.46990967,  5.19772339,end
timer_stats,697723041097985,PAPI_L3_TCM,1, 43.55493164,  5.20565796,end
timer_stats,697723042233361,PAPI_L3_TCM,0, 43.62158203,  5.21670532,end
timer_stats,697723043393918,PAPI_L3_TCM,4, 43.70184326,  5.22409057,end
timer_stats,697723044552132,PAPI_L3_TCM,22, 43.81054687,  5.23562622,end
timer_stats,697723048338531,PAPI_L3_TCM,47, 44.06042480,  5.26571655,end
timer_stats,697723049502248,PAPI_L3_TCM,9, 44.15216064,  5.27537537,end
timer_stats,697723050638888,PAPI_L3_TCM,3, 44.22393799,  5.28573608,end
timer_stats,697723051802192,PAPI_L3_TCM,0, 44.38305664,  5.30636597,end
timer_stats,697723052939626,PAPI_L3_TCM,2, 44.46191406,  5.31533813,end
timer_stats,697723054077952,PAPI_L3_TCM,0, 44.52923584,  5.32417297,end
timer_stats,697723055230296,PAPI_L3_TCM,4, 44.60375976,  5.33372497,end
timer_stats,697723056369203,PAPI_L3_TCM,3, 44.69763184,  5.34288025,end
timer_stats,697723057519033,PAPI_L3_TCM,3, 44.77215576,  5.35169983,end
timer_stats,697723058669484,PAPI_L3_TCM,0, 44.88867187,  5.36616516,end
timer_stats,697723059819551,PAPI_L3_TCM,0, 45.00128174,  5.38163757,end
timer_stats,697723060956809,PAPI_L3_TCM,3, 45.09637451,  5.39056396,end
timer_stats,697723062117828,PAPI_L3_TCM,2, 45.16717529,  5.39987183,end
timer_stats,697723063266022,PAPI_L3_TCM,0, 45.24328613,  5.40715027,end
timer_stats,697723064415056,PAPI_L3_TCM,2, 45.32965088,  5.41456604,end
timer_stats,697723065576703,PAPI_L3_TCM,0, 45.40014648,  5.42218018,end
timer_stats,697723066737227,PAPI_L3_TCM,1, 45.48645020,  5.43110657,end
timer_stats,697723067877614,PAPI_L3_TCM,0, 45.63995361,  5.45225525,end
timer_stats,697723069014660,PAPI_L3_TCM,0, 45.72222900,  5.46156311,end
timer_stats,697723070152191,PAPI_L3_TCM,0, 45.80615234,  5.47035217,end
timer_stats,697723071291565,PAPI_L3_TCM,1, 45.89593506,  5.47886658,end
timer_stats,697723072431785,PAPI_L3_TCM,2, 45.96960449,  5.48825073,end
timer_stats,697723073571409,PAPI_L3_TCM,1, 46.05645752,  5.49746704,end
timer_stats,697723074708582,PAPI_L3_TCM,0, 46.19470215,  5.51184082,end
timer_stats,697723075851256,PAPI_L3_TCM,1, 46.31854248,  5.52748108,end
timer_stats,697723076989023,PAPI_L3_TCM,0, 46.40899658,  5.53718567,end
timer_stats,697723078127839,PAPI_L3_TCM,0, 46.49572754,  5.54615784,end
timer_stats,697723079266367,PAPI_L3_TCM,0, 46.58032226,  5.55491638,end
timer_stats,697723080405527,PAPI_L3_TCM,1, 46.65948486,  5.56394958,end
timer_stats,697723081544300,PAPI_L3_TCM,0, 46.74377441,  5.57273865,end
timer_stats,697723082681248,PAPI_L3_TCM,3, 46.83343506,  5.58154297,end
timer_stats,697723083816008,PAPI_L3_TCM,0, 46.97534180,  5.59664917,end
timer_stats,697723084953521,PAPI_L3_TCM,1, 47.12115478,  5.61099243,end
timer_stats,697723086091302,PAPI_L3_TCM,0, 47.21301269,  5.62020874,end
timer_stats,697723087227853,PAPI_L3_TCM,1, 47.30090332,  5.62966919,end
timer_stats,697723088365893,PAPI_L3_TCM,1, 47.38696289,  5.63891602,end
timer_stats,697723089503200,PAPI_L3_TCM,1, 47.49707031,  5.64755249,end
timer_stats,697723090639197,PAPI_L3_TCM,0, 47.62884521,  5.66232300,end
timer_stats,697723091777034,PAPI_L3_TCM,2, 47.75976562,  5.67774963,end
timer_stats,697723092913857,PAPI_L3_TCM,2, 47.86456299,  5.68672180,end
timer_stats,697723094050425,PAPI_L3_TCM,1, 47.95996094,  5.69593811,end
timer_stats,697723095186408,PAPI_L3_TCM,0, 48.03857422,  5.70481872,end
timer_stats,697723096322698,PAPI_L3_TCM,1, 48.13946533,  5.71333313,end
timer_stats,697723097471112,PAPI_L3_TCM,0, 48.23352051,  5.72232055,end
timer_stats,697723098606899,PAPI_L3_TCM,1, 48.31927490,  5.73135376,end
timer_stats,697723099752096,PAPI_L3_TCM,0, 48.41802978,  5.74034119,end
timer_stats,697723100888157,PAPI_L3_TCM,2, 48.59930420,  5.76194763,end
timer_stats,697723102024350,PAPI_L3_TCM,2, 48.70050049,  5.77114868,end
timer_stats,697723103159984,PAPI_L3_TCM,1, 48.79248047,  5.77967834,end
timer_stats,697723104297083,PAPI_L3_TCM,1, 48.88409424,  5.78868103,end
timer_stats,697723105433564,PAPI_L3_TCM,0, 48.97241211,  5.79768371,end
timer_stats,697723106569738,PAPI_L3_TCM,0, 49.06463623,  5.80642700,end
timer_stats,697723107706278,PAPI_L3_TCM,1, 49.14886474,  5.81546020,end
timer_stats,697723108842842,PAPI_L3_TCM,1, 49.32739258,  5.83610534,end
timer_stats,697723109978382,PAPI_L3_TCM,1, 49.42285156,  5.84489441,end
timer_stats,697723111112683,PAPI_L3_TCM,1, 49.50604248,  5.85371399,end
timer_stats,697723112248119,PAPI_L3_TCM,2, 49.60339355,  5.86244202,end
timer_stats,697723113383293,PAPI_L3_TCM,3, 49.68859863,  5.87217712,end
timer_stats,697723114521571,PAPI_L3_TCM,0, 49.77722168,  5.88160705,end
timer_stats,697723115657020,PAPI_L3_TCM,0, 49.86944580,  5.89048767,end
timer_stats,697723116795931,PAPI_L3_TCM,2, 49.98974609,  5.90620422,end
timer_stats,697723117930241,PAPI_L3_TCM,0, 50.13568115,  5.92008972,end
timer_stats,697723119067995,PAPI_L3_TCM,1, 50.22100830,  5.92884827,end
timer_stats,697723120204805,PAPI_L3_TCM,1, 50.30706787,  5.93783569,end
timer_stats,697723121342358,PAPI_L3_TCM,4, 50.39447021,  5.94680786,end
timer_stats,697723122481592,PAPI_L3_TCM,1, 50.47802734,  5.95562744,end
timer_stats,697723123618256,PAPI_L3_TCM,1, 50.56726074,  5.96463013,end
timer_stats,697723124753843,PAPI_L3_TCM,1, 50.64654541,  5.97323608,end
timer_stats,697723125891003,PAPI_L3_TCM,1, 50.82177734,  5.99432373,end
timer_stats,697723127025406,PAPI_L3_TCM,0, 50.90405273,  6.00315857,end
timer_stats,697723128161974,PAPI_L3_TCM,2, 50.99133301,  6.01121521,end
timer_stats,697723129297551,PAPI_L3_TCM,0, 51.08197021,  6.01969910,end
timer_stats,697723130435261,PAPI_L3_TCM,1, 51.16217041,  6.02873230,end
timer_stats,697723131570381,PAPI_L3_TCM,0, 51.25091553,  6.03752136,end
timer_stats,697723132705855,PAPI_L3_TCM,2, 51.33441162,  6.04658508,end
timer_stats,697723133845232,PAPI_L3_TCM,0, 51.50787353,  6.06689453,end
timer_stats,697723134983199,PAPI_L3_TCM,1, 51.59301758,  6.07543945,end
timer_stats,697723136120359,PAPI_L3_TCM,1, 51.67883301,  6.08419800,end
timer_stats,697723137258493,PAPI_L3_TCM,1, 51.76696777,  6.09362793,end
timer_stats,697723138395083,PAPI_L3_TCM,3, 51.85278320,  6.10412598,end
timer_stats,697723139529694,PAPI_L3_TCM,1, 51.93750000,  6.11267090,end
timer_stats,697723140664931,PAPI_L3_TCM,1, 52.02264404,  6.12168884,end
timer_stats,697723141802378,PAPI_L3_TCM,1, 52.14141846,  6.13563537,end
timer_stats,697723142938268,PAPI_L3_TCM,0, 52.29357910,  6.14950561,end
timer_stats,697723144080861,PAPI_L3_TCM,2, 52.38323974,  6.15852356,end
timer_stats,697723145217945,PAPI_L3_TCM,0, 52.47534180,  6.16726685,end
timer_stats,697723146354913,PAPI_L3_TCM,1, 52.55914307,  6.17584228,end
timer_stats,697723147494086,PAPI_L3_TCM,0, 52.64599609,  6.18467712,end
timer_stats,697723148630840,PAPI_L3_TCM,2, 52.74151611,  6.19342041,end
timer_stats,697723149765883,PAPI_L3_TCM,14, 52.86499023,  6.20294189,end
timer_stats,697723150902860,PAPI_L3_TCM,2, 53.01171875,  6.22401428,end
timer_stats,697723152044037,PAPI_L3_TCM,2, 53.10424805,  6.23295593,end
timer_stats,697723153180340,PAPI_L3_TCM,13, 53.19390869,  6.24263000,end
timer_stats,697723154316131,PAPI_L3_TCM,1, 53.27441406,  6.25189209,end
timer_stats,697723155455412,PAPI_L3_TCM,1, 53.35827637,  6.26239014,end
timer_stats,697723156596675,PAPI_L3_TCM,1, 53.44342041,  6.27133179,end
timer_stats,697723157731605,PAPI_L3_TCM,2, 53.52227783,  6.28057861,end
timer_stats,697723158867992,PAPI_L3_TCM,0, 53.68975830,  6.30113220,end
timer_stats,697723160017726,PAPI_L3_TCM,1, 53.77337646,  6.30940246,end
timer_stats,697723161152270,PAPI_L3_TCM,0, 53.85223389,  6.31617737,end
timer_stats,697723162304824,PAPI_L3_TCM,1, 53.92572021,  6.32345581,end
timer_stats,697723163460701,PAPI_L3_TCM,0, 53.99993896,  6.33071899,end
timer_stats,697723164610454,PAPI_L3_TCM,2, 54.06909179,  6.33801269,end
timer_stats,697723165763481,PAPI_L3_TCM,0, 54.14611816,  6.34524536,end
timer_stats,697723166918495,PAPI_L3_TCM,1, 54.29431152,  6.36412048,end
timer_stats,697723168082109,PAPI_L3_TCM,1, 54.36737060,  6.37115478,end
timer_stats,697723169218316,PAPI_L3_TCM,0, 54.44555664,  6.37925720,end
timer_stats,697723170376800,PAPI_L3_TCM,0, 54.52056885,  6.38813782,end
timer_stats,697723171532843,PAPI_L3_TCM,1, 54.60522461,  6.39662170,end
timer_stats,697723172690427,PAPI_L3_TCM,1, 54.67578125,  6.40498352,end
timer_stats,697723173847647,PAPI_L3_TCM,1, 54.83374023,  6.42565918,end
timer_stats,697723175004634,PAPI_L3_TCM,0, 54.91900635,  6.43569946,end
timer_stats,697723176161041,PAPI_L3_TCM,2, 54.99060059,  6.44454956,end
timer_stats,697723177295572,PAPI_L3_TCM,0, 55.07458496,  6.45329285,end
timer_stats,697723178457696,PAPI_L3_TCM,1, 55.15740967,  6.46202087,end
timer_stats,697723179616615,PAPI_L3_TCM,0, 55.23901367,  6.47077942,end
timer_stats,697723180776533,PAPI_L3_TCM,1, 55.31719971,  6.47984314,end
timer_stats,697723181911360,PAPI_L3_TCM,0, 55.49090576,  6.50111389,end
timer_stats,697723183070303,PAPI_L3_TCM,1, 55.56640625,  6.51069641,end
timer_stats,697723184224274,PAPI_L3_TCM,0, 55.65307617,  6.51966858,end
timer_stats,697723185361678,PAPI_L3_TCM,2, 55.73693848,  6.52870178,end
timer_stats,697723186523221,PAPI_L3_TCM,0, 55.81439209,  6.53750610,end
timer_stats,697723187682511,PAPI_L3_TCM,1, 55.89764404,  6.54702759,end
timer_stats,697723188840615,PAPI_L3_TCM,2, 56.01196289,  6.56069946,end
timer_stats,697723190001433,PAPI_L3_TCM,1, 56.13635254,  6.57640076,end
timer_stats,697723191165613,PAPI_L3_TCM,0, 56.20593262,  6.58496094,end
timer_stats,697723192343050,PAPI_L3_TCM,1, 56.27655029,  6.59375000,end
timer_stats,697723193526054,PAPI_L3_TCM,0, 56.35144043,  6.60250854,end
timer_stats,697723194713008,PAPI_L3_TCM,1, 56.42596435,  6.61151123,end
timer_stats,697723195897952,PAPI_L3_TCM,0, 56.57391357,  6.63035583,end
timer_stats,697723197066591,PAPI_L3_TCM,1, 56.64495849,  6.64024353,end
timer_stats,697723198246629,PAPI_L3_TCM,0, 56.71997070,  6.64921570,end
timer_stats,697723199428343,PAPI_L3_TCM,1, 56.79168701,  6.65820312,end
timer_stats,697723200595797,PAPI_L3_TCM,0, 56.86077881,  6.66775513,end
timer_stats,697723201775703,PAPI_L3_TCM,2, 56.93634033,  6.67630005,end
