timer_stats,697004765061719,PAPI_L3_TCM,196,  0.10253906,  0.01094055,end
timer_stats,697004766184511,PAPI_L3_TCM,24,  0.26702881,  0.02838135,end
timer_stats,697004767311229,PAPI_L3_TCM,2,  0.44195557,  0.04650879,end
timer_stats,697004768447351,PAPI_L3_TCM,2,  0.54248047,  0.05810547,end
timer_stats,697004769607982,PAPI_L3_TCM,0,  0.65698242,  0.06938171,end
timer_stats,697004770760097,PAPI_L3_TCM,8,  0.78082275,  0.08100891,end
timer_stats,697004771928567,PAPI_L3_TCM,13,  0.88250732,  0.09234619,end
timer_stats,697004773118687,PAPI_L3_TCM,17,  1.05133057,  0.11457825,end
timer_stats,697004774303357,PAPI_L3_TCM,3,  1.21307373,  0.12574768,end
timer_stats,697004775488676,PAPI_L3_TCM,0,  1.31896973,  0.13690185,end
timer_stats,697004776616821,PAPI_L3_TCM,0,  1.43182373,  0.14796448,end
timer_stats,697004777803413,PAPI_L3_TCM,0,  1.55096435,  0.15974426,end
timer_stats,697004778989895,PAPI_L3_TCM,2,  1.65942383,  0.17086792,end
timer_stats,697004780145653,PAPI_L3_TCM,6,  1.75610351,  0.18251038,end
timer_stats,697004781280884,PAPI_L3_TCM,8,  1.99108887,  0.20727539,end
timer_stats,697004782575280,PAPI_L3_TCM,6,  2.11108398,  0.22090149,end
timer_stats,697004783817845,PAPI_L3_TCM,24,  2.25732422,  0.23539734,end
timer_stats,697004784943753,PAPI_L3_TCM,17,  2.40148926,  0.24694824,end
timer_stats,697004786268968,PAPI_L3_TCM,18,  2.58807373,  0.26834106,end
timer_stats,697004788093356,PAPI_L3_TCM,26,  2.80468750,  0.28623962,end
timer_stats,697004789211313,PAPI_L3_TCM,3,  3.01245117,  0.30740356,end
timer_stats,697004790330597,PAPI_L3_TCM,3,  3.24249267,  0.33085632,end
timer_stats,697004791447202,PAPI_L3_TCM,2,  3.40319824,  0.34628296,end
timer_stats,697004792551427,PAPI_L3_TCM,6,  3.57446289,  0.35935974,end
timer_stats,697004793638637,PAPI_L3_TCM,3,  3.75891113,  0.37364197,end
timer_stats,697004794732046,PAPI_L3_TCM,6,  3.95202637,  0.38829040,end
timer_stats,697004795821908,PAPI_L3_TCM,1,  4.13433838,  0.40069580,end
timer_stats,697004796908789,PAPI_L3_TCM,3,  4.33862305,  0.41661072,end
timer_stats,697004797998077,PAPI_L3_TCM,6,  4.55993652,  0.43157959,end
timer_stats,697004799084970,PAPI_L3_TCM,8,  4.77221680,  0.44676208,end
timer_stats,697004800248209,PAPI_L3_TCM,4,  5.09381103,  0.47039795,end
timer_stats,697004801334540,PAPI_L3_TCM,4,  5.38354492,  0.49424744,end
timer_stats,697004802419128,PAPI_L3_TCM,3,  5.61212158,  0.51257324,end
timer_stats,697004803503937,PAPI_L3_TCM,2,  5.81732178,  0.53088379,end
timer_stats,697004804588545,PAPI_L3_TCM,5,  6.04113769,  0.54727173,end
timer_stats,697004808396687,PAPI_L3_TCM,90,  6.73394775,  0.59933472,end
timer_stats,697004809502680,PAPI_L3_TCM,21,  7.00457764,  0.62500000,end
timer_stats,697004810591094,PAPI_L3_TCM,5,  7.22082519,  0.64082336,end
timer_stats,697004811675337,PAPI_L3_TCM,0,  7.44433594,  0.65644836,end
timer_stats,697004812762167,PAPI_L3_TCM,6,  7.67773437,  0.67181396,end
timer_stats,697004813850993,PAPI_L3_TCM,3,  7.90197754,  0.68882751,end
timer_stats,697004814937458,PAPI_L3_TCM,4,  8.11102295,  0.70271301,end
timer_stats,697004816027075,PAPI_L3_TCM,3,  8.30895996,  0.71882629,end
timer_stats,697004817584415,PAPI_L3_TCM,8,  8.75231933,  0.74815369,end
timer_stats,697004818784603,PAPI_L3_TCM,7,  8.93725586,  0.76136780,end
timer_stats,697004819889473,PAPI_L3_TCM,5,  9.12658691,  0.77505493,end
timer_stats,697004820990939,PAPI_L3_TCM,2,  9.33276367,  0.78883362,end
timer_stats,697004822091737,PAPI_L3_TCM,2,  9.52783203,  0.80378723,end
timer_stats,697004823186597,PAPI_L3_TCM,3,  9.87268066,  0.82907104,end
timer_stats,697004824272490,PAPI_L3_TCM,4, 10.09686279,  0.84536743,end
timer_stats,697004825357948,PAPI_L3_TCM,4, 10.42254639,  0.86143494,end
timer_stats,697004826445708,PAPI_L3_TCM,4, 10.65338135,  0.88446045,end
timer_stats,697004827532258,PAPI_L3_TCM,0, 10.87597656,  0.89918518,end
timer_stats,697004828615691,PAPI_L3_TCM,41, 11.09136963,  0.91642761,end
timer_stats,697004829688053,PAPI_L3_TCM,19, 11.23712158,  0.92948913,end
timer_stats,697004830778336,PAPI_L3_TCM,17, 11.38995361,  0.94114685,end
timer_stats,697004831871130,PAPI_L3_TCM,4, 11.58294678,  0.95446777,end
timer_stats,697004832960282,PAPI_L3_TCM,7, 11.76898193,  0.97041321,end
timer_stats,697004834042895,PAPI_L3_TCM,5, 11.96691894,  0.98374939,end
timer_stats,697004835126578,PAPI_L3_TCM,6, 12.18621826,  0.99923706,end
timer_stats,697004836209065,PAPI_L3_TCM,5, 12.51672363,  1.02264404,end
timer_stats,697004837289908,PAPI_L3_TCM,2, 12.73443603,  1.03836060,end
timer_stats,697004838371921,PAPI_L3_TCM,2, 12.94519043,  1.05599975,end
timer_stats,697004839452530,PAPI_L3_TCM,2, 13.28070068,  1.08015442,end
timer_stats,697004840533974,PAPI_L3_TCM,4, 13.49194336,  1.09606933,end
timer_stats,697004841617228,PAPI_L3_TCM,4, 13.71075439,  1.11174011,end
timer_stats,697004842699105,PAPI_L3_TCM,4, 13.93786621,  1.12763977,end
timer_stats,697004843781325,PAPI_L3_TCM,5, 14.16571045,  1.14324951,end
timer_stats,697004844862746,PAPI_L3_TCM,1, 14.40008545,  1.15919495,end
timer_stats,697004845944437,PAPI_L3_TCM,4, 14.59979248,  1.17610168,end
timer_stats,697004847025403,PAPI_L3_TCM,7, 14.82971191,  1.19329834,end
timer_stats,697004848105199,PAPI_L3_TCM,10, 15.05633545,  1.20893860,end
timer_stats,697004849190915,PAPI_L3_TCM,6, 15.27709961,  1.22439575,end
timer_stats,697004850270253,PAPI_L3_TCM,8, 15.61614990,  1.24839783,end
timer_stats,697004851350264,PAPI_L3_TCM,4, 15.94177246,  1.27336121,end
timer_stats,697004852432937,PAPI_L3_TCM,10, 16.05426025,  1.28173828,end
timer_stats,697004853515233,PAPI_L3_TCM,2, 16.38653564,  1.30764770,end
timer_stats,697004854596464,PAPI_L3_TCM,5, 16.62078857,  1.32525635,end
timer_stats,697004855677233,PAPI_L3_TCM,7, 16.83935547,  1.34051513,end
timer_stats,697004856760988,PAPI_L3_TCM,7, 17.05767822,  1.35607910,end
timer_stats,697004857842381,PAPI_L3_TCM,8, 17.28820801,  1.37203979,end
timer_stats,697004858921558,PAPI_L3_TCM,8, 17.50598144,  1.38812256,end
timer_stats,697004860009785,PAPI_L3_TCM,9, 17.72900391,  1.40388489,end
timer_stats,697004861088381,PAPI_L3_TCM,8, 17.95947265,  1.42015076,end
timer_stats,697004862167023,PAPI_L3_TCM,2, 18.18273926,  1.43644714,end
timer_stats,697004863248920,PAPI_L3_TCM,10, 18.50811768,  1.46086121,end
timer_stats,697004864327972,PAPI_L3_TCM,8, 18.84063721,  1.47645569,end
timer_stats,697004865406826,PAPI_L3_TCM,9, 19.06475830,  1.49928284,end
timer_stats,697004869507669,PAPI_L3_TCM,84, 19.85894775,  1.56246948,end
timer_stats,697004870592225,PAPI_L3_TCM,29, 20.04913330,  1.58132935,end
timer_stats,697004871676007,PAPI_L3_TCM,15, 20.27374267,  1.59785461,end
timer_stats,697004872757538,PAPI_L3_TCM,20, 20.48999023,  1.61390686,end
timer_stats,697004873836961,PAPI_L3_TCM,4, 20.73400879,  1.63034057,end
timer_stats,697004874923114,PAPI_L3_TCM,13, 20.93652344,  1.64707947,end
timer_stats,697004876013212,PAPI_L3_TCM,6, 21.16314697,  1.66433716,end
timer_stats,697004877103874,PAPI_L3_TCM,3, 21.39038086,  1.68077087,end
timer_stats,697004878184725,PAPI_L3_TCM,7, 21.59729004,  1.69731140,end
timer_stats,697004879267146,PAPI_L3_TCM,3, 21.95391846,  1.71478271,end
timer_stats,697004880349495,PAPI_L3_TCM,5, 22.16491699,  1.74176025,end
timer_stats,697004881437841,PAPI_L3_TCM,9, 22.50091553,  1.76817322,end
timer_stats,697004882525024,PAPI_L3_TCM,11, 22.72766113,  1.78503418,end
timer_stats,697004883606526,PAPI_L3_TCM,8, 22.94067383,  1.80200195,end
timer_stats,697004884687423,PAPI_L3_TCM,8, 23.16552734,  1.81848144,end
timer_stats,697004885769750,PAPI_L3_TCM,6, 23.39086914,  1.83468628,end
timer_stats,697004886850131,PAPI_L3_TCM,5, 23.60723877,  1.85119629,end
timer_stats,697004887934981,PAPI_L3_TCM,12, 23.82922363,  1.86837768,end
timer_stats,697004889021033,PAPI_L3_TCM,16, 24.03338623,  1.88528442,end
timer_stats,697004890105328,PAPI_L3_TCM,3, 24.26647949,  1.90235901,end
timer_stats,697004891188473,PAPI_L3_TCM,5, 24.49627685,  1.91931152,end
timer_stats,697004892270718,PAPI_L3_TCM,7, 24.84008789,  1.94486999,end
timer_stats,697004893354814,PAPI_L3_TCM,9, 25.18579101,  1.96150207,end
timer_stats,697004894437533,PAPI_L3_TCM,9, 25.41442871,  1.98698425,end
timer_stats,697004895519973,PAPI_L3_TCM,5, 25.66339111,  2.00531006,end
timer_stats,697004896602826,PAPI_L3_TCM,9, 25.89263916,  2.02146911,end
timer_stats,697004897686357,PAPI_L3_TCM,10, 26.12188721,  2.03952026,end
timer_stats,697004898771287,PAPI_L3_TCM,9, 26.36199951,  2.05764770,end
timer_stats,697004899854041,PAPI_L3_TCM,8, 26.58135986,  2.07507324,end
timer_stats,697004900937360,PAPI_L3_TCM,11, 26.80200195,  2.09292602,end
timer_stats,697004902020843,PAPI_L3_TCM,3, 27.04974365,  2.11079407,end
timer_stats,697004903106813,PAPI_L3_TCM,6, 27.27728271,  2.13066101,end
timer_stats,697004904191162,PAPI_L3_TCM,14, 27.53167725,  2.14735413,end
timer_stats,697004905274667,PAPI_L3_TCM,6, 27.75305176,  2.16534424,end
timer_stats,697004906357941,PAPI_L3_TCM,11, 28.21685791,  2.19973755,end
timer_stats,697004907440727,PAPI_L3_TCM,9, 28.45025635,  2.21571350,end
timer_stats,697004908525468,PAPI_L3_TCM,5, 28.69757080,  2.23316955,end
timer_stats,697004912017483,PAPI_L3_TCM,83, 29.32232666,  2.29293823,end
timer_stats,697004913108543,PAPI_L3_TCM,40, 29.49487305,  2.31025696,end
timer_stats,697004914279348,PAPI_L3_TCM,128, 29.84332275,  2.33619690,end
timer_stats,697004915365892,PAPI_L3_TCM,6, 30.18176269,  2.36288452,end
timer_stats,697004916450453,PAPI_L3_TCM,12, 30.41888428,  2.38369751,end
timer_stats,697004917535241,PAPI_L3_TCM,3, 30.65612793,  2.40028381,end
timer_stats,697004918619074,PAPI_L3_TCM,7, 30.88403320,  2.41825867,end
timer_stats,697004919704856,PAPI_L3_TCM,4, 31.12115479,  2.43556213,end
timer_stats,697004920789180,PAPI_L3_TCM,9, 31.35064697,  2.45132446,end
timer_stats,697004921874891,PAPI_L3_TCM,8, 31.57788086,  2.46775818,end
timer_stats,697004922958614,PAPI_L3_TCM,5, 31.81304932,  2.48535156,end
timer_stats,697004924021434,PAPI_L3_TCM,4, 32.03576660,  2.50367737,end
timer_stats,697004925107932,PAPI_L3_TCM,5, 32.27026367,  2.52157593,end
timer_stats,697004926190947,PAPI_L3_TCM,10, 32.50018310,  2.53845215,end
timer_stats,697004927273355,PAPI_L3_TCM,11, 32.84832764,  2.56373596,end
timer_stats,697004928364431,PAPI_L3_TCM,5, 33.08471680,  2.58172607,end
timer_stats,697004929452454,PAPI_L3_TCM,32, 33.41168213,  2.60797119,end
timer_stats,697004930534457,PAPI_L3_TCM,4, 33.64361572,  2.62422180,end
timer_stats,697004931612152,PAPI_L3_TCM,5, 33.86517334,  2.63938904,end
timer_stats,697004932690140,PAPI_L3_TCM,5, 34.06414795,  2.65536499,end
timer_stats,697004933768088,PAPI_L3_TCM,5, 34.27709961,  2.67242432,end
timer_stats,697004934845014,PAPI_L3_TCM,4, 34.49346924,  2.68817139,end
timer_stats,697004935921889,PAPI_L3_TCM,5, 34.68817139,  2.70356750,end
timer_stats,697004937000124,PAPI_L3_TCM,10, 34.89178467,  2.71925354,end
timer_stats,697004938077490,PAPI_L3_TCM,6, 35.08703613,  2.73583984,end
timer_stats,697004939153029,PAPI_L3_TCM,1, 35.28833008,  2.75198364,end
timer_stats,697004940229589,PAPI_L3_TCM,7, 35.48822021,  2.76698303,end
timer_stats,697004941307013,PAPI_L3_TCM,3, 35.76800537,  2.78947449,end
timer_stats,697004942393280,PAPI_L3_TCM,3, 35.94482422,  2.80574036,end
timer_stats,697004943469284,PAPI_L3_TCM,6, 36.23486328,  2.82708740,end
timer_stats,697004944546129,PAPI_L3_TCM,5, 36.41021729,  2.84054565,end
timer_stats,697004945621668,PAPI_L3_TCM,3, 36.58483887,  2.84713745,end
timer_stats,697004946696356,PAPI_L3_TCM,8, 36.75952148,  2.86135864,end
timer_stats,697004947772299,PAPI_L3_TCM,2, 36.92871094,  2.87719726,end
timer_stats,697004948852857,PAPI_L3_TCM,6, 37.11340332,  2.89259338,end
timer_stats,697004949933906,PAPI_L3_TCM,2, 37.27825928,  2.90675354,end
timer_stats,697004951011810,PAPI_L3_TCM,5, 37.44299316,  2.92204284,end
timer_stats,697004952089422,PAPI_L3_TCM,0, 37.61187744,  2.92881775,end
timer_stats,697004953168128,PAPI_L3_TCM,3, 37.77996826,  2.94216919,end
timer_stats,697004954245322,PAPI_L3_TCM,1, 37.92340088,  2.95660400,end
timer_stats,697004955322059,PAPI_L3_TCM,5, 38.14385986,  2.97607422,end
timer_stats,697004956400134,PAPI_L3_TCM,6, 38.38171387,  2.98857117,end
timer_stats,697004957478354,PAPI_L3_TCM,2, 38.52539062,  3.00718689,end
timer_stats,697004958556408,PAPI_L3_TCM,4, 38.66430664,  3.02011108,end
timer_stats,697004959634662,PAPI_L3_TCM,4, 38.81701660,  3.03273010,end
timer_stats,697004960713422,PAPI_L3_TCM,7, 38.95861816,  3.04586792,end
timer_stats,697004961791834,PAPI_L3_TCM,6, 39.10742187,  3.05845642,end
timer_stats,697004962868292,PAPI_L3_TCM,6, 39.25585937,  3.07263184,end
timer_stats,697004963944701,PAPI_L3_TCM,6, 39.39312744,  3.08647156,end
timer_stats,697004965023607,PAPI_L3_TCM,5, 39.53942871,  3.10055542,end
timer_stats,697004966103183,PAPI_L3_TCM,13, 39.69195557,  3.11589050,end
timer_stats,697004967180617,PAPI_L3_TCM,0, 39.82928467,  3.12826538,end
timer_stats,697004968258968,PAPI_L3_TCM,4, 39.96722412,  3.14068603,end
timer_stats,697004969338052,PAPI_L3_TCM,1, 40.17553711,  3.15940857,end
timer_stats,697004970415689,PAPI_L3_TCM,3, 40.30706787,  3.17127991,end
timer_stats,697004971493053,PAPI_L3_TCM,0, 40.50225830,  3.18977356,end
timer_stats,697004972573332,PAPI_L3_TCM,6, 40.64245605,  3.20326233,end
timer_stats,697004973654000,PAPI_L3_TCM,4, 40.76977539,  3.21562195,end
timer_stats,697004975828811,PAPI_L3_TCM,28, 41.05200195,  3.25025940,end
timer_stats,697004976915506,PAPI_L3_TCM,1, 41.18664551,  3.26243591,end
timer_stats,697004977992825,PAPI_L3_TCM,1, 41.31665039,  3.27456665,end
timer_stats,697004979069674,PAPI_L3_TCM,1, 41.45037842,  3.28701782,end
timer_stats,697004980147246,PAPI_L3_TCM,4, 41.57940674,  3.29963684,end
timer_stats,697004981225677,PAPI_L3_TCM,3, 41.71490479,  3.31384277,end
timer_stats,697004982303445,PAPI_L3_TCM,3, 41.83795166,  3.33050537,end
timer_stats,697004983380906,PAPI_L3_TCM,3, 42.03033447,  3.35177612,end
timer_stats,697004984459542,PAPI_L3_TCM,14, 42.23052979,  3.37257385,end
timer_stats,697004985538410,PAPI_L3_TCM,0, 42.35864258,  3.38487244,end
timer_stats,697004986616499,PAPI_L3_TCM,2, 42.49151611,  3.40107727,end
timer_stats,697004987694214,PAPI_L3_TCM,2, 42.62042236,  3.41609192,end
timer_stats,697004988772326,PAPI_L3_TCM,6, 42.75939941,  3.42868042,end
timer_stats,697004989850354,PAPI_L3_TCM,1, 42.88726807,  3.44259644,end
timer_stats,697004990930751,PAPI_L3_TCM,5, 43.02252197,  3.45382690,end
timer_stats,697004992024315,PAPI_L3_TCM,3, 43.14709473,  3.46592712,end
timer_stats,697004993103902,PAPI_L3_TCM,2, 43.27990723,  3.47784424,end
timer_stats,697004994181631,PAPI_L3_TCM,2, 43.40222168,  3.48965454,end
timer_stats,697004995259838,PAPI_L3_TCM,2, 43.52496338,  3.50140381,end
timer_stats,697004996339685,PAPI_L3_TCM,3, 43.70501709,  3.51817322,end
timer_stats,697004997417711,PAPI_L3_TCM,3, 43.90557861,  3.53015137,end
timer_stats,697004998495245,PAPI_L3_TCM,3, 44.03125000,  3.54769897,end
timer_stats,697004999591590,PAPI_L3_TCM,8, 44.14190674,  3.55982971,end
timer_stats,697005000687608,PAPI_L3_TCM,9, 44.26269531,  3.57157898,end
timer_stats,697005001788003,PAPI_L3_TCM,5, 44.36871338,  3.58485413,end
timer_stats,697005002885085,PAPI_L3_TCM,3, 44.48791504,  3.59764099,end
timer_stats,697005003981073,PAPI_L3_TCM,1, 44.60394287,  3.61021423,end
timer_stats,697005005094759,PAPI_L3_TCM,8, 44.71856689,  3.62117004,end
timer_stats,697005006190625,PAPI_L3_TCM,3, 44.83099365,  3.63276672,end
timer_stats,697005007287351,PAPI_L3_TCM,3, 44.94818115,  3.64492798,end
timer_stats,697005008382277,PAPI_L3_TCM,5, 45.11059570,  3.66175842,end
timer_stats,697005009481813,PAPI_L3_TCM,2, 45.28784180,  3.67817688,end
timer_stats,697005010581775,PAPI_L3_TCM,2, 45.40185547,  3.68974304,end
timer_stats,697005011679617,PAPI_L3_TCM,1, 45.51629639,  3.70135498,end
timer_stats,697005012775455,PAPI_L3_TCM,6, 45.63153076,  3.71319580,end
timer_stats,697005013878220,PAPI_L3_TCM,9, 45.74090576,  3.72412109,end
timer_stats,697005014980506,PAPI_L3_TCM,2, 45.86120605,  3.73522949,end
timer_stats,697005016088430,PAPI_L3_TCM,0, 45.96929932,  3.74690246,end
timer_stats,697005017168166,PAPI_L3_TCM,3, 46.08624268,  3.75801086,end
timer_stats,697005018268969,PAPI_L3_TCM,0, 46.19830322,  3.76951599,end
timer_stats,697005019347536,PAPI_L3_TCM,4, 46.30804443,  3.78038025,end
timer_stats,697005020445468,PAPI_L3_TCM,6, 46.53430176,  3.80265808,end
timer_stats,697005021554705,PAPI_L3_TCM,24, 46.64868164,  3.81315613,end
timer_stats,697005022660095,PAPI_L3_TCM,25, 46.76464844,  3.82426452,end
timer_stats,697005023763091,PAPI_L3_TCM,6, 46.87976074,  3.83595276,end
timer_stats,697005024862957,PAPI_L3_TCM,1, 46.99786377,  3.84956360,end
timer_stats,697005025970032,PAPI_L3_TCM,7, 47.10699463,  3.86183166,end
timer_stats,697005027078828,PAPI_L3_TCM,16, 47.22863769,  3.87545776,end
timer_stats,697005028181870,PAPI_L3_TCM,20, 47.33685303,  3.88664246,end
timer_stats,697005029264413,PAPI_L3_TCM,8, 47.45556640,  3.89865112,end
timer_stats,697005030364778,PAPI_L3_TCM,1, 47.57257080,  3.91110229,end
timer_stats,697005031475928,PAPI_L3_TCM,2, 47.80438232,  3.93356323,end
timer_stats,697005032586134,PAPI_L3_TCM,34, 47.92352295,  3.94393921,end
timer_stats,697005033675665,PAPI_L3_TCM,18, 48.03833008,  3.95581055,end
